{
    "post": "893097921515995",
    "link": "https://facebook.com/groups/470834853742306/permalink/893097921515995",
    "post_comments": [
        {
            "parent_comment": {
                "parent_user": "Minh Tiến",
                "parent_content": ""
            },
            "replies": [
                {
                    "reply_user": "Hoàng Nhật",
                    "reply_content": "Trên thả sad, dưới thả haha"
                }
            ]
        }
    ]
}