{
    "post": "912031149622672",
    "link": "https://facebook.com/groups/470834853742306/permalink/912031149622672",
    "post_comments": [
        {
            "parent_comment": {
                "parent_user": "Tinh LY",
                "parent_content": "Cho e ké với"
            },
            "replies": [
                {
                    "reply_user": "Anh Phan",
                    "reply_content": "  ok b"
                }
            ]
        },
        {
            "parent_comment": {
                "parent_user": "Phạm Nhật Nam",
                "parent_content": "Xin 1 slot vào khóc chung "
            },
            "replies": [
                {
                    "reply_user": "Minh Khôi",
                    "reply_content": " tạch kì này tiếp à"
                },
                {
                    "reply_user": "Phạm Nhật Nam",
                    "reply_content": "  không biết "
                }
            ]
        }
    ]
}