{
    "post": "881521339340320",
    "link": "https://facebook.com/groups/470834853742306/permalink/881521339340320",
    "post_comments": [
        {
            "parent_comment": {
                "parent_user": "Nhân Vũ",
                "parent_content": "quá bình thường luôn, đừng bỏ thi là dc"
            },
            "replies": [
                {
                    "reply_user": "Nhật Vương",
                    "reply_content": " em hỏi cái bỏ thi thì như thế nào nhờ? Cũng chưa bỏ thi lần nào á =)))"
                },
                {
                    "reply_user": "Nhân Vũ",
                    "reply_content": "dưới 3 ko bị trừ rèn luyện nha, bỏ thi mới bị"
                }
            ]
        },
        {
            "parent_comment": {
                "parent_user": "Liem Nguyen",
                "parent_content": "Nếu bạn hỏi được câu này thì chắc chắn là nhục nhé "
            },
            "replies": [
                {
                    "reply_user": "Nhật Vương",
                    "reply_content": " nói thế tôi cũng vẽ lại ảnh chép lại đề chớ  nhưng mà cũng nhục "
                }
            ]
        },
        {
            "parent_comment": {
                "parent_user": "Nhật Vương",
                "parent_content": "Đừng react sad nữa mn =)) cho tôi motivation bỏ giấy trắng đii =))) "
            },
            "replies": [
                {
                    "reply_user": "Dương Phước Lợi",
                    "reply_content": " t cũng bỏ mà bro"
                },
                {
                    "reply_user": "Nhật Vương",
                    "reply_content": " thôiii ông điêu lắm tin thế nào được"
                },
                {
                    "reply_user": "Dương Phước Lợi",
                    "reply_content": " kì sau gặp t là biết có bỏ hay kh liền à"
                },
                {
                    "reply_user": "Nhật Vương",
                    "reply_content": " thôi thì đăng kícùng lớp gặp nhau cho nhiều. Miss u quớ"
                },
                {
                    "reply_user": "Dương Phước Lợi",
                    "reply_content": " có đi học đâu mà gặp với kh gặp"
                },
                {
                    "reply_user": "Nhật Vương",
                    "reply_content": "Thì kì sau có học chung thì ráng đi học được chưa "
                },
                {
                    "reply_user": "Dương Phước Lợi",
                    "reply_content": " oke bạn nhá"
                },
                {
                    "reply_user": "Nhật Vương",
                    "reply_content": "Trần Quốc Phong for sure ông ui hehe"
                }
            ]
        },
        {
            "parent_comment": {
                "parent_user": "Nguyễn Ngọc Thuận An",
                "parent_content": "Cố gắng đừng bỏ thi là được"
            },
            "replies": [
                {
                    "reply_user": "Nhật Vương",
                    "reply_content": " bỏ thi thì như thế nào ạ? Trừ điểm rèn luyện phải k ạ? Tại em chưa bỏ thi bao h á"
                },
                {
                    "reply_user": "Nguyễn Ngọc Thuận An",
                    "reply_content": " bỏ thi thì cột cuối kì là 13, trừ điểm rèn luyện"
                }
            ]
        },
        {
            "parent_comment": {
                "parent_user": "Minh Tiến",
                "parent_content": "Mấy anh cho em hỏi bỏ thi thì  bị sao v ạ"
            },
            "replies": [
                {
                    "reply_user": "Minh Tiến",
                    "reply_content": "Tại em bị rớt luôn r"
                }
            ]
        },
        {
            "parent_comment": {
                "parent_user": "Huy Tran",
                "parent_content": "ghi vào cái gì đó đi, đừng bỏ giấy trắng"
            },
            "replies": [
                {
                    "reply_user": "Nhật Vương",
                    "reply_content": " tất nhiên là tóm tắt lại đề gòi "
                },
                {
                    "reply_user": "Huy Tran",
                    "reply_content": "bủh"
                }
            ]
        },
        {
            "parent_comment": {
                "parent_user": "Trần Nguyên",
                "parent_content": "Môn ko quan trọng thì bỏ thi luôn."
            },
            "replies": [
                {
                    "reply_user": "Nhật Vương",
                    "reply_content": "Với em môn nào cũng quan trọng mà quan trọng là em không học luôn á nên thôi biết làm đâu "
                }
            ]
        },
        {
            "parent_comment": {
                "parent_user": "Lâm Thiện Nhân",
                "parent_content": "Thép 1 hả "
            },
            "replies": [
                {
                    "reply_user": "Nhật Vương",
                    "reply_content": "  ừa nó đấy =))) thi 7 8 môn học hết rồi còn môn này k học =))) "
                },
                {
                    "reply_user": "Lâm Thiện Nhân",
                    "reply_content": " tao còn bỏ luôn BTL môn đó  xíu vô thi cho có để ko bị điểm 13"
                },
                {
                    "reply_user": "Nhật Vương",
                    "reply_content": "  thấy đề cũ không đem tài liệu là nohope rồi  mé chán bản thân dễ xợ’s nhưng mà vẫn bỏ môn này thui học lại"
                },
                {
                    "reply_user": "Lâm Thiện Nhân",
                    "reply_content": " xé nháp làm lại "
                }
            ]
        },
        {
            "parent_comment": {
                "parent_user": "Nhật Vương",
                "parent_content": "Xin lỗi bố mẹ cho con 900k học lại =)))))"
            },
            "replies": [
                {
                    "reply_user": "Huy Tran",
                    "reply_content": "ông ơi, đừng bỏ mòa"
                },
                {
                    "reply_user": "Nhật Vương",
                    "reply_content": "Dude môn này tôi chịu thật đấy. Thôi thì xin hẳn 1tr vậy  "
                }
            ]
        },
        {
            "parent_comment": {
                "parent_user": "Lê Đình Hiệp",
                "parent_content": "Đã từng và vừa trả xong môn đó "
            },
            "replies": [
                {
                    "reply_user": "Nhật Vương",
                    "reply_content": " kiểu quý các ông vch í làm tui có motivation bỏ giấy trắng rồi kì sau trả =)))"
                }
            ]
        },
        {
            "parent_comment": {
                "parent_user": "Minh Khôi",
                "parent_content": "Hồi đó tui có môn 0đ nè vô ghi xàm lông thôi :))) vừa trả xong ròi"
            },
            "replies": [
                {
                    "reply_user": "Nhật Vương",
                    "reply_content": " iu ông tui bỏ giấy trắng đây. Có chết cũng là 1 dân chơi"
                }
            ]
        },
        {
            "parent_comment": {
                "parent_user": "Âu Lạc Ngô",
                "parent_content": "Có gì đâu ông. Tào lao quá thì bỏ"
            },
            "replies": [
                {
                    "reply_user": "Anh Ngọc Kiều",
                    "reply_content": " giáo sư có khác  "
                },
                {
                    "reply_user": "Âu Lạc Ngô",
                    "reply_content": "  tạch nhiều riết quen "
                }
            ]
        },
        {
            "parent_comment": {
                "parent_user": "Võ Công Nguyên",
                "parent_content": "hồi noel mình vẽ cây thông kèm lời chúc cho nó lịch sự"
            },
            "replies": [
                {
                    "reply_user": "Nhật Vương",
                    "reply_content": " opps shit thế mình về con trâu với cả happy newyear là y bài luôn =))))"
                },
                {
                    "reply_user": "Võ Công Nguyên",
                    "reply_content": "ừa v thôi, rớt thì học lại có j phải sợ :))))"
                }
            ]
        },
        {
            "parent_comment": {
                "parent_user": "Đặng Vũ",
                "parent_content": "\"Thi không biết làm thì bỏ giấy trắng đi cho nó lịch sự\". Thầy Thiện said "
            },
            "replies": [
                {
                    "reply_user": "Nhật Vương",
                    "reply_content": " được được"
                }
            ]
        },
        {
            "parent_comment": {
                "parent_user": "Minh Tiến",
                "parent_content": "Em xác định rớt môn r v bỏ thi có bị sao k mọi người"
            },
            "replies": [
                {
                    "reply_user": "Nhật Vương",
                    "reply_content": " đi thi đi 0 điểm còn hơn 13 đấy"
                },
                {
                    "reply_user": "Minh Tiến",
                    "reply_content": " em năm 1 k hiểu anh phổ cập rõ giúp em ti dc k"
                },
                {
                    "reply_user": "Nhật Vương",
                    "reply_content": " nói chung là đi thi bỏ giấy trắng đóng tiền học lại thôi còn bỏ thi điểm 13 thì vừa đóng tiền học lại vừa trừ điểm rèn luyện á chắc thế"
                }
            ]
        }
    ]
}