{
    "post": "900896897402764",
    "link": "https://facebook.com/groups/470834853742306/permalink/900896897402764",
    "post_comments": [
        {
            "parent_comment": {
                "parent_user": "Nhân Vũ",
                "parent_content": "tụi mình học ở dĩ an - bình dương cơ :))"
            },
            "replies": [
                {
                    "reply_user": "Nguyễn Tú Minh",
                    "reply_content": " nhma tuyến xe buýt thì đi tùm lum nên chắc trg cũng phải cho nghỉ à "
                }
            ]
        },
        {
            "parent_comment": {
                "parent_user": "Melon Coco",
                "parent_content": "kỳ 192 mình học TNVL online đây , thầy up tài liệu + video hướng dẫn lên , khỏi coi cũng được , vì khi nào học trực tiếp mới thí nghiệm , viết báo cáo tính điểm , chứ suốt gần 4 tháng ( 2/2020 - giữa 5/2020 ) hầu hết chả ai  thèm đụng tới tài liệu hay video luôn , lúc thi hầu hết toàn 6,7,8 ít ai rớt lắm"
            },
            "replies": [
                {
                    "reply_user": "Nguyễn Tú Minh",
                    "reply_content": " tnvl thi gki là tại lớp hay chia phòng ạ"
                },
                {
                    "reply_user": "Melon Coco",
                    "reply_content": "  mỗi tuần học tại lớp để thí nghiệm + viết báo cáo ( cột điểm 50% ) , không có thi GK , tới cuối kỳ thì học hết nội dung các tuần đã làm thí nghiệm để thi thôi ( 50 % còn lại ) ,nên có học online thì cứ bỏ luôn khỏi học chi tốn công"
                }
            ]
        }
    ]
}