{
    "post": "923041331854987",
    "link": "https://facebook.com/groups/470834853742306/permalink/923041331854987",
    "post_comments": [
        {
            "parent_comment": {
                "parent_user": "Quang Nguyễn",
                "parent_content": "Ải có danh sách học vụ rồi hả bann"
            },
            "replies": [
                {
                    "reply_user": "Thắm Phan",
                    "reply_content": " anh ơi cho mình bị cảnh cáo học vụ lần 1 có phải ghi đơn này không ạ,  em k20"
                },
                {
                    "reply_user": "Quang Nguyễn",
                    "reply_content": " lần 1 thì k nha e. Khi nào lần 3 bị buộc thôi học theo quy chế thì mới cần nha, cố gắng lên e, k sao đâu e"
                },
                {
                    "reply_user": "Thắm Phan",
                    "reply_content": " dạ em cảm ơn anh nhiều ạ"
                }
            ]
        },
        {
            "parent_comment": {
                "parent_user": "Đỗ Tuấn",
                "parent_content": "Kính gửi Bán Giám HiệuPhòng Đào tạoBan Chủ nhiệm Khoa X"
            },
            "replies": [
                {
                    "reply_user": "Đỗ Tuấn",
                    "reply_content": " chỗ kính đề nghị đổi thành kính xin"
                }
            ]
        },
        {
            "parent_comment": {
                "parent_user": "Thắm Phan",
                "parent_content": "Mn cho mình hỏi,  bị cchv lần 1 có phải ghi đơn này không vậy :<"
            },
            "replies": [
                {
                    "reply_user": "Nguyễn Tiến Đạt",
                    "reply_content": " cc lần 3 thôi. Lần 1 2 chưa cần"
                },
                {
                    "reply_user": "Thắm Phan",
                    "reply_content": " mình cảm ơn bạn nha"
                },
                {
                    "reply_user": "Nguyễn Tiến Đạt",
                    "reply_content": "Nguyễn Quân mybk > thông tin sv > tình trạng sv"
                }
            ]
        }
    ]
}