{
    "post": "917856249040162",
    "link": "https://facebook.com/groups/470834853742306/permalink/917856249040162",
    "post_comments": [
        {
            "parent_comment": {
                "parent_user": "Minh Khôi",
                "parent_content": "Kì nào chả có mà lo gì"
            },
            "replies": [
                {
                    "reply_user": "Lê Khắc Nhật Hiếu",
                    "reply_content": "nhưng kì này đk đông lắm"
                },
                {
                    "reply_user": "Minh Khôi",
                    "reply_content": " không thì hè học ông êii , hè kiểu nào chả mở"
                },
                {
                    "reply_user": "Lê Khắc Nhật Hiếu",
                    "reply_content": "thật ak"
                },
                {
                    "reply_user": "Minh Khôi",
                    "reply_content": " ừa ông môn này kì nào chả mở"
                },
                {
                    "reply_user": "Lê Khắc Nhật Hiếu",
                    "reply_content": "do kì này tui dk 21 chỉ 8 môn sợ không qua hết được nên ko học dự thính"
                }
            ]
        }
    ]
}