{
    "post": "872045573621230",
    "link": "https://facebook.com/groups/470834853742306/permalink/872045573621230",
    "post_comments": [
        {
            "parent_comment": {
                "parent_user": "Phúc Đạt Nguyễn",
                "parent_content": "hmm nếu như thật sự hết phòng rồi thì chắc no hope thôi b "
            },
            "replies": [
                {
                    "reply_user": "Nguyễn Khải",
                    "reply_content": " ko hiểu sao hete phòng được luôn,chẳng lẽ năm may đám.Oisp tăng đột biến"
                }
            ]
        }
    ]
}