{
    "post": "916425459183241",
    "link": "https://facebook.com/groups/470834853742306/permalink/916425459183241",
    "post_comments": [
        {
            "parent_comment": {
                "parent_user": "Lê Thiện",
                "parent_content": "Hồi mình học HK 191 thì không."
            },
            "replies": [
                {
                    "reply_user": "Phú Trường",
                    "reply_content": " cảm ơn bạn"
                }
            ]
        }
    ]
}