{
    "post": "915945159231271",
    "link": "https://facebook.com/groups/470834853742306/permalink/915945159231271",
    "post_comments": [
        {
            "parent_comment": {
                "parent_user": "Ngô Vĩnh Lợi",
                "parent_content": "Đâu cần ghi lí do đâu bnaj"
            },
            "replies": [
                {
                    "reply_user": "Phạm Nga",
                    "reply_content": "Cho mình hỏi ngày KT là gì vậy bạn "
                },
                {
                    "reply_user": "Ngô Vĩnh Lợi",
                    "reply_content": " ko cần điền đâu "
                }
            ]
        }
    ]
}