{
    "post": "786618688952750",
    "link": "https://facebook.com/groups/307960726818551/permalink/786618688952750",
    "post_comments": [
        {
            "parent_comment": {
                "parent_user": "Sun Sun",
                "parent_content": "ib với mink đi sis "
            },
            "replies": [
                {
                    "reply_user": "Thanh Thảo",
                    "reply_content": " bạn ib với mình rồi hãy kể cho mình biết câu chuyện của bạn nhé  "
                },
                {
                    "reply_user": "Sun Sun",
                    "reply_content": " mình ib r nhak"
                }
            ]
        },
        {
            "parent_comment": {
                "parent_user": "Đoàn Xuân Kiều",
                "parent_content": "ib với mình nha "
            },
            "replies": [
                {
                    "reply_user": "Thanh Thảo",
                    "reply_content": " bạn vào ib mình nhée"
                },
                {
                    "reply_user": "Đoàn Xuân Kiều",
                    "reply_content": " ok"
                }
            ]
        }
    ]
}