{
    "post": "771520963795856",
    "link": "https://facebook.com/groups/307960726818551/permalink/771520963795856",
    "post_comments": [
        {
            "parent_comment": {
                "parent_user": "Nguyen Minh Tien",
                "parent_content": "lớn + làm ra tiền mới có tiếng nói..cho dù ở đâu!"
            },
            "replies": [
                {
                    "reply_user": "Uyên Nguyễn",
                    "reply_content": " vâng em cảm ơn ạ"
                }
            ]
        },
        {
            "parent_comment": {
                "parent_user": "Nguyễn Đình Quang",
                "parent_content": "Là do em chưa đủ lớn thôi với lại tùy gia đình em ạ .Em lớn lên r sẽ được tôn trọng còn nếu vẫn k đưỡ tôn trọng thì em phải có thái độ gay gắt lên"
            },
            "replies": [
                {
                    "reply_user": "Uyên Nguyễn",
                    "reply_content": " vâng em cảm ơn anh ạ"
                }
            ]
        },
        {
            "parent_comment": {
                "parent_user": "Nhật Hạ",
                "parent_content": "Ở cái độ tuổi đang lớn thực sự rất cần được lắng nghe và tôn trọng lời nói của mình ấy. Nếu không thể thì chỉ còn cách tìm 1 người đáng tin cậy để chia sẻ  "
            },
            "replies": [
                {
                    "reply_user": "Uyên Nguyễn",
                    "reply_content": " dạ em cảm ơn ạ"
                }
            ]
        }
    ]
}