{
    "post": "783115645969721",
    "link": "https://facebook.com/groups/307960726818551/permalink/783115645969721",
    "post_comments": [
        {
            "parent_comment": {
                "parent_user": "Dĩ Khang",
                "parent_content": "Quần xilip đôi chẳng hạn"
            },
            "replies": [
                {
                    "reply_user": "Thùy Chi",
                    "reply_content": " Điển hình :))"
                }
            ]
        },
        {
            "parent_comment": {
                "parent_user": "Ngọc",
                "parent_content": "Bạn có thể tặng đồ handmade, mình có làm bé len chọc này tặng ny, làm cũng vui vui mà chọc đừng vui quá kẻo vào tay nhớ, đồ tự mình làm có thể tiết kiệm hơn khi ngân sách eo hẹp và cũng có ý nghĩa hơn khi bạn làm bằng cả máu, mồ hôi, nước mắt "
            },
            "replies": [
                {
                    "reply_user": "Phanh Phanh",
                    "reply_content": " huhuu,xinh qué=))sis chi em vớiiii"
                },
                {
                    "reply_user": "Ngọc",
                    "reply_content": " mình đặt mua bộ làm trêm shoppee, chưa đến 100k cả tiền ship khi mua bộ đủ cả kim làm (cái này còn phụ thuộc vào khoảng cách của bạn, bạn có thể xem) trong đó có cả tờ hướng dẫn ấy ạ, nếu bạn muốn làm bạn có thể hỏi mình mình sẵn sàng giúp … See More"
                },
                {
                    "reply_user": "Phanh Phanh",
                    "reply_content": " em cảm ơn ạ "
                }
            ]
        },
        {
            "parent_comment": {
                "parent_user": "Bảo Ngọc",
                "parent_content": "bạn mua nhẫn cặp í 240k 1 cặp mình đang đặt nè đẹp lắm í"
            },
            "replies": [
                {
                    "reply_user": "Thanh Ngaan",
                    "reply_content": " b gợi ý giùm mình chỗ đặt được 0 ạ"
                },
                {
                    "reply_user": "Bảo Ngọc",
                    "reply_content": "Thanh Ngan  bạn ib mình được hok mình chỉ cho bạn "
                }
            ]
        },
        {
            "parent_comment": {
                "parent_user": "Thúy Ngọc Minh",
                "parent_content": "Tặng giày, áo đôi hoặc vuốt tóc nước hoa"
            },
            "replies": [
                {
                    "reply_user": "Lee Thảo",
                    "reply_content": "  nghe bảo tặng giày xa nhau mà"
                }
            ]
        },
        {
            "parent_comment": {
                "parent_user": "Thanh Thảo",
                "parent_content": "son hồng cánh sen như thằng người yêu mình z "
            },
            "replies": [
                {
                    "reply_user": "Thu Ngân",
                    "reply_content": " đao lòng thay"
                }
            ]
        },
        {
            "parent_comment": {
                "parent_user": "Ngân Kim",
                "parent_content": "Có  thể  chọn  mấy  cái  túi  này  nè"
            },
            "replies": [
                {
                    "reply_user": "Bùi Thị Hồng Ngọc",
                    "reply_content": " tặng con trai mà "
                },
                {
                    "reply_user": "Ngân Kim",
                    "reply_content": "  tặng  màu  khác  là  đc cái  này  dùng  đc cả  trai lẫn gái  các  bạn  có  thể  làm  đồ  đôi  đc luôn"
                }
            ]
        },
        {
            "parent_comment": {
                "parent_user": "Dương Minh",
                "parent_content": "tặng giày :))) "
            },
            "replies": [
                {
                    "reply_user": "Peach Blue",
                    "reply_content": " tặng giày chia tay đó banh =)))"
                }
            ]
        },
        {
            "parent_comment": {
                "parent_user": "Như Quỳnh",
                "parent_content": "Có cái này ý nghĩa hong biết bạn làm được hong. Sinh nhật ông đó bạn lên chỗ ổng luôn rồi cầm bánh kem làm ổng bất ngờ tại thường nghe mấy bạn có bồ muốn đón sinh nhật cùng bồ."
            },
            "replies": [
                {
                    "reply_user": "Đỗ Trần Hoàng Minh",
                    "reply_content": ""
                }
            ]
        },
        {
            "parent_comment": {
                "parent_user": "Đỗ Trần Hoàng Minh",
                "parent_content": "Mấy thím bảo cái ôm hay cái hôn thấy ích kỉ không khi các cô yêu chúng tôi muốn quà này quà kia đến lúc tặng quà thì bảo tặng nụ hôn. Con trai chúng tôi cũng thích đc tặng quà lắm chứ một món quà ý nghĩa kèm hôn sẽ ý nghĩa hơn 1 nụ hôn"
            },
            "replies": [
                {
                    "reply_user": "Thảo Anh",
                    "reply_content": "Hoàng Gucci ctrai thích được tặng gì vậy ạ :(("
                },
                {
                    "reply_user": "Đỗ Trần Hoàng Minh",
                    "reply_content": " Chơi thể thao thì thích giày Hay dạo phố thì áo quần nhé Tùy vào sở thích của mỗi người th. Mà chung chung  là tặng vật dụng thể thao hay áo quần là được con trai không đòi hỏi lắm "
                }
            ]
        },
        {
            "parent_comment": {
                "parent_user": "Hương Trà",
                "parent_content": "Tặng sừng ấy "
            },
            "replies": [
                {
                    "reply_user": "Thanh Ngaan",
                    "reply_content": " tẹi seo vẹi"
                },
                {
                    "reply_user": "Hương Trà",
                    "reply_content": "Thanh Ngan cho nhớ đời"
                }
            ]
        },
        {
            "parent_comment": {
                "parent_user": "Triệu",
                "parent_content": "Một cái ôm và hôn là đủ"
            },
            "replies": [
                {
                    "reply_user": "Thanh Ngaan",
                    "reply_content": " yeu xa yeye"
                },
                {
                    "reply_user": "Triệu",
                    "reply_content": "Thanh Ngan  book vé máy bay về nhà ny cũng là quà bất ngờ đấy :))"
                }
            ]
        },
        {
            "parent_comment": {
                "parent_user": "Đình Thành",
                "parent_content": "Tặng cho nó cái bụng bầu là được ko thì cho cái que thử thai 2 vạch :))"
            },
            "replies": [
                {
                    "reply_user": "Thanh Ngaan",
                    "reply_content": " ác thé mn"
                }
            ]
        },
        {
            "parent_comment": {
                "parent_user": "Thảo Như",
                "parent_content": "Thanh Ni chó theee"
            },
            "replies": [
                {
                    "reply_user": "Thanh Ngaan",
                    "reply_content": " yeu di tang cho"
                }
            ]
        },
        {
            "parent_comment": {
                "parent_user": "Nguyễn Thùy Trang",
                "parent_content": "Khong lien quan lắm nhưng cho em xin app chụp có sticker giống avt của chị được k ạ ^^"
            },
            "replies": [
                {
                    "reply_user": "Thanh Ngaan",
                    "reply_content": " snapchat ạ "
                }
            ]
        },
        {
            "parent_comment": {
                "parent_user": "Nguyễn Vui",
                "parent_content": "một cái hôn "
            },
            "replies": [
                {
                    "reply_user": "Thanh Ngaan",
                    "reply_content": " hon qua man hinh "
                }
            ]
        }
    ]
}