{
    "post": "793326441615308",
    "link": "https://facebook.com/groups/307960726818551/permalink/793326441615308",
    "post_comments": [
        {
            "parent_comment": {
                "parent_user": "Chou Chou",
                "parent_content": "Hơi kì:))) thiệc hả:)"
            },
            "replies": [
                {
                    "reply_user": "Chiêu Ngọc",
                    "reply_content": "  chuyện thiệt 100%"
                }
            ]
        }
    ]
}