{
    "post": "821180345116574",
    "link": "https://facebook.com/groups/821166098451332/permalink/821180345116574",
    "post_comments": [
        {
            "parent_comment": {
                "parent_user": "Lee Hienn Thao",
                "parent_content": "ad duyệt bài em đi.!"
            },
            "replies": [
                {
                    "reply_user": "ʚAnh Nhiɞ",
                    "reply_content": " khong pp"
                },
                {
                    "reply_user": "Lee Hienn Thao",
                    "reply_content": " sao nó đéo duyệt vậy ta "
                },
                {
                    "reply_user": "ʚAnh Nhiɞ",
                    "reply_content": " tại mày nghiệp chứ tao khong có up tuss nên khong biet hyhy"
                },
                {
                    "reply_user": "Lee Hienn Thao",
                    "reply_content": " nên đánh sập trang này hông ta khỏi cần duyệt nữa ?"
                },
                {
                    "reply_user": "ʚAnh Nhiɞ",
                    "reply_content": " Tôm hắc ku tha"
                },
                {
                    "reply_user": "Lee Hienn Thao",
                    "reply_content": " mõm thôi. "
                }
            ]
        }
    ]
}