{
    "post": "996813297517832",
    "link": "https://facebook.com/groups/371004360098732/permalink/996813297517832",
    "post_comments": [
        {
            "parent_comment": {
                "parent_user": "Lê Phước Quang Thanh",
                "parent_content": "Còn tôi thì được mời và tự out group luôn vì tính tôi ko hợp là ko tiếp xúc dù trong hay ngoài gia đình. Và tôi ko quan tâm người khác nghĩ gì về mình cứ sống tự do hạnh phúc ko làm hại ai nếu có thể thì giúp vậy thôi."
            },
            "replies": [
                {
                    "reply_user": "Thu Nga Nguyen",
                    "reply_content": " : thực ra trước đây t kiểu thế nào cũng OK ý, thì ko có vấn đề j về hợp hay ko hợp. N lần này t thấy ko ổn, đến khi đưa ra ý kiến mới hiểu là hoá ra từ trước đến giờ thực chất là một người hoặc 1 nhóm người muốn làm và muốn mọi người ủng hộ chứ ko hề bình đẳng tí nào ý. Kiểu chỉ muốn m góp mà ko muốn m ý kiến ý. Hôm đấy có hơi shoc vì hiểu ra bản chất tí thôi. Hôm nay đỡ N r "
                },
                {
                    "reply_user": "Lê Phước Quang Thanh",
                    "reply_content": " Cái này là bản chất của xã hội con người muốn lôi kéo sự ảnh hưởng tạo ra phe cánh để khi ra quyết định sẽ có lợi hoặc như họ muốn. Sự bình đẵng thật sự khó mà có được. Cứ sống làm sao thấy hạnh phúc và bình an nội tâm là được rồi."
                },
                {
                    "reply_user": "Thu Nga Nguyen",
                    "reply_content": " : dù sao họ cũng ko nuôi m nên OK ko chơi nữa thôi. Họ còn chẳng phải sếp của m, xong kiểu dựa vào việc làm cho người đã khuất để tự nâng tầm m lên hơn với người khác ý. Đúng là buồn cười . Họ muốn m góp sức góp tiền, n lại còn muốn ra lệnh cho m và ko cho m ý kiến, tài thật! "
                },
                {
                    "reply_user": "Lê Phước Quang Thanh",
                    "reply_content": " Có hai lựa chọn cho bạn một là nâng quyền lực của mình lên bằng tiền bạc hoặc tài năng gì đó giúp cho người khác để làm Leader của nhóm. Hai là cứ làm tốt việc của mình và mặc kệ những gì người ta nghĩ về mình."
                },
                {
                    "reply_user": "Thu Nga Nguyen",
                    "reply_content": " : tôi cũng chẳng có nhu cầu làm leader, t sống cs của t thôi. Chỉ có điều trước m thoải mái, ai bảo sao cũng đc, giờ thì ... đỡ phiền hơn r "
                }
            ]
        },
        {
            "parent_comment": {
                "parent_user": "Huy Đồng",
                "parent_content": "Lựa thôi chị, cố làm sao cho tròn chữ hiếu thôi. Người đã khuất khắc chứng giám mà.Còn chuyện vai vế trong nhà thì vô lý lắm. Nhà ngoại em theo mẹ em kể thì em của ông ngoại đểu lắm, đám của ông chỉ đạo này nọ, ông mất xong đến nhà gạ gẫm bà (bà ngoại thì dại hơn ông nhiều) nhưng con ông, nói thẳng là đ quan tâm, ông sống sao, nhà như nào thì đám cứ ngữ đó mà làm"
            },
            "replies": [
                {
                    "reply_user": "Thu Nga Nguyen",
                    "reply_content": " : Uhm em, m làm theo cách của m là được. Đâu phải cứ hùa theo đám đông mới là đúng đâu e nhỉ "
                },
                {
                    "reply_user": "Huy Đồng",
                    "reply_content": "Làm theo cách của mình nhưng mà vẫn phải đúng những cái cơ bản á chị: tang thì trước hết là cứ làm sao cho đúng với người đã khuất, xong đến người nội trong nhà. Xa hơn thì tính sau.Nhà e thì quyền quyết là của con cái chứ ông chú bà dì thì k có đâu"
                },
                {
                    "reply_user": "Thu Nga Nguyen",
                    "reply_content": " : à ko, ko phải tang, tổ chức kỷ niệm sn 95 năm cho bà ngoại đã mất của c thôi. Bọn chị là lớp cháu. N chị thấy thời điểm này chưa hợp lý "
                }
            ]
        }
    ]
}