{
    "post": "998374087361753",
    "link": "https://facebook.com/groups/371004360098732/permalink/998374087361753",
    "post_comments": [
        {
            "parent_comment": {
                "parent_user": "Nguyen Hai Ha",
                "parent_content": "Hmmm Chết ở chỗ là \" ngày đêm suy nghĩ \" ấy Đừng nghĩ làm gì Trong 1 mối quan hệ mà luôn phải suy nghĩ, luôn lo lắng, luôn bất an, luôn không vui thì nên kết thúc "
            },
            "replies": [
                {
                    "reply_user": "Nữ Hán Tử",
                    "reply_content": " khả năng bản thân mình luôn rảnh rỗi nên nghĩ nhiều tiêu cực hả b??"
                },
                {
                    "reply_user": "Nguyen Hai Ha",
                    "reply_content": "  đúng r đấy bạn ơi Có những chuyện thật ra rất nhỏ và bình thường. Bản thân mình cũng có thể khiến nó trở nên nghiêm trọng. "
                },
                {
                    "reply_user": "Nữ Hán Tử",
                    "reply_content": " t cần dc khai sáng ra một điều tích cực thay vì ngày đêm lo sợ ng ta bỏ mình.:((( làm sao t thoái ra khỏi dc hả b??"
                }
            ]
        }
    ]
}