{
    "post": "901832170582199",
    "link": "https://facebook.com/groups/386973545401400/permalink/901832170582199",
    "post_comments": [
        {
            "parent_comment": {
                "parent_user": "Trần Bích Ngọc",
                "parent_content": "Thúy Thuý"
            },
            "replies": [
                {
                    "reply_user": "Thúy Thuý",
                    "reply_content": " vì cô ấy ngộ nhận đó là tình yêu, cô ấy đã phân rõ giới hạn rạch ròi ra rồi nhưng cô ấy đã hiểu nhầm sự quan tâm kia là ty nên mới có sự hụt hẫng như vậy. Chứ nếu đã phân biệt rạch ròi tình bạn và tình yêu ngay từ đầu thì đã khác "
                },
                {
                    "reply_user": "Trần Bích Ngọc",
                    "reply_content": "  mập mờ hay rõ ràng, đến cuối cùng thì điều gì là cần thiết?"
                },
                {
                    "reply_user": "Thúy Thuý",
                    "reply_content": " sự tôn trọng ^^"
                },
                {
                    "reply_user": "Trần Bích Ngọc",
                    "reply_content": "  1 người đàn ông hiểu biết thì sẽ luôn biết tôn trọng phụ nữ. Nhưng việc ngta chọn mập mờ hay rõ ràng thì nó lại khác. "
                }
            ]
        }
    ]
}