{
    "post": "5121624911242508",
    "link": "https://facebook.com/groups/355450361193344/permalink/5121624911242508",
    "post_comments": [
        {
            "parent_comment": {
                "parent_user": "Lê Thảo",
                "parent_content": " Thím có ngon ko? Ngon thì húp vội. Còn k ngon thì tôi chưa biết. "
            },
            "replies": [
                {
                    "reply_user": "Minh Minh Lê",
                    "reply_content": " hơi lépm"
                }
            ]
        },
        {
            "parent_comment": {
                "parent_user": "Lê Minh Châu",
                "parent_content": "nó là con trai đấy"
            },
            "replies": [
                {
                    "reply_user": "Minh Minh Lê",
                    "reply_content": " tôi gọi nc r bác."
                }
            ]
        },
        {
            "parent_comment": {
                "parent_user": "Xì Gà",
                "parent_content": "Nạp card cho ẻm nhiều chưa "
            },
            "replies": [
                {
                    "reply_user": "Minh Minh Lê",
                    "reply_content": " ko cần gì luôn."
                }
            ]
        },
        {
            "parent_comment": {
                "parent_user": "Nguyễn Thị Ngọc Thương",
                "parent_content": "Call video chưa? Nếu chưa thì có khi người ta tự ti á ông"
            },
            "replies": [
                {
                    "reply_user": "Sơn Văn Nguyễn",
                    "reply_content": " chính xác."
                }
            ]
        },
        {
            "parent_comment": {
                "parent_user": "Hào Nguyễn",
                "parent_content": "Bạn âý có cu nhé"
            },
            "replies": [
                {
                    "reply_user": "Bảo Sơn",
                    "reply_content": "Và có thể cu bạn đó còn dài hơn bạn đó"
                }
            ]
        },
        {
            "parent_comment": {
                "parent_user": "Nguyễn Xuân Hoà",
                "parent_content": "Call chưa a ơi"
            },
            "replies": [
                {
                    "reply_user": "Minh Minh Lê",
                    "reply_content": " call thường thôi ạ"
                }
            ]
        },
        {
            "parent_comment": {
                "parent_user": "Ly Hương Nguyên",
                "parent_content": "úi gửi bác"
            },
            "replies": [
                {
                    "reply_user": "Minh Minh Lê",
                    "reply_content": " oki bác."
                }
            ]
        },
        {
            "parent_comment": {
                "parent_user": "Tuấn Thi",
                "parent_content": "Phía sau màn hình là 1 cô congchuachymto  ngày xưa rảnh t cũng hay làm mấy trò này lắm. Cứ đòi tặng quà suốt cơ "
            },
            "replies": [
                {
                    "reply_user": "Nguyễn Huy Hoàng",
                    "reply_content": " đm thế nghiệp lắm thím"
                },
                {
                    "reply_user": "Tuấn Thi",
                    "reply_content": " nhưng mà e k nhận vì e k muốn ngta mất niềm tin vào cuộc sống. À mà thực ra là đồ con gái e k dùng đc thím ạ "
                }
            ]
        },
        {
            "parent_comment": {
                "parent_user": "Anh Thu",
                "parent_content": "Tôi nghĩ là tự ti thôi, cứ nc thêm 1 thời gian nữa đi thím. Người ta thích thì người ta mới dành thời gian nói chuyện chứ, cứ từ từ thui"
            },
            "replies": [
                {
                    "reply_user": "Minh Minh Lê",
                    "reply_content": " đợt ngta về quê tôi mà tôi lại tự ti không hẹn bác ạ, đợt đấy đang hăng lắm.Nhưng e thấy bạn ý có chút tự ti thật."
                }
            ]
        },
        {
            "parent_comment": {
                "parent_user": "Camellia Camellia",
                "parent_content": "như tôi này, 1 ngày ất ơ ngửa đầu xuống gầm giường thì nhận được lời mời kb từ em, chưa thấy mặt, nói chuyện vài hôm em hẹn gặp ở Hồ Gươm đúng hôm tôi sinh nhật và em tặng quà "
            },
            "replies": [
                {
                    "reply_user": "Phạm Thị Nhi",
                    "reply_content": " klq nhưng thím có kết bạn với 1 cái acc clone của em, thấy bác cmt dạo nhiều vl thảo nào thấy quen quen "
                },
                {
                    "reply_user": "Camellia Camellia",
                    "reply_content": " Thỏ Con hả?"
                },
                {
                    "reply_user": "Phạm Thị Nhi",
                    "reply_content": " thỏ con nào thế "
                },
                {
                    "reply_user": "Camellia Camellia",
                    "reply_content": " kaka, tôi cho phép thím gửi lời mời kb tới tôi đó."
                }
            ]
        },
        {
            "parent_comment": {
                "parent_user": "Minh Minh",
                "parent_content": "Thực ra ngta ngại á, sợ ông hi vọng xong cái gặp bạn thì hong đc như mong đợi nên kh dám gặp thuii"
            },
            "replies": [
                {
                    "reply_user": "Minh Minh Lê",
                    "reply_content": " thì tôi cũng có đẹp gì đâu."
                },
                {
                    "reply_user": "Minh Minh",
                    "reply_content": "  biết là vậy nhưng cgai hay tự ti ạ"
                },
                {
                    "reply_user": "Minh Minh Lê",
                    "reply_content": "Đây bác , tôi còn kb fb thật mà, bạn ý thường sợ k cho tôi call video."
                }
            ]
        },
        {
            "parent_comment": {
                "parent_user": "Nguyễn Phương Thi",
                "parent_content": "Ủa đọc tới khúc :\"bot hẹn hò\" tưởng quen một bạn thụ dễ thương nào đó. Vô đọc cmt toàn thấy mấy ông bảo:\"cong chua buoi to\" xong lại còn đấu kiếm này nọ. Vậy là ông quen bánh bèo hay bánh chuối??"
            },
            "replies": [
                {
                    "reply_user": "Minh Minh Lê",
                    "reply_content": " tôi có hẳn fb thật luôn bác, đấu kiếm sao đc."
                }
            ]
        },
        {
            "parent_comment": {
                "parent_user": "Ngan Ngan",
                "parent_content": "Khánh Lê Nam "
            },
            "replies": [
                {
                    "reply_user": "Khánh Lê Nam",
                    "reply_content": "  hẹn gặp bạn ei"
                },
                {
                    "reply_user": "Ngan Ngan",
                    "reply_content": " koy trừng cú có gai nka pạn iu"
                },
                {
                    "reply_user": "Khánh Lê Nam",
                    "reply_content": "Bận hoài nha bạn "
                },
                {
                    "reply_user": "Ngan Ngan",
                    "reply_content": " bạn đó đợi bạn nam đi trekking á "
                },
                {
                    "reply_user": "Khánh Lê Nam",
                    "reply_content": "Bạn nào đi trekking hay dữ "
                },
                {
                    "reply_user": "Ngan Ngan",
                    "reply_content": " bởi vậy nên bạn nữ tranh thủ kiếm thêm mấy anh khác trên bot "
                },
                {
                    "reply_user": "Khánh Lê Nam",
                    "reply_content": "Bot hư rồi ko kiếm dc nữa "
                },
                {
                    "reply_user": "Ngan Ngan",
                    "reply_content": "  quẹt tinder "
                }
            ]
        },
        {
            "parent_comment": {
                "parent_user": "Huỳnh Thị Quế Trâm",
                "parent_content": "Tại tự ti đó tr, sợ ông thất vọng khi thấy được khuôn mặt thật 0 đẹp như trên facebook"
            },
            "replies": [
                {
                    "reply_user": "Minh Minh Lê",
                    "reply_content": "Đây bác, thì tôi cũng có đẹp hơn ai đâu."
                }
            ]
        },
        {
            "parent_comment": {
                "parent_user": "Ngọc Ánh",
                "parent_content": "Chắc kiểu ngại, không tự tin ý :>>"
            },
            "replies": [
                {
                    "reply_user": "Minh Minh Lê",
                    "reply_content": "Em cũng kb sao nữa."
                }
            ]
        },
        {
            "parent_comment": {
                "parent_user": "Phạm Thị Nhi",
                "parent_content": "Bạn đó bị tự ti đó, tui mà gặp ai là cũng bị tự ti vì ảnh t chụp ảnh ảo vl huhu"
            },
            "replies": [
                {
                    "reply_user": "Minh Minh Lê",
                    "reply_content": "Là nthe à bác "
                },
                {
                    "reply_user": "Phạm Thị Nhi",
                    "reply_content": " kiểu vậy đó, chắc chắn bạn nữ tự ti nhé. Cứ nói chuyện vui vẻ để bạn ấy mạnh dạn hơn, dù sao cũng chúc hai thím happy ending nhé, cố lênn "
                },
                {
                    "reply_user": "Minh Minh Lê",
                    "reply_content": " cảm ơn bác nhé "
                }
            ]
        },
        {
            "parent_comment": {
                "parent_user": "Nguyễn Thanh Hoà",
                "parent_content": "Có chắc bạn ý thích k? "
            },
            "replies": [
                {
                    "reply_user": "Minh Minh Lê",
                    "reply_content": " thôi thì nhờ bác đoán ý hộ."
                },
                {
                    "reply_user": "Nguyễn Thanh Hoà",
                    "reply_content": " đâu có biểu hiện gì là thích đâu? "
                },
                {
                    "reply_user": "Minh Minh Lê",
                    "reply_content": " @@ thaks bác."
                }
            ]
        },
        {
            "parent_comment": {
                "parent_user": "Hà Tiến Quân",
                "parent_content": "Nó là gái có cu."
            },
            "replies": [
                {
                    "reply_user": "Lê Việt",
                    "reply_content": " :)) nhiều thằng ngây thơ thật :)) yêu vào lú ;)))"
                },
                {
                    "reply_user": "Hà Tiến Quân",
                    "reply_content": "  chiếu mới mà em :))))"
                }
            ]
        }
    ]
}