{
    "post": "5089692157769117",
    "link": "https://facebook.com/groups/355450361193344/permalink/5089692157769117",
    "post_comments": [
        {
            "parent_comment": {
                "parent_user": "Thị Mèo",
                "parent_content": "Mua cuff DW đi bác  sale off 50% nè"
            },
            "replies": [
                {
                    "reply_user": "Phan Trinh",
                    "reply_content": " đẹp nhỉ mà không có ai tặng mình "
                }
            ]
        },
        {
            "parent_comment": {
                "parent_user": "Hoàng Mạnh Đức",
                "parent_content": "700k mỹ phẩm, 100k nhà nghỉ, 50k bcs, còn lại dằn túi"
            },
            "replies": [
                {
                    "reply_user": "Nguyễn Thị Thu Hường",
                    "reply_content": " k đi ăn à bạn?"
                }
            ]
        },
        {
            "parent_comment": {
                "parent_user": "Nguyễn Anh Tuấn",
                "parent_content": "mua chai nước hoa mini tầm 3-5l bác ơi, em bán nè, còn lại đi ăn là vừa xinh"
            },
            "replies": [
                {
                    "reply_user": "Nguyễn Thị Thu Hường",
                    "reply_content": " vâng, tầm 3-5l "
                }
            ]
        },
        {
            "parent_comment": {
                "parent_user": "Vũ Đình Hùng",
                "parent_content": "200k nhà nghỉ. Tặng nàng đứa con."
            },
            "replies": [
                {
                    "reply_user": "Thành Phạm",
                    "reply_content": " mấy đứa r anh"
                },
                {
                    "reply_user": "Vũ Đình Hùng",
                    "reply_content": " A có 1 công chúa :))) mày đi rải đi nhé"
                }
            ]
        },
        {
            "parent_comment": {
                "parent_user": "Trúc Lâm",
                "parent_content": "Ny tôi vô cùng bận v nên "
            },
            "replies": [
                {
                    "reply_user": "Nguyễn Bá Thiện",
                    "reply_content": " ngon"
                }
            ]
        },
        {
            "parent_comment": {
                "parent_user": "Nguyễn Chiến",
                "parent_content": "Đi ăn bún đậu mắm tôm xong dẫn đi ăn sữa chua."
            },
            "replies": [
                {
                    "reply_user": "Đức Nguyễn",
                    "reply_content": " xong đau bụng là vào nhà nghỉ đi ỉa chăng:))) mưu mô vl"
                },
                {
                    "reply_user": "Nguyễn Chiến",
                    "reply_content": "Đúng vậy  ăn 2 cái ý ko đau bụng mới là lạ "
                }
            ]
        },
        {
            "parent_comment": {
                "parent_user": "Bơ",
                "parent_content": "Đi ăn lẩu hoặc nướng gì đấy tầm 500k, còn 500 mua son hoặc mấy chiếc váy xinh xinh đồ Quảng Châu cũng khá rẻ ạ "
            },
            "replies": [
                {
                    "reply_user": "Sut Thiếu Gia",
                    "reply_content": "  bt k biết làm gì cho ra củ bạc :)))"
                }
            ]
        },
        {
            "parent_comment": {
                "parent_user": "Đinh Công Hậu",
                "parent_content": "tưởng hẹn hò với người mới chứ người yêu thì đơn giản. 5 lốp làm nồi lẩu, 5 lốp còn lại tặng cho thỏi son 3ce gì đấy.  thân hơn nữa r thì đúc cái thai làm quà cho các cụ. năm mới là có cháu bế rồi"
            },
            "replies": [
                {
                    "reply_user": "Đinh Công Hậu",
                    "reply_content": "tôi mà có người yêu thì tôi tặng cho cái cục sạc dự phòng, dùng 7plus mà suốt ngày kêu hết pin :)))"
                }
            ]
        },
        {
            "parent_comment": {
                "parent_user": "TuanAnh Do",
                "parent_content": "Gợi ý cho các bác"
            },
            "replies": [
                {
                    "reply_user": "Hoàng Tùy Ý Em",
                    "reply_content": " foreo mua đâu nhỉ bác"
                }
            ]
        },
        {
            "parent_comment": {
                "parent_user": "Việt Thành",
                "parent_content": "Tài chính 1tr thì mua son hoặc đồng hồ dưới 1tr. Nếu biết sở thích của nàng thì mua màu nàng thích. Còn không biết thì hỏi thẳng xem thích màu nào, hãng nào thì chọn rồi a cho tiền mua.Còn đồng hồ 1tr thì khá nhiều em đẹp mà lại còn real. Như em này chẳng hạn, nữ đeo rất đẹp luôn. Giá khoảng 800k, còn 200k mua bông hoa hồng thật đẹp vào"
            },
            "replies": [
                {
                    "reply_user": "Trang Phạm",
                    "reply_content": " eo ơi. Tinh tế nhò"
                },
                {
                    "reply_user": "Việt Thành",
                    "reply_content": " Nhưng k có ny để tặng quà bạn ơiiii"
                }
            ]
        },
        {
            "parent_comment": {
                "parent_user": "Đặng Anh Tú",
                "parent_content": "Bàn chải điện :))) cỡ 7 lốp bác ạ"
            },
            "replies": [
                {
                    "reply_user": "Đặng Anh Tú",
                    "reply_content": "Cái gì n phải thiết thực 1 xíu"
                }
            ]
        },
        {
            "parent_comment": {
                "parent_user": "Việt Thành",
                "parent_content": "Son thì nên mua Mac hoặc YSL. Kèm thêm câu chúc và 1 câu đong đưa nhưng ngọt ngọt vào. Ví dụ như \"Anh muốn có vệt son em trên áo\".Nàng nhận rồi thì về nhà nhớ hỏi nàng có thích màu son đó không, bảo nàng chụp cho bức ảnh có tô son rồi khen đẹp các kiểu"
            },
            "replies": [
                {
                    "reply_user": "Hoàng Huế",
                    "reply_content": " ghê hông "
                }
            ]
        },
        {
            "parent_comment": {
                "parent_user": "Nguyễn Tiến Sơn",
                "parent_content": "Ông còn có hẳn 1tr  t ny cấp cho 100k đi mua quà cho nó "
            },
            "replies": [
                {
                    "reply_user": "Vũ Bích Thái Bình",
                    "reply_content": " Bác còn có 100k.   Em Đi làm có lương bao nhiêu cũng đưa về cho vợ giữ hết nên giờ ko biết mua gì đây."
                }
            ]
        },
        {
            "parent_comment": {
                "parent_user": "Sơn Nhỏ",
                "parent_content": "Mua gì tặng mẹ đây các thím"
            },
            "replies": [
                {
                    "reply_user": "Tran Anh Dung",
                    "reply_content": " người yêu"
                },
                {
                    "reply_user": "Sơn Nhỏ",
                    "reply_content": " cẹc"
                }
            ]
        },
        {
            "parent_comment": {
                "parent_user": "Vô Vi",
                "parent_content": "Thật sự là k thích nhận quà lắm. Mắc nợ lắm luôn:)) kiểu nta tặng mình, mình lại phải tặng lại. Mà tiền đ có tặng cl gì)) nên k phải ai cũng thích nhận qà;))) mà nếu tặng chỉ cần 1 bông hồg thôi là đủ ý:)))) "
            },
            "replies": [
                {
                    "reply_user": "Khánh Duyên",
                    "reply_content": " thề i chang tui luôn, nghèo rớt mồng tơi thấy người ta tặng quà là bắt đầu lo lắng hỏng biết mốt mua gì tặng lại cho người ta"
                }
            ]
        },
        {
            "parent_comment": {
                "parent_user": "Đào Việt Cường",
                "parent_content": "Thớt có ny chưa ạ? Mà có rồi thì muốn có thêm ko ạ :))"
            },
            "replies": [
                {
                    "reply_user": "Trần Thiện",
                    "reply_content": " hello a ny ạ "
                }
            ]
        },
        {
            "parent_comment": {
                "parent_user": "Đào Thu Trang",
                "parent_content": "mua bánh nhà tôi đi các ô ơi. 200k cái bánh , còn 800 đi n2 . đẹp mà còn rẻ hơn mua hoa"
            },
            "replies": [
                {
                    "reply_user": "Thùy Dung",
                    "reply_content": " bánh đẹp thế.  Hoa là kem tươi à b"
                },
                {
                    "reply_user": "Đào Thu Trang",
                    "reply_content": "  vâng , kem tươi b ạ "
                }
            ]
        },
        {
            "parent_comment": {
                "parent_user": "Khương Thần Thánh",
                "parent_content": "400k cây son, 200k cái lẩu, 100k bia/rượu, 100k trà sữa/cafe/trà đao... 200k nhà nghỉ. Đang 444 like, đừng ai like nữa. Tôi làm con lô, nếu win tôi xin phép gửi cạc"
            },
            "replies": [
                {
                    "reply_user": "Nguyễn Xuân Quý",
                    "reply_content": " hong' loc."
                }
            ]
        },
        {
            "parent_comment": {
                "parent_user": "Diễm Quỳnh",
                "parent_content": "E vừa đi mua quà cho mẹ . Nhìn mấy bạn c3 tíu tít đi mua quà cho các bạn nữ mà nhớ hồi c3 ghee :> "
            },
            "replies": [
                {
                    "reply_user": "Kiên Hoàng",
                    "reply_content": " hồi c3 em phải tự đi mua quà cho chính em à "
                },
                {
                    "reply_user": "Diễm Quỳnh",
                    "reply_content": " e đi mua quà cho cả lớp "
                }
            ]
        },
        {
            "parent_comment": {
                "parent_user": "Hoàng Hoàng",
                "parent_content": "Tiền hoa ~200k + ăn nhẹ ~500k + tiền phòng 2~300k = 1tr Quá hợp lý. Đấy là thấy bọn nó bảo thế, chứ t méo có ny "
            },
            "replies": [
                {
                    "reply_user": "Kem Bơ",
                    "reply_content": " hoa mua củ 3 cmnr"
                },
                {
                    "reply_user": "Hoàng Hoàng",
                    "reply_content": " mua hoa tượng trưng thôi 3 "
                }
            ]
        },
        {
            "parent_comment": {
                "parent_user": "Nguyen Ngoc Anh",
                "parent_content": "Mua thỏi maybelline có căng là 200k vì đang có sale, xong 2 đứa làm nổi lẩu hoặc đi ăn mì cay, căng vcl 300k là cùng, còn lại thì vào hotel tạo em bé là vừa"
            },
            "replies": [
                {
                    "reply_user": "Hoàng Hoàng",
                    "reply_content": " a đồng ý :))"
                }
            ]
        },
        {
            "parent_comment": {
                "parent_user": "Đức",
                "parent_content": "đi xem phim 250k+ 1 thỏi son 400k+ mì,phở tầm 350k nữa là ổn "
            },
            "replies": [
                {
                    "reply_user": "Trần Tuấn Vũ",
                    "reply_content": " thế tiền phòng nn thì sao k tính vào luôn"
                },
                {
                    "reply_user": "Đức",
                    "reply_content": "Trần Tùng hợp lý luôn thím ơi "
                }
            ]
        },
        {
            "parent_comment": {
                "parent_user": "Thuận",
                "parent_content": "dưới 200 thì mua được gì nhỉ :(("
            },
            "replies": [
                {
                    "reply_user": "Thanh Viettel",
                    "reply_content": "  bcs+ tiền nhà nghỉ vừa khớp luôn "
                },
                {
                    "reply_user": "Thuận",
                    "reply_content": "mấy bác nói vậy là chết emmm :(("
                }
            ]
        },
        {
            "parent_comment": {
                "parent_user": "Hải Phong",
                "parent_content": "Ơ gr có mod xinh vậy  giờ mới biết"
            },
            "replies": [
                {
                    "reply_user": "Quỳnh Tú",
                    "reply_content": " em làm mod đc hơn nửa năm r á -.-"
                }
            ]
        },
        {
            "parent_comment": {
                "parent_user": "Thanh Viettel",
                "parent_content": "Mua thỏi son MAC hay 3CE...tầm 500k ( nhớ bảo ngta cho cái túi với cái hộp xịn sò 1 xíu ). 500k còn lại ông đá thẳng vào quán bia hơi cho tôi, làm đôi con mực+ bó nem chua thêm đĩa dồi nướng nữa thì hết sảy. Tình anh em ngày càng khắng khít."
            },
            "replies": [
                {
                    "reply_user": "Nguyễn Thị Thảo",
                    "reply_content": "  MAC  "
                },
                {
                    "reply_user": "Thanh Viettel",
                    "reply_content": "  Mac với MAC nó cũng giống nhau mà "
                },
                {
                    "reply_user": "Nguyễn Thị Thảo",
                    "reply_content": "  thì cháu bảo mac ok =)) duyệt mac mà =))"
                },
                {
                    "reply_user": "Thanh Viettel",
                    "reply_content": "  chú lại tưởng bắt viết hoa cho nó đúng =)))"
                }
            ]
        },
        {
            "parent_comment": {
                "parent_user": "Tống Huy",
                "parent_content": "1tr thì mua cái son tầm 270k, rồi lấy 500k đi ăn, còn 230k thì 75k bao còn dư nhiêu thì mấy ông hiểu rồi đó "
            },
            "replies": [
                {
                    "reply_user": "Duc Tran",
                    "reply_content": " 75k bao durek có 30k 3 cái tuổi trẻ tài cao thật"
                }
            ]
        }
    ]
}