{
    "post": "5043125382425795",
    "link": "https://facebook.com/groups/355450361193344/permalink/5043125382425795",
    "post_comments": [
        {
            "parent_comment": {
                "parent_user": "Nguyễn Hữu Lợi",
                "parent_content": "Sao vú nó có thể to z đc nhỉ"
            },
            "replies": [
                {
                    "reply_user": "Nghị Nguyễn Bảo",
                    "reply_content": " mới đẻ đó bác "
                }
            ]
        },
        {
            "parent_comment": {
                "parent_user": "Quang Trường",
                "parent_content": "Kia có phải cái đầu ti k thế "
            },
            "replies": [
                {
                    "reply_user": "Còn Lâu Nha",
                    "reply_content": " ngón tay ông oi =)))"
                }
            ]
        },
        {
            "parent_comment": {
                "parent_user": "Trần Thuận",
                "parent_content": "Xin cho tại hạ hỏi đây là thể loại tiên hiệp hay sắc hiệp vậy"
            },
            "replies": [
                {
                    "reply_user": "Quang Sơn",
                    "reply_content": "20+ chắc phải vào loại dâm hiệp rồi :))))"
                }
            ]
        }
    ]
}