{
    "post": "5050315675040099",
    "link": "https://facebook.com/groups/355450361193344/permalink/5050315675040099",
    "post_comments": [
        {
            "parent_comment": {
                "parent_user": "Tùng Nguyễn",
                "parent_content": "xin link truyện"
            },
            "replies": [
                {
                    "reply_user": "Nguyễn Thế Hải",
                    "reply_content": " quê tôi đất độc lên google cả đống"
                }
            ]
        },
        {
            "parent_comment": {
                "parent_user": "Nhạt",
                "parent_content": "Đất độc hết chưa ae nhie"
            },
            "replies": [
                {
                    "reply_user": "Đặng Minh Hoàng",
                    "reply_content": " kết mở mà em ko thấy có nữa bác ạ"
                }
            ]
        },
        {
            "parent_comment": {
                "parent_user": "Đức Quân",
                "parent_content": "Ký sự chuyển mộ"
            },
            "replies": [
                {
                    "reply_user": "Mạnh Con",
                    "reply_content": "  truyện này nghe buồn cười hơn là sợ bác ạ"
                }
            ]
        },
        {
            "parent_comment": {
                "parent_user": "Hoàng Thanh Đinh",
                "parent_content": "Thích mỗi chuyện chủ thread gặp ma bám trên bồn nước trong nhà tắm, sau đó review mời thầy về để đuổi vong đi phát hiện nhà có thêm vong"
            },
            "replies": [
                {
                    "reply_user": "Hoàng Nam",
                    "reply_content": "  tôi nhớ k nhầm có phải cái truyện đấy mỗi hôm chủ thớt kể 1 ít ( kieu vua thay xong len ke luon) phải k bạn nhỉ.? Tôi đọc lâu lăm rồi nhớ lại vẫn nổi ra gà"
                }
            ]
        },
        {
            "parent_comment": {
                "parent_user": "Chu Hoàng Huy",
                "parent_content": "Cái truyện quán net gì gì đó ý nhỉ. "
            },
            "replies": [
                {
                    "reply_user": "Vi Văn Nguyện",
                    "reply_content": " kiểu trong quán nét có ngôi mộ của 1 bà chết vì chó dại cắn à bác?"
                }
            ]
        },
        {
            "parent_comment": {
                "parent_user": "Công",
                "parent_content": "Tìm tên fb như của ông này nè , lắm chuyện hay vl."
            },
            "replies": [
                {
                    "reply_user": "Khò Thành",
                    "reply_content": " ông này theo dõi 1 thời gian, sau này chuyển hướng viết truyện kiểu khác nên bỏ."
                }
            ]
        },
        {
            "parent_comment": {
                "parent_user": "Hoang Duc Huy",
                "parent_content": "Truyện kĩ sư thủy lợi nữa, lối hành văn tương tự, ngoài ra chưa có truyện nào tương đương, bác nào có giới thiệu iem vớiii"
            },
            "replies": [
                {
                    "reply_user": "Khanh Van",
                    "reply_content": " kỹ sư thủy lợi drop đúng k ạ, đợt lâu hóng mãi k thấy chap mới"
                }
            ]
        },
        {
            "parent_comment": {
                "parent_user": "Phúc Lê",
                "parent_content": "Sợ nhất đoạn ông Tướng cưỡi ngựa Không Có Đầu .  Kinh Vl"
            },
            "replies": [
                {
                    "reply_user": "Trường Đặng",
                    "reply_content": "ông này đúng kiểu cân map luôn, kèo khó mà thấy ổng là coi như win"
                },
                {
                    "reply_user": "Phúc Lê",
                    "reply_content": "  Nghe như kiểu Quan Vũ tái xuất"
                }
            ]
        },
        {
            "parent_comment": {
                "parent_user": "Hoàng Aanh",
                "parent_content": "https://vozer.net/.../khong-the-ngu-hinh-nhu-moi-gap-ma.../ mới mò lại :))"
            },
            "replies": [
                {
                    "reply_user": "Trí Đức",
                    "reply_content": "hãi vl cái đoạn cắt tóc @@, nổi da gà"
                }
            ]
        },
        {
            "parent_comment": {
                "parent_user": "Nguyễn Quang Trung",
                "parent_content": "Bacs nào chấm dùm em 1 cái với"
            },
            "replies": [
                {
                    "reply_user": "Duy Nguyễn",
                    "reply_content": " chấm"
                }
            ]
        },
        {
            "parent_comment": {
                "parent_user": "Trường Đặng",
                "parent_content": "có cái serie về 1 ông chuyên đi chở xác ấy, truyện ngắn mà đọc rợn"
            },
            "replies": [
                {
                    "reply_user": "Đức Đĩ",
                    "reply_content": " xin tên dc ko pro"
                }
            ]
        },
        {
            "parent_comment": {
                "parent_user": "Tuyen Nguyen",
                "parent_content": "Giải ngải ký. Phần 1 truyện ma, phần 2 đi đánh nhau như đại hội võ lâm. Đọc cuốn thực sự =))"
            },
            "replies": [
                {
                    "reply_user": "Hùng",
                    "reply_content": " phần 1 đọc hơi tin tin, phần 2 như phim chưởng "
                }
            ]
        },
        {
            "parent_comment": {
                "parent_user": "Đinh Công Hậu",
                "parent_content": "Có cái truyện gì mà đi chiến tranh về xong đi tìm đồng đen ấy nhỉ cũng hay phết"
            },
            "replies": [
                {
                    "reply_user": "Vo Van Huy",
                    "reply_content": " https://youtu.be/5n5WgJ5QFE0 phải truyện này ko nhỉ"
                },
                {
                    "reply_user": "Đinh Công Hậu",
                    "reply_content": " à quỷ mộ bác ạ"
                }
            ]
        },
        {
            "parent_comment": {
                "parent_user": "Vũ Duy Hùng",
                "parent_content": "Đất độc, ký sự chuyển mộ, đùa cợt với thế giới tâm linh,...https://voz.vn/t/truyen-ma-kinh-dien-cua-vozer.76078/"
            },
            "replies": [
                {
                    "reply_user": "Hung Le",
                    "reply_content": " em cmt để có gì hsau tìm đọc nha bác "
                }
            ]
        },
        {
            "parent_comment": {
                "parent_user": "Búnn Đậu",
                "parent_content": "Ai nhớ thread hồn ma bên hố xí không nhị :))) mé, đọc truyện kinh dị nhưng cười i* :)))"
            },
            "replies": [
                {
                    "reply_user": "Trúc Lâm",
                    "reply_content": "  pha đạp c\"t bỏ vô chum kinh điển "
                },
                {
                    "reply_user": "Búnn Đậu",
                    "reply_content": "  nửa đêm cười khanh khách như vong nhập  bị mẹ đét đi* mấy cái vẫn cười thêm tí nữa "
                }
            ]
        },
        {
            "parent_comment": {
                "parent_user": "Mạnh Dũng Nguyễn",
                "parent_content": "Ai có link đất độc cho em xin với"
            },
            "replies": [
                {
                    "reply_user": "Kiên Trung",
                    "reply_content": " lên taca"
                }
            ]
        },
        {
            "parent_comment": {
                "parent_user": "Jack Luu",
                "parent_content": "Bác nào like em phát , tối về em còn nhịn ỉa"
            },
            "replies": [
                {
                    "reply_user": "Đạt",
                    "reply_content": " like tôi với :)))"
                },
                {
                    "reply_user": "Jack Luu",
                    "reply_content": " bác cũng định nhịn ỉa à"
                },
                {
                    "reply_user": "Đạt",
                    "reply_content": " nhịn đái thôi :))"
                },
                {
                    "reply_user": "Jack Luu",
                    "reply_content": "Nguyễn khang chấm 1 phát"
                }
            ]
        },
        {
            "parent_comment": {
                "parent_user": "DũNg Đv",
                "parent_content": "Bác nào like em cái tối đọc giải trí nào "
            },
            "replies": [
                {
                    "reply_user": "Giang Nguyễn",
                    "reply_content": " ."
                }
            ]
        },
        {
            "parent_comment": {
                "parent_user": "Quyết Lê",
                "parent_content": "Có ai thu âm  mà truyền cảm, bánh cuốn không cho mình nghe với "
            },
            "replies": [
                {
                    "reply_user": "Ngọc Bùi",
                    "reply_content": " hình như có kênh gì của bọn taka đọc truyện này thì phải "
                },
                {
                    "reply_user": "Quyết Lê",
                    "reply_content": " mình thích truyện ma thật nhưng truyện Nguyễn Ngọc Ngạn mình nghe nhiều quá rồi "
                },
                {
                    "reply_user": "Ngọc Bùi",
                    "reply_content": " đấy lên youtube search quê tôi đất độc của taca channel í ngoai truyen nay ra thi cũng có nhiều truyện ma khá hay"
                },
                {
                    "reply_user": "Quyết Lê",
                    "reply_content": " cảm ơn bạn "
                }
            ]
        },
        {
            "parent_comment": {
                "parent_user": "Câng Câng",
                "parent_content": "Thích nhất truyện : hình như mới gặp ma ...ấy"
            },
            "replies": [
                {
                    "reply_user": "Toàn Mai",
                    "reply_content": " với quê em đất độc, kí sự chuyển mộ nữa nó thành bộ 3 rồi "
                },
                {
                    "reply_user": "Câng Câng",
                    "reply_content": "Toàn Troller xem cái ảnh chỗ téc nước mà ghê vãi"
                }
            ]
        },
        {
            "parent_comment": {
                "parent_user": "Tú Trân",
                "parent_content": "voz lúc đó mình có đọc một bộ mình cực ghiền luôn. Đại khái là về quê của bác đó, long mạch bị có vấn đề nên ma quỷ quấy phá rất nhiều. Các thầy pháp phải tìm cách trấn lại đó"
            },
            "replies": [
                {
                    "reply_user": "Addulah Bi",
                    "reply_content": " truyện thầy phù thuỷ"
                },
                {
                    "reply_user": "Tú Trân",
                    "reply_content": "đoạn đầu hay thôi, đoạn sau lúc lớn lên đc buff huyền diệu vl "
                }
            ]
        },
        {
            "parent_comment": {
                "parent_user": "Nguyễn Ngọc Long",
                "parent_content": "bộ đất độc này hết chưa ấy các bac nhỉ, "
            },
            "replies": [
                {
                    "reply_user": "Addulah Bi",
                    "reply_content": " hết rồi, tác giả có cho tóm tắt kết thúc rồi, lý do hết các phần rồi bro"
                },
                {
                    "reply_user": "Nguyễn Ngọc Long",
                    "reply_content": "Oke bác để hôm nào lên cty nghe =))"
                }
            ]
        },
        {
            "parent_comment": {
                "parent_user": "Đoàn Thị Mỹ Anh",
                "parent_content": "Tấm vải đỏ"
            },
            "replies": [
                {
                    "reply_user": "Tiêu Việt",
                    "reply_content": " truyện đó hay kết hơi buồn mà theo hướng xuyên không thấy ko thực tế cho lắm"
                }
            ]
        },
        {
            "parent_comment": {
                "parent_user": "Nguyễn Quang Khải",
                "parent_content": "Quê em đất độc trên truyenvoz17 e tìm mãi k thấy phần nối tiếp đâu, bace nào biết gửi e link với"
            },
            "replies": [
                {
                    "reply_user": "Quang Chần",
                    "reply_content": " https://o.voz.vn/showthread.php?t=1997359"
                },
                {
                    "reply_user": "Nguyễn Quang Khải",
                    "reply_content": "Nguyễn Tuấn Đức e đọc đến chap 17 rùi xong tự nhiên lại thêm ma ở nhà vệ sinh các thứ"
                }
            ]
        },
        {
            "parent_comment": {
                "parent_user": "Diễm Quỳnh",
                "parent_content": "có ai biết truyện ma nói về người mẹ ma gì đó ko ạ, truyện kể về mấy ông đạo sĩ vì hiểu lầm vùng đó có cương thi mà phát hiện ra vùng đó bị yểm bùa, có đoạn ăn thịt trẻ con nữa hay sao ý ai biết cho mình xin link voiiii"
            },
            "replies": [
                {
                    "reply_user": "Trọng Tuân",
                    "reply_content": " người mẹ quỷ của Trường Lê"
                }
            ]
        }
    ]
}