{
    "post": "5179853032086362",
    "link": "https://facebook.com/groups/355450361193344/permalink/5179853032086362",
    "post_comments": [
        {
            "parent_comment": {
                "parent_user": "Đoàn Kha",
                "parent_content": "Trên Facebook mà tin à ??? Tạch 7 phần rồi"
            },
            "replies": [
                {
                    "reply_user": "Lâm Hải",
                    "reply_content": " 30% vẫn lật kèo đc nha"
                }
            ]
        },
        {
            "parent_comment": {
                "parent_user": "Phan Vũ",
                "parent_content": "Trà dâu đông du nhé  . Xưa đi làm ở sg hay ngồi khuya cuối tuần , vui vl"
            },
            "replies": [
                {
                    "reply_user": "Hoàng Nhân",
                    "reply_content": " Trà dâu đông du là chỗ mấy người hay ngồi dọc vỉa hè ấy hả thím "
                },
                {
                    "reply_user": "Phan Vũ",
                    "reply_content": " đúng dòi bác , em hay ngồi kế cái khách sạn bự ở đầu đường"
                },
                {
                    "reply_user": "Hoàng Nhân",
                    "reply_content": " Em làm ngay đó, tối đi về thấy ngồi đông mà không biết có gì hay ở đấy "
                },
                {
                    "reply_user": "Phan Vũ",
                    "reply_content": " tầm 10h tối hẵng ra bác ạ, ngồi vài lần là ghiền"
                },
                {
                    "reply_user": "Hoàng Nhân",
                    "reply_content": " Thanks bác, để bữa nào em ra thử "
                }
            ]
        },
        {
            "parent_comment": {
                "parent_user": "Lâm Hải",
                "parent_content": "Chốt 9h nhé"
            },
            "replies": [
                {
                    "reply_user": "Nguyễn Hoàng",
                    "reply_content": " 9h phat card à bác"
                }
            ]
        }
    ]
}