{
    "post": "1941080589296972",
    "link": "https://facebook.com/groups/355450361193344/permalink/1941080589296972",
    "post_comments": [
        {
            "parent_comment": {
                "parent_user": "Nguyễn Thu Hòa",
                "parent_content": "Thớt cũng đi lấy chồng đi cho vui"
            },
            "replies": [
                {
                    "reply_user": "Trương Chí Công",
                    "reply_content": "Vler "
                }
            ]
        },
        {
            "parent_comment": {
                "parent_user": "Trần Thị Kim Oanh",
                "parent_content": "=)) đó là câu chuyện buồn"
            },
            "replies": [
                {
                    "reply_user": "Trương Chí Công",
                    "reply_content": "Vl cũng ở đây à=))"
                },
                {
                    "reply_user": "Trần Thị Kim Oanh",
                    "reply_content": "=))))ở đâu chả có"
                },
                {
                    "reply_user": "Trương Chí Công",
                    "reply_content": "=)) ghê"
                },
                {
                    "reply_user": "Trần Thị Kim Oanh",
                    "reply_content": "vleo  tôi nghĩ cta mới quen chứ quen tận 2 năm luôn "
                },
                {
                    "reply_user": "Trương Chí Công",
                    "reply_content": " lâu hơn 2 năm =))"
                },
                {
                    "reply_user": "Trần Thị Kim Oanh",
                    "reply_content": " lâu thật tận 3018"
                },
                {
                    "reply_user": "Trương Chí Công",
                    "reply_content": " hsha"
                }
            ]
        },
        {
            "parent_comment": {
                "parent_user": "Ngụy Hiếu Bền",
                "parent_content": "Miền tây hả thím"
            },
            "replies": [
                {
                    "reply_user": "Trương Chí Công",
                    "reply_content": "Vâng thím ẻm ở quê"
                }
            ]
        },
        {
            "parent_comment": {
                "parent_user": "Khoa Mai",
                "parent_content": "block mẹ nó cho rồi  nhìn rồi khóc =]]"
            },
            "replies": [
                {
                    "reply_user": "Trương Chí Công",
                    "reply_content": "Đang viết thiệp cưới kìa "
                },
                {
                    "reply_user": "Khoa Mai",
                    "reply_content": "bởi vậy ông mới block :>"
                }
            ]
        },
        {
            "parent_comment": {
                "parent_user": "Việt Nguyễn",
                "parent_content": "*đàng trai*CrushĐịt con mẹ chính tả như này bảo sao nó lại bỏ đi lấy thằng khác."
            },
            "replies": [
                {
                    "reply_user": "Việt Nguyễn",
                    "reply_content": "*giác nữa chứ. Đm."
                }
            ]
        },
        {
            "parent_comment": {
                "parent_user": "Thái Nguyễn",
                "parent_content": "Vcl do fb lỗi hay thực sự bài viết từ 2018 này tự dưng hiện lên vậy"
            },
            "replies": [
                {
                    "reply_user": "Trương Chí Công",
                    "reply_content": " hahah"
                }
            ]
        },
        {
            "parent_comment": {
                "parent_user": "Táo",
                "parent_content": "Thím có cháu bế chưa .-."
            },
            "replies": [
                {
                    "reply_user": "Trương Chí Công",
                    "reply_content": " em lên SG làm rồi "
                }
            ]
        },
        {
            "parent_comment": {
                "parent_user": "Nguyễn Xuân Quý",
                "parent_content": "bác cho e xin ít tôm =)))"
            },
            "replies": [
                {
                    "reply_user": "Trương Chí Công",
                    "reply_content": " kh đào nào :))"
                }
            ]
        }
    ]
}