{
    "post": "5161736840564648",
    "link": "https://facebook.com/groups/355450361193344/permalink/5161736840564648",
    "post_comments": [
        {
            "parent_comment": {
                "parent_user": "Hannie Hannie",
                "parent_content": "Bước 1: phải đúng chính tả"
            },
            "replies": [
                {
                    "reply_user": "Bùi Công Minh",
                    "reply_content": " ngọng N L khổ :))"
                }
            ]
        },
        {
            "parent_comment": {
                "parent_user": "Sơn Phan",
                "parent_content": "Cứ làm vậy là được"
            },
            "replies": [
                {
                    "reply_user": "Bùi Công Minh",
                    "reply_content": "đây là tiếng nóng địa phương rồi bác em đâu có dùng :))"
                }
            ]
        },
        {
            "parent_comment": {
                "parent_user": "Nguyễn Mạnh Linh",
                "parent_content": "Ns ngọng đã là cái tội,viết cũng ngọng thì tội còn to gấp nhiều lần"
            },
            "replies": [
                {
                    "reply_user": "Bùi Công Minh",
                    "reply_content": " viết nhiều giờ khó sửa quá."
                }
            ]
        }
    ]
}