{
    "post": "5129318587139807",
    "link": "https://facebook.com/groups/355450361193344/permalink/5129318587139807",
    "post_comments": [
        {
            "parent_comment": {
                "parent_user": "Thu Thuận",
                "parent_content": "Có khả năng nhưng k cao đâu, nhưng mà bác nếu qtam ngyeu yêu thương lo lắng ngta thì đừng để ngta uống thuốc ttkc nha, vì nó có rất nhiều tác dụng phụ k tốt cho skhoe đâu, uống nhiều có khi bị vô sinh các kiểu nữa đấy."
            },
            "replies": [
                {
                    "reply_user": "Thu Thuận",
                    "reply_content": "Cứ bao mà xài tội gì làm khổ ngta, r nhiều điều k mong muốn xảy ra, đã k dám thì đừng liều."
                }
            ]
        },
        {
            "parent_comment": {
                "parent_user": "Trần Ngọc Hiệp",
                "parent_content": "Văn vở đọc khó chịu thật sự"
            },
            "replies": [
                {
                    "reply_user": "Hải Hoàng",
                    "reply_content": " -“bạn” ô ấy đang hoang mang, ô thông cảm "
                }
            ]
        },
        {
            "parent_comment": {
                "parent_user": "Hannie Hannie",
                "parent_content": "hồi nhỏ đang học môn tiếng Việt thì cô giáo bỏ ngang đi lấy chồng đúng kh? văn vở như cắn vào đít người đọc vậy"
            },
            "replies": [
                {
                    "reply_user": "Miêu Miêu",
                    "reply_content": " cô giáo nghỉ đẻ"
                }
            ]
        },
        {
            "parent_comment": {
                "parent_user": "Đặng Nhật Minh",
                "parent_content": "lỡ thì chạy ngay ra hiệu thuốc mua hộp khẩn cấp. sẽ có hai loại ba ngày và năm ngày, vì vừa mới chọt vô thì cứ mua loại 3 ngày cho chắc nhưng sẽ khá hại sức khỏe bạn gái. còn một loại hai viên nhưng ở thị trường mình hiếm, ít hại hơn. sau nhớ mua kèm cả thuốc giảm tác dụng phụ nữa nhé, uống cùng với thuốc tránh thai trước khi ăn. tầm sau 7 ngày thì thử que xem có lên đủ vạch wifi không. sợ thì sau 3 ngày nữa thử cho chắc thêm lần. nhớ là mua loại que thử xịn Quickstick và Quickstrip (hai loại cho chắc, có mỗi 10K/cái thôi) để xem kết quả trùng nhau ko. để ý nếu bạn gái tới ngày kinh mà ra được thì khỏi lo bị dính, còn nếu gặp phải đứa kinh nguyệt không đều thì xác định thấp thỏm bác nhé vì có những đứa hai tháng ko ra tí nào dễ thành trứng lắm :))coi như một bài học lần sau tính ngày và tính người cho nó chuẩn nha."
            },
            "replies": [
                {
                    "reply_user": "Đặng Nhật Minh",
                    "reply_content": "p/s: cái này là em được bạn bè chỉ giáo chứ ko phải từ kinh nghiệm cá nhân đâu mong các bác đừng hiểu lầm em."
                }
            ]
        },
        {
            "parent_comment": {
                "parent_user": "Đặng Hồng Dương",
                "parent_content": "Sao tiền bối lại làm liều vậy .-."
            },
            "replies": [
                {
                    "reply_user": "Miêu Miêu",
                    "reply_content": " tưởng làm gã thợ săn.hóa thành con nai vàng ngơ ngác"
                }
            ]
        },
        {
            "parent_comment": {
                "parent_user": "Đông Nguyễn",
                "parent_content": "Đổ nước cam vào vừa mát vừa nhuận tràng."
            },
            "replies": [
                {
                    "reply_user": "Quang Trường",
                    "reply_content": " phải uống nc dứa cho nó thơm anh ạ"
                },
                {
                    "reply_user": "Đông Nguyễn",
                    "reply_content": " đổ trên thì dứa được chứ đổ hốc nhị thì nước cam nhé Em"
                }
            ]
        },
        {
            "parent_comment": {
                "parent_user": "Nguyễn Quý",
                "parent_content": "Ngọc Vũ "
            },
            "replies": [
                {
                    "reply_user": "Ngọc Vũ",
                    "reply_content": "  tư vấn cho bạn đi anhh "
                }
            ]
        },
        {
            "parent_comment": {
                "parent_user": "Linh Vũ",
                "parent_content": "Uống ngay roài thì khả năng thấp lắm. 14 ngày sau thử que là bít trúng hay trượt ngay thoai "
            },
            "replies": [
                {
                    "reply_user": "Hiếu Nguyễn",
                    "reply_content": " tôi gọi thằng em tôi dậy và cười hahhahhaa vào còm này của bạn "
                }
            ]
        }
    ]
}