{
    "post": "5062845333787133",
    "link": "https://facebook.com/groups/355450361193344/permalink/5062845333787133",
    "post_comments": [
        {
            "parent_comment": {
                "parent_user": "Hà Đông Áo Dài",
                "parent_content": "Trước hết thì anh vẫn khoẻ mạnh là may mắn nhất rồi ạ  Sẹo anh bôi thử thuốc này nhé! Trước em khâu 5 mũi, bôi quanh từ lúc vết chưa lành anh ạ. Mình bôi dần dần, không bôi trực tiếp vào miệng hở là được anh ạ ^^ Chúc anh nhanh lành thương nhé "
            },
            "replies": [
                {
                    "reply_user": "Anh Nguyen",
                    "reply_content": " e cảm ơn ạ."
                },
                {
                    "reply_user": "Hà Đông Áo Dài",
                    "reply_content": " đọc cmt dưới anh bảo không lấy vợ  yêu tâm hồn màaaa, anh đừng lo"
                },
                {
                    "reply_user": "Anh Nguyen",
                    "reply_content": " e cũng hi vọng có ai đó yêu tâm hồn e. Chứ thật sự với khuôn mặt này ngta vừa nhìn đã chạy ạ"
                },
                {
                    "reply_user": "Hà Đông Áo Dài",
                    "reply_content": " anh nghĩ thế thoy, giờ anh cứ nghĩ như em nói đi  thì anh sẽ gặp được người cùng suy nghĩ như em bảo đấy ^^"
                },
                {
                    "reply_user": "Anh Nguyen",
                    "reply_content": " đc vậy thì tốt quá ạ. E sẽ nghĩ như vậy. Cảm ơn chị ạ"
                }
            ]
        },
        {
            "parent_comment": {
                "parent_user": "Anh Nguyen",
                "parent_content": "E cảm ơn các bác đã có lời động viên"
            },
            "replies": [
                {
                    "reply_user": "Huy Trần",
                    "reply_content": "  ko hết đâu bạn do cơ địa thì bác sĩ cũng chịu mình cũng bị làm pttm mấy lần rồi chỉ hơi mờ đi xíu cũng ko hết ...tốn tiền.  Tập sống chung vs lũ thôi "
                },
                {
                    "reply_user": "Anh Nguyen",
                    "reply_content": " vâng. Cảm ơn bác ạ. Bth e cũng k đc đẹp trai lắm. Giờ như vậy chắc khỏi lấy vợ luôn ạ"
                }
            ]
        },
        {
            "parent_comment": {
                "parent_user": "Jun Vũ",
                "parent_content": "Chừng nào vết thương lành bác bôi dermatix ấy. Mềm và mờ đi ấy ạ"
            },
            "replies": [
                {
                    "reply_user": "Anh Nguyen",
                    "reply_content": " e cũng đang bôi đây ạ. Mà vết sẹo to quá"
                }
            ]
        },
        {
            "parent_comment": {
                "parent_user": "Nguyễn Quốc Cường",
                "parent_content": "E thấy bố e hay bôi nghệ.trc cũng tai nạn rồi sẹo ở mặt.bôi vô thấy hết"
            },
            "replies": [
                {
                    "reply_user": "Anh Nguyen",
                    "reply_content": " e sẹo lồi bác ạ. Sẹo bth thì dễ ạ"
                }
            ]
        },
        {
            "parent_comment": {
                "parent_user": "Thủy Thủ Mặt Trăng",
                "parent_content": " cứ để 1 thời gian xem sao, nó không khỏi thì gom tiền đi phẫu thuật thẩm mỹ. Chúc bạn đẹp trai"
            },
            "replies": [
                {
                    "reply_user": "Anh Nguyen",
                    "reply_content": "Lương Ngọc Mỹ Nhân cảm ơn bạn. Nhưng mà xấu trai chắc rồi"
                },
                {
                    "reply_user": "Thủy Thủ Mặt Trăng",
                    "reply_content": " lạc quan lên! tích cực lên!"
                },
                {
                    "reply_user": "Anh Nguyen",
                    "reply_content": "Lương Ngọc Mỹ Nhân vâng ạ. Sẽ cố gắng ạ"
                }
            ]
        },
        {
            "parent_comment": {
                "parent_user": "Nguyễn Thanh Tú",
                "parent_content": "Nếu đã kiêng mà vẫn lồi thì là cơ địa rồi. B chịu khó tránh nắng để nó ko bị thâm nha"
            },
            "replies": [
                {
                    "reply_user": "Anh Nguyen",
                    "reply_content": " vâng ạ. Giờ chắc tránh nắng cho đỡ xấu thôi ạ. Cảm ơn bạn"
                }
            ]
        },
        {
            "parent_comment": {
                "parent_user": "Phạm Duy Tân",
                "parent_content": "Bác lấy dao cắt phần sẹo bỏ đi và rút kinh nghiệm kiêng cử lại đàng hoàn, lần này lành lại thì hết sẹo thôi ạ"
            },
            "replies": [
                {
                    "reply_user": "Anh Nguyen",
                    "reply_content": " đau lắm bác. Với tự làm dễ nhiễm trùng nữa. Thôi kiếm tiền đi pttm thôi bác"
                }
            ]
        },
        {
            "parent_comment": {
                "parent_user": "Lan Hương Đinh",
                "parent_content": "Dùng lọ trị sẹo nhật này đi bác, loại này trị sẹo lồi ổn. Sau 3-6 tháng bác vẫn thấy sẹo to, muốn hết thì đi là sẹo nha"
            },
            "replies": [
                {
                    "reply_user": "Anh Nguyen",
                    "reply_content": " cảm ơn chị ạ"
                }
            ]
        },
        {
            "parent_comment": {
                "parent_user": "Cường Trần",
                "parent_content": "Thôi đừng buồn, lúc bị nó thế thôi. Sau lành vét thương nó mờ đi ko thấy đâu"
            },
            "replies": [
                {
                    "reply_user": "Anh Nguyen",
                    "reply_content": " thấy chứ bác. Lồi to ạ"
                }
            ]
        }
    ]
}