{
    "post": "5079675668770766",
    "link": "https://facebook.com/groups/355450361193344/permalink/5079675668770766",
    "post_comments": [
        {
            "parent_comment": {
                "parent_user": "An Nguyen",
                "parent_content": "Không một e nào đổ sao có con trai thế kia?"
            },
            "replies": [
                {
                    "reply_user": "Lâm Thanh Tùng",
                    "reply_content": "Có sọi thôi cũng ko đến nơi đến chốn "
                }
            ]
        },
        {
            "parent_comment": {
                "parent_user": "Cường Vũ",
                "parent_content": ":)) uống quen mồm thôi chứ lắm khi sáng cồn ruột vl làm cốc nâng nâng đến giờ cơm :))"
            },
            "replies": [
                {
                    "reply_user": "Lâm Thanh Tùng",
                    "reply_content": " nâng gì hả bác../"
                },
                {
                    "reply_user": "Cường Vũ",
                    "reply_content": "là kiểu hơi hơi say ấy bác  nói chung say cf khó chịu vl"
                }
            ]
        },
        {
            "parent_comment": {
                "parent_user": "Phong An",
                "parent_content": "Đã say còn muốn uống, em cũng bị say cafe nhưng bị kiểu đau đầu chóng mặt cơ"
            },
            "replies": [
                {
                    "reply_user": "Lương Dũng",
                    "reply_content": " thế cơ á "
                },
                {
                    "reply_user": "Phong An",
                    "reply_content": " "
                }
            ]
        }
    ]
}