{
    "post": "5017672601637740",
    "link": "https://facebook.com/groups/355450361193344/permalink/5017672601637740",
    "post_comments": [
        {
            "parent_comment": {
                "parent_user": "Phạm Xuân Hàn",
                "parent_content": "Vay tiền nó là quên mau ý mà. "
            },
            "replies": [
                {
                    "reply_user": "Lê Thảo",
                    "reply_content": "  trí vl"
                }
            ]
        },
        {
            "parent_comment": {
                "parent_user": "Thanh Anh",
                "parent_content": "Ai bảo yêu người mới là cách nhanh nhất hay block xóa tn các thứ thì sai nầm gòi, phải là thời gian cơ, chứ nhớ quá củng lấy face khác mò vào thuii"
            },
            "replies": [
                {
                    "reply_user": "Trần Minh Cường",
                    "reply_content": "  công nhân yêu người mới nhưng thi thoảng vẫn nhớ về ng cũ chắc chắn luôn có khi  còn bị chững lại ở cái quá khứ với ng cũ muốn quên phải thật bận rộn với cần thời gian "
                }
            ]
        },
        {
            "parent_comment": {
                "parent_user": "Trần Ngọc Tùng",
                "parent_content": "Đang nch rất vui vẻ, bùm 3 ngày mất tích ntin ko rep là kiểu gì các thím"
            },
            "replies": [
                {
                    "reply_user": "Thanh Anh",
                    "reply_content": "  là end chat đó"
                },
                {
                    "reply_user": "Trần Ngọc Tùng",
                    "reply_content": " giận vlin thím nhỉ :((("
                },
                {
                    "reply_user": "Thanh Anh",
                    "reply_content": "  đúng dị, làm ngta dui dẻ xong gòi bỏ đi như bỏ con giữa chợ dị á, ák độk"
                }
            ]
        },
        {
            "parent_comment": {
                "parent_user": "Đỗ Khang",
                "parent_content": "Em mới úp xong bát mì ăn tối mời các bác ăn với em ạ"
            },
            "replies": [
                {
                    "reply_user": "Hien Thuy Nghiem",
                    "reply_content": "  ngon thế "
                }
            ]
        },
        {
            "parent_comment": {
                "parent_user": "Vương Đình Bắc",
                "parent_content": "Hủy thì thôi kiếm ng khác lụy chỉ khổ mình."
            },
            "replies": [
                {
                    "reply_user": "Viet Anh",
                    "reply_content": " rõ ràng :))"
                }
            ]
        },
        {
            "parent_comment": {
                "parent_user": "Lê Đức Tú",
                "parent_content": "Khá buồn"
            },
            "replies": [
                {
                    "reply_user": "Mít Mít",
                    "reply_content": " tìm đc người muốn chăm sóc cả đời nhưng vợ bạn không cho :)))"
                }
            ]
        },
        {
            "parent_comment": {
                "parent_user": "Nga",
                "parent_content": "Yêu người mới b ạ"
            },
            "replies": [
                {
                    "reply_user": "‎‎‎‎‎‎‎‎‎‎‎‎‎‎‎‎‎‎‎‎‎‎‎‎‎‎‎‎‎‎‎‎‎‎‎‎‎‎‎‎‎‎‎‎‎‎‎‎‎‎‎‎‎‎‎‎‎‎‎‎‎‎‎‎‎‎‎‎‎‎‎‎‎‎‎‎‎‎‎‎‎‎‎‎‎‎‎‎‎‎‎‎‎‎‎‎‎‎‎‎‎‎‎‎‎‎‎‎‎‎‎‎‎‎‎‎‎‎‎‎‎‎‎‎‎‎‎‎‎‎‎‎‎‎‎‎‎‎‎‎‎‎‎‎‎‎‎‎‎‎‎‎‎‎‎‎‎‎‎‎‎‎‎‎‎‎‎‎‎‎",
                    "reply_content": " yêu  "
                },
                {
                    "reply_user": "Nga",
                    "reply_content": " "
                }
            ]
        },
        {
            "parent_comment": {
                "parent_user": "Thái Dũng",
                "parent_content": "Đi đá phò !!! Bản chất của lụy tình là tâm lý của sự chưa đc chịch "
            },
            "replies": [
                {
                    "reply_user": "Dương Xuân Huy",
                    "reply_content": " =))))"
                }
            ]
        },
        {
            "parent_comment": {
                "parent_user": "Nguyễn Quân",
                "parent_content": "Lao vào kiếm tiền b sẽ đ có thời gian mà nghĩ đâu và tìm mối mới ngon hơn..."
            },
            "replies": [
                {
                    "reply_user": "Nguyễn Hữu Thắng",
                    "reply_content": " ái chà chà"
                },
                {
                    "reply_user": "Nguyễn Quân",
                    "reply_content": " những ng từng trải..."
                },
                {
                    "reply_user": "Nguyễn Hữu Thắng",
                    "reply_content": " nếu có thể thì đừng thức đêm, 10h 10 rưỡi thì đi ngủ, ngủ lấy 6 tiếng rồi dậy làm việc. Thức đêm chỉ khiến tâm trạng tệ đi thôi"
                },
                {
                    "reply_user": "Nguyễn Quân",
                    "reply_content": " đúng r. Đêm tĩnh lặng là lúc hay suy nghĩ ko vui. Mà nghe phải nhạc buồn thôi cx não lòng. Nên ngủ sớm là ok nhất."
                }
            ]
        },
        {
            "parent_comment": {
                "parent_user": "Lưu Hà",
                "parent_content": "Tiếc 30k à :))"
            },
            "replies": [
                {
                    "reply_user": "Nikki Dang",
                    "reply_content": "Kts Khoa đấy bố xem còm như này này bảo sao ko bị tế, gr 17 tuổi của bọn con ai khiến đâu mấy cô mấy chú già chớt mịa vào spam. Ghét"
                },
                {
                    "reply_user": "Lưu Hà",
                    "reply_content": " qua giờ vẫn chưa thấy gr này vui ở đâu á :)))"
                },
                {
                    "reply_user": "Nikki Dang",
                    "reply_content": " bị ăn tế lại chả ko vui"
                }
            ]
        },
        {
            "parent_comment": {
                "parent_user": "Nikki Dang",
                "parent_content": "Kết bạn chị nè hứa ko huỷ :))"
            },
            "replies": [
                {
                    "reply_user": "Nguyễn Vũ Chiến",
                    "reply_content": " : Kết bạn vs e luôn chị nhé "
                }
            ]
        }
    ]
}