{
    "post": "776137876356880",
    "link": "https://facebook.com/groups/443921992911805/permalink/776137876356880",
    "post_message": [],
    "post_comments": [
        [
            "Đây cứ nt tán a trước cho quen"
        ],
        [
            "ad chưa tán trai bao h nên ko biêt chỉ sao"
        ],
        [],
        [
            "Tán đau đấy"
        ],
        [
            "Nhắn tin thì không tán được đâu em, em cứ cầm chảo qua nhà nó mà tán, đảm bảo đổ nha"
        ],
        [
            "Nt với mình chỉ cho nè"
        ],
        [
            "Vào hóng ké cách tán ạ "
        ],
        [
            "tán dần cho quen, thả nhiều thính nếu ko bt nói j"
        ],
        [
            "Bảo là yêu t k thì t chặt ku"
        ],
        [
            "Ai chỉ e cách thả thính với huhu"
        ],
        [
            "Có cách nào chỉ bạn ý đi rồi cho em ké vs"
        ],
        [
            "thính thì nên gg còn tùy vào cách ns chuyện vs bạn nữa chứ có phải ai cũng thích thính vs ngôn lù đâu biết đâu ng đó lại đơn giản ns chuyện qt dần dần tiến tới có khi lại sớm có kq "
        ],
        [
            "https://www.facebook.com/.../permalink/1109138646174541/",
            "Nè bạn kaka. Mình mới lướt bài này thì thấy bài của bạn đây"
        ],
        [
            "Tán trai lạ hay trai quen.rồi bao nhiu tuổi "
        ],
        [
            "Lâu lâu nt la lên t buồn quá, t cô đơn quá t muốn có ng iu.",
            "Người iu t muốn bla bla ( nêu đặc điểm ngoại hình thằng đấy ra)"
        ],
        [
            "thua thua"
        ],
        [],
        [
            "Cữ call viddeo"
        ],
        [
            "Hóng ké "
        ]
    ]
}