{
    "post": "777619789542022",
    "link": "https://facebook.com/groups/443921992911805/permalink/777619789542022",
    "post_message": [],
    "post_comments": [
        [
            "Quen bthg thì k sao ",
            "Quen kiểu khác thì có sao"
        ],
        [
            "Bạn thích ko có nghĩa họ thích bạn, dần dần trưởng thành bạn sẽ hiểu"
        ],
        [
            "Quen bt thì k sao cả nhưng quen kiểu khác thì gọi là hãm lol"
        ],
        [
            "Nếu mà bọn nó yêu nhau thì c sẽ mất luôm cả tình bẫn lẫn ty "
        ],
        [
            "Đã từng. Hiểu cảm giác "
        ],
        [
            "mk thấy bth thì đi thích ngkhac là đc chứ j:v"
        ],
        [
            "Nếu hai người đó thích nhau thì cũng không ai có nỗi cả. Bạn đó không thích bạn, bạn không thể ép được,bạn của bạn cũng có quyền được yêu với bạn đó. Mình khuyên thật, nếu họ có tiến triển hãy cảm thấy hạnh phúc,vì người bạn thích cũng tìm thấy được tì… ",
            "See more"
        ],
        [
            "Úi ui bỏ đi bạn oi"
        ],
        [
            "Tcam khó nói lắm b. Người bạn thích - ko thích bạn,  thì bạn cũng ko có quyền gì để can thiệp hay ngăn cản người đó thích ai cả. Vì cả 2 ko là gì của nhau.",
            "Còn về phía bạn của bạn, như mình đã nói tình cảm khó nói, khó kiểm soát, nên vấn đề ấy cũng dễ … ",
            "See more"
        ],
        [
            "nguoi minh thich di thich ban than minh "
        ]
    ]
}