{
    "post": "776235513013783",
    "link": "https://facebook.com/groups/443921992911805/permalink/776235513013783",
    "post_message": [
        "Làm sao để quên đi người mình từng yêu thương rất nhiều ạ? Về đêm mình cứ nhớ về em !"
    ],
    "post_comments": [
        [
            "tìm hiểu một ng khác là cách nhanh nhất, k thì chẳng cần lm gì cũng tự hết."
        ],
        [
            "Sao ngày ko nhớ mà nhớ mỗi đêm vậy bác ???"
        ],
        [
            "Thời gian hoặc tìm hiểu và thương ngkhac nhưng mà gặp ng k tốt sẽ càng nhớ ng cũ hơn"
        ],
        [
            "tìm người mới là dược"
        ],
        [
            "Quên đc là một ch rất khó,nên bây h ns để quên một ai đó là ch ko hề dễ dàng chúng ta.Vậy nên để lm đc điều đó,bạn pk chấp nhận hiện tại,đừng ép bản thân là phải quên ng đó nha"
        ],
        [
            "nguyên nhân nhớ lại do bạn thức đêm đấy , chăm sóc bản thân và đi ngủ sớm , khiến mình bận rộn việc gì đấy để đầu óc không trống rỗng mà nghĩ tới ngta nữa"
        ],
        [
            "Là coi như họ k xứng đáng với mình"
        ],
        [
            "Uống thuốc đi ngủ rồi ngủ ngon. Ok"
        ],
        [
            "tương tác"
        ],
        [
            "Rạch tay như mấy phim hàn ấy ",
            " cứ thốn là hết nhớ à"
        ],
        [
            "Xem như họ k đáng với minh và tiếp tục tìm hiểu người mới"
        ],
        [
            "Làm gì có khái niệm quên đi được hả bạn , đó là 1 phần kí ức gắn liền với bạn rồi . Cứ tập đối diện với đau thương rồi bạn sẽ thấy cái người mà mình từng hết mình hết lòng hết dạ với người ta cũng bình thường , không có phải suýt xoa mỗi khi nớ đến ngư… ",
            "See more"
        ],
        [
            "Giống mình"
        ],
        [],
        [
            "Ky ung một chữ thương nó nặng lòng lắm nó cứ ở mãi trong tâm trí bạn ak mog ai do sẽ hju"
        ],
        [
            "cứ nhớ, đau lòng, khổ sở, chán chường -> yêu thương bản thân-> quên"
        ]
    ]
}