{
    "post": "773601876610480",
    "link": "https://facebook.com/groups/443921992911805/permalink/773601876610480",
    "post_message": [
        "Bị cha mẹ cô ấy không cho yêu vậy mình phải làm sao trong khi yêu cô ấy thật lòng..."
    ],
    "post_comments": [
        [
            "Hai chữ thôi \" chân thành \""
        ],
        [
            "PHẢI GIÀU"
        ],
        [
            "Cô ấy thì như nào "
        ],
        [
            "quan trọng cô ấy có cùng bạn vượt qua không"
        ],
        [
            "Ừm..quan trọng cô ấy có chấp nhận tiếp tục vs bạn hay ko.",
            "Chứ mình yêu ghét cái chuyện ba mẹ bảo ko đc là nghe lời ba mẹ liền vậy."
        ],
        [
            "Địt cho to bướm phình bụng lên là ngta đồng ý"
        ],
        [
            "Bạn ơi kiểm tra tin nhắn giúp Danh"
        ],
        [
            "Bác sĩ bảo cưới "
        ],
        [
            "Bao tuổi ?"
        ],
        [
            "Ý của bame cô ấy nói là yêu thôi thì chưa đủ ấy"
        ],
        [
            "Chứng minh cho bame ny bạn thấy bạn xứng đáng và đáng tin cậy"
        ],
        [
            "Cố kiếm nhiều tiền hơn"
        ],
        [
            "LÊN NGHE BÀI HOA BANG LĂNG CỦA KID NHÁ "
        ],
        [
            "Làm xong mới thanh toán ",
            "Mình nhận làm Facebok & Zalo: lấy lại nick bị mất, truy cập vào nick ng khác, định vị ...",
            "Ai cần thì ib cho mình ạ"
        ],
        [
            "tại sao ba mẹ cô ấy ko cho bạn quen cô ấy nói rõ ra xem nào"
        ],
        [
            "Cái đó là do bạn.bạn phải chứng minh bạn đủ bản lĩnh để rước con gái của ng ta.bạn phải thể hiện chứ.chứ đừng làm bậy bạ."
        ]
    ]
}