{
    "post": "775978293039505",
    "link": "https://facebook.com/groups/443921992911805/permalink/775978293039505",
    "post_message": [
        "ĐÂU AI MUỐN LÀM NGƯỜI BÌNH THƯỜNG KHI YÊU "
    ],
    "post_comments": [
        [
            "hanh phuc ghe ak"
        ],
        [
            "ai đc thế đâu biết"
        ],
        [
            "Chúc mừng 2vc bạn, cố gắng trân trọng hạnh phúc này nhé. Mình coi mà mừng cho bạn. "
        ]
    ]
}