{
    "post": "776223673014967",
    "link": "https://facebook.com/groups/443921992911805/permalink/776223673014967",
    "post_message": [
        "Mn cho e ý kiến vs ạ",
        " Chuyện là như này",
        " E ms ct ny nhưng bạn ấy vẫn còn iu e mà e k bt e lại ik ns này ns nọ về bạn ấy. Bây h pk lms để xin lỗi tha thứ bh ",
        " Bh e ms nhận ra là mk đã ik quá xa r ",
        " Mn chỉ cho e bh pk lms ik."
    ],
    "post_comments": [
        [
            "Mn cho e ý kiến ik"
        ],
        [
            "Cho dù là có biết hay kh biết bạn ấy còn yêu, thì cũng kh nên nói này nói nọ bạn ấy chứ cậu, mấy chuyện này kh ai chịu tha thứ đâu cậu, khó lắm"
        ],
        [
            "Trg hợp này mình khuyên trân thành là bơ đi đừng nói j nx, nếu muốn xl thì giải thích, hối lỗi rõ ràng nhưng mình sợ nó nghe xong nó đánh bn đya"
        ],
        [
            "Phải viết đúng chính tả, nhất định phải viết đúng chính tả :))))"
        ]
    ]
}