{
    "post": "776728792964455",
    "link": "https://facebook.com/groups/443921992911805/permalink/776728792964455",
    "post_message": [
        "Em tính rủ người yêu đi giao thừa và định hôn bạn ý . Nhưng theo mọi người thì hành động nào ngoài hôn ra cũng đủ tạo lên sự lãng mạn và tình cảm ạ"
    ],
    "post_comments": [
        [
            "Khó nói lắm. Cái này phụ thuộc vào chỗ bạn vs bạn gái kia đã nói chuyện vs nhau đc gì nhiều chưa, đã hiểu nhau dc bao nhiêu %. Tình cảm hai bạn ở mức nào. Cùng với hôm bạn nói chuyện vs bạn gái kia ẩn ý úp mở về tình bạn dành cho bạn gái kia, nếu bạn ý… ",
            "See more"
        ],
        [
            "Cứ đè nó ra mà hôn đi. ",
            "\" Thà hôn em rồi bị tát, còn hơn để thằng khác hôn em \""
        ]
    ]
}