{
    "post": "775913126379355",
    "link": "https://facebook.com/groups/443921992911805/permalink/775913126379355",
    "post_message": [
        "E chào mọi người ạ, e là thành viên mới vào hôm nay e có 1 vấn đề khó xử cần mọi người cho ý kiến & giúp đỡ e ạ.",
        "Chuyện là e & người iu qen nhau nhưng bị gđ & cả dòng họ e ngăn cấm tuyệt đối vì nói có dòng họ j đó nhưng chúng e k chung họ k chung dòng máu hay j cả,  giờ e bế tắc lắm không biết nên làm thế nào nữa khi đứng giữa gđ dòng họ & người iu e thật sự rất khó xử mong mọi người cho e ý kiến ạ, e cảm ơn"
    ],
    "post_comments": [
        [],
        [
            "Cứ tiếp tục thôi e, k cùng huyết thống là đc phép đến với nhau."
        ]
    ]
}