{
    "post": "776230856347582",
    "link": "https://facebook.com/groups/443921992911805/permalink/776230856347582",
    "post_message": [
        "Chào mn e cần tuy vấn, em với bạn nữ cũng đang yêu nhau, nhưng trong tình yêu của bọn em. Em cảm giác như bạn nữ đó k thích em cho lắm, trông khá là gượng ép khi ib với em, khá giống là yêu chơi. Mà em lại k muốn dứt với bạn nữ đấy:((, em nên làm gì để tình yêu bọn em tốt đẹp hơn như nào ạ:(("
    ],
    "post_comments": [
        [
            "k có cách nào đâu bạn, ng cần thay đổi lối suy nghĩ ở đây chính là bạn đấy. nhìn tên fb bạn mình đã thấy k có hy vọng gì r."
        ],
        [
            "Chia tay sớm bớt đau khổ.. Nói chứ ngta k muốn đừng gượng ép kết quả k tốt đâu"
        ],
        [
            "E nên tiếp tục chinh phục họ."
        ]
    ]
}