{
    "post": "777831259520875",
    "link": "https://facebook.com/groups/443921992911805/permalink/777831259520875",
    "post_message": [
        "Ở đây có trai Bắc ko ạ.đang quen 1 anh trai Bắc nhưng gia đình định kiến trai Bắc làm sao ạ"
    ],
    "post_comments": [
        [
            "định kiến vùng miền là hơi khó rồi"
        ],
        [
            "Làm sao"
        ],
        [
            "Bây giờ còn định kiến vùng miền thì mình nghĩ nên bỏ. Mà ở đây mấy bạn gái Nam nghĩ gì về mấy anh trai Bắc vậy."
        ]
    ]
}