{
    "post": "501268854102865",
    "link": "https://facebook.com/groups/mindsoul.vn/permalink/501268854102865",
    "post_comments": [
        {
            "parent_comment": {
                "parent_user": "Bianca Do",
                "parent_content": "Em không phải là coach hay là chuyên gia tâm lý gì hết. Em chỉ đang nói theo cảm nghĩ của bản thân, một người cũng đã từng tìm cách níu kéo tình yêu thôi ạ. Thật sự thì em không thấy đây là sự ích kỷ. Khi em và người yêu cũ chia tay, em cảm nhận cả 2 vẫn còn tình cảm và em cũng thấy những sai lầm của em trong lúc yêu. Trong giai đoạn này, người đó cũng gặp những khó khăn và em có thể giúp được (vì tụi em thỏa thuận vẫn làm bạn). Em cũng cố gắng bàn luận với người ấy chuyện em muốn cải thiện lại mối quan hệ như thế nào, nhưng về mặt người ấy, người ta không muốn nói đến những sai lầm của người ta và tránh né. Em thấy bản thân em cũng đã cố gắng hết sức rồi, nên mối quan hệ phải có 2 phía cùng cải thiện chứ mình mình chả thể làm hết được. Nếu như cả 2 bên cùng nhận ra được mình sai lầm, hạn chế những gì và cùng muốn cải thiện thì cùng nhau thay đổi quyết định. Còn nếu như chỉ một bên cố gắng thì giống tự làm đau chính mình hơn, cái này giống xử tệ với bản thân mình ấy ạ."
            },
            "replies": [
                {
                    "reply_user": "Trần Joseph",
                    "reply_content": "Bữa Coach nói, ích kỷ khác tự yêu bản thân ở chỗ người ta đòi phải đền đáp lại, mình giống kiểu đòi phải đền đáp. Thế nhưng mà hormones nó chạy loạn xạ lên, k kềm chế được."
                }
            ]
        }
    ]
}