{
    "post": "560320894864327",
    "link": "https://facebook.com/groups/mindsoul.vn/permalink/560320894864327",
    "post_comments": [
        {
            "parent_comment": {
                "parent_user": "Trần Joseph",
                "parent_content": "lap fanpage di chi"
            },
            "replies": [
                {
                    "reply_user": "Thảo Đanley",
                    "reply_content": "thanks em đã ủng hộ nè, chị cũng định lập mà cứ lười  căn bản tạo fan like cũng mệt :-s"
                }
            ]
        },
        {
            "parent_comment": {
                "parent_user": "Thao Jennifer",
                "parent_content": "f. Giả sử bạn có một lượng thời gian không giới hạn, một nguồn lực (tiền bạc, của cải, sự ủng hộ và trợ giúp của tất cả mọi người) không giới hạn, và bất cứ việc nào bạn chọn làm cũng chắc chắn thành công (giả sử có ông tiên tài trợ chương trình này), vậy bạn sẽ chọn làm gì, là ai? Có thể ghi bất cứ đáp án nào bạn nghĩ trong đầu, đừng dùng logic để suy xét quá nhiều và lại bị nỗi sợ \"nhưng mà A, B,C\" xâm lấn. Đã nói là hãy tin vào nhà tài trợ, không cần giới hạn một đáp án. Even the sky is not the limit. Mình chọn làm bà Thảo có 1,000 tỷ đồng. Bà Thảo ấy sẽ chỉ dành ra 25 tỷ cho bản thân mua 1 căn nhà 3 phòng ngủ ở Vinhomes, 1 cái xe Range Roover và 75 tỷ  cho cá nhân đi du lịch vòng quanh thế giới. Số tiền còn lại bà Thảo sẽ chia ra làm 6 phần: 1. 1 phần lớn 500 tỷ mua mỗi thành phố ở Việt Nam 1 căn nhà + 1 căn hộ và cho thuê, 2. 1 phần 50 tỷ biếu bố mẹ, 3. 1 phần 50 tỷ cho em trai. 4. Sẽ dành 100 tỷ để gởi ngân hàng toàn bộ số tiền lãi mỗi tháng trung bình 400 triệu dùng để làm từ thiện: ủng hộ cho các dự án xây trường học, thành lập thư viện, tài trợ thành lâp trung tâm tiếng Anh cho mọi trẻ em đều được học ngoại ngữ và kỹ năng sống. Còn 200 tỷ gởi ngân hàng phần lãi đầu tư cho việc học của 2 con, cho các con học bất cứ thứ gì các con muốn.  Khi có tiền việc đầu tiên tôi làm là đi du lịch Thuỵ Sĩ, Pháp, Maldives, Santorini, Thổ Nhĩ Kỳ, Hà Lan, Đức"
            },
            "replies": [
                {
                    "reply_user": "Thảo Đanley",
                    "reply_content": "Đọc thử cuốn The Subtle Art of Not giving a Fuck (Mark Manson) đi bà - trong đó có 1 đoạn ảnh nói về việc đi du lịch hoài rồi cũng sẽ chán, tiền bao nhiêu đi nữa mà mình ko có làm được việc gì cảm thấy có ý nghĩa thì cuộc sống cũng sẽ đến đoạn ko hạnh phúc ấy. "
                },
                {
                    "reply_user": "Thao Jennifer",
                    "reply_content": "Thì chưa đc đi đủ đến chán mà bà  càng nhiều tiền thì tha hồ đi giúp trẻ em khắp nơi nè"
                },
                {
                    "reply_user": "Thảo Đanley",
                    "reply_content": " nếu bà rất đam mê với việc giúp trẻ em (cả cái process của nó, không chỉ là kết quả cuối cùng) thì giờ có thể làm ở Non profit org về trẻ em nè - có cái NGO chuyên chống bắt cóc phụ nữ trẻ em bán qua nước ngoài đó bà"
                },
                {
                    "reply_user": "Thao Jennifer",
                    "reply_content": " ib t tt nhá"
                }
            ]
        },
        {
            "parent_comment": {
                "parent_user": "Thao Jennifer",
                "parent_content": "Đam mê lúc nhỏ của tui là buôn bán  tranh thủ mẹ đi Chùa Hương 2 ngày t đã đi chợ đầu mối mua củ đậu (củ sắn)+ mía về bán còn đi ra đê lấy lá hương nhu + xin lá sả để bán cho ng ta đun nước gội đầu ^^ sau 2 ngày thì từ vốn 7 ngày (t 5k đứa bạn 2k) đã thu đc 27k + mía ăn thoải mái"
            },
            "replies": [
                {
                    "reply_user": "Thảo Đanley",
                    "reply_content": "giỏi quá, hợp với trading, kinh doanh như bà đang làm mà "
                }
            ]
        }
    ]
}