{
    "post": "809851229911291",
    "link": "https://facebook.com/groups/mindsoul.vn/permalink/809851229911291",
    "post_comments": [
        {
            "parent_comment": {
                "parent_content": "24t nữ Công Giáo, mới chia tay người yêu đạo CG luôn, vì mình k hợp nhau là 1 lẽ, nhưng vd cụ thể là hôm trước bạn đó hứa gọi dt cho mình, 9h mình hỏi là có gọi dt dc k, bạn nói gọi dc nhưng k gọi, là bạn ăn k nói có, rồi ông bạn mất mình xoá cáo phó của ông vì cái tôi, do mình sợ xui cho cv làm ăn, sợ ma nữa"
            },
            "replies": [
                {
                    "reply_content": "Em có nhiều bài post dường như chỉ để giải tỏa sự tức giận của mình về người yêu, thậm chí còn có những cái nhìn khinh thường với người này (qua những đánh giá kiểu như 'làm  như đạo đức lắm' v.v) chị hiểu em đang rất bất mãn trong mối quan hệ. Đa số tất cả các tình tiết em post đều do em mong đợi ng ta quá nhiều. Nếu em thật sự yêu người ấy, em sẽ suy nghĩ sao cho người ấy được hạnh phúc nhất, chứ không liên tục đòi hỏi và mong đợi người ấy phải nghĩ cho mình, cung phụng và chiều theo ý mình (và dù họ có yêu em cũng ko ai có thể đọc được suy nghĩ của em cả). Mối quan hệ này gần như là độc hại vì cả hai không đáp ứng được mong đợi của nhau và ở phía em chị ko thấy em có sự tôn trọng về phẩm chất, đạo đức của người kia hay 1 tình cảm chân thành. Yêu là hiểu. Có yêu nghĩa là có thấu hiểu. Em cứ đổi bạn trai mãi rồi sẽ có lúc em nhận ra mình không có quyền gì để bắt người ta \"đáng lẽ anh nên thế này thế kia\" cả. Hai đứa cùng lắng nghe nhau, nếu có bức xúc có thể chia sẻ nhẹ nhàng và bỏ qua cho nhau. Em có thể bày tỏ ý muốn của em 1 cách thẳng thắn và dịu dàng. Ví dụ,  \"em sẽ rất thích anh chở em đi chơi mỗi tối cuối tuần\" . Nhưng nếu người yêu ko đáp ứng được, hãy tìm hiểu và thông cảm cho họ xem sự khó khăn của họ đến từ đâu. Còn nếu cả em và người kia đều không cảm nhận được tình cảm chân thành cho nhau, em biết nên làm gì rồi "
                }
            ]
        },
        {
            "parent_comment": {
                "parent_content": " Mà sao bạn đó k tha thứ muốn ct mình dù mình đã đi đám ma mà gd k cho? Sao bạn đó k bàn bạc vs mình là phải đăng cáo phó báo tin cho họ hàng? R bạn đó đăng lại dc mà"
            },
            "replies": [
                {
                    "reply_content": "Em có nhiều bài post dường như chỉ để giải tỏa sự tức giận của mình về người yêu, thậm chí còn có những cái nhìn khinh thường với người này (qua những đánh giá kiểu như 'làm  như đạo đức lắm' v.v) chị hiểu em đang rất bất mãn trong mối quan hệ. Đa số tất cả các tình tiết em post đều do em mong đợi ng ta quá nhiều. Nếu em thật sự yêu người ấy, em sẽ suy nghĩ sao cho người ấy được hạnh phúc nhất, chứ không liên tục đòi hỏi và mong đợi người ấy phải nghĩ cho mình, cung phụng và chiều theo ý mình (và dù họ có yêu em cũng ko ai có thể đọc được suy nghĩ của em cả). Mối quan hệ này gần như là độc hại vì cả hai không đáp ứng được mong đợi của nhau và ở phía em chị ko thấy em có sự tôn trọng về phẩm chất, đạo đức của người kia hay 1 tình cảm chân thành. Yêu là hiểu. Có yêu nghĩa là có thấu hiểu. Em cứ đổi bạn trai mãi rồi sẽ có lúc em nhận ra mình không có quyền gì để bắt người ta \"đáng lẽ anh nên thế này thế kia\" cả. Hai đứa cùng lắng nghe nhau, nếu có bức xúc có thể chia sẻ nhẹ nhàng và bỏ qua cho nhau. Em có thể bày tỏ ý muốn của em 1 cách thẳng thắn và dịu dàng. Ví dụ,  \"em sẽ rất thích anh chở em đi chơi mỗi tối cuối tuần\" . Nhưng nếu người yêu ko đáp ứng được, hãy tìm hiểu và thông cảm cho họ xem sự khó khăn của họ đến từ đâu. Còn nếu cả em và người kia đều không cảm nhận được tình cảm chân thành cho nhau, em biết nên làm gì rồi "
                }
            ]
        },
        {
            "parent_comment": {
                "parent_content": " Mà bạn đó hứa đưa mình khám bệnh thì k cho mình ôm chỉ dc nắm tay do k còn qen nhau, làm như đạo đức lắm"
            },
            "replies": [
                {
                    "reply_content": "Em có nhiều bài post dường như chỉ để giải tỏa sự tức giận của mình về người yêu, thậm chí còn có những cái nhìn khinh thường với người này (qua những đánh giá kiểu như 'làm  như đạo đức lắm' v.v) chị hiểu em đang rất bất mãn trong mối quan hệ. Đa số tất cả các tình tiết em post đều do em mong đợi ng ta quá nhiều. Nếu em thật sự yêu người ấy, em sẽ suy nghĩ sao cho người ấy được hạnh phúc nhất, chứ không liên tục đòi hỏi và mong đợi người ấy phải nghĩ cho mình, cung phụng và chiều theo ý mình (và dù họ có yêu em cũng ko ai có thể đọc được suy nghĩ của em cả). Mối quan hệ này gần như là độc hại vì cả hai không đáp ứng được mong đợi của nhau và ở phía em chị ko thấy em có sự tôn trọng về phẩm chất, đạo đức của người kia hay 1 tình cảm chân thành. Yêu là hiểu. Có yêu nghĩa là có thấu hiểu. Em cứ đổi bạn trai mãi rồi sẽ có lúc em nhận ra mình không có quyền gì để bắt người ta \"đáng lẽ anh nên thế này thế kia\" cả. Hai đứa cùng lắng nghe nhau, nếu có bức xúc có thể chia sẻ nhẹ nhàng và bỏ qua cho nhau. Em có thể bày tỏ ý muốn của em 1 cách thẳng thắn và dịu dàng. Ví dụ,  \"em sẽ rất thích anh chở em đi chơi mỗi tối cuối tuần\" . Nhưng nếu người yêu ko đáp ứng được, hãy tìm hiểu và thông cảm cho họ xem sự khó khăn của họ đến từ đâu. Còn nếu cả em và người kia đều không cảm nhận được tình cảm chân thành cho nhau, em biết nên làm gì rồi "
                }
            ]
        }
    ]
}