{
    "post": "576221483274268",
    "link": "https://facebook.com/groups/mindsoul.vn/permalink/576221483274268",
    "post_comments": [
        {
            "parent_comment": {
                "parent_user": "Tangyu Tangyu",
                "parent_content": "Hóng"
            },
            "replies": [
                {
                    "reply_user": "Mind & Soul",
                    "reply_content": " em thế nào rồi? Đã đỡ chưa? Hôm nay định nhắn tin em xong mà chị tìm không ra nick, may quá em lại xuất hiện "
                },
                {
                    "reply_user": "Tangyu Tangyu",
                    "reply_content": "Thảo Đanley, Relationship & Life Coach e ổn rồi c à,giờ thi thoảng vẫn nghĩ về chuyện cũ nhưng không buồn đang chờ đợi điều tốt đẹp sẽ xảy ra với mình đây c.hi"
                },
                {
                    "reply_user": "Mind & Soul",
                    "reply_content": " thế tốt rồi, giỏi lắm em. Giờ luyện tuyệt được tuyệt chiêu buông bỏ xong thì luyện tiếp chiêu hấp dẫn hạnh phúc tình yêu thực đến với mình nha"
                },
                {
                    "reply_user": "Tangyu Tangyu",
                    "reply_content": "Thảo Đanley, Relationship & Life Coach cảm ơn c nhiều lắm ạ.chiêu tiếp theo thì lại phải nhờ vả lão sư rồi "
                }
            ]
        }
    ]
}