{
    "post": "797813527781728",
    "link": "https://facebook.com/groups/mindsoul.vn/permalink/797813527781728",
    "post_comments": [
        {
            "parent_comment": {
                "parent_content": " Anh ấy tuy học ko giỏi,có vẻ ham chơi nhưng bù lại là người đẹp trai, noi chuyện rất ngọt và rất ga lăng với mọi người nhất là con gái"
            },
            "replies": [
                {
                    "reply_content": "Tốt nhất là bạn k nên ns cho chị kia bít còn chx ny bạn đòi trước khi đi nghĩ vụ thì nó cũng chỉ nghỉ là đã có đc bạn r dù bạn có chờ nưqx hay k thì cũng k quan trọng vs ngta nữa r"
                }
            ]
        },
        {
            "parent_comment": {
                "parent_content": " Chuyện tình cảm của chúng e ko có nhiều người biết, vì anh ay noi mình còn nhỏ, nếu công khai cho gia dinh biet sợ nguoi lớn sẽ phản đối và ko cho quen"
            },
            "replies": [
                {
                    "reply_content": "Tốt nhất là bạn k nên ns cho chị kia bít còn chx ny bạn đòi trước khi đi nghĩ vụ thì nó cũng chỉ nghỉ là đã có đc bạn r dù bạn có chờ nưqx hay k thì cũng k quan trọng vs ngta nữa r"
                }
            ]
        },
        {
            "parent_comment": {
                "parent_content": " Anh ay noi anh ay di 2 năm về sợ e sẽ đổi thay quen với nguoi khác, vì anh rat thương e nên ko muốn mất em"
            },
            "replies": [
                {
                    "reply_content": "Tốt nhất là bạn k nên ns cho chị kia bít còn chx ny bạn đòi trước khi đi nghĩ vụ thì nó cũng chỉ nghỉ là đã có đc bạn r dù bạn có chờ nưqx hay k thì cũng k quan trọng vs ngta nữa r"
                }
            ]
        },
        {
            "parent_comment": {
                "parent_content": " Từ lúc anh ấy bước vào cty làm, tình cảm anh ấy dành cho e nhạt dần, anh ấy ko còn nhắn tin, gọi điện video call nữa, cũng ko còn dẫn e đi chơi ,đi ăn buffet, đi uống trà sữa như những lúc còn mặn nồng nữa"
            },
            "replies": [
                {
                    "reply_content": "Tốt nhất là bạn k nên ns cho chị kia bít còn chx ny bạn đòi trước khi đi nghĩ vụ thì nó cũng chỉ nghỉ là đã có đc bạn r dù bạn có chờ nưqx hay k thì cũng k quan trọng vs ngta nữa r"
                }
            ]
        },
        {
            "parent_comment": {
                "parent_content": "E hỏi anh ấy vậy thì những thứ quý giá nhất e dành cho anh thì sao? Anh ấy bảo cái đó là e tình nguyện mà, e dễ dãi, e cho anh dc thì cũng cho người khác dc thôi co j đâu "
            },
            "replies": [
                {
                    "reply_content": "Tốt nhất là bạn k nên ns cho chị kia bít còn chx ny bạn đòi trước khi đi nghĩ vụ thì nó cũng chỉ nghỉ là đã có đc bạn r dù bạn có chờ nưqx hay k thì cũng k quan trọng vs ngta nữa r"
                }
            ]
        },
        {
            "parent_comment": {
                "parent_content": " Sau đó anh ấy block fb, block zalo e, chặn sđt e, e tạo fb mới để nt cho a thì a chặn ngay, anh sợ e làm phiền nên thay đổi fb liên tục"
            },
            "replies": [
                {
                    "reply_content": "Tốt nhất là bạn k nên ns cho chị kia bít còn chx ny bạn đòi trước khi đi nghĩ vụ thì nó cũng chỉ nghỉ là đã có đc bạn r dù bạn có chờ nưqx hay k thì cũng k quan trọng vs ngta nữa r"
                }
            ]
        },
        {
            "parent_comment": {
                "parent_content": " Và kể cả chuyện quá khứ anh ấy từng bỏ học ăn chơi rồi tụ tập đua xe hút chích với những người xã hội đen"
            },
            "replies": [
                {
                    "reply_content": "Tốt nhất là bạn k nên ns cho chị kia bít còn chx ny bạn đòi trước khi đi nghĩ vụ thì nó cũng chỉ nghỉ là đã có đc bạn r dù bạn có chờ nưqx hay k thì cũng k quan trọng vs ngta nữa r"
                }
            ]
        },
        {
            "parent_comment": {
                "parent_content": " Anh ấy còn cảnh cáo em nếu đi nói lung tung chuyện quá khứ của anh ấy thì anh ấy sẽ kêu giang hồ xử e"
            },
            "replies": [
                {
                    "reply_content": "Tốt nhất là bạn k nên ns cho chị kia bít còn chx ny bạn đòi trước khi đi nghĩ vụ thì nó cũng chỉ nghỉ là đã có đc bạn r dù bạn có chờ nưqx hay k thì cũng k quan trọng vs ngta nữa r"
                }
            ]
        },
        {
            "parent_comment": {
                "parent_content": "Anh ấy nói đi xem bói thầy bói bảo anh và chị kia hợp tuổi, coi NHÂN TƯỚNG thì bảo 2 nguoi có nét phu thê, cưới nhau sẽ hạnh phúc giàu có"
            },
            "replies": [
                {
                    "reply_content": "Tốt nhất là bạn k nên ns cho chị kia bít còn chx ny bạn đòi trước khi đi nghĩ vụ thì nó cũng chỉ nghỉ là đã có đc bạn r dù bạn có chờ nưqx hay k thì cũng k quan trọng vs ngta nữa r"
                }
            ]
        },
        {
            "parent_comment": {
                "parent_content": "1 thời gian sau e nghe bạn bè nói anh ấy đã chính thức công khai hẹn hò tung hình ảnh yêu đương tình tứ với CHỊ GÁI làm chung LỚN HƠN 4 tuổi lên mạng xã hội"
            },
            "replies": [
                {
                    "reply_content": "Tốt nhất là bạn k nên ns cho chị kia bít còn chx ny bạn đòi trước khi đi nghĩ vụ thì nó cũng chỉ nghỉ là đã có đc bạn r dù bạn có chờ nưqx hay k thì cũng k quan trọng vs ngta nữa r"
                }
            ]
        },
        {
            "parent_comment": {
                "parent_content": " Những hình ảnh nắm tay hôn hít tình tứ ân ái lãng mạn giữa Anh và CHỊ GÁI hơn 4 tuổi luôn dc update liên tục kèm những câu ngôn tình ngọt ngào mà ngày xưa anh đã từng nói với em giờ anh đã dành cho chị gái kia"
            },
            "replies": [
                {
                    "reply_content": "Tốt nhất là bạn k nên ns cho chị kia bít còn chx ny bạn đòi trước khi đi nghĩ vụ thì nó cũng chỉ nghỉ là đã có đc bạn r dù bạn có chờ nưqx hay k thì cũng k quan trọng vs ngta nữa r"
                }
            ]
        },
        {
            "parent_comment": {
                "parent_content": " Bởi vì em cảm thấy mình may mắn vì đã kịp nhận ra bản chất thật sự của anh ấy, nếu ko sau này cưới nhau e sẽ khổ gấp trăm lần bây giờ"
            },
            "replies": [
                {
                    "reply_content": "Tốt nhất là bạn k nên ns cho chị kia bít còn chx ny bạn đòi trước khi đi nghĩ vụ thì nó cũng chỉ nghỉ là đã có đc bạn r dù bạn có chờ nưqx hay k thì cũng k quan trọng vs ngta nữa r"
                }
            ]
        },
        {
            "parent_comment": {
                "parent_content": "Bây giờ e băn khoăn ko biết là có nên nói cho bạn gái mới của anh ấy biết về quá khứ của anh ay ko? Chắc có người sẽ cho rằng e nhiều chuyện, ghen tuông này kia, đã chia tay rồi ko nên xen vào chuyện của nguoi khác nữa"
            },
            "replies": [
                {
                    "reply_content": "Tốt nhất là bạn k nên ns cho chị kia bít còn chx ny bạn đòi trước khi đi nghĩ vụ thì nó cũng chỉ nghỉ là đã có đc bạn r dù bạn có chờ nưqx hay k thì cũng k quan trọng vs ngta nữa r"
                }
            ]
        },
        {
            "parent_comment": {
                "parent_content": "Nhưng thật sự với 1 nguồi đàn ông bội bạc thì có j de em bận tâm chứ? Em chỉ nghĩ cùng là phụ nữ với nhau, em ko muốn chị bạn gái của anh ấy sẽ lại giống em"
            },
            "replies": [
                {
                    "reply_content": "Tốt nhất là bạn k nên ns cho chị kia bít còn chx ny bạn đòi trước khi đi nghĩ vụ thì nó cũng chỉ nghỉ là đã có đc bạn r dù bạn có chờ nưqx hay k thì cũng k quan trọng vs ngta nữa r"
                }
            ]
        },
        {
            "parent_comment": {
                "parent_content": " Anh ấy tuy học ko giỏi,có vẻ ham chơi nhưng bù lại là người đẹp trai, noi chuyện rất ngọt và rất ga lăng với mọi người nhất là con gái"
            },
            "replies": [
                {
                    "reply_content": "Không nên nha Vì bạn có nói có ý tốt thì chắc gì họ đã tinCó những thứ chỉ nghe người ta nói là ko đủ phải tự mình cảm nhận mới được"
                }
            ]
        },
        {
            "parent_comment": {
                "parent_content": " Chuyện tình cảm của chúng e ko có nhiều người biết, vì anh ay noi mình còn nhỏ, nếu công khai cho gia dinh biet sợ nguoi lớn sẽ phản đối và ko cho quen"
            },
            "replies": [
                {
                    "reply_content": "Không nên nha Vì bạn có nói có ý tốt thì chắc gì họ đã tinCó những thứ chỉ nghe người ta nói là ko đủ phải tự mình cảm nhận mới được"
                }
            ]
        },
        {
            "parent_comment": {
                "parent_content": " Anh ay noi anh ay di 2 năm về sợ e sẽ đổi thay quen với nguoi khác, vì anh rat thương e nên ko muốn mất em"
            },
            "replies": [
                {
                    "reply_content": "Không nên nha Vì bạn có nói có ý tốt thì chắc gì họ đã tinCó những thứ chỉ nghe người ta nói là ko đủ phải tự mình cảm nhận mới được"
                }
            ]
        },
        {
            "parent_comment": {
                "parent_content": " Từ lúc anh ấy bước vào cty làm, tình cảm anh ấy dành cho e nhạt dần, anh ấy ko còn nhắn tin, gọi điện video call nữa, cũng ko còn dẫn e đi chơi ,đi ăn buffet, đi uống trà sữa như những lúc còn mặn nồng nữa"
            },
            "replies": [
                {
                    "reply_content": "Không nên nha Vì bạn có nói có ý tốt thì chắc gì họ đã tinCó những thứ chỉ nghe người ta nói là ko đủ phải tự mình cảm nhận mới được"
                }
            ]
        },
        {
            "parent_comment": {
                "parent_content": "E hỏi anh ấy vậy thì những thứ quý giá nhất e dành cho anh thì sao? Anh ấy bảo cái đó là e tình nguyện mà, e dễ dãi, e cho anh dc thì cũng cho người khác dc thôi co j đâu "
            },
            "replies": [
                {
                    "reply_content": "Không nên nha Vì bạn có nói có ý tốt thì chắc gì họ đã tinCó những thứ chỉ nghe người ta nói là ko đủ phải tự mình cảm nhận mới được"
                }
            ]
        },
        {
            "parent_comment": {
                "parent_content": " Sau đó anh ấy block fb, block zalo e, chặn sđt e, e tạo fb mới để nt cho a thì a chặn ngay, anh sợ e làm phiền nên thay đổi fb liên tục"
            },
            "replies": [
                {
                    "reply_content": "Không nên nha Vì bạn có nói có ý tốt thì chắc gì họ đã tinCó những thứ chỉ nghe người ta nói là ko đủ phải tự mình cảm nhận mới được"
                }
            ]
        },
        {
            "parent_comment": {
                "parent_content": " Và kể cả chuyện quá khứ anh ấy từng bỏ học ăn chơi rồi tụ tập đua xe hút chích với những người xã hội đen"
            },
            "replies": [
                {
                    "reply_content": "Không nên nha Vì bạn có nói có ý tốt thì chắc gì họ đã tinCó những thứ chỉ nghe người ta nói là ko đủ phải tự mình cảm nhận mới được"
                }
            ]
        },
        {
            "parent_comment": {
                "parent_content": " Anh ấy còn cảnh cáo em nếu đi nói lung tung chuyện quá khứ của anh ấy thì anh ấy sẽ kêu giang hồ xử e"
            },
            "replies": [
                {
                    "reply_content": "Không nên nha Vì bạn có nói có ý tốt thì chắc gì họ đã tinCó những thứ chỉ nghe người ta nói là ko đủ phải tự mình cảm nhận mới được"
                }
            ]
        },
        {
            "parent_comment": {
                "parent_content": "Anh ấy nói đi xem bói thầy bói bảo anh và chị kia hợp tuổi, coi NHÂN TƯỚNG thì bảo 2 nguoi có nét phu thê, cưới nhau sẽ hạnh phúc giàu có"
            },
            "replies": [
                {
                    "reply_content": "Không nên nha Vì bạn có nói có ý tốt thì chắc gì họ đã tinCó những thứ chỉ nghe người ta nói là ko đủ phải tự mình cảm nhận mới được"
                }
            ]
        },
        {
            "parent_comment": {
                "parent_content": "1 thời gian sau e nghe bạn bè nói anh ấy đã chính thức công khai hẹn hò tung hình ảnh yêu đương tình tứ với CHỊ GÁI làm chung LỚN HƠN 4 tuổi lên mạng xã hội"
            },
            "replies": [
                {
                    "reply_content": "Không nên nha Vì bạn có nói có ý tốt thì chắc gì họ đã tinCó những thứ chỉ nghe người ta nói là ko đủ phải tự mình cảm nhận mới được"
                }
            ]
        },
        {
            "parent_comment": {
                "parent_content": " Những hình ảnh nắm tay hôn hít tình tứ ân ái lãng mạn giữa Anh và CHỊ GÁI hơn 4 tuổi luôn dc update liên tục kèm những câu ngôn tình ngọt ngào mà ngày xưa anh đã từng nói với em giờ anh đã dành cho chị gái kia"
            },
            "replies": [
                {
                    "reply_content": "Không nên nha Vì bạn có nói có ý tốt thì chắc gì họ đã tinCó những thứ chỉ nghe người ta nói là ko đủ phải tự mình cảm nhận mới được"
                }
            ]
        },
        {
            "parent_comment": {
                "parent_content": " Bởi vì em cảm thấy mình may mắn vì đã kịp nhận ra bản chất thật sự của anh ấy, nếu ko sau này cưới nhau e sẽ khổ gấp trăm lần bây giờ"
            },
            "replies": [
                {
                    "reply_content": "Không nên nha Vì bạn có nói có ý tốt thì chắc gì họ đã tinCó những thứ chỉ nghe người ta nói là ko đủ phải tự mình cảm nhận mới được"
                }
            ]
        },
        {
            "parent_comment": {
                "parent_content": "Bây giờ e băn khoăn ko biết là có nên nói cho bạn gái mới của anh ấy biết về quá khứ của anh ay ko? Chắc có người sẽ cho rằng e nhiều chuyện, ghen tuông này kia, đã chia tay rồi ko nên xen vào chuyện của nguoi khác nữa"
            },
            "replies": [
                {
                    "reply_content": "Không nên nha Vì bạn có nói có ý tốt thì chắc gì họ đã tinCó những thứ chỉ nghe người ta nói là ko đủ phải tự mình cảm nhận mới được"
                }
            ]
        },
        {
            "parent_comment": {
                "parent_content": "Nhưng thật sự với 1 nguồi đàn ông bội bạc thì có j de em bận tâm chứ? Em chỉ nghĩ cùng là phụ nữ với nhau, em ko muốn chị bạn gái của anh ấy sẽ lại giống em"
            },
            "replies": [
                {
                    "reply_content": "Không nên nha Vì bạn có nói có ý tốt thì chắc gì họ đã tinCó những thứ chỉ nghe người ta nói là ko đủ phải tự mình cảm nhận mới được"
                }
            ]
        },
        {
            "parent_comment": {
                "parent_content": " Anh ấy tuy học ko giỏi,có vẻ ham chơi nhưng bù lại là người đẹp trai, noi chuyện rất ngọt và rất ga lăng với mọi người nhất là con gái"
            },
            "replies": [
                {
                    "reply_content": "Những ng mà có tính NV thì sau này cũng k có đc HP đẹp.đọc snghi của b mình biết bạn là ng rất tốt.bjk nghĩ cho ng khác nhưng ai sẽ nghĩ cho b nè.tot nhất là b k nên nói.để c ấy iu r tự cảm nhận.chúc b tìm đc ng iu thương b thật nhìu nhé."
                }
            ]
        },
        {
            "parent_comment": {
                "parent_content": " Chuyện tình cảm của chúng e ko có nhiều người biết, vì anh ay noi mình còn nhỏ, nếu công khai cho gia dinh biet sợ nguoi lớn sẽ phản đối và ko cho quen"
            },
            "replies": [
                {
                    "reply_content": "Những ng mà có tính NV thì sau này cũng k có đc HP đẹp.đọc snghi của b mình biết bạn là ng rất tốt.bjk nghĩ cho ng khác nhưng ai sẽ nghĩ cho b nè.tot nhất là b k nên nói.để c ấy iu r tự cảm nhận.chúc b tìm đc ng iu thương b thật nhìu nhé."
                }
            ]
        },
        {
            "parent_comment": {
                "parent_content": " Anh ay noi anh ay di 2 năm về sợ e sẽ đổi thay quen với nguoi khác, vì anh rat thương e nên ko muốn mất em"
            },
            "replies": [
                {
                    "reply_content": "Những ng mà có tính NV thì sau này cũng k có đc HP đẹp.đọc snghi của b mình biết bạn là ng rất tốt.bjk nghĩ cho ng khác nhưng ai sẽ nghĩ cho b nè.tot nhất là b k nên nói.để c ấy iu r tự cảm nhận.chúc b tìm đc ng iu thương b thật nhìu nhé."
                }
            ]
        },
        {
            "parent_comment": {
                "parent_content": " Từ lúc anh ấy bước vào cty làm, tình cảm anh ấy dành cho e nhạt dần, anh ấy ko còn nhắn tin, gọi điện video call nữa, cũng ko còn dẫn e đi chơi ,đi ăn buffet, đi uống trà sữa như những lúc còn mặn nồng nữa"
            },
            "replies": [
                {
                    "reply_content": "Những ng mà có tính NV thì sau này cũng k có đc HP đẹp.đọc snghi của b mình biết bạn là ng rất tốt.bjk nghĩ cho ng khác nhưng ai sẽ nghĩ cho b nè.tot nhất là b k nên nói.để c ấy iu r tự cảm nhận.chúc b tìm đc ng iu thương b thật nhìu nhé."
                }
            ]
        },
        {
            "parent_comment": {
                "parent_content": "E hỏi anh ấy vậy thì những thứ quý giá nhất e dành cho anh thì sao? Anh ấy bảo cái đó là e tình nguyện mà, e dễ dãi, e cho anh dc thì cũng cho người khác dc thôi co j đâu "
            },
            "replies": [
                {
                    "reply_content": "Những ng mà có tính NV thì sau này cũng k có đc HP đẹp.đọc snghi của b mình biết bạn là ng rất tốt.bjk nghĩ cho ng khác nhưng ai sẽ nghĩ cho b nè.tot nhất là b k nên nói.để c ấy iu r tự cảm nhận.chúc b tìm đc ng iu thương b thật nhìu nhé."
                }
            ]
        },
        {
            "parent_comment": {
                "parent_content": " Sau đó anh ấy block fb, block zalo e, chặn sđt e, e tạo fb mới để nt cho a thì a chặn ngay, anh sợ e làm phiền nên thay đổi fb liên tục"
            },
            "replies": [
                {
                    "reply_content": "Những ng mà có tính NV thì sau này cũng k có đc HP đẹp.đọc snghi của b mình biết bạn là ng rất tốt.bjk nghĩ cho ng khác nhưng ai sẽ nghĩ cho b nè.tot nhất là b k nên nói.để c ấy iu r tự cảm nhận.chúc b tìm đc ng iu thương b thật nhìu nhé."
                }
            ]
        },
        {
            "parent_comment": {
                "parent_content": " Và kể cả chuyện quá khứ anh ấy từng bỏ học ăn chơi rồi tụ tập đua xe hút chích với những người xã hội đen"
            },
            "replies": [
                {
                    "reply_content": "Những ng mà có tính NV thì sau này cũng k có đc HP đẹp.đọc snghi của b mình biết bạn là ng rất tốt.bjk nghĩ cho ng khác nhưng ai sẽ nghĩ cho b nè.tot nhất là b k nên nói.để c ấy iu r tự cảm nhận.chúc b tìm đc ng iu thương b thật nhìu nhé."
                }
            ]
        },
        {
            "parent_comment": {
                "parent_content": " Anh ấy còn cảnh cáo em nếu đi nói lung tung chuyện quá khứ của anh ấy thì anh ấy sẽ kêu giang hồ xử e"
            },
            "replies": [
                {
                    "reply_content": "Những ng mà có tính NV thì sau này cũng k có đc HP đẹp.đọc snghi của b mình biết bạn là ng rất tốt.bjk nghĩ cho ng khác nhưng ai sẽ nghĩ cho b nè.tot nhất là b k nên nói.để c ấy iu r tự cảm nhận.chúc b tìm đc ng iu thương b thật nhìu nhé."
                }
            ]
        },
        {
            "parent_comment": {
                "parent_content": "Anh ấy nói đi xem bói thầy bói bảo anh và chị kia hợp tuổi, coi NHÂN TƯỚNG thì bảo 2 nguoi có nét phu thê, cưới nhau sẽ hạnh phúc giàu có"
            },
            "replies": [
                {
                    "reply_content": "Những ng mà có tính NV thì sau này cũng k có đc HP đẹp.đọc snghi của b mình biết bạn là ng rất tốt.bjk nghĩ cho ng khác nhưng ai sẽ nghĩ cho b nè.tot nhất là b k nên nói.để c ấy iu r tự cảm nhận.chúc b tìm đc ng iu thương b thật nhìu nhé."
                }
            ]
        },
        {
            "parent_comment": {
                "parent_content": "1 thời gian sau e nghe bạn bè nói anh ấy đã chính thức công khai hẹn hò tung hình ảnh yêu đương tình tứ với CHỊ GÁI làm chung LỚN HƠN 4 tuổi lên mạng xã hội"
            },
            "replies": [
                {
                    "reply_content": "Những ng mà có tính NV thì sau này cũng k có đc HP đẹp.đọc snghi của b mình biết bạn là ng rất tốt.bjk nghĩ cho ng khác nhưng ai sẽ nghĩ cho b nè.tot nhất là b k nên nói.để c ấy iu r tự cảm nhận.chúc b tìm đc ng iu thương b thật nhìu nhé."
                }
            ]
        },
        {
            "parent_comment": {
                "parent_content": " Những hình ảnh nắm tay hôn hít tình tứ ân ái lãng mạn giữa Anh và CHỊ GÁI hơn 4 tuổi luôn dc update liên tục kèm những câu ngôn tình ngọt ngào mà ngày xưa anh đã từng nói với em giờ anh đã dành cho chị gái kia"
            },
            "replies": [
                {
                    "reply_content": "Những ng mà có tính NV thì sau này cũng k có đc HP đẹp.đọc snghi của b mình biết bạn là ng rất tốt.bjk nghĩ cho ng khác nhưng ai sẽ nghĩ cho b nè.tot nhất là b k nên nói.để c ấy iu r tự cảm nhận.chúc b tìm đc ng iu thương b thật nhìu nhé."
                }
            ]
        },
        {
            "parent_comment": {
                "parent_content": " Bởi vì em cảm thấy mình may mắn vì đã kịp nhận ra bản chất thật sự của anh ấy, nếu ko sau này cưới nhau e sẽ khổ gấp trăm lần bây giờ"
            },
            "replies": [
                {
                    "reply_content": "Những ng mà có tính NV thì sau này cũng k có đc HP đẹp.đọc snghi của b mình biết bạn là ng rất tốt.bjk nghĩ cho ng khác nhưng ai sẽ nghĩ cho b nè.tot nhất là b k nên nói.để c ấy iu r tự cảm nhận.chúc b tìm đc ng iu thương b thật nhìu nhé."
                }
            ]
        },
        {
            "parent_comment": {
                "parent_content": "Bây giờ e băn khoăn ko biết là có nên nói cho bạn gái mới của anh ấy biết về quá khứ của anh ay ko? Chắc có người sẽ cho rằng e nhiều chuyện, ghen tuông này kia, đã chia tay rồi ko nên xen vào chuyện của nguoi khác nữa"
            },
            "replies": [
                {
                    "reply_content": "Những ng mà có tính NV thì sau này cũng k có đc HP đẹp.đọc snghi của b mình biết bạn là ng rất tốt.bjk nghĩ cho ng khác nhưng ai sẽ nghĩ cho b nè.tot nhất là b k nên nói.để c ấy iu r tự cảm nhận.chúc b tìm đc ng iu thương b thật nhìu nhé."
                }
            ]
        },
        {
            "parent_comment": {
                "parent_content": "Nhưng thật sự với 1 nguồi đàn ông bội bạc thì có j de em bận tâm chứ? Em chỉ nghĩ cùng là phụ nữ với nhau, em ko muốn chị bạn gái của anh ấy sẽ lại giống em"
            },
            "replies": [
                {
                    "reply_content": "Những ng mà có tính NV thì sau này cũng k có đc HP đẹp.đọc snghi của b mình biết bạn là ng rất tốt.bjk nghĩ cho ng khác nhưng ai sẽ nghĩ cho b nè.tot nhất là b k nên nói.để c ấy iu r tự cảm nhận.chúc b tìm đc ng iu thương b thật nhìu nhé."
                }
            ]
        },
        {
            "parent_comment": {
                "parent_content": " Anh ấy tuy học ko giỏi,có vẻ ham chơi nhưng bù lại là người đẹp trai, noi chuyện rất ngọt và rất ga lăng với mọi người nhất là con gái"
            },
            "replies": [
                {
                    "reply_content": "Hôm nay anh xem phim Bố Già của Trấn Thành về cứ “ám ảnh” đúng 1 câu “hãy sống cuộc đời của mỗi người” ah! Đoạn đầu đời của em đã khổ rồi, đã đau rồi, đã có bài học rồi nên giờ sống tiếp, sống trọn vẹn với đoạn đời tiếp theo “của riêng em” thật ý nghĩa, bình an và hạnh phúc nhé!:D"
                }
            ]
        },
        {
            "parent_comment": {
                "parent_content": " Chuyện tình cảm của chúng e ko có nhiều người biết, vì anh ay noi mình còn nhỏ, nếu công khai cho gia dinh biet sợ nguoi lớn sẽ phản đối và ko cho quen"
            },
            "replies": [
                {
                    "reply_content": "Hôm nay anh xem phim Bố Già của Trấn Thành về cứ “ám ảnh” đúng 1 câu “hãy sống cuộc đời của mỗi người” ah! Đoạn đầu đời của em đã khổ rồi, đã đau rồi, đã có bài học rồi nên giờ sống tiếp, sống trọn vẹn với đoạn đời tiếp theo “của riêng em” thật ý nghĩa, bình an và hạnh phúc nhé!:D"
                }
            ]
        },
        {
            "parent_comment": {
                "parent_content": " Anh ay noi anh ay di 2 năm về sợ e sẽ đổi thay quen với nguoi khác, vì anh rat thương e nên ko muốn mất em"
            },
            "replies": [
                {
                    "reply_content": "Hôm nay anh xem phim Bố Già của Trấn Thành về cứ “ám ảnh” đúng 1 câu “hãy sống cuộc đời của mỗi người” ah! Đoạn đầu đời của em đã khổ rồi, đã đau rồi, đã có bài học rồi nên giờ sống tiếp, sống trọn vẹn với đoạn đời tiếp theo “của riêng em” thật ý nghĩa, bình an và hạnh phúc nhé!:D"
                }
            ]
        },
        {
            "parent_comment": {
                "parent_content": " Từ lúc anh ấy bước vào cty làm, tình cảm anh ấy dành cho e nhạt dần, anh ấy ko còn nhắn tin, gọi điện video call nữa, cũng ko còn dẫn e đi chơi ,đi ăn buffet, đi uống trà sữa như những lúc còn mặn nồng nữa"
            },
            "replies": [
                {
                    "reply_content": "Hôm nay anh xem phim Bố Già của Trấn Thành về cứ “ám ảnh” đúng 1 câu “hãy sống cuộc đời của mỗi người” ah! Đoạn đầu đời của em đã khổ rồi, đã đau rồi, đã có bài học rồi nên giờ sống tiếp, sống trọn vẹn với đoạn đời tiếp theo “của riêng em” thật ý nghĩa, bình an và hạnh phúc nhé!:D"
                }
            ]
        },
        {
            "parent_comment": {
                "parent_content": "E hỏi anh ấy vậy thì những thứ quý giá nhất e dành cho anh thì sao? Anh ấy bảo cái đó là e tình nguyện mà, e dễ dãi, e cho anh dc thì cũng cho người khác dc thôi co j đâu "
            },
            "replies": [
                {
                    "reply_content": "Hôm nay anh xem phim Bố Già của Trấn Thành về cứ “ám ảnh” đúng 1 câu “hãy sống cuộc đời của mỗi người” ah! Đoạn đầu đời của em đã khổ rồi, đã đau rồi, đã có bài học rồi nên giờ sống tiếp, sống trọn vẹn với đoạn đời tiếp theo “của riêng em” thật ý nghĩa, bình an và hạnh phúc nhé!:D"
                }
            ]
        },
        {
            "parent_comment": {
                "parent_content": " Sau đó anh ấy block fb, block zalo e, chặn sđt e, e tạo fb mới để nt cho a thì a chặn ngay, anh sợ e làm phiền nên thay đổi fb liên tục"
            },
            "replies": [
                {
                    "reply_content": "Hôm nay anh xem phim Bố Già của Trấn Thành về cứ “ám ảnh” đúng 1 câu “hãy sống cuộc đời của mỗi người” ah! Đoạn đầu đời của em đã khổ rồi, đã đau rồi, đã có bài học rồi nên giờ sống tiếp, sống trọn vẹn với đoạn đời tiếp theo “của riêng em” thật ý nghĩa, bình an và hạnh phúc nhé!:D"
                }
            ]
        },
        {
            "parent_comment": {
                "parent_content": " Và kể cả chuyện quá khứ anh ấy từng bỏ học ăn chơi rồi tụ tập đua xe hút chích với những người xã hội đen"
            },
            "replies": [
                {
                    "reply_content": "Hôm nay anh xem phim Bố Già của Trấn Thành về cứ “ám ảnh” đúng 1 câu “hãy sống cuộc đời của mỗi người” ah! Đoạn đầu đời của em đã khổ rồi, đã đau rồi, đã có bài học rồi nên giờ sống tiếp, sống trọn vẹn với đoạn đời tiếp theo “của riêng em” thật ý nghĩa, bình an và hạnh phúc nhé!:D"
                }
            ]
        },
        {
            "parent_comment": {
                "parent_content": " Anh ấy còn cảnh cáo em nếu đi nói lung tung chuyện quá khứ của anh ấy thì anh ấy sẽ kêu giang hồ xử e"
            },
            "replies": [
                {
                    "reply_content": "Hôm nay anh xem phim Bố Già của Trấn Thành về cứ “ám ảnh” đúng 1 câu “hãy sống cuộc đời của mỗi người” ah! Đoạn đầu đời của em đã khổ rồi, đã đau rồi, đã có bài học rồi nên giờ sống tiếp, sống trọn vẹn với đoạn đời tiếp theo “của riêng em” thật ý nghĩa, bình an và hạnh phúc nhé!:D"
                }
            ]
        },
        {
            "parent_comment": {
                "parent_content": "Anh ấy nói đi xem bói thầy bói bảo anh và chị kia hợp tuổi, coi NHÂN TƯỚNG thì bảo 2 nguoi có nét phu thê, cưới nhau sẽ hạnh phúc giàu có"
            },
            "replies": [
                {
                    "reply_content": "Hôm nay anh xem phim Bố Già của Trấn Thành về cứ “ám ảnh” đúng 1 câu “hãy sống cuộc đời của mỗi người” ah! Đoạn đầu đời của em đã khổ rồi, đã đau rồi, đã có bài học rồi nên giờ sống tiếp, sống trọn vẹn với đoạn đời tiếp theo “của riêng em” thật ý nghĩa, bình an và hạnh phúc nhé!:D"
                }
            ]
        },
        {
            "parent_comment": {
                "parent_content": "1 thời gian sau e nghe bạn bè nói anh ấy đã chính thức công khai hẹn hò tung hình ảnh yêu đương tình tứ với CHỊ GÁI làm chung LỚN HƠN 4 tuổi lên mạng xã hội"
            },
            "replies": [
                {
                    "reply_content": "Hôm nay anh xem phim Bố Già của Trấn Thành về cứ “ám ảnh” đúng 1 câu “hãy sống cuộc đời của mỗi người” ah! Đoạn đầu đời của em đã khổ rồi, đã đau rồi, đã có bài học rồi nên giờ sống tiếp, sống trọn vẹn với đoạn đời tiếp theo “của riêng em” thật ý nghĩa, bình an và hạnh phúc nhé!:D"
                }
            ]
        },
        {
            "parent_comment": {
                "parent_content": " Những hình ảnh nắm tay hôn hít tình tứ ân ái lãng mạn giữa Anh và CHỊ GÁI hơn 4 tuổi luôn dc update liên tục kèm những câu ngôn tình ngọt ngào mà ngày xưa anh đã từng nói với em giờ anh đã dành cho chị gái kia"
            },
            "replies": [
                {
                    "reply_content": "Hôm nay anh xem phim Bố Già của Trấn Thành về cứ “ám ảnh” đúng 1 câu “hãy sống cuộc đời của mỗi người” ah! Đoạn đầu đời của em đã khổ rồi, đã đau rồi, đã có bài học rồi nên giờ sống tiếp, sống trọn vẹn với đoạn đời tiếp theo “của riêng em” thật ý nghĩa, bình an và hạnh phúc nhé!:D"
                }
            ]
        },
        {
            "parent_comment": {
                "parent_content": " Bởi vì em cảm thấy mình may mắn vì đã kịp nhận ra bản chất thật sự của anh ấy, nếu ko sau này cưới nhau e sẽ khổ gấp trăm lần bây giờ"
            },
            "replies": [
                {
                    "reply_content": "Hôm nay anh xem phim Bố Già của Trấn Thành về cứ “ám ảnh” đúng 1 câu “hãy sống cuộc đời của mỗi người” ah! Đoạn đầu đời của em đã khổ rồi, đã đau rồi, đã có bài học rồi nên giờ sống tiếp, sống trọn vẹn với đoạn đời tiếp theo “của riêng em” thật ý nghĩa, bình an và hạnh phúc nhé!:D"
                }
            ]
        },
        {
            "parent_comment": {
                "parent_content": "Bây giờ e băn khoăn ko biết là có nên nói cho bạn gái mới của anh ấy biết về quá khứ của anh ay ko? Chắc có người sẽ cho rằng e nhiều chuyện, ghen tuông này kia, đã chia tay rồi ko nên xen vào chuyện của nguoi khác nữa"
            },
            "replies": [
                {
                    "reply_content": "Hôm nay anh xem phim Bố Già của Trấn Thành về cứ “ám ảnh” đúng 1 câu “hãy sống cuộc đời của mỗi người” ah! Đoạn đầu đời của em đã khổ rồi, đã đau rồi, đã có bài học rồi nên giờ sống tiếp, sống trọn vẹn với đoạn đời tiếp theo “của riêng em” thật ý nghĩa, bình an và hạnh phúc nhé!:D"
                }
            ]
        },
        {
            "parent_comment": {
                "parent_content": "Nhưng thật sự với 1 nguồi đàn ông bội bạc thì có j de em bận tâm chứ? Em chỉ nghĩ cùng là phụ nữ với nhau, em ko muốn chị bạn gái của anh ấy sẽ lại giống em"
            },
            "replies": [
                {
                    "reply_content": "Hôm nay anh xem phim Bố Già của Trấn Thành về cứ “ám ảnh” đúng 1 câu “hãy sống cuộc đời của mỗi người” ah! Đoạn đầu đời của em đã khổ rồi, đã đau rồi, đã có bài học rồi nên giờ sống tiếp, sống trọn vẹn với đoạn đời tiếp theo “của riêng em” thật ý nghĩa, bình an và hạnh phúc nhé!:D"
                }
            ]
        },
        {
            "parent_comment": {
                "parent_content": " Anh ấy tuy học ko giỏi,có vẻ ham chơi nhưng bù lại là người đẹp trai, noi chuyện rất ngọt và rất ga lăng với mọi người nhất là con gái"
            },
            "replies": [
                {
                    "reply_content": "Chị biết em có ý tốt, muốn ng khác tránh khỏi vết xe đổ em từng qua. Tuy nhiên khi em nói ra, khả năng lớn ng ta sẽ tin ng yêu mình hơn là tin ng yêu cũ của ng yêu mình. Em sẽ ko giúp được ng ta mà còn chuốc họa vào thân, có khi lại bị mang tiếng ng yêu cũ đánh ghen cố phá hoại ng yêu mới. Mỗi người có bài học riêng của mình, chỉ khi người ta cần em giúp thì em hãy nói, nếu không sẽ là \"can nghiệp\" , chỉ mang đến phiền muộn thôi. Bỏ câu chuyện kia ra 1 bên và tập trung phát triển bản thân thôi nha cô gái "
                }
            ]
        },
        {
            "parent_comment": {
                "parent_content": " Chuyện tình cảm của chúng e ko có nhiều người biết, vì anh ay noi mình còn nhỏ, nếu công khai cho gia dinh biet sợ nguoi lớn sẽ phản đối và ko cho quen"
            },
            "replies": [
                {
                    "reply_content": "Chị biết em có ý tốt, muốn ng khác tránh khỏi vết xe đổ em từng qua. Tuy nhiên khi em nói ra, khả năng lớn ng ta sẽ tin ng yêu mình hơn là tin ng yêu cũ của ng yêu mình. Em sẽ ko giúp được ng ta mà còn chuốc họa vào thân, có khi lại bị mang tiếng ng yêu cũ đánh ghen cố phá hoại ng yêu mới. Mỗi người có bài học riêng của mình, chỉ khi người ta cần em giúp thì em hãy nói, nếu không sẽ là \"can nghiệp\" , chỉ mang đến phiền muộn thôi. Bỏ câu chuyện kia ra 1 bên và tập trung phát triển bản thân thôi nha cô gái "
                }
            ]
        },
        {
            "parent_comment": {
                "parent_content": " Anh ay noi anh ay di 2 năm về sợ e sẽ đổi thay quen với nguoi khác, vì anh rat thương e nên ko muốn mất em"
            },
            "replies": [
                {
                    "reply_content": "Chị biết em có ý tốt, muốn ng khác tránh khỏi vết xe đổ em từng qua. Tuy nhiên khi em nói ra, khả năng lớn ng ta sẽ tin ng yêu mình hơn là tin ng yêu cũ của ng yêu mình. Em sẽ ko giúp được ng ta mà còn chuốc họa vào thân, có khi lại bị mang tiếng ng yêu cũ đánh ghen cố phá hoại ng yêu mới. Mỗi người có bài học riêng của mình, chỉ khi người ta cần em giúp thì em hãy nói, nếu không sẽ là \"can nghiệp\" , chỉ mang đến phiền muộn thôi. Bỏ câu chuyện kia ra 1 bên và tập trung phát triển bản thân thôi nha cô gái "
                }
            ]
        },
        {
            "parent_comment": {
                "parent_content": " Từ lúc anh ấy bước vào cty làm, tình cảm anh ấy dành cho e nhạt dần, anh ấy ko còn nhắn tin, gọi điện video call nữa, cũng ko còn dẫn e đi chơi ,đi ăn buffet, đi uống trà sữa như những lúc còn mặn nồng nữa"
            },
            "replies": [
                {
                    "reply_content": "Chị biết em có ý tốt, muốn ng khác tránh khỏi vết xe đổ em từng qua. Tuy nhiên khi em nói ra, khả năng lớn ng ta sẽ tin ng yêu mình hơn là tin ng yêu cũ của ng yêu mình. Em sẽ ko giúp được ng ta mà còn chuốc họa vào thân, có khi lại bị mang tiếng ng yêu cũ đánh ghen cố phá hoại ng yêu mới. Mỗi người có bài học riêng của mình, chỉ khi người ta cần em giúp thì em hãy nói, nếu không sẽ là \"can nghiệp\" , chỉ mang đến phiền muộn thôi. Bỏ câu chuyện kia ra 1 bên và tập trung phát triển bản thân thôi nha cô gái "
                }
            ]
        },
        {
            "parent_comment": {
                "parent_content": "E hỏi anh ấy vậy thì những thứ quý giá nhất e dành cho anh thì sao? Anh ấy bảo cái đó là e tình nguyện mà, e dễ dãi, e cho anh dc thì cũng cho người khác dc thôi co j đâu "
            },
            "replies": [
                {
                    "reply_content": "Chị biết em có ý tốt, muốn ng khác tránh khỏi vết xe đổ em từng qua. Tuy nhiên khi em nói ra, khả năng lớn ng ta sẽ tin ng yêu mình hơn là tin ng yêu cũ của ng yêu mình. Em sẽ ko giúp được ng ta mà còn chuốc họa vào thân, có khi lại bị mang tiếng ng yêu cũ đánh ghen cố phá hoại ng yêu mới. Mỗi người có bài học riêng của mình, chỉ khi người ta cần em giúp thì em hãy nói, nếu không sẽ là \"can nghiệp\" , chỉ mang đến phiền muộn thôi. Bỏ câu chuyện kia ra 1 bên và tập trung phát triển bản thân thôi nha cô gái "
                }
            ]
        },
        {
            "parent_comment": {
                "parent_content": " Sau đó anh ấy block fb, block zalo e, chặn sđt e, e tạo fb mới để nt cho a thì a chặn ngay, anh sợ e làm phiền nên thay đổi fb liên tục"
            },
            "replies": [
                {
                    "reply_content": "Chị biết em có ý tốt, muốn ng khác tránh khỏi vết xe đổ em từng qua. Tuy nhiên khi em nói ra, khả năng lớn ng ta sẽ tin ng yêu mình hơn là tin ng yêu cũ của ng yêu mình. Em sẽ ko giúp được ng ta mà còn chuốc họa vào thân, có khi lại bị mang tiếng ng yêu cũ đánh ghen cố phá hoại ng yêu mới. Mỗi người có bài học riêng của mình, chỉ khi người ta cần em giúp thì em hãy nói, nếu không sẽ là \"can nghiệp\" , chỉ mang đến phiền muộn thôi. Bỏ câu chuyện kia ra 1 bên và tập trung phát triển bản thân thôi nha cô gái "
                }
            ]
        },
        {
            "parent_comment": {
                "parent_content": " Và kể cả chuyện quá khứ anh ấy từng bỏ học ăn chơi rồi tụ tập đua xe hút chích với những người xã hội đen"
            },
            "replies": [
                {
                    "reply_content": "Chị biết em có ý tốt, muốn ng khác tránh khỏi vết xe đổ em từng qua. Tuy nhiên khi em nói ra, khả năng lớn ng ta sẽ tin ng yêu mình hơn là tin ng yêu cũ của ng yêu mình. Em sẽ ko giúp được ng ta mà còn chuốc họa vào thân, có khi lại bị mang tiếng ng yêu cũ đánh ghen cố phá hoại ng yêu mới. Mỗi người có bài học riêng của mình, chỉ khi người ta cần em giúp thì em hãy nói, nếu không sẽ là \"can nghiệp\" , chỉ mang đến phiền muộn thôi. Bỏ câu chuyện kia ra 1 bên và tập trung phát triển bản thân thôi nha cô gái "
                }
            ]
        },
        {
            "parent_comment": {
                "parent_content": " Anh ấy còn cảnh cáo em nếu đi nói lung tung chuyện quá khứ của anh ấy thì anh ấy sẽ kêu giang hồ xử e"
            },
            "replies": [
                {
                    "reply_content": "Chị biết em có ý tốt, muốn ng khác tránh khỏi vết xe đổ em từng qua. Tuy nhiên khi em nói ra, khả năng lớn ng ta sẽ tin ng yêu mình hơn là tin ng yêu cũ của ng yêu mình. Em sẽ ko giúp được ng ta mà còn chuốc họa vào thân, có khi lại bị mang tiếng ng yêu cũ đánh ghen cố phá hoại ng yêu mới. Mỗi người có bài học riêng của mình, chỉ khi người ta cần em giúp thì em hãy nói, nếu không sẽ là \"can nghiệp\" , chỉ mang đến phiền muộn thôi. Bỏ câu chuyện kia ra 1 bên và tập trung phát triển bản thân thôi nha cô gái "
                }
            ]
        },
        {
            "parent_comment": {
                "parent_content": "Anh ấy nói đi xem bói thầy bói bảo anh và chị kia hợp tuổi, coi NHÂN TƯỚNG thì bảo 2 nguoi có nét phu thê, cưới nhau sẽ hạnh phúc giàu có"
            },
            "replies": [
                {
                    "reply_content": "Chị biết em có ý tốt, muốn ng khác tránh khỏi vết xe đổ em từng qua. Tuy nhiên khi em nói ra, khả năng lớn ng ta sẽ tin ng yêu mình hơn là tin ng yêu cũ của ng yêu mình. Em sẽ ko giúp được ng ta mà còn chuốc họa vào thân, có khi lại bị mang tiếng ng yêu cũ đánh ghen cố phá hoại ng yêu mới. Mỗi người có bài học riêng của mình, chỉ khi người ta cần em giúp thì em hãy nói, nếu không sẽ là \"can nghiệp\" , chỉ mang đến phiền muộn thôi. Bỏ câu chuyện kia ra 1 bên và tập trung phát triển bản thân thôi nha cô gái "
                }
            ]
        },
        {
            "parent_comment": {
                "parent_content": "1 thời gian sau e nghe bạn bè nói anh ấy đã chính thức công khai hẹn hò tung hình ảnh yêu đương tình tứ với CHỊ GÁI làm chung LỚN HƠN 4 tuổi lên mạng xã hội"
            },
            "replies": [
                {
                    "reply_content": "Chị biết em có ý tốt, muốn ng khác tránh khỏi vết xe đổ em từng qua. Tuy nhiên khi em nói ra, khả năng lớn ng ta sẽ tin ng yêu mình hơn là tin ng yêu cũ của ng yêu mình. Em sẽ ko giúp được ng ta mà còn chuốc họa vào thân, có khi lại bị mang tiếng ng yêu cũ đánh ghen cố phá hoại ng yêu mới. Mỗi người có bài học riêng của mình, chỉ khi người ta cần em giúp thì em hãy nói, nếu không sẽ là \"can nghiệp\" , chỉ mang đến phiền muộn thôi. Bỏ câu chuyện kia ra 1 bên và tập trung phát triển bản thân thôi nha cô gái "
                }
            ]
        },
        {
            "parent_comment": {
                "parent_content": " Những hình ảnh nắm tay hôn hít tình tứ ân ái lãng mạn giữa Anh và CHỊ GÁI hơn 4 tuổi luôn dc update liên tục kèm những câu ngôn tình ngọt ngào mà ngày xưa anh đã từng nói với em giờ anh đã dành cho chị gái kia"
            },
            "replies": [
                {
                    "reply_content": "Chị biết em có ý tốt, muốn ng khác tránh khỏi vết xe đổ em từng qua. Tuy nhiên khi em nói ra, khả năng lớn ng ta sẽ tin ng yêu mình hơn là tin ng yêu cũ của ng yêu mình. Em sẽ ko giúp được ng ta mà còn chuốc họa vào thân, có khi lại bị mang tiếng ng yêu cũ đánh ghen cố phá hoại ng yêu mới. Mỗi người có bài học riêng của mình, chỉ khi người ta cần em giúp thì em hãy nói, nếu không sẽ là \"can nghiệp\" , chỉ mang đến phiền muộn thôi. Bỏ câu chuyện kia ra 1 bên và tập trung phát triển bản thân thôi nha cô gái "
                }
            ]
        },
        {
            "parent_comment": {
                "parent_content": " Bởi vì em cảm thấy mình may mắn vì đã kịp nhận ra bản chất thật sự của anh ấy, nếu ko sau này cưới nhau e sẽ khổ gấp trăm lần bây giờ"
            },
            "replies": [
                {
                    "reply_content": "Chị biết em có ý tốt, muốn ng khác tránh khỏi vết xe đổ em từng qua. Tuy nhiên khi em nói ra, khả năng lớn ng ta sẽ tin ng yêu mình hơn là tin ng yêu cũ của ng yêu mình. Em sẽ ko giúp được ng ta mà còn chuốc họa vào thân, có khi lại bị mang tiếng ng yêu cũ đánh ghen cố phá hoại ng yêu mới. Mỗi người có bài học riêng của mình, chỉ khi người ta cần em giúp thì em hãy nói, nếu không sẽ là \"can nghiệp\" , chỉ mang đến phiền muộn thôi. Bỏ câu chuyện kia ra 1 bên và tập trung phát triển bản thân thôi nha cô gái "
                }
            ]
        },
        {
            "parent_comment": {
                "parent_content": "Bây giờ e băn khoăn ko biết là có nên nói cho bạn gái mới của anh ấy biết về quá khứ của anh ay ko? Chắc có người sẽ cho rằng e nhiều chuyện, ghen tuông này kia, đã chia tay rồi ko nên xen vào chuyện của nguoi khác nữa"
            },
            "replies": [
                {
                    "reply_content": "Chị biết em có ý tốt, muốn ng khác tránh khỏi vết xe đổ em từng qua. Tuy nhiên khi em nói ra, khả năng lớn ng ta sẽ tin ng yêu mình hơn là tin ng yêu cũ của ng yêu mình. Em sẽ ko giúp được ng ta mà còn chuốc họa vào thân, có khi lại bị mang tiếng ng yêu cũ đánh ghen cố phá hoại ng yêu mới. Mỗi người có bài học riêng của mình, chỉ khi người ta cần em giúp thì em hãy nói, nếu không sẽ là \"can nghiệp\" , chỉ mang đến phiền muộn thôi. Bỏ câu chuyện kia ra 1 bên và tập trung phát triển bản thân thôi nha cô gái "
                }
            ]
        },
        {
            "parent_comment": {
                "parent_content": "Nhưng thật sự với 1 nguồi đàn ông bội bạc thì có j de em bận tâm chứ? Em chỉ nghĩ cùng là phụ nữ với nhau, em ko muốn chị bạn gái của anh ấy sẽ lại giống em"
            },
            "replies": [
                {
                    "reply_content": "Chị biết em có ý tốt, muốn ng khác tránh khỏi vết xe đổ em từng qua. Tuy nhiên khi em nói ra, khả năng lớn ng ta sẽ tin ng yêu mình hơn là tin ng yêu cũ của ng yêu mình. Em sẽ ko giúp được ng ta mà còn chuốc họa vào thân, có khi lại bị mang tiếng ng yêu cũ đánh ghen cố phá hoại ng yêu mới. Mỗi người có bài học riêng của mình, chỉ khi người ta cần em giúp thì em hãy nói, nếu không sẽ là \"can nghiệp\" , chỉ mang đến phiền muộn thôi. Bỏ câu chuyện kia ra 1 bên và tập trung phát triển bản thân thôi nha cô gái "
                }
            ]
        }
    ]
}