{
    "post": "2909006072655455",
    "link": "https://facebook.com/groups/2030035913885813/permalink/2909006072655455",
    "post_comments": [
        {
            "parent_comment": {
                "parent_user": "Thái An",
                "parent_content": "Đen thôi , đỏ nên quên đi "
            },
            "replies": [
                {
                    "reply_user": "Đỗ Bảo",
                    "reply_content": " haizzz,h lòng buồn và đau cực kì luôn a trai"
                },
                {
                    "reply_user": "Thái An",
                    "reply_content": " đừng trách ai cả , là do mình cho người ta cơ hội làm tổn thương thôi "
                },
                {
                    "reply_user": "Đỗ Bảo",
                    "reply_content": " chắc là do e khờ lắm"
                }
            ]
        }
    ]
}