{
    "post": "2806369472919116",
    "link": "https://facebook.com/groups/2030035913885813/permalink/2806369472919116",
    "post_comments": [
        {
            "parent_comment": {
                "parent_user": "Tuyet Trắng",
                "parent_content": "Vô tình gặp lại nyc còn hỏi e hp chưa,trả lời thế nào này "
            },
            "replies": [
                {
                    "reply_user": "Trọng NguyễnĐình",
                    "reply_content": " haha...tào lao"
                },
                {
                    "reply_user": "Tuyet Trắng",
                    "reply_content": " nói thiệt mà "
                },
                {
                    "reply_user": "Trọng NguyễnĐình",
                    "reply_content": " thì e vẫn hạnh phúc chứ sao "
                },
                {
                    "reply_user": "Tuyet Trắng",
                    "reply_content": " tui tl hok thấy mặt a e mới hp "
                }
            ]
        }
    ]
}