{
    "post": "2560525250836874",
    "link": "https://facebook.com/groups/2030035913885813/permalink/2560525250836874",
    "post_comments": [
        {
            "parent_comment": {
                "parent_user": "Gia Hạo",
                "parent_content": "Hãy lựa chọn 1 ng bạn để ts..hoặc 1 trang fb để làm.nk.trút hết vào đó.ít nhất cũng nhẹ nhõm hơn..chúc b sớm vượt qua đc nỗi bùn và khúc mắc trong lòng"
            },
            "replies": [
                {
                    "reply_user": "Cô Đơn",
                    "reply_content": " cảm ơn bạn  nhiều giờ m cũng đã hiểu ra những điều đó  trưởng thành là phải trải qua"
                },
                {
                    "reply_user": "Gia Hạo",
                    "reply_content": " và tgian là điều hay nhất để làm ta dịu với nỗi đau "
                },
                {
                    "reply_user": "Cô Đơn",
                    "reply_content": " Dạ đúng là vậy cảm ơn b"
                }
            ]
        }
    ]
}