{
    "post": "2867230770166319",
    "link": "https://facebook.com/groups/2030035913885813/permalink/2867230770166319",
    "post_comments": [
        {
            "parent_comment": {
                "parent_user": "Tuyet Trắng",
                "parent_content": "Thứ mà chúng ta thua chính là thử thách của thời gian.Cố lên chàng trai mọi thứ rồi sẽ ổn"
            },
            "replies": [
                {
                    "reply_user": "Hoàng Tuyền",
                    "reply_content": "  có những thứ khắc sâu, thời gian chỉ giúp ta quen dần mà ko phải chữa lành, vẫn thấy đau"
                },
                {
                    "reply_user": "Tuyet Trắng",
                    "reply_content": "Tà Quân nói là quen dần với nó nhưng cảm giác đau nó vẫn mãi âm ỉ ở đó,thứ không thể đối diện chính là lừa dối bản thân mình bảo là quên nhưng mọi thứ vẫn còn mãi nơi đó"
                },
                {
                    "reply_user": "Hoàng Tuyền",
                    "reply_content": "  nhưng sau cùng còn được gì đâu"
                },
                {
                    "reply_user": "Tuyet Trắng",
                    "reply_content": "Tà Quân còn gì ngoài vết thương lòng "
                }
            ]
        },
        {
            "parent_comment": {
                "parent_user": "Mai Nguyễn",
                "parent_content": "Thật sự bất lực! Đến khi chia tay cũng ko thể đứng trước mặt để nói cho đàng hoàng 1 câu."
            },
            "replies": [
                {
                    "reply_user": "Hoàng Tuyền",
                    "reply_content": "  còn yêu nhưng vì mệt mõi mà chẳng thể tiếp tục, ở quá xa ta lại chẳng thể níu keo"
                },
                {
                    "reply_user": "Mai Nguyễn",
                    "reply_content": "Tà Quân Nếu như ko xa thì chắc mọi chuyện đã khác. Không thể biết được đó lại là lần cuối cùng ta gặp nhau.."
                },
                {
                    "reply_user": "Hoàng Tuyền",
                    "reply_content": "  hy vọng rồi mọi thứ sẽ sớm ổn, sẽ sớm tốt hơn. Còn có cơ hội quay về"
                }
            ]
        }
    ]
}