{
    "post": "786541612281015",
    "link": "https://facebook.com/groups/608021373466374/permalink/786541612281015",
    "post_comments": [
        {
            "parent_comment": {
                "parent_user": "Uyển Nhii",
                "parent_content": "Ck ju nói hay wá "
            },
            "replies": [
                {
                    "reply_user": "Tri Nhân",
                    "reply_content": " sủa dơ"
                },
                {
                    "reply_user": "Uyển Nhii",
                    "reply_content": " tối mất acc"
                },
                {
                    "reply_user": "Tri Nhân",
                    "reply_content": " ?"
                }
            ]
        }
    ]
}