{
    "post": "784180829183760",
    "link": "https://facebook.com/groups/608021373466374/permalink/784180829183760",
    "post_comments": [
        {
            "parent_comment": {
                "parent_user": "Thành Công",
                "parent_content": "Huy Nguyễn Quang Trọng Đỗ KiệtHữu Tâm"
            },
            "replies": [
                {
                    "reply_user": "Huy Nguyễn",
                    "reply_content": "  thua Lên trời luôn á"
                },
                {
                    "reply_user": "Thành Công",
                    "reply_content": " bỏ dô vape của kiệt"
                },
                {
                    "reply_user": "Huy Nguyễn",
                    "reply_content": "  thôi em không chơi đâu"
                }
            ]
        },
        {
            "parent_comment": {
                "parent_user": "Vu Phong",
                "parent_content": "Cần)))"
            },
            "replies": [
                {
                    "reply_user": "Hân Vương",
                    "reply_content": "Khoa Quách Trường Thịnh á à"
                },
                {
                    "reply_user": "Vu Phong",
                    "reply_content": "Cbd là cần  mà)))"
                },
                {
                    "reply_user": "Hân Vương",
                    "reply_content": " tag chơi mà "
                }
            ]
        },
        {
            "parent_comment": {
                "parent_user": "Le Thi Ngoc Anh",
                "parent_content": "cbd là gì ạ????"
            },
            "replies": [
                {
                    "reply_user": "Thành Đạt",
                    "reply_content": " ma tuý"
                },
                {
                    "reply_user": "Le Thi Ngoc Anh",
                    "reply_content": " ỏww thank kiu"
                },
                {
                    "reply_user": "Thành Đạt",
                    "reply_content": "Bout Bùi nó là ma tuý mẹ rồi"
                },
                {
                    "reply_user": "Le Thi Ngoc Anh",
                    "reply_content": " Nihoni ??"
                }
            ]
        },
        {
            "parent_comment": {
                "parent_user": "Trần Hoài Nam",
                "parent_content": "Rác"
            },
            "replies": [
                {
                    "reply_user": "Nguyễn Trung",
                    "reply_content": " ok"
                },
                {
                    "reply_user": "Trần Hoài Nam",
                    "reply_content": " out gr"
                },
                {
                    "reply_user": "Nguyễn Trung",
                    "reply_content": " ok =))"
                }
            ]
        }
    ]
}