{
    "post": "786606052274571",
    "link": "https://facebook.com/groups/608021373466374/permalink/786606052274571",
    "post_comments": [
        {
            "parent_comment": {
                "parent_user": "Kiên Đang Ôn Thi",
                "parent_content": "Thế là thay thế, thế chỗ ý ạ :)) cũng đc mà :)) "
            },
            "replies": [
                {
                    "reply_user": "Nguyễn Thị Quỳnh",
                    "reply_content": " the cho ai =))"
                },
                {
                    "reply_user": "Kiên Đang Ôn Thi",
                    "reply_content": " khong phai nguoi thay the, ko the cho ai het :)) Kpart1 :))"
                },
                {
                    "reply_user": "Nguyễn Thị Quỳnh",
                    "reply_content": " skien part 3 "
                },
                {
                    "reply_user": "Kiên Đang Ôn Thi",
                    "reply_content": " tha, ai day day :))"
                }
            ]
        },
        {
            "parent_comment": {
                "parent_user": "Nguyễn Duy Anh Quyền",
                "parent_content": "Vậy là chưa biết Ole Solskjaer rồi. Dự bị mà vào sân đóng quả nào lụm tiền quả đó."
            },
            "replies": [
                {
                    "reply_user": "Duong",
                    "reply_content": " có mấy ai được như ổng?"
                },
                {
                    "reply_user": "Nguyễn Duy Anh Quyền",
                    "reply_content": " Chicharito "
                },
                {
                    "reply_user": "Duong",
                    "reply_content": "Tròi oi, ý tôi là còn bao nhiêu người dự bị nhưng các ông kể mỗi vài người thế này thì vớt vát sao được số người dự bị kia :((( ai cũng được như mấy người các ông kể thì phúc 7749 đời rồi "
                }
            ]
        },
        {
            "parent_comment": {
                "parent_user": "Đăng Khôi",
                "parent_content": "Ừa dự bị thiệt chứ có đc đá đâu"
            },
            "replies": [
                {
                    "reply_user": "Nhan Tuyết Anh",
                    "reply_content": " saoo z"
                },
                {
                    "reply_user": "Đăng Khôi",
                    "reply_content": " tâm lí "
                },
                {
                    "reply_user": "Nhan Tuyết Anh",
                    "reply_content": " hoi ăn chân gà cho đỡ bùn ne"
                },
                {
                    "reply_user": "Đăng Khôi",
                    "reply_content": " đâu cho đi"
                },
                {
                    "reply_user": "Nhan Tuyết Anh",
                    "reply_content": " đưa hòa"
                },
                {
                    "reply_user": "Đăng Khôi",
                    "reply_content": " đưa chưa"
                },
                {
                    "reply_user": "Nhan Tuyết Anh",
                    "reply_content": " mai lay"
                }
            ]
        },
        {
            "parent_comment": {
                "parent_user": "Trần Thân Thiện",
                "parent_content": "đc đá tao đá zô cái đầu mày "
            },
            "replies": [
                {
                    "reply_user": "Thanh Thư",
                    "reply_content": " ác qá"
                },
                {
                    "reply_user": "Trần Thân Thiện",
                    "reply_content": " nhân cách hun dữ của mìn th "
                },
                {
                    "reply_user": "Thanh Thư",
                    "reply_content": "m đừng có học theo t :))"
                },
                {
                    "reply_user": "Trần Thân Thiện",
                    "reply_content": "xin lỗi m, chiêu này của tao "
                }
            ]
        }
    ]
}