{
    "post": "784290162506160",
    "link": "https://facebook.com/groups/608021373466374/permalink/784290162506160",
    "post_comments": [
        {
            "parent_comment": {
                "parent_user": "Nguyễn Ngọc Quang Tuyền",
                "parent_content": ""
            },
            "replies": [
                {
                    "reply_user": "Ninh Thảo",
                    "reply_content": " là sao mầy , ếu hỉu j hết:)?"
                },
                {
                    "reply_user": "Nguyễn Ngọc Quang Tuyền",
                    "reply_content": " "
                },
                {
                    "reply_user": "Ninh Thảo",
                    "reply_content": ": / "
                },
                {
                    "reply_user": "Nguyễn Ngọc Quang Tuyền",
                    "reply_content": " Ko cách"
                },
                {
                    "reply_user": "Ninh Thảo",
                    "reply_content": "  "
                },
                {
                    "reply_user": "Nguyễn Ngọc Quang Tuyền",
                    "reply_content": " Nó đó"
                }
            ]
        }
    ]
}