{
    "post": "782279096040600",
    "link": "https://facebook.com/groups/608021373466374/permalink/782279096040600",
    "post_comments": [
        {
            "parent_comment": {
                "parent_user": "Trương Trần Nhật Quang",
                "parent_content": "b đéo có chim à "
            },
            "replies": [
                {
                    "reply_user": "Phạm Thanh Bình",
                    "reply_content": " bạn đéo có icon chim cánh cụt à?"
                },
                {
                    "reply_user": "Trương Trần Nhật Quang",
                    "reply_content": "ae ác thế"
                },
                {
                    "reply_user": "Phạm Thanh Bình",
                    "reply_content": " solo ap thua anh đáng bị vậy"
                },
                {
                    "reply_user": "Trương Trần Nhật Quang",
                    "reply_content": " 20 / 3 "
                },
                {
                    "reply_user": "Phạm Thanh Bình",
                    "reply_content": " em non lắm"
                },
                {
                    "reply_user": "Trương Trần Nhật Quang",
                    "reply_content": " 20/ 3 "
                },
                {
                    "reply_user": "Phạm Thanh Bình",
                    "reply_content": " "
                }
            ]
        }
    ]
}