{
    "post": "783526765915833",
    "link": "https://facebook.com/groups/608021373466374/permalink/783526765915833",
    "post_comments": [
        {
            "parent_comment": {
                "parent_user": "Bảo Thạch",
                "parent_content": "Tốt thành hậu trong cờ vua cho bạn nào k hiểu"
            },
            "replies": [
                {
                    "reply_user": "Võ Tấn Tài",
                    "reply_content": "cái đấy hầu như ai cũng hiểu, quan trọng là nghĩa còn lại trừ cái từ vựng \"tốt - hậu\" từ bàn cờ ra thì chữ hậu ở đây chả là cái quái gì cả, => vô nghĩa"
                },
                {
                    "reply_user": "Bảo Thạch",
                    "reply_content": "Thế thì giúp chủ tus set up lại hợp lí đi "
                },
                {
                    "reply_user": "Võ Tấn Tài",
                    "reply_content": "chưa kể schemes cờ này rất nhiều người dùng rồi nên setup sẽ trùng lặp và không hay"
                },
                {
                    "reply_user": "Bảo Thạch",
                    "reply_content": "Đồng tình là setup không ổn, nhưng mà  câu này vẫn tách biệt với mấy kiểu \"du chich cac cu lon\" trong grp này rồi :)))"
                }
            ]
        }
    ]
}