{
    "post": "781282529473590",
    "link": "https://facebook.com/groups/608021373466374/permalink/781282529473590",
    "post_comments": [
        {
            "parent_comment": {
                "parent_user": "Phạm Duy Phúc",
                "parent_content": "Hong hiểu"
            },
            "replies": [
                {
                    "reply_user": "Nguyễn Vũ Mai Loan",
                    "reply_content": " wuyt làm sai nhưng cả wuyt và cam chịu"
                },
                {
                    "reply_user": "Phạm Duy Phúc",
                    "reply_content": " thiệt là hem hiểu luôn á "
                },
                {
                    "reply_user": "Nguyễn Vũ Mai Loan",
                    "reply_content": " Cam chịu thay cho quýt?"
                }
            ]
        }
    ]
}