{
    "post": "782327372702439",
    "link": "https://facebook.com/groups/608021373466374/permalink/782327372702439",
    "post_comments": [
        {
            "parent_comment": {
                "parent_user": "Bichngoc Pham",
                "parent_content": "Ko chồng mà chửa thì làm sao ?"
            },
            "replies": [
                {
                    "reply_user": "Hoàng Oni",
                    "reply_content": " Dạ không sao bạn. Mình thấy nó hợp với câu sau lên dùng thôi. Chứ không có sự xúc phạm 1 cá nhân hay bất kì ai đâu ạ."
                },
                {
                    "reply_user": "Bichngoc Pham",
                    "reply_content": "Bạn viết thế những người như mình thấy tự ái cực kì :)) chẳng ai là muốn con mình k đầy đủ cả bố cả mẹ cả hêhhe"
                },
                {
                    "reply_user": "Hoàng Oni",
                    "reply_content": " xin lỗi bạn và mn. Thật lòng mong bạn thông cảm ạk. Mình không nghĩ chữ (không) nó gây ảnh hưởng lớn vậy.Mình sẽ sửa ạ"
                }
            ]
        }
    ]
}