{
    "post": "784113039190539",
    "link": "https://facebook.com/groups/608021373466374/permalink/784113039190539",
    "post_comments": [
        {
            "parent_comment": {
                "parent_user": "Hoàng Thị Thu Hiền",
                "parent_content": "Vũ Trần Cẩm Tiên  alo alo  đổi nàng thành chàng"
            },
            "replies": [
                {
                    "reply_user": "Trần Đức",
                    "reply_content": " cũng đc "
                },
                {
                    "reply_user": "Hoàng Thị Thu Hiền",
                    "reply_content": " cap xịn quá đó đar"
                },
                {
                    "reply_user": "Trần Đức",
                    "reply_content": "  mơn bạn "
                }
            ]
        }
    ]
}