{
    "post": "784373175831192",
    "link": "https://facebook.com/groups/608021373466374/permalink/784373175831192",
    "post_comments": [
        {
            "parent_comment": {
                "parent_user": "Đinh Trí Thức",
                "parent_content": "Phạm Nhật  ê ra coi thằng này trúa hmề này"
            },
            "replies": [
                {
                    "reply_user": "Phạm Nhật",
                    "reply_content": " cmm=))"
                },
                {
                    "reply_user": "Đinh Trí Thức",
                    "reply_content": " ơ tác giả hả ỏooo"
                },
                {
                    "reply_user": "Phạm Nhật",
                    "reply_content": " vãi l tứk bomay bomay vãi l tứk =))"
                },
                {
                    "reply_user": "Đinh Trí Thức",
                    "reply_content": " kí lùm mé tứk"
                }
            ]
        },
        {
            "parent_comment": {
                "parent_user": "Phùng Minh Đức",
                "parent_content": "Gke gkeeeee"
            },
            "replies": [
                {
                    "reply_user": "Phạm Nhật",
                    "reply_content": "post lấy tinh thần mai làm bài 1t "
                },
                {
                    "reply_user": "Phùng Minh Đức",
                    "reply_content": " Mai t cũng thi :))"
                },
                {
                    "reply_user": "Phạm Nhật",
                    "reply_content": "gud loock "
                }
            ]
        },
        {
            "parent_comment": {
                "parent_user": "Nguyễn Thị Ngọc Loan",
                "parent_content": "Ừm "
            },
            "replies": [
                {
                    "reply_user": "Phạm Nhật",
                    "reply_content": " ủa sao gr nhiều người quen zậy =)))"
                },
                {
                    "reply_user": "Nguyễn Thị Ngọc Loan",
                    "reply_content": " mắc j hok được quen :)))"
                },
                {
                    "reply_user": "Phạm Nhật",
                    "reply_content": "đông quá bị ngợp =(("
                }
            ]
        }
    ]
}