{
    "post": "374596310202357",
    "link": "https://facebook.com/groups/Emlanguoitotnhatthegian/permalink/374596310202357",
    "post_comments": [
        {
            "parent_comment": {
                "parent_user": "Nguyễn Thị Lộc Đếnn",
                "parent_content": "Deo can :))"
            },
            "replies": [
                {
                    "reply_user": "Huyềnn",
                    "reply_content": " cảm ơn  "
                }
            ]
        }
    ]
}