{
    "post": "375481750113813",
    "link": "https://facebook.com/groups/Emlanguoitotnhatthegian/permalink/375481750113813",
    "post_comments": [
        {
            "parent_comment": {
                "parent_user": "Trang Ngô",
                "parent_content": "Mình cũng hổng nói với ai lần đầu chiên trứng bị cháy cái khăn lau bếp đâu, mình thì hoảng loạn còn mẹ mình thì nhìn mình như kiểu \"con này đách phải do tau đẻ ra\""
            },
            "replies": [
                {
                    "reply_user": "Hoàng Linh",
                    "reply_content": " ơ nãy mẹ mới hỏi 'thấy cái nồi bình thường mẹ dùng để nấu canh đâu rồi con?' xong mình kiểu một mực giả trân 'con hổng biết...' kiểu này thì mai lo đi phi tang nhanh và trả nồi cho mẹ "
                },
                {
                    "reply_user": "Trang Ngô",
                    "reply_content": " lẹ đi chứ nó cứng ngắt khỏi chà luôn í "
                }
            ]
        }
    ]
}