{
    "post": "375533666775288",
    "link": "https://facebook.com/groups/Emlanguoitotnhatthegian/permalink/375533666775288",
    "post_comments": [
        {
            "parent_comment": {
                "parent_user": "Pham Phuong Anh",
                "parent_content": "Tức thì tức thật , nhưng lại dùng lời lẽ k tôn trọng ny mình vậy thì tôi khuyên bạn nên xem xét lại mqh này đi"
            },
            "replies": [
                {
                    "reply_user": "Mtuan Nguyen",
                    "reply_content": " cứ bềnh tễnh biết đâu lại hòa giải được, tình yêu đâu chỉ là con đường thẳng tắp đâu "
                }
            ]
        },
        {
            "parent_comment": {
                "parent_user": "Khanhh",
                "parent_content": "Nhiều lần hay mới 1 lần gần đây thôi"
            },
            "replies": [
                {
                    "reply_user": "Sơn Nguyễn",
                    "reply_content": "  Nhiều rồi ạ"
                },
                {
                    "reply_user": "Khanhh",
                    "reply_content": " 2 bạn yêu nhau lâu chưa, sao bạn kh nói chuyện với bạn kia, đã là người yêu thì nên tôn trọng đối phương"
                },
                {
                    "reply_user": "Sơn Nguyễn",
                    "reply_content": " lâu rồi mình cũng có nói rồi"
                },
                {
                    "reply_user": "Khanhh",
                    "reply_content": " bạn kia kh sửa được là chịu rồi, thấy mình quá quan trọng hay gì"
                }
            ]
        },
        {
            "parent_comment": {
                "parent_user": "Nguyễn Thuý Di",
                "parent_content": "Tổn thương thật à mnMình chửi ny là \" th lon, nói nhiều vc \" tại tức quá "
            },
            "replies": [
                {
                    "reply_user": "Mtuan Nguyen",
                    "reply_content": " con trai cũng như con gái à bạn ơi, nhiều đứa nhạy cảm nghe vậy tổn thương lắm, có khi cãi nhau ko sao nhưng vì nghe bị chửi vậy nên tình cảm mới giảm đi á"
                },
                {
                    "reply_user": "Nguyễn Thuý Di",
                    "reply_content": " nhắn tin chửi vậy thì ny mình kiểu suy sụp tổn thương Nhưng gặp ở ngoài mình chửi hơn v nữa nó vẫn trơ trơ cười :))"
                },
                {
                    "reply_user": "Mtuan Nguyen",
                    "reply_content": " tại vì nt thì ko biết được thái độ như nào á"
                }
            ]
        },
        {
            "parent_comment": {
                "parent_user": "Châu Thị Thanh Hằng",
                "parent_content": "Thế người yêu mình thích nghe mình chửi thì như nào ạ, mình bảo là không muốn chửi rồi í cứ bảo chửi đi"
            },
            "replies": [
                {
                    "reply_user": "Mtuan Nguyen",
                    "reply_content": " nó bị M đấy bạn, hành hạ nó bằng những trò hư đốn đi"
                },
                {
                    "reply_user": "Châu Thị Thanh Hằng",
                    "reply_content": " thiệt chứ chửi thấy thương vl mà cứ bảo tui chửi"
                }
            ]
        },
        {
            "parent_comment": {
                "parent_user": "Khải Như",
                "parent_content": "T chửi là hãm lon thuioo à. Bình thường vẫn hay đùa đùa nói thế. Nói như thế con trai tổn thương lắm à?"
            },
            "replies": [
                {
                    "reply_user": "Đào Xuân Đông",
                    "reply_content": " thì con trai không thích bị so sánh với loz á. con gái bị so với cái đầu buồi có thấy bực không"
                },
                {
                    "reply_user": "Khải Như",
                    "reply_content": " giỡn giỡn thui à. Còn lần gần đây nhất thì cãi nhau bực mình quá và mình có nói là \"m hamlon\" thôi. Nhưng hãm thật "
                }
            ]
        }
    ]
}