{
    "post": "374555333539788",
    "link": "https://facebook.com/groups/Emlanguoitotnhatthegian/permalink/374555333539788",
    "post_comments": [
        {
            "parent_comment": {
                "parent_user": "Mtuan Nguyen",
                "parent_content": "Đề nghị đổi tên gr thành \"Những câu chuyện linh tinh trừ một số thứ\""
            },
            "replies": [
                {
                    "reply_user": "Pham Phuong Anh",
                    "reply_content": "  :)))"
                }
            ]
        }
    ]
}