{
    "post": "377256576602997",
    "link": "https://facebook.com/groups/Emlanguoitotnhatthegian/permalink/377256576602997",
    "post_comments": [
        {
            "parent_comment": {
                "parent_user": "Triệu Dương",
                "parent_content": "Mk cũng hóng. Mk ra mồ hôi tay nhưng k nhiêu nv"
            },
            "replies": [
                {
                    "reply_user": "Nguyễn Thị Hồng Bích",
                    "reply_content": " huhu chơi đt mà k để ý nó nhỏ tong tỏng luôn ý :<"
                },
                {
                    "reply_user": "Triệu Dương",
                    "reply_content": " bạn bị nặng v ạ"
                },
                {
                    "reply_user": "Nguyễn Thị Hồng Bích",
                    "reply_content": " Ừ mình bị nặng vậy từ bé luôn ý"
                }
            ]
        },
        {
            "parent_comment": {
                "parent_user": "Bùi Văn Khánh",
                "parent_content": "Bảo ngâm nước muối trc khi đi ngủ tầm 30 phút"
            },
            "replies": [
                {
                    "reply_user": "Nguyễn Thị Hồng Bích",
                    "reply_content": " nước muối k thôi ạ? Có cần cho thêm gì k ạ?"
                },
                {
                    "reply_user": "Bùi Văn Khánh",
                    "reply_content": "  ko nhé còn có cả món nước lá lốt này (cũng ngâm tay), còn cách khắc phục tạm thời là thoa phấn rôm"
                },
                {
                    "reply_user": "Nguyễn Thị Hồng Bích",
                    "reply_content": " hix thoa phấn rôm k ăn thua vs mình luôn. Đi chọc bia mà thoa phấn rôm thì chỉ có đông thành cục chứ k hề làm tay hết mồ hôi luôn ಥ‿ಥ"
                },
                {
                    "reply_user": "Bùi Văn Khánh",
                    "reply_content": "  thế thì ngâm tay vào nước muối thấy trên mậng ng ta bảo thế"
                },
                {
                    "reply_user": "Nguyễn Thị Hồng Bích",
                    "reply_content": " Oke tui sẽ thử"
                },
                {
                    "reply_user": "Bùi Văn Khánh",
                    "reply_content": "  okee la"
                }
            ]
        },
        {
            "parent_comment": {
                "parent_user": "Nguyễn Thanh Tiến Đạt",
                "parent_content": "mình cũng bị như bạn  thậm chí tay mình còn lạnh nữa cơ  bạn có thể thử ăn lá lốt nha, mình đã ăn và giảm đi nhiều rồi á "
            },
            "replies": [
                {
                    "reply_user": "Nguyễn Thị Hồng Bích",
                    "reply_content": " tay t cũng lạnh ý. Mà ăn chả lá lốt, bò lá lốt hay ăn như nào thì đc ạ"
                },
                {
                    "reply_user": "Nguyễn Thanh Tiến Đạt",
                    "reply_content": " bạn có thể tay chân vào nước nấu lá lốt, hoặc lấy nấu với bò hay nấu canh gì cũng đc á"
                },
                {
                    "reply_user": "Nguyễn Thị Hồng Bích",
                    "reply_content": " Oke cảm ơn bạn nhaaaa"
                }
            ]
        },
        {
            "parent_comment": {
                "parent_user": "Việt Linh",
                "parent_content": "Đông y chữa được cái ra mồ hôi tay này á . Ngày bé mình cũng bị mẹ cắt thuốc uống mấy thang là hết à"
            },
            "replies": [
                {
                    "reply_user": "Ngọc Minh",
                    "reply_content": " ở đâu vậy bạn"
                }
            ]
        },
        {
            "parent_comment": {
                "parent_user": "Nhi",
                "parent_content": "tui cũng bị i như vầy nè, đã thế chỉ cần người lạ động vào tay một cái là tay cứng ngắt xong ra đầy mồ hôi luôn "
            },
            "replies": [
                {
                    "reply_user": "Nguyễn Thị Hồng Bích",
                    "reply_content": " đấy. Nghĩ đến ra mồ hôi tay là ra liền. Chạm vào tay ai bị cái mình cũng ra mồ hôi tay luôn"
                }
            ]
        },
        {
            "parent_comment": {
                "parent_user": "Hongchoi Sun",
                "parent_content": "Uống mật ong nhé hết đó"
            },
            "replies": [
                {
                    "reply_user": "Nguyễn Thị Hồng Bích",
                    "reply_content": " mật ong có sợ nóng người k ạ? Tại mình bị mụn ý sợ nóng nổi mụn chết ಥ‿ಥ"
                },
                {
                    "reply_user": "Hongchoi Sun",
                    "reply_content": " hong có đâu ún hành ngày đi cậu"
                },
                {
                    "reply_user": "Nguyễn Thị Hồng Bích",
                    "reply_content": " Ui thật à. Uống lâu k thì hết ạ"
                },
                {
                    "reply_user": "Hongchoi Sun",
                    "reply_content": " tuỳ cơ địa uống đến khi nào hết thì thôi! Uống tốt mà đẹp da tốt cho bảo tử. "
                },
                {
                    "reply_user": "Nguyễn Thị Hồng Bích",
                    "reply_content": " ồ vậy để mình thử "
                }
            ]
        },
        {
            "parent_comment": {
                "parent_user": "Ánh Tuyết",
                "parent_content": "Lướt điện thoại là bao điên. Cảm ứng vân tay thì k được.  làm đủ cách mà k hết"
            },
            "replies": [
                {
                    "reply_user": "Nguyễn Thị Hồng Bích",
                    "reply_content": " mình: chơi điện thoạiĐiện thoại: j đổ cốc nước vào mặt t "
                }
            ]
        },
        {
            "parent_comment": {
                "parent_user": "Nhi Ne Ko",
                "parent_content": "Không liên quan uống nước nhiều hay ít đâu ạ, do cơ thể tự cảm nhiệt với thời tiết í, giống như thay vì mồ hôi ra ở trán thì sẽ ra ở tay/chân..v..v.. (tùy cơ địa thì sẽ ra những chỗ khác nhau).Cách để hạn chế mồ hôi ra là bạn hãy giữ cho cơ thể thật khô thoáng nha, nếu được thì tắm nhiều xíu nè, tắm xong dùng phấn rôm em bé thoa lên tay đỡ lắm á."
            },
            "replies": [
                {
                    "reply_user": "Nguyễn Thị Hồng Bích",
                    "reply_content": " hic đúng là ở người t ít ra mồ hôi mà toàn ra tay chân ý. Nhưng mà phấn rôm k tác dụng gì luôn"
                },
                {
                    "reply_user": "Nhi Ne Ko",
                    "reply_content": " Vậy cậu có thể lên Google search những sản phẩm trị mồ hôi tay/chân nha, chịu khó tìm hiểu kỹ trước khi mua để có hiệu quả hơn nè. "
                },
                {
                    "reply_user": "Nguyễn Thị Hồng Bích",
                    "reply_content": " oke cảm ơn bạn nhóooo "
                }
            ]
        },
        {
            "parent_comment": {
                "parent_user": "Trân'n Kim'm Thuy'y",
                "parent_content": "bàn tay cưng gê"
            },
            "replies": [
                {
                    "reply_user": "Nguyễn Thị Hồng Bích",
                    "reply_content": " eo ôi lần đầu được bảo tay cưng cảm động phát khóc nè :<"
                },
                {
                    "reply_user": "Trân'n Kim'm Thuy'y",
                    "reply_content": " hi  nhìn bàn tay bạn thấy cưng thật đấy . chứ k ghẹo bạn đâu nha h"
                },
                {
                    "reply_user": "Nguyễn Thị Hồng Bích",
                    "reply_content": " Thực ra là úp bàn tay xuống thì xấu vl luôn á. Mong tay như vỏ hến k làm neo nổi lun ༎ຶ‿༎ຶ"
                }
            ]
        },
        {
            "parent_comment": {
                "parent_user": "Nguyễn Trần Thu Hà",
                "parent_content": "Mình cũng bị, bị từ bé đến giờ cũng gần 18 năm rồi nó cũng đỡ hơn, mình cũng đi nhiều bệnh viện các thứ rồi nhưng vẫn ko chữa khỏi được. Thôi thì đành sống chung với bệnh thôi bạn ạ. À nhưng nó ko liên quan gì đến uống nước nhiều hay ít đâu nhé, nên bạ… See More"
            },
            "replies": [
                {
                    "reply_user": "Nguyễn Thị Hồng Bích",
                    "reply_content": " sau đi làm bắt tay ai cũng ngại cơ :<"
                },
                {
                    "reply_user": "Nguyễn Trần Thu Hà",
                    "reply_content": " đúng thế nên mình cũng thành thói quen lúc nào cũng mang khăn tay theo người, "
                },
                {
                    "reply_user": "Nguyễn Thị Hồng Bích",
                    "reply_content": " giống như kiểu nước nó túa ra liên tục ý. Lau khăn xong lại ướt luôn ngay lúc ý"
                },
                {
                    "reply_user": "Nguyễn Trần Thu Hà",
                    "reply_content": " :(( mùa hè người ko biết còn tưởng tay mình là cái vòi nước ko ấy :(( ghi bài lúc nào cũng phải có giấy kê tay :((. Cũng bất tiện lắm"
                }
            ]
        }
    ]
}