{
    "post": "376991523296169",
    "link": "https://facebook.com/groups/Emlanguoitotnhatthegian/permalink/376991523296169",
    "post_comments": [
        {
            "parent_comment": {
                "parent_user": "Thi Tho Tran Huynh",
                "parent_content": "Chắc mẹ bạn tưởng bạn trong nhà rồi nên khóa cửa cho khỏi trộm, mình bị hoài :((("
            },
            "replies": [
                {
                    "reply_user": "Khánh Khánh",
                    "reply_content": " tui có gọi mẹ mở cưa như mẹ bảo mài đi đâu thì đi đi :l"
                },
                {
                    "reply_user": "Thi Tho Tran Huynh",
                    "reply_content": " "
                },
                {
                    "reply_user": "Khánh Khánh",
                    "reply_content": " vâg tui đã ở ngoài đc 2 tiếng rồi :((("
                }
            ]
        }
    ]
}