{
    "post": "765825417698744",
    "link": "https://facebook.com/groups/307960726818551/permalink/765825417698744",
    "post_message": [
        "Cho hỏi mấy bạn nữ thích kiểu bạn như nào ạ ? Em muốn thay đổi tính để làm bạn với mấy bạn nữ."
    ],
    "post_comments": [
        [
            "Hỏi mà t không biết trả lời sao luôn :)))"
        ],
        [
            "Bao ăn thường xuyên"
        ],
        [
            "Sao cũng được đừng nói xấu nhau là được =)))"
        ],
        [
            "vui vẻ hoạt bát cá tính mạnh nháaa"
        ],
        [
            "Thân thiện, đừng có chảnh là dc =))))) liếc liếc tui liếc lại ớ"
        ],
        [
            "Hài hước, nhiềi tiền, hiền, đừng chơi với con di mà bạn nữ kia ghét là đc"
        ],
        [
            "Đối vs t là đừng có chơi với cđ t ghét là đc"
        ],
        [
            "Thân thiện, nó ghét cđ nào thì mình ghét theo luôn chứ đừng có chơi với cđ đó, cho ăn chung, đi chung, chơi chung, mượn tiền nhớ trả, không chanh sả, không bdsm bạn bè, đừng vô duyên, đừng nói xấu"
        ],
        [
            "Hòa đồng, thân thiện,không nói xấu, đừng chơi chung vs cđ mà bạn đó ghét):<, đừng nhạt quá mà hãy mặn mà lên, rắc muối nhiều vô ;)) "
        ],
        [
            "Kiểu thoải mái nè, khùng khùng rất là dễ chơi á. Cũng ghét một đứa lại càng dễ chơi hơn:v"
        ],
        [
            "Vui vẻ hoạt bát tràn đầy năng lượng , thấu hiểu , thông cảm , chia sẻ , giúp đỡ"
        ],
        [
            "Đừng có tính tự ái quá , đừng nói xấu là dc =)))"
        ],
        [
            "Cậu không nhất thiết phải thay đổi gì cả , muốn nói chuyện hay kết bạn với người khác , cậu chỉ cần tự nhiên , thật lòng là có thể kết bạn được với bất cứ ai không riêng gì các bạn nữ . Khi cậu thay đổi có thể là sẽ thu hút hơn , dễ dàng kết bạn hơn nh… ",
            "See more"
        ],
        [
            "Sao cũng được đừng ganh ghét đừng bêu xấu"
        ],
        [
            "Chân thành với nhau là được ^^"
        ],
        [
            "Hòa đồng, nhiệt tình"
        ],
        [
            "chân thành, chơi thật lòng, không ba phải hay đi nói xấu vòng, không khinh người. kiểu z"
        ],
        [
            "Cậu chỉ cần chân thành không nói xấu nhau thôi chứ bản thân cậu thì chẳng cần thay đổi gì cả vì bạn bè chơi với nhau vì con người thật của nhau mà, mình cũng có nhiều tính xấu lắm nhưng bạn bè của mình đôi lúc sẽ thông cảm và nhắc nhở mình để mình sửa … ",
            "See more"
        ],
        [
            "nói chuyện 1 cách bthg bạn thân thiện zô, đừng có giữ khoảng cách quá, khi chơi cứ hết mình, thật vs cảm xúc của mình, đừng bao h nghĩ mình ko xứng khi chơi vs ng đó"
        ],
        [
            "Nói chuyện hợp là đc, vs phải cùng tần số"
        ],
        [
            "Không có chung quy gì hết",
            "Tùy loại người loại tính cách",
            "Có ng sẽ thích tính cách này tính cách kia… ",
            "See more"
        ],
        [
            "Kiểu bạn đừng tự ái, đừng sân si người khác "
        ],
        [
            "Thân thiện hoà đồng vui vẻ các thứ thích mua sắm hay j j đó ( tuỳ người)"
        ],
        [
            "Sạch, vui, hiểu chuyện"
        ],
        [
            "Pjx x4j t33nc0d3:))))"
        ],
        [
            "cái tính tốt thì giữ lại",
            "cái tính xấu thì bỏ đi",
            "mỗi người một kiểu thay đổi kiểu quái gì, có người thích, người khác không thích… ",
            "See more"
        ],
        [
            "Còn tùy ,riêng t thì thích tự nhiên đừng có giả trân là được,nếu là con gái thì nói xấu condi t ghét với t"
        ],
        [
            "Ai hợp thì chơi thôi",
            "Bắt ép bản thân cũng chẳng giữ ép mình dc lâu đâu"
        ],
        [
            "Hợp thì chơi thân xíu, không thì xã giao thôi"
        ],
        [
            "T thì thích những ng hòa đồng vui vẻ hoạt bát, đừng giả trân ",
            " dễ kb hơn :>>"
        ]
    ]
}