{
    "post": "760886554859297",
    "link": "https://facebook.com/groups/307960726818551/permalink/760886554859297",
    "post_message": [
        "mnguoi ơi cíu em , kiểu là hồi trước em có crush một bạn , đẹp trai , thân thiện với em , ai cũng thân thiện kể cả bạn nữ cũng vậy , mặc dù em đã trải qua 3 mối tình , bây giờ em đang độc thân nha , học cùng lớp nên cứ chạm mặt ạ , hồi đó bạn ý cũng biết em crush bạn ấy rồi nhma bạn ấy kiểu không đồng ý ấy , nên em cũng uncrush , xong 3 mối tình lại kiểu thích nhìn bạn ấy ở trong lớp , trong các hoạt động hay những cuộc đi chơi có bạn ấy thì em đều đi hết ạ , ánh mắt luôn hướng về bạn kia , làm gì cũng nhớ đến cả . Có lần bạn ấy được các bạn trong lớp ghép với bạn nữ kia , ai cũng khen đẹp đôi cả , mà ngoài mặt em cứ bình thường rồi khen này khen nọ nhma trong lòng nó cứ tức tức , ghen ghen sao ấy :(( không hiểu nữa trời ơi , giờ em có phải cảm năng , rung động một chút hay là thích thật ạ ?? Mnguoi cho ý kiến chứ em hoang mang quá"
    ],
    "post_comments": [
        [
            "Có thể bạn đc ăn cơm tró nên trong lòng ghen tứk",
            "Hoặc là thích rồi"
        ],
        [
            "Oh tiêu rồi cứ chắc càng mê người ta. Mà người không thích mình mới khổ "
        ],
        [
            "Khuyên bà nên nghe bài: tớ thích cậu:)))"
        ],
        [
            "Xem coi bn ấy có thích bị ghép thế ko"
        ],
        [
            "Ko là gì của nhau thì dù người ta có crush hay ny đi nữa thì mình đâu có quyền ghen"
        ]
    ]
}