{
    "post": "754732402141379",
    "link": "https://facebook.com/groups/307960726818551/permalink/754732402141379",
    "post_message": [
        "Dzô, hôm nay tôi muốn hỏi mn một chút: Làm sao để kìm mồm không nói chuyện trong giờ được không? ",
        " Tôi học được nhưng hạnh kiểm như đb nên sợ không được HSG ấy"
    ],
    "post_comments": [
        [
            "Lấy kim,may mỏ lại"
        ],
        [
            "Khi bạn không nói chuyện là lúc bạn sẽ không nói chuyện nữa =)) dễ mà"
        ],
        [
            "Ít nói lại để dc HSG nha"
        ],
        [
            "Thì cứ thử 1l hk khá mà đủ điểm hsg đi, tự động thấy tiếc mà im thôi chứ cách nào "
        ],
        [
            "Ngồi với đứa mình ghét thử xem? Hoặc tự cách ly ngồi một mình để không ai nói chuyện! Thề luôn, từng thử rồi, hiệu quả cực nhưng mà thấy cô đơn lắm ",
            " "
        ],
        [
            "Lên ngồi cạnh giáo viên"
        ],
        [
            "Tập trung vào bài học ",
            "."
        ],
        [
            "Rọ mõm lại là được =)) tin t"
        ],
        [
            "Ngồi cạnh gv "
        ],
        [
            "vl toi muốn nói nhiều lên còn đ dc ạ =))"
        ],
        [
            "Không bỏ đc đâu bạn ơiii 12 năm đi học mình chỉ bị GVCN nói vs PH là nói chuyện trong giờ học thôi "
        ],
        [
            "Ckầm kảm "
        ],
        [
            "Hãy tập ckầm khảm "
        ],
        [
            "1 đổi chỗ ngồi cạnh thằng bann ghét , hoặc k ưa nó hoặc k quen , mấy đứa bên trên cũng gần dạng vậy ",
            "2 mỗi ngày đi học mang khẩu trang đéo vào cả giờ học , lúc cô gọi trả lời thì tháo ra ,...",
            "3 mang băng dính dán mỏ vào :4 tui từng bị r nên tui đã thực… ",
            "See more"
        ],
        [
            "Có lý do còn đỡ. Tớ bị hky với lý do vô duyên lắm đây "
        ],
        [
            "Làm cho cả lớp k ưa mình ",
            " hơi cô đơn tí nhưng hiệu quả lắm, cơ mà mình là do lầm lỡ chứ k p cố tình "
        ],
        [
            "truA HE`"
        ],
        [
            "Lấy băng keo dán miệng lại nha, hoặc là ngậm cái j đó cho đỡ nói chuyện"
        ],
        [
            "Bạn nên nói chuyện này với giáo viên để họ giúp đỡ nhé. Hoặc đề nghị cho bạn ngồi một mình, ngồi cạn giáo viên để tập trung học hơn."
        ],
        [
            "Bạn kiểu : nói mãi rồi , im không quen "
        ]
    ]
}