{
    "post": "754303448850941",
    "link": "https://facebook.com/groups/307960726818551/permalink/754303448850941",
    "post_message": [
        "Mọi người ơi năm nay em học lớp 8 thế nhưng em lại học ngày càng xa sút. Đợt này thi cuoó học kì 1 em làm toán có 7 điểm trc đó lúc nào em cũng trên 9. H thực sự em đang rất bối rối lo lắng ko biết phải nói sao vs mẹ đây. Mẹ mà biết chắc mẹ buòn lắm nhưng h em chẳng biết làm sao cả. Mọi người ơi giúp em vs."
    ],
    "post_comments": [
        [
            "Thì cất điện thoại lo học đi chứ giúp gì hả e =))"
        ],
        [
            "Nhưng em sang năm nay đã lỗ lực lắm rồu mà"
        ],
        [
            "Hk2 cố lên là được "
        ],
        [
            "Cố lên làm bt nhìu zô. Đưa đt bame giữ iii, đừng để trước mặt"
        ],
        [
            "giống mik"
        ],
        [
            "Hồi đó mình được 10 điểm anh văn giờ mình được dưới tb đây "
        ],
        [
            "dcm tao 6,5 chúng mày ơi "
        ],
        [
            "Á đù"
        ],
        [],
        [
            "Chị cũng đang trong tình trạng giống e (chị lop 9) học lực  sa sút , nản , không bt phải làm gì ... Mặc dù trc giờ được hsg nhưng chắc năm nay không được....điểm cực kì thấp , cái cảm giác đang trên cao mà tụt xuống 1 cách không phanh nó tệ lắm..."
        ],
        [
            "haha",
            "Đang tuổi ăn tuổi lớn nên sinh lí rất rôi loạn e à",
            "Chị lúc trước năm lớp tám học kì 1 chị bị học sinh khá, chị khóc rất nhiều chị rất sợ, nhưng rồi đó lại là bàn đạp cho chị bước từng bước lên đỉnh cao đó e.… ",
            "See more"
        ],
        [
            "mình hstb nên bạn cố lên trùi ui "
        ],
        [
            "thui hong sao, hùi xưa trong lớp 10 điểm không ra thi dưới tb nè"
        ],
        [
            "Cheating đi em ,em đã thử làm tí phao phủng chưa :))"
        ],
        [
            "Trường tôi not chuyên nhưng đề khó vcl ra. Tôi 6 cao gần nhất lớp nè, không cần lo đâu:))"
        ],
        [
            "Nhưng tui học khác lớp khác trường bạn mà"
        ],
        [
            "Kì 1 tôi làm nhẹ con 0.25 nhma zẫn ổn"
        ],
        [
            "Phải nói thôi để cùng mẹ tìm hiểu vì sao học hành xa sút và tìm phương pháp học tập phù hợp. Đôi khi chúng ta bị mất động lực học tập và cần người cố vấn giúp chúng ta giải quyết những vấn đề khúc mắc"
        ],
        [
            "Vấn đề này tới từ tâm lí phụ huynh. Nếu mẹ em là người hiểu rõ em thì chắc chắn sẽ không quá buồn. Em cứ giải thích với mẹ rồi relax đầu óc. Mới lớp 8 em đã căng thẳng thế này thì tới lớp 9 khó đứng vững lắm em. Quan trọng là phải giữ tinh thần thoải m… ",
            "See more"
        ],
        [
            "Bình tĩnh lại rồi lựa lời nói với mẹ, hứa với mẹ sang hk2 chăm chỉ hơn nha. Năm lớp 8 mình thì hk1 có 6.3 đây, giờ lớp 12 rồi nhìn lại thấy kiểu kỉ niệm thôi chứ không có gì phải hoảng lên. Điều chỉnh tâm trạng rồi cố gắng trong tương lai nha."
        ],
        [
            "Bạn đã bao giờ tụt từ 9 xuống 3,5 chưa"
        ],
        [
            "4 năm cấp 2 điểm thi toán của mình lúc nào cũng trên 8 nhma lên cấp 3 thì ..."
        ]
    ]
}