{
    "post": "758994765048476",
    "link": "https://facebook.com/groups/307960726818551/permalink/758994765048476",
    "post_message": [
        "-Chào mn chuyện là con em họ em giới thiệu cho em 1 thầy để học thêm mà em em nói là thầy dạy giỏi, vì em học hành gần đây cũng rất tệ nên đã xách dít di học, em thấy phương pháp dạy của thầy thật sự kh phù hợp với em và em muốn xin nghỉ nên kh biết xin nghỉ thế nào.1 phần vì lớp của thầy toàn những học sinh ở trường top 2 nên các bạn học rất nhanh, em cũng kh theo kip. Mong mn giúp dỡ em nói xin thầy nghỉ ntn vì mấy vụ như này nhạy cảm lắm luonn !! ( xin loi mn vì ngôn từ em nó hơi có vấn đề)"
    ],
    "post_comments": [
        [
            "Em cứ bảo là em học kh theo kịp các bạn nên e xin nghỉ ( dùng từ ngữ lịch sự nhẹ nhàng nhe em) đó chỉ là một ví dụ th hoặc e có thể nói lí do kháv cũng dc "
        ],
        [
            "Thì bạn cứ bảo thầy ơi em học không theo kịp các bạn thầy cho em nghỉ được không nói nhẹ nhàng thế chắc thầy đã hỉu và cho bạn nghỉ thôi "
        ],
        [
            "Cứ nói là không theo kịp, không phù hợp với học lực của mình thôi ạ. Chọn thầy học cũng không nên chỉ nghe nói thôi. Vì học lực của cả lớp không đều nhau, những người lực học tốt thì tiếp thu rất nhanh, còn học yếu thì phải từ từ. Mà thầy dạy nhanh thì… ",
            "See more"
        ],
        [
            "Việc đầu tiên em cần làm là trao đổi với bố mẹ trước. Và c nghĩ là bố mẹ trao đổi/ xin nghỉ học sẽ ez hơn là em tự xin. Vừa nhanh gọn vừa đỡ khó xử "
        ],
        [
            "Trao đổi với bố mẹ đi rồi cứ bảo thầy em học ko theo kịp, nhỏ bạn tui có nghỉ thẳng qua chỗ khác lun ko nói tiếng nào với thầy cô"
        ]
    ]
}