{
    "post": "757172058564080",
    "link": "https://facebook.com/groups/307960726818551/permalink/757172058564080",
    "post_message": [
        "Mình chỉ muốn xin tips tăng cân ạ, đa số mng hay nói body shaming ng mũm mĩm nma bây giờ người gầy như mình áp lực cũng chẳng kém, đi đâu cũng bị nói. Ngày nào cũng nghe bàn tán về cơ thể thiếu kí làm mình tủi thân cực luôn.",
        "Tips mà lúc nhỏ gầy lớn thì thay đổi thói quen ăn uống sinh hoạt thì lên cân càng tốt ạ"
    ],
    "post_comments": [
        [
            "Kệ tui nó qtam cv mình thử ăn tối xem ",
            " hoặc khuya đó"
        ],
        [
            "Uoc j t co the tang ban 1 chut mo"
        ],
        [],
        [
            "Sống cho bản thân bà hay sống cho người khác ",
            "Người ta có nuôi bà ngày nào không :))) mà phải nghe chứ"
        ],
        [
            "Cho tớ thơm má là tự tăng cân nha"
        ],
        [
            "Bạn hiện tại là quá ok r khỏi cần tăng cân nha, chả lẽ nó đi nói xấu ng thân mình xong mình về đuổi họ ra đường à, body shaming thi thồn cái chày dzo mồm nó"
        ],
        [
            "Bạn ăn uống như nào trong một ngày và hoạt động ra sao"
        ],
        [
            "em cungg d ne sis ơi",
            "nh mà kệ ngta đi ạ, biết bao ng muốn được như mình mà kh được đó ạ ^^ "
        ],
        [
            "Y như vậy luôn á",
            "Cố ăn rồi mà không lên miếng nào"
        ],
        [
            "ăn nhiều"
        ],
        [
            "cứ ăn nhiều lên nha sis"
        ],
        [
            "Thao Sara"
        ],
        [
            "Ôi tuổi trẻ"
        ],
        [
            "Bị lũ bạn mất dậy chê bai chứ gì"
        ],
        [
            "Bạn sinh ra bởi gen bố mẹ định hình rồi,cố cỡ mấy cũng ko được đâu"
        ],
        [
            "Giờ bạn tập gym thể thao cho thân hình đẹp thôi,còn dưới 18 mua thuốc hỗ trợ bổ sung vitamin xương mà uống"
        ],
        [
            "Còn về ăn phải ăn thiều nhiều hơn rau, uống đủ các loại sữa thế thui"
        ],
        [
            "Ăn nhiều dzo là béo ó"
        ],
        [
            "tui cũng théeee ốm quá huhu"
        ],
        [
            "Tui ăn bb cũng kh mập nổi nè tại mình dây nó z gòiiii! Nma phải thập td cho khỏe á!!!"
        ],
        [
            "đúng ớ, béo cũng bị nói, gầy quá cũng bị nói luôn, trong group này có mấy cái tips về vóc dáng okie lắm nè, bạn xem thử: ",
            "https://www.facebook.com/groups/tangchieucaohieuqua"
        ]
    ]
}