{
    "post": "766243030990316",
    "link": "https://facebook.com/groups/307960726818551/permalink/766243030990316",
    "post_message": [
        "Mng cho em xin tips cải thiện vòng 3 được không ạ.",
        "Em tập quài mà nó không tăng á :(("
    ],
    "post_comments": [
        [
            "Doggy nhiều,tập squat"
        ],
        [
            "Tập quài trong bao lâu pải kiên trì và ăn uống nữa e nhé"
        ],
        [
            "Ké huhu"
        ],
        [
            "hs nhiều nha."
        ],
        [
            "mình con trai không cần tập mà nó vẫn to nhỉ , đôi lúc thấy khó chịu vl"
        ],
        [
            "Khoai dit bu ma hok co dit moi buon chu"
        ],
        [
            "Squat+dinh dưỡng+nghỉ ngơi nữa nhé"
        ],
        [
            "Của t thì khá ổn. T còn có sở thích ngắm nó cơ mà thế đéo nào ngắm nhiều quá giờ nhìn bên to bên nhỏ=))"
        ],
        [
            "trên xuống đúng như mấy anh nói phẳng như tv :)))"
        ],
        [
            "hehe dit bu theo gen"
        ],
        [
            "=))) minh vua to vua cong"
        ],
        [
            "Vl mình là con trai mà vòng 3 mình khủng vãi đầy đặn lắm tự ti lắm đôi khi muốn nó lép lại đây nè ",
            " "
        ]
    ]
}