{
    "post": "755441592070460",
    "link": "https://facebook.com/groups/307960726818551/permalink/755441592070460",
    "post_message": [
        "Mọi người ơi ,mình lỡ làm mất bài kiểm tra học kì rồi. Nó có ảnh hưởng gì đến điểm thi không ạ ,mình hoang mang quá "
    ],
    "post_comments": [
        [
            "Nếu các cô nhập điểm vào sổ rồi thì k sao ",
            " "
        ],
        [
            "Không sao đâu"
        ],
        [
            "Trước c cũng làm mất bài ktra học kì nhưng mà không sao hớtttt. Thầy cô còn không phát hiện ra cơ :))))"
        ],
        [
            "Mất bài không sau đâu. Nhập điểm rồi mà nó đúng với điểm thì khỏi lo. Trường hợp cảm thấy nhập không đúng với điểm của bạn thì bạn mới khiếu nại và cần bài kt đó để chấm lại thôi."
        ]
    ]
}