{
    "post": "759626574985295",
    "link": "https://facebook.com/groups/307960726818551/permalink/759626574985295",
    "post_message": [
        "Dạ do tết em đi làm nên em cần ít son và bodymist ạ ",
        "Ai biết loại nào tốt với thơm thơm mà giá mềm tí thì cho em biết với ",
        " ",
        "Hàng nội địa trung nha mn "
    ],
    "post_comments": [
        [
            "Nếu v em qa taobao ỏrder r bán. Chứ đợi có khách ms order, thời gian lâu khách bị rén đấy"
        ],
        [
            "Hehe ké với sis"
        ],
        [
            "Body mist victoria's secret nha chị mùi thơm xỉu luôn"
        ],
        [
            "Bdm shimang gì đó dùng có ok k mng? Thấy giá cũng rẻ mà k biet chất lượng sao"
        ],
        [
            "Body mist shimang á b"
        ],
        [
            "Hóng"
        ],
        [
            "Bạn ơi mình mua của johnson baby á thơm xỉu, giữ cũng lâu nếu thoa vào quần áo"
        ],
        [
            "em tính mua son herorange ",
            "không biết có ổn không ạ ? ",
            "với cả ai biết có loại nào giá oki với cả màu cam đất hay cam đỏ xinh xinh tí thì nói em vớiiii"
        ],
        [
            "Son merzy hoặc blackrouge ạ"
        ],
        [
            "Thử son GOGO Tales ấy em. Bảng màu đẹp, mỗi tội không thơm như các son khác và cũng không lì cho lắm. "
        ],
        [
            "Bbia or blr ý mình bán 150k nhé "
        ],
        [
            "Son nội địa trung nhìu cây màu ghê lắm í :(("
        ],
        [
            "Lên shoppe vào trang meriberi nha đồ nội địa đẹp mà rẻ"
        ],
        [
            "Tự oder là tốt nhất á bn"
        ]
    ]
}