{
    "post": "755112455436707",
    "link": "https://facebook.com/groups/307960726818551/permalink/755112455436707",
    "post_message": [
        "Khoe ngyeu đi mọi người =))"
    ],
    "post_comments": [
        [
            "Tướng khép nép z a"
        ],
        [
            "Sợ vợ nà"
        ],
        [
            "Khoe ảnh dìm chị iu được khum "
        ],
        [
            "Làm gì có ngiu"
        ],
        [
            "ngiu tôi đây ",
            "Tran Tuan Khoa",
            " "
        ],
        [],
        [
            "Tấm này ai đẹp hơn thì người đó đăng"
        ],
        [
            "có trùng không vạy tao thích coi mấy kiểu vạy hơn"
        ],
        [
            "khoe cho lắm xíu trùng người yêu t lại cười ỉa "
        ],
        [
            "Tìm người yêu nhẹ"
        ],
        [
            "Em ngiu tui xứt xắc "
        ],
        [
            "Giời tưởng như nào ",
            "Phương Phương",
            "  ",
            "Bảoo Ngọcc",
            " "
        ],
        [
            "ê có ai trùng ngiu khong vay ???"
        ],
        [
            "hì hì"
        ],
        [
            "Khoe bằng niềm tin"
        ],
        [
            "Xin info quần ông ơi"
        ],
        [
            "Who asked"
        ],
        [],
        [
            "Ai gảnk!?????"
        ],
        [
            "Ỏ ỏ"
        ],
        [],
        [],
        [],
        [
            "Cám ơn em đã đồng hành với anh suốt thời gian qua"
        ],
        [
            "info áo bạn nữ dớii"
        ],
        [],
        [
            "Đừng quan tâm tới con ml đang chu mỏ plz... anh ngiu tui ở bên trái cơ.."
        ],
        [
            ":(("
        ],
        [
            "Dảk"
        ],
        [
            "Khoe cái cc đmm "
        ],
        [],
        [
            "khoe qq :))"
        ],
        [
            "Oki"
        ],
        [
            "Ơ ơ cr em "
        ],
        [
            "Thư Minh",
            " "
        ],
        [
            "cmt cái nào có ny quay lại khoe ^^"
        ],
        [],
        [
            "Chúng tôi đã định sẵn ngày cưới "
        ],
        [
            "oke :>"
        ],
        [],
        [
            "Huyền's Trâm's",
            " ny mới"
        ],
        [
            "Khoe đi biết đâu lại trùng"
        ],
        [
            "Trâm",
            " mămmm mămm"
        ],
        [],
        [
            "Nuôi chó béo vào, béo chó"
        ],
        [],
        [
            "Nguyễnn Như"
        ],
        [
            "Duyệt bài cho em với hic"
        ],
        [
            "Kh có để khoe :))))"
        ],
        [
            "Đây ạ đẹp try hong mụi ngừi :))"
        ]
    ]
}