{
    "post": "754615938819692",
    "link": "https://facebook.com/groups/307960726818551/permalink/754615938819692",
    "post_message": [
        "Mọi người ơi, giúp em làm hòa lại với một bạn nam trong lớp với ạ. Bạn ý là hsm chuyển vô lớp em, nghe mấy đứa bảo là chảnh lắm không thèm nói chuyện với aii, AI dè em được chuyển ngồi gần bạn ý, xong nói chuyện sương sương, dần dần em với bạn ý lại thân nhau,Dạo gần đây em có xích mích với bạn ấy về chuyện chỗ ngồi,Mấy hôm nay lên lớp bạn ấy đều lơ em,không thèm để ý.",
        "Mọi người cho em hỏi là cách giải quyết ntn ạ ??"
    ],
    "post_comments": [
        [
            "Chắc k phải tại chỗ ngồi đâu b. Cn trai ai lại lm lố cn gái tại xích mích nhỏ ấy ",
            "Đợi mấy hôm nx xem s"
        ],
        [
            "Đập hộp milo vào mặt nó hihi"
        ],
        [
            "Nghỉ chơi luôn đi ",
            "Phải tỏ ra là mình đếch cần nó phải để nó cần mình :))"
        ],
        [
            "Cướp luôn trái tim cậu:))"
        ],
        [
            "Phân chia lãnh thổ :))"
        ],
        [
            "Lơ nó luôn "
        ],
        [
            "Theo cách này cứ kệ đi,dần lại thân thui à. Được 1 2 tuần chủ động đùa xíu chắc là oke ngay"
        ],
        [
            "Nếu nó phũ với mình thì cứ giả trân mặt nụng nịu buồn kiểu buồn trước mặt nó xong thôi kệ nó luôn. Kiểu gì nó cũng thấy có lỗi thôi"
        ],
        [
            "Nói đòi chuyển chổ à"
        ],
        [
            "Mọi người ơi",
            "Có biến ",
            "Nó đồn khắp trường em thích nó :))"
        ]
    ]
}