{
    "post": "751097932504826",
    "link": "https://facebook.com/groups/307960726818551/permalink/751097932504826",
    "post_message": [
        "Chào mọi người "
    ],
    "post_comments": [
        [
            "bạn chỉ cần bỏ xíu tgian ra học bài là điểm thi ổn liền, mình cũng ham chơi lắm cơ mà nghĩ đến trượt c3 thì sợ lắm nên phải học"
        ],
        [
            "Lớp 6-7 mình đứng đầu lớp làm lớp trưởng lên lớp 8 mình đứng thứ 3 từ dưới lên đến nỗi giáo viên không tin gọi phụ huynh ra trường xem mình có bị sao không nhưng mà từ kì 2 lớp 9 tự nhiên mình thấy hứng thú với việc học mình thấy nó dễ và mình đỗ c3 đi… ",
            "See more"
        ],
        [
            "Tìm sự hứng thú trong môn học hoặc là học gia sư. Hồi trước mình cũng kiểu toán 3.5 văn 2.75 4.25 nma học gia sư 1 tgian cảm giác nó kiến thức nó nhẹ hẳn mà dễ vào đầu hơn rất nhiều , còn phù hợp với những kiểu người ham chơi nữa"
        ],
        [
            "Klq kiếm group mặn mặn để call"
        ],
        [
            "Mình cũng giống bạn ",
            " lên lớp 8 ,9 là mình bắt đầu sa sút , mải chơi nhác học hơn nhiều , điểm của mình làm mình thất vọng lắm",
            " (lớp 6 ,7 mình cũng học khá giỏi ) mấy hôm nay thấy nản lắm mặc dù biết do bản thân mình lười học ....  mấy bài ktra vừa r… ",
            "See more"
        ],
        [
            "Hồi c2 lớp 6 đến lớp 8 chả học hành gì, đến lớp 9 tự nhiên lại vượt lên, chủ yếu nghe giảng trên lớp xong áp dụng luôn vào bài đang học, cứ chăm làm bài trên lớp nó có hứng học lắm tại vì thấy ai cũng học, chứ về nhà t chả baoh động vào sách vở. Đến lú… ",
            "See more"
        ],
        [
            "Giống chị nhỉ, mà lúc đó chị thi toán có 0.25đ thôi. Vậy mà vẫn cố gắng học rồi vẫn đổ điểm cao thôi.",
            "Quan trọng là bắt đầu ôn kiến thức từ bây giờ chứ không cần phải học lại từ đầu vì sẽ không kịp. Ôn thi dạng nào thì tập làm dạng đó thôi."
        ],
        [
            "lớp 8 mình có sa sút trong việc học tụt từ top20 của lớp xuống đứng thứ 37 ",
            " nhưng năm nay cố gắng học ổn hơn nhiều, quan trọng là tự giác và hạn chế dùng điện thoại trong thời gian học, rèn các bài từ cơ bản đến nâng cao, cố lên"
        ],
        [
            "Lên c3 1.5đ hoá học kì đây :))"
        ],
        [
            "hmu hmu lớp 7 lớp 8 mình chỉ lên lớp ngủ thôi xong r lớp 9 mới thấy hối hận vl vì trong khi các bạn làm bài ầm ầm thì mình chỉ biết ngồi thẩn ra đấy xong r chép bài xong r tự dưng nghĩ khéo khi trượt cmn c3 nên cắm đầu vào học và may vãi ò là mình đậu … ",
            "See more"
        ],
        [
            "Gáy v thôi chứ xin tips rời xa chiếc điện thoại hãm bìu này để mai đi thi"
        ],
        [
            "buộc chịu ",
            "Ngô Ngọc Cát Tường",
            "c"
        ],
        [
            "Nhanh trí đập điện thoại khỏi xài"
        ],
        [
            "Thôi cố lên bn ơi"
        ],
        [
            "Bắt đầu từ đầu đi bạn"
        ],
        [
            "cân bằng lại việc học đi",
            "dừng cuộc chơi lại",
            "thi c3 xong r muốn lmj thì làm"
        ],
        [
            "Đập đá"
        ],
        [
            "Khó "
        ],
        [
            "HK1 ko dc thì cố HK2 là nó kéo lên dc hết à em, có cố gắng thì mới đạt dc kết quả"
        ],
        [
            "Dương Thuỳ",
            " "
        ],
        [
            "Việc chơi bời như vậy sau này lớn em vẫn có thể làm được, vậy em cần tuổi trẻ để làm gì? Bắt đầu lại đi em. "
        ],
        [
            "Bỏ điện thoại đi em"
        ],
        [
            "Bắt đầu ở cấp hai không bao giờ là muộn nhé, chỉ cần cố gắng và kiên trì tham khảo cũng như hỏi bài chắc chắn sẽ khá lên"
        ],
        [
            "Cố gắng học và tìm lại niềm vui trong việc học đừng chơi điện thoại nữa, em conf nhờ mẹ giữ phụ đây này, điều quan trọng là chị phải học thuộc bài trước khi lên lớp để có thể lấy điểm HK2 kéo điểm HK1 lên"
        ],
        [
            "Bước 1: rời xa điện thoại. Chị nói thật đấyy em gái ạ "
        ],
        [
            "Vânn",
            " "
        ],
        [
            "Này là mất gốc rồi ạ:<"
        ],
        [
            "thật ra thì lên cấp 3 sẽ học lại từ đầu như mình :(("
        ],
        [
            "Thấy bản thân thân đâu đây"
        ],
        [
            "Học không chơi đánh rơi tuổi trẻ",
            "Chơi không học móc bọc ni lông "
        ],
        [
            "Bỏ đt lo học đi lớp 9 dễ mà"
        ],
        [
            "Bỏ điện thoại thôi chứ biết sao nữa =))) còn nếu kh bỏ dc thì chịu , tùy thuộc b đặt việc học  hay chơi điện thoại quan trọng hơn ?? :))"
        ],
        [
            "Tập trung học vào e lập team có mấy bạn học khá giỏi thân với mấy bạn đó rồi hỏi bài cái j không biết là hỏi"
        ],
        [
            "C thấy mình trong đây, lớp 8 do mất gốc hóa nên lên 9 c ngu luôn e, cố gắng hết sức, cái nào k biết hỏi liền thầy cô bạn bè, toán như vậy ko ổn e ah"
        ],
        [
            "Em cần xem lại cách học và năng lực học của em nhé. Thề chứ hồi cấp 2 tui toàn chơi à",
            " nhưng vẫn lên đc cấp 3 ( do tui tiếp thu bài đc ",
            " ). Em nên sắp xếp lại cách học hợp lí, học nhóm với mấy bạn học tốt và dùng đt vào việc học thay vì chơi nhé~"
        ],
        [
            "Do e lười chứ còn gì nữa mà khóc với sầu"
        ],
        [
            "cậu xem lại cách học của mình đê. học 30' nghỉ 5' giảm bớt thời gian chơi máy đê. Nghĩ đến vc học kém bị mọi ng chê, bố mẹ cười, thấy nhục lắm. "
        ],
        [
            "Quần què . Hồi cuối năm lớp 9 thi lúc nào toán chị cũng 8 , 9 nằm đội tuyển thi văn nhà trg mà vẫn trượt c3 đây . Học tài thi phận em ạ "
        ],
        [
            "Uầy.... Không ổn tí nào, nhưng bây giờ quay lại vẫn chưa muộn đâu. Cố lên, bỏ điện thoại đi nhé"
        ],
        [
            "Tìm hứng thú học thôi"
        ],
        [
            "xin chào mn ",
            "bên mk có dịch vụ cho  thuê người lắng nghe những câu chuyện mà bản thân các bạn khó nói ra trong cuộc sống hoạc các bạn vừa chia tay với  người yêu muốn có người chia sẻ nỗi buồn , cãi nhau với bố mẹ cần người  chút những lời khó nói với … ",
            "See more"
        ],
        [
            "Học hoặc bán zé số ",
            "Chọn đi em"
        ],
        [
            "Mình thì kém cực ý. Môn hóa 1.25đ :))) các môn khác thì ổn cả :>>>"
        ],
        [
            "Đây mình học rất kiểu là có học nma thi toàn 4đ cũng kh tin nma phải cố gắng ở kì 2 thoi chứ điểm như này ba mẹ thất vọng lắm:("
        ],
        [
            "bỏ điện thoại đi cậu, cứ nghĩ như này \" ngày xưa không có nó mình vẫn sống tốt bây giờ có nó hay ko cũng ko quan trọng\""
        ],
        [
            "Học lấy gốc lại từ đầu tất cả các môn luôn nha em. Nếu không thể học từ thầy cô và bạn bè thì em cứ học online, gõ tên bài học rồi nghe giảng hoặc tìm tài liệu đọc thêm. Đi học thêm 1 đối 1 với thầy cô những môn chính để thi cấp 3 (sẽ tốn khá nhiều tiề… ",
            "See more"
        ],
        [
            "Chị còn nhớ năm lớp 9 chị đưa cho gia đình quản lí điện thoại sau buổi học sẽ đc mẹ đưa cho chơi 1 lúc rồi trả mẹ, lúc đấy khó chịu lắm nhg nghĩ tới việc đỗ cấp 3 quan trọng hơn nên giờ đỗ trường mình muốn rồi"
        ],
        [
            "Tui cũng giống cậu nè :(("
        ],
        [
            "Lập mục tiêu",
            "Lập ra động lực để phấn đấu"
        ],
        [
            "Lớp 8 mà em mất gốc là coi như xong, ngoài toán, anh, hoá thì mấy môn còn lại chỉ cần học thuộc là đủ điểm tốt nghiệp mà, còn toán, anh, hoá thì em học công thức là được"
        ]
    ]
}