{
    "post": "757752955172657",
    "link": "https://facebook.com/groups/307960726818551/permalink/757752955172657",
    "post_message": [
        "Khi nhìn crush mà tim không đập thình thịch nữa. Nhưng đi đâu e vẫn luôn tìm và  thấy bạn ấy đầu tiên. Vậy là thích hay là thói quen ạ?"
    ],
    "post_comments": [
        [
            " thói quen nhỉ ? "
        ],
        [
            "Giống nhau wé"
        ],
        [
            "thói quen em à"
        ],
        [
            "Tưởng nhớ :)))"
        ],
        [
            "Gặp crush thì rất bình thường nhưng khi về nhà suy nghĩ lại thì đỏ mặt ngại ngùng cười như điên thì sao nhỉ "
        ],
        [
            "thói quen đấy =))"
        ],
        [
            "Thúy Quỳnh",
            " "
        ],
        [
            "Hoàng Đình Minh Châu",
            " em giống bạn này:)))"
        ],
        [
            "Thoi quen=))"
        ],
        [
            "Thói quen thôi , tui với nyc tui cũng v á =)) dù chia tay r nhưng ảnh vẫn làm tui đau , vài lần đầu thì thấy sống chết luôn mà dần riết cũng quen. Rớt vài giọt nước mắt r thôi chứ ko còn khóc tới khó thở như trc nữa. Là thói quen đấy"
        ],
        [
            "Thế là m vẫn thích nó đấy ko phải do thói quen đâu :))"
        ],
        [
            "Dù ở trong biển người rộng lớn đến đâu đi nữa thì cậu vẫn là người tôi để ý đầu tiên"
        ],
        [
            "không còn thích nữa chỉ còn thói quen chưa thể quên được thoi"
        ],
        [
            "chưa biết cảm giác có crs luôn ấy :)) t thấy mọi thứ bth mà . gặp thì gặp thôi chứ có sao đâu"
        ]
    ]
}