{
    "post": "759142778367008",
    "link": "https://facebook.com/groups/307960726818551/permalink/759142778367008",
    "post_message": [
        "Làm đẹp cho bản thân mình đẹp hay đẹp để vừa mắt nhìn người khác ạ"
    ],
    "post_comments": [
        [
            "cho bản thân mình chứuu"
        ],
        [
            "Hong biết "
        ],
        [
            "cả 2"
        ],
        [
            "Nếu bạn có ý định làm đẹp để vừa mắt người khác thì xin thưa là bỏ ",
            "Dù bạn có lộng lẫy đến đâu nhưng trong mắt người khác bạn vẫn thế thôi. SỐNG VÌ BẢN THÂN ĐỪNG VÌ NGƯỜI KHÁC"
        ],
        [
            "cả 2 nha bạn nhưng cân bằng là đc"
        ],
        [
            "Cho bản thân nhóe"
        ],
        [
            "Chứ bà làm đẹp cho ng khác coi mà bà ko thoải mái thì công cốc à"
        ],
        [
            "cho bản thân trước chứ"
        ],
        [
            "Mình đẹp là dc tự ngắm cũng sướng con mắt à "
        ],
        [
            "Hồi xưa mình hãy tự chê bản thân mình xấu xí, bh xính hơn tự nhiên nhìn trong giương rồi tự hỏi \" con nào trong đây xinh thế \" là thấy iu đời liền"
        ],
        [
            "Vừa mắt người khác thì có người nọ người kia  nhưng quan trọng nhất vẫn là vừa mắt bản thân"
        ],
        [
            "Vừa mắt bản thân "
        ],
        [
            "Cho bản thân vì mỗi người mỗi ý chẳng bao giờ vừa mắt được mọi ng"
        ],
        [
            "cả 2 mình thấy đẹp thì mọi người thấy đẹp"
        ],
        [
            "80% cho bản thân mình. còn lại thì cho vừa mắt người khác vì đẹp cũng là để người khác nhìn. đẹp theo cách mà bạn tự tin nhất nhưng cũng đừng quá cá biệt nhé gái ơi"
        ],
        [
            "Ai mà chẳng muốn mình đẹp, ai cũng có quyền được làm đẹp hết. Làm đẹp cho mình nhưng đừng đánh mất chính mình. Khi có ai đó ghét bạn thì có đẹp lên hay xấu đi học cũng vẫn ghét bạn thôi. Trước khi làm điều gì vì người khác hãy học cách yêu bản thân mìn… ",
            "See more"
        ],
        [
            "(´ . .̫ . `) cô mình nói một câu : ăn cho mình mặc cho người."
        ],
        [
            "bản thân"
        ],
        [
            "Vừa mắt thiên hạ ạ @@"
        ],
        [
            "Cả hai"
        ],
        [
            "Cả hai bạn nhe, khi b yêu bản thân mình thì sẽ có ng yêu b. Và làm đẹp cho bản thân cũng như việc b tôn trọng người khác vậy á :))"
        ],
        [
            "cho bản thân "
        ]
    ]
}