{
    "post": "742786720002614",
    "link": "https://facebook.com/groups/307960726818551/permalink/742786720002614",
    "post_message": [
        "Em xin mượn acc của bạn em chia sẻ cái này hơi tế nhị tí :)))  ",
        " Kiểu là em vừa mới qhtd lần đầu của em luôn thật sự nó đau vailon mà sao mấy bạn gái lại thích nhỉ ? Đau deo thể tả"
    ],
    "post_comments": [
        [
            "Thế ctrai thì lần đầu có đau k v "
        ],
        [
            "Lần sau mình cũng đau tí nhưng qhe thường thì quen dần b ạ"
        ],
        [
            "Dcm biết đau nên đéo thích"
        ],
        [
            ":)) trải vài lần đi rồi ghiền em ạ"
        ],
        [
            ":))  Đổ dầu ăn vô trước đã bạn nhé"
        ],
        [
            "Đau lúc sau khác xướng "
        ],
        [
            "Lần 2 lần 3 mới là thiên đàng :)))"
        ],
        [
            "Hoàng Gia Đạt",
            " ?"
        ],
        [
            "Trải nghiệm thêm vài lần đi bạn bao ghiền :))"
        ],
        [
            "Nghe các chị bảo lần đâu nhiều đứa hôm sau dậy chân đi 2 hàng lắm =)))"
        ],
        [
            "không phải con gái nhma tôi biết con gái các bạn ai hs lần đầu xong đều khó khăn trong việc đứng lên ngồi xuống :))"
        ],
        [
            "vì nó chưa kịp thích ứng, mới lần đầu thì cơ bản vùng âm đạo còn kín, khô... xung quanh có nhiều mao mạch và cực nhạy cảm nên nếu k biết mà đột ngột qh dẫn tới các mao mạch bị ép nhanh sinh ra đau ",
            "phải làm quen trước một lúc lâu đến khi âm đạo tiết … ",
            "See more"
        ],
        [
            "Không dạo đầu thì lần nào cũng đau như làn đầu thôi :))"
        ],
        [
            "Đau về sau nó mới sướng ",
            " "
        ],
        [
            "Lần đầu thì nó vậy thật.. nhưng do lần đầu bạn nam ko biết gì cứ quất dùi cui liên tục làm rát + đau do khô mà chả thế.. phải từ từ..đặt cơ thể xuống rồi vuốt ve.. từ đầu đến chân..cho nung nừng nung rồi mới bảo: anh vào nhe..chứ cc gì đâm người ta làm… ",
            "See more"
        ],
        [
            "Ngọc",
            "  đọc cmt hài vl em oi"
        ],
        [
            "Lần 2 lần 3 lên thiên đàng lên thiên đàng lên thiên đàng nàh"
        ],
        [
            "Huy Quang Nguyen",
            "  "
        ],
        [
            "Lấy giấy bút ra ghi thôi =)))"
        ],
        [
            "đọc cmt cười vl"
        ],
        [
            "2 đuaq congai đ* nhau à(    .____.)  ?????"
        ],
        [
            "Trải vài lần đi rồi nghiện cmn em ạ :))) "
        ],
        [
            "Châu Khánh",
            " vô đọccmt đi anh"
        ],
        [
            "Cần tìm người kiểm chứng xem có đau thật k"
        ],
        [
            "Lần đầu + lần sau ",
            " lần thứ 3 lại nghiện :))"
        ],
        [
            "Lê Phương",
            " "
        ],
        [
            "Đến lần t3 trở lên là bạn sẽ bị nghiện cái đó :)))"
        ],
        [
            "Ụa 2 k mấy á "
        ],
        [
            "Bé Nga",
            " đọc đi rùi cười"
        ],
        [
            "gì đau lắm hả "
        ],
        [
            "Lần đầu đầu,lần sau lên thiên đàng nhé kkk"
        ],
        [
            "Cần tìm người trải nghiệm xem nó đau cỡ nào"
        ],
        [
            "Zda Hann",
            " tiếp thu kiến thức kỳ quái nào =))"
        ],
        [],
        [
            "Nứng gần chết mà ngại hả :))))))"
        ],
        [
            "Khóc"
        ],
        [
            "Ai sài gòn tui rước đi ăn uống ngắm phố nè"
        ],
        [
            "Ngọc Oanh",
            "  "
        ],
        [
            "???"
        ],
        [
            "thực chất là làm gì có bạn nào ở đây =))"
        ],
        [
            "đã ai từng trải đâu mà biết"
        ],
        [
            "Thế bạn có sd gel cho lần đầu không? Để trạng thái thoải mái lên nhắm mắt cảm nhận cái sướng=)))",
            "Maybe kích cỡ pn bạn đủ to để bạn đau đớn đó, tự hào đi bạn ơu"
        ],
        [
            "Hóng mấy bạn chưa quan hệ lần nào vào chỉ cách "
        ],
        [
            "Đau hả? Tiếc ghê"
        ]
    ]
}