{
    "post": "756991968582089",
    "link": "https://facebook.com/groups/307960726818551/permalink/756991968582089",
    "post_message": [
        "LÀM THẾ NÀO ĐỂ CÓ CẢM XÚC Ạ? THẾ NÀO LÀ YÊU?"
    ],
    "post_comments": [
        [
            "Hiccc đọc bài của chị mà em nhìn thấy hình bóng của em đâu đây :((("
        ],
        [
            "Yêu là phải có cảm xúc với ng ta. Còn e sợ thì chỉ có bỏ cho nhanh, khổ người ta :))"
        ],
        [
            "Chuyện bth mà. Đừng áp lực nhiều nè "
        ]
    ]
}