{
    "post": "754329215515031",
    "link": "https://facebook.com/groups/307960726818551/permalink/754329215515031",
    "post_message": [
        "Mỗi lần mà có đứa con trai tốt với em là em kiểu bị say nắng xong rồi thấy rung động :((( nhưng tầm 2 3 ngày sau thì hết nhưng mà mỗi lần như vậy em thấy khó chịu lắm ạ. Có cách nào giải quyết không? Cho em lời khuyên với hic "
    ],
    "post_comments": [
        [
            "ồh tr oi e cũng vậy =)))))"
        ],
        [
            "tìm người crush đi bồ ",
            "đầu óc lúc nào cũng chú tâm zô đó hết á"
        ],
        [
            "Người k có lập trường chính kiến. Sau này lấy ck dễ cặp bồ lắm"
        ],
        [
            "Kiểu fa lâu quá suy ra thiếu thốn tình cảm nên vậy á"
        ],
        [
            "Tui cũng v huhu"
        ],
        [
            "Kh có bồ nên z "
        ],
        [
            "Uiii bà ạ :)) giờ tui hỏi bà nhá ? Bà k chiến thắng đc bản thân bà thế mn trên đây đưa ra lời khuyên bà có làm đc k :)) quan trọng là ở bà thoi"
        ],
        [
            "Tôi từng như z. Do bà chưa gặp đúng người thôi nè"
        ],
        [
            "tuoi cung vay đó"
        ],
        [
            "Bay lắc ăn chơi đàn đúm dữ vào khắc hết"
        ],
        [
            "Do tuổi trẻ suy nghĩ bồng bột mà"
        ],
        [
            "Toi cung vay do, nhung mot lan là nhieu anh=))"
        ]
    ]
}