{
    "post": "761288671485752",
    "link": "https://facebook.com/groups/307960726818551/permalink/761288671485752",
    "post_message": [
        "Bố từng dạy tôi:",
        "Phải tránh xa những chàng trai có người yêu, vì sự xuất hiện của con có thể sẽ làm tổn thương sâu sắc đến một cô gái khác.",
        "Sau này tôi mới hiểu được, thì ra không phải cô gái nào cũng có bố."
    ],
    "post_comments": [
        [],
        [
            "Hic thông cảm cho người ta",
            " mồ côi nhân cách"
        ],
        [
            "Tội nghiệp cô pé :))"
        ],
        [
            "Tánh kì :))"
        ],
        [
            "mọi người ơi em bị chậm tiêu, ai giải thích cho em cho thông não được không ạ"
        ],
        [
            "Thông cảm cho những con phò mồ côi nhân cách "
        ],
        [
            "á à "
        ],
        [
            "Pham Tu Anh",
            " "
        ],
        [
            "Poor girl :))"
        ],
        [
            "Tuy nhiên lại có con gái có 2 bố"
        ],
        [
            "Ừm"
        ],
        [
            "Đứa nào mà chả có bố ?"
        ],
        [
            "Dương Khánh Huyền",
            " "
        ],
        [
            "B mở chia sẻ điii"
        ],
        [
            "Tran Phuong Anh",
            " "
        ],
        [],
        [
            "Bùi Thị Lam Phương",
            " thâm thúy"
        ],
        [
            "uayyy"
        ],
        [
            "ok hải tú=))"
        ],
        [
            "Hay wá b ơi :)) cho tớ xin ảnh nhé"
        ]
    ]
}