{
    "post": "592485771634970",
    "link": "https://facebook.com/groups/241769123373305/permalink/592485771634970",
    "post_comments": [
        {
            "parent_comment": {
                "parent_user": "Nguyễn Tưởng",
                "parent_content": "Đi dk 1/3 đg rồi cố gắng lên em. Chị chỉ vd thôi nhen , nếu bỏ toán theo lý, dg học giữa chừng em lại chán. Vậy quay lại toán thì phải theo lại từ đầu, nhảy qua môn khác vẫn phải học lại từ đầu. Cuối cùng em sẽ ko cán đích dk đâu."
            },
            "replies": [
                {
                    "reply_user": "Khánh Vy",
                    "reply_content": " em cảm ơn ạ"
                },
                {
                    "reply_user": "Nguyễn Tưởng",
                    "reply_content": " ừa bài học xương máu đấy. Đặt mục tiêu ở đâu thì cố gắng cán đích ở đó. Chúc em thành công nhen."
                },
                {
                    "reply_user": "Khánh Vy",
                    "reply_content": " "
                }
            ]
        }
    ]
}