{
    "post": "562200744663473",
    "link": "https://facebook.com/groups/241769123373305/permalink/562200744663473",
    "post_comments": [
        {
            "parent_comment": {
                "parent_user": "Quỳnh Thư",
                "parent_content": "Cố lên bạn nhé, mình không có gì khuyên nhưng chỉ muốn nói là tự tin vào bản thân, thầy cô rầy đúng thì lắng nghe và tiếp thu, khó ở quá thì nghe không lọt tai thì cho nó lọt qua luôn, để tâm nhiều quá thì lại ảnh hưởng tâm lý, mình cứ tự tin, hạn chế tâm lý chán tiết cô đó mình nghĩ nên lấy tâm lý từ chán nản, sợ sệt cô thành động lực để hứng thú, rèn luyện môn đó và theo mình, mình thẳng tính nên là nếu bức xúc quá thì nên ý kiến trực tiếp với cô, nói cha mẹ đừng để ấm ức trong lòng lâu ngày, thành bệnh từ chán gv sẽ dần dần chán luôn cả môn gv đó dạy!! Cố lên nhé"
            },
            "replies": [
                {
                    "reply_user": "Ngáo Ngẩn Ngơ",
                    "reply_content": " cám ơn bạn đã động viên nha "
                }
            ]
        },
        {
            "parent_comment": {
                "parent_user": "Maii Trangg",
                "parent_content": "Không biết nói gì luôn chứ thực sự mình thấy bạn có 1 tinh thần thép , ý chí thé luôn ấy"
            },
            "replies": [
                {
                    "reply_user": "Ngáo Ngẩn Ngơ",
                    "reply_content": " thật ra lớp mình  năm lớp 7 còn gặp giáo viên tệ hơn vậy rồi nên mình riết rồi cũng bắt phải làm quen thôi :))"
                }
            ]
        },
        {
            "parent_comment": {
                "parent_user": "Họ Và Tên",
                "parent_content": "Nhưng có 1 cái gay ở đây: chỗ ngồi của em, có ổn ko em? Em xin em bị cận nhờ phụ huynh chuyển lên nhé. Nhưng chị thích ngồi cuối .... Nó vui lắm "
            },
            "replies": [
                {
                    "reply_user": "Ngáo Ngẩn Ngơ",
                    "reply_content": "Nắng Ban Mai em cũng bị cận nhưng cô đã chia rõ là giỏi khá 2 dãy điều phải là ở cuối hết rồi nên chịu thôi chị ơi"
                }
            ]
        }
    ]
}