{
    "post": "538648347018713",
    "link": "https://facebook.com/groups/241769123373305/permalink/538648347018713",
    "post_comments": [
        {
            "parent_comment": {
                "parent_user": "Không sợ Toán Hóa Sinh",
                "parent_content": "Ít nói gan dạ hiền lành :))"
            },
            "replies": [
                {
                    "reply_user": "Huỳnh Bảo Tâm",
                    "reply_content": " cùg tên :)))"
                }
            ]
        },
        {
            "parent_comment": {
                "parent_user": "Tuyết Nhung",
                "parent_content": "Ngô Ngân sao tên t lại đúng thế nhờ "
            },
            "replies": [
                {
                    "reply_user": "Ngô Ngân",
                    "reply_content": " lại đag lướt fb r:))))"
                }
            ]
        }
    ]
}