{
    "post": "549221592628055",
    "link": "https://facebook.com/groups/241769123373305/permalink/549221592628055",
    "post_comments": [
        {
            "parent_comment": {
                "parent_user": "Tấn Thành",
                "parent_content": "Học v là giỏi rồi hơn bao người rồi đấy"
            },
            "replies": [
                {
                    "reply_user": "Huong Nguyen",
                    "reply_content": " cảm ơn nha"
                }
            ]
        }
    ]
}