{
    "post": "550035675879980",
    "link": "https://facebook.com/groups/241769123373305/permalink/550035675879980",
    "post_comments": [
        {
            "parent_comment": {
                "parent_user": "Kim Chill",
                "parent_content": "Tốt nhất nên dậm dưới chân mà sống cho khỏe, chứ sức nào quan tâm làm gì... Cuối cấp rồi, lo cho tương lai đi bạn"
            },
            "replies": [
                {
                    "reply_user": "Bê Đê Con Thỏ",
                    "reply_content": "  mà bạn ấy làm tổn thương em nên em kh chịu đc nỗi luôn ạ :(( em mất tới 3 ngày vẫn chưa hết ám ảnh những câu nói chanh chua ấy..."
                },
                {
                    "reply_user": "Kim Chill",
                    "reply_content": "Mei Hoang chị bị toàn bộ nữ trong lố ghét luôn e.... Chỉ vì ko làm vừa í 1 đứa ý, nên nó bêu xấu chị luôn đấy Cuối cấp rồi quan tâm j mấy cái này, lo học hành thì hơn....tại sao trong khi họ vui ta lại phải buồn??? "
                }
            ]
        },
        {
            "parent_comment": {
                "parent_user": "Thỏ Ngọc",
                "parent_content": "E nên nhờ các anh chị lớn hơn ở trường, hoặc là họ hàng e gọi hội đến đập chết m nó đi e ah"
            },
            "replies": [
                {
                    "reply_user": "Bê Đê Con Thỏ",
                    "reply_content": "Hoàng Ngọc Linh em thì kiểu ng ít quan hệ rộng nên cũng kh bít nhờ ai lun ạ :(( "
                },
                {
                    "reply_user": "Thỏ Ngọc",
                    "reply_content": "Mei Hoang  e nhờ họ hàng hay hàng xóm nhà e ý"
                },
                {
                    "reply_user": "Bê Đê Con Thỏ",
                    "reply_content": "Hoàng Ngọc Linh  em chỉ sợ nhờ xong tụi nó đi sân si em khắp trường “ lớn r còn kêu ba mẹ hay kh tự xử đc “ í ạ :(( "
                },
                {
                    "reply_user": "Thỏ Ngọc",
                    "reply_content": "Nếu b lớp 12 rồi thì cố gắng chịu đựng nha :<"
                }
            ]
        },
        {
            "parent_comment": {
                "parent_user": "Lâm Thành Lân",
                "parent_content": "Đấm vào mồm bạn ấy"
            },
            "replies": [
                {
                    "reply_user": "Bê Đê Con Thỏ",
                    "reply_content": "  đấm xong ra về bị ăn đập hội đồng lun í ạ =)) chơi chung nguyên 1 nhóm ch đại lun í anh"
                },
                {
                    "reply_user": "Lâm Thành Lân",
                    "reply_content": "Vậy thì e phải đấm vào mồm cả nhóm ch đại rồi, cho chúng nó hiểu vấn đề luôn nha em, anh tin em lo được mà "
                }
            ]
        },
        {
            "parent_comment": {
                "parent_user": "Họ Và Tên",
                "parent_content": "Ê cho hỏi cái: là bạn thân bạn làm gì có lỗi với nhỏ đó chưa? Trc rất thân giờ chóng mặt chỉ có khả năng 1 là vì thành tích học chênh lệch khá lớn tình yêu tình báo 2 là do bạn có lỗi chứ ko đời nào bạn là bạn thân mÀ hoàn toàn không biết nó nghĩ gì về bạn. Có thể có hiểu lầm không cứ hỏi cho ra lẽ xong nói rõ.... mình cũng đã từng là bạn thân giờ bạn ra oai rủ đi đánh nhau sau năm 12 bạn trở thành côn đồ à? Quê lắm đừng nghĩ trò chỉ là cách khiến cô chủ nhiệm chú ý và bạn bè nghĩ gì về gia đình bạn đây? Ôi con bé đó hay đánh nhau or éo gì nhà nó gặp nạn hay sao hôm éo cũng làm tao chú ý.... thôi méo quan tâm nữa "
            },
            "replies": [
                {
                    "reply_user": "Họ Và Tên",
                    "reply_content": "Duy chỉ có trường hợp này Không sợ Toán Hóa Sinh : khai mau, Bạn yêu tôi rồi à? Sao cứ lé lé tôi thế hả ..... số phận hết năm rồi, sang năm mới tôi xui lắm  "
                }
            ]
        },
        {
            "parent_comment": {
                "parent_user": "Bill Nguyễn",
                "parent_content": "Theo em là hiền quá như z là không được, chị phải cào loz nó cho em. Đúng k Như? Tố Như "
            },
            "replies": [
                {
                    "reply_user": "Tố Như",
                    "reply_content": " dụt cho chó en"
                }
            ]
        }
    ]
}