{
    "post": "549426749274206",
    "link": "https://facebook.com/groups/241769123373305/permalink/549426749274206",
    "post_comments": [
        {
            "parent_comment": {
                "parent_user": "Tâm sự học đường",
                "parent_content": "Hoặc các cậu có thể gửi theo đường link bí mật này để bảo toàn danh tính :))https://docs.google.com/.../1FAIpQLSf4Yf4YgNf.../viewform..."
            },
            "replies": [
                {
                    "reply_user": "Võ Thư",
                    "reply_content": " rồi ai trả lơig ạ ?"
                }
            ]
        }
    ]
}