{
    "post": "587069835509897",
    "link": "https://facebook.com/groups/241769123373305/permalink/587069835509897",
    "post_comments": [
        {
            "parent_comment": {
                "parent_user": "Minh Hang",
                "parent_content": "mọi người cho e xin vài lời khuyên đc k ạ? e cảm ơn ạ"
            },
            "replies": [
                {
                    "reply_user": "Trang Lương",
                    "reply_content": " \" Giết\" Cnó đi e. Qúa trớn đập cho vài phát vào mỏ. Nói chuyện vs GVCN,bố mẹ cho cnó lên hội đồng nhà trươngf kỉ luật hết. Sau đứa nào như thế nữa, nói lại luôn,chả sợ bố con thằng nà hết. Mình hãy cucsuc chứ đừng để cnó cucsuc với mình "
                },
                {
                    "reply_user": "Minh Hang",
                    "reply_content": "  e yếu mềm lắm ạ:((( e chẳng thể làm gì đc e vô dụng lắm ạ:((("
                }
            ]
        },
        {
            "parent_comment": {
                "parent_user": "Hà Vy",
                "parent_content": "Thôi sang cấp 3 chuyển cho đỡ khổ"
            },
            "replies": [
                {
                    "reply_user": "Minh Hang",
                    "reply_content": " huhu muốn lắm í ạ nma mình phải chờ thêm 2 tháng rưõi nữa mới đến kì thi cấp 3 ạ:((("
                },
                {
                    "reply_user": "Hà Vy",
                    "reply_content": "  b phải mạnh mẽ lên ko tụi nó đc thể làm tới có gì báo cho gvcn cx đc"
                },
                {
                    "reply_user": "Minh Hang",
                    "reply_content": " mẹ mình cx đã báo cho gv nhưng mình cx k bt là chúng nó còn làm gì nữa k:((( mệt mỏi thật sự"
                },
                {
                    "reply_user": "Hà Vy",
                    "reply_content": "Cố gắng lên nhé chả việc gì phải sợ bọn chúng hết"
                },
                {
                    "reply_user": "Minh Hang",
                    "reply_content": " mình xđ cuối năm r nên mình k muốn dây dưa vào bọn nó nữa, cấp 3 mình sẽ cố gắng làm lại cuộc đời"
                }
            ]
        },
        {
            "parent_comment": {
                "parent_user": "Nguyễn Linh",
                "parent_content": "mạnh mẽ lên cô gái, mk đây cũng mệt mỏi với đi học lắm r, cùng nhau cố gắng nha"
            },
            "replies": [
                {
                    "reply_user": "Minh Hang",
                    "reply_content": "Mặt Trời Của Em "
                }
            ]
        }
    ]
}