{
    "post": "560800518136829",
    "link": "https://facebook.com/groups/241769123373305/permalink/560800518136829",
    "post_comments": [
        {
            "parent_comment": {
                "parent_user": "Phạm Tuấn Khang",
                "parent_content": "non"
            },
            "replies": [
                {
                    "reply_user": "Hồng Thanh",
                    "reply_content": " "
                }
            ]
        },
        {
            "parent_comment": {
                "parent_user": "Lê Mai Đức Tín",
                "parent_content": "Ngu là chết :))"
            },
            "replies": [
                {
                    "reply_user": "Hồng Thanh",
                    "reply_content": " tình cảm đâu kiểm soát đc"
                }
            ]
        },
        {
            "parent_comment": {
                "parent_user": "Cindy Nguyễn",
                "parent_content": "Chuyển lớp :))"
            },
            "replies": [
                {
                    "reply_user": "Hồng Thanh",
                    "reply_content": " cx muốn lắm nhưng ko đc"
                }
            ]
        }
    ]
}