{
    "post": "493956894802357",
    "link": "html://facebook.com/groups/weibovn/permalink/493956894802357",
    "post_comments": [
        {
            "parent_comment": {
                "parent_user": "Trúc Trúc",
                "parent_content": "Tran Do Yen Nhi đọc dui l4' 9 "
            },
            "replies": [
                {
                    "reply_user": "Phương Hằng",
                    "reply_content": " mịn doc vs"
                },
                {
                    "reply_user": "Trúc Trúc",
                    "reply_content": "clmmmm sao á taa"
                }
            ]
        },
        {
            "parent_comment": {
                "parent_user": "Lê Mạnh",
                "parent_content": ""
            },
            "replies": [
                {
                    "reply_user": "Nhật Linh",
                    "reply_content": "???? 4 giờ trước"
                },
                {
                    "reply_user": "Lê Mạnh",
                    "reply_content": "Hihi "
                }
            ]
        },
        {
            "parent_comment": {
                "parent_user": "Trần Bích Phượng",
                "parent_content": ""
            },
            "replies": [
                {
                    "reply_user": "Ngọc Anh",
                    "reply_content": " yêu xa khó lắm người ơi "
                },
                {
                    "reply_user": "Trần Bích Phượng",
                    "reply_content": "陶氏玉英 mình yêu gần ó "
                }
            ]
        },
        {
            "parent_comment": {
                "parent_user": "Minh Quýy",
                "parent_content": "Tờơ Rinhh phải cùng em nữa, chứ 1 mình thì anh mệt đó"
            },
            "replies": [
                {
                    "reply_user": "Tờơ Rinhh",
                    "reply_content": " ỏ"
                },
                {
                    "reply_user": "Minh Quýy",
                    "reply_content": " ỏ là cái gì?"
                }
            ]
        },
        {
            "parent_comment": {
                "parent_user": "Đinh Đang",
                "parent_content": "Tâm Đình"
            },
            "replies": [
                {
                    "reply_user": "Nguyễn Đình Tâm",
                    "reply_content": " chính em mới là ng cần học những cái trên kia đếyy :))"
                },
                {
                    "reply_user": "Đinh Đang",
                    "reply_content": "Đình Tâm  e có đâu "
                }
            ]
        },
        {
            "parent_comment": {
                "parent_user": "Ngô Thùy Linh",
                "parent_content": "Bleed LộcLộc có nên tin không anh"
            },
            "replies": [
                {
                    "reply_user": "Lộc Bleed",
                    "reply_content": " trời ơi dài quá"
                },
                {
                    "reply_user": "Ngô Thùy Linh",
                    "reply_content": "biết để tránh, để yêu hơn"
                }
            ]
        },
        {
            "parent_comment": {
                "parent_user": "Hoàng Quý Ba",
                "parent_content": ""
            },
            "replies": [
                {
                    "reply_user": "Luong Tr Quynh Anh",
                    "reply_content": " "
                },
                {
                    "reply_user": "Hoàng Quý Ba",
                    "reply_content": "Quỳnh Quỳnh wtf về với Tùng đi"
                },
                {
                    "reply_user": "Luong Tr Quynh Anh",
                    "reply_content": " :((( "
                },
                {
                    "reply_user": "Hoàng Quý Ba",
                    "reply_content": "Quỳnh Quỳnh j sao"
                },
                {
                    "reply_user": "Luong Tr Quynh Anh",
                    "reply_content": " k"
                },
                {
                    "reply_user": "Hoàng Quý Ba",
                    "reply_content": "Quỳnh Quỳnh :)) ???"
                }
            ]
        },
        {
            "parent_comment": {
                "parent_user": "Minh Tuấn",
                "parent_content": "Võ Nguyễn Hồng Sương để dành lúc lỡ yêu xa thì đưa cho ny em xem nha "
            },
            "replies": [
                {
                    "reply_user": "Võ Nguyễn Hồng Sương",
                    "reply_content": " dài vl :<"
                },
                {
                    "reply_user": "Minh Tuấn",
                    "reply_content": " chán :<"
                }
            ]
        },
        {
            "parent_comment": {
                "parent_user": "Mirinda Soda Kem",
                "parent_content": "Quỳnh ."
            },
            "replies": [
                {
                    "reply_user": "Quỳnh UwU",
                    "reply_content": "  cảm ơn cj yêu"
                },
                {
                    "reply_user": "Mirinda Soda Kem",
                    "reply_content": " ok em "
                }
            ]
        }
    ]
}