{
    "post": "534017157462997",
    "link": "html://facebook.com/groups/weibovn/permalink/534017157462997",
    "post_comments": [
        {
            "parent_comment": {
                "parent_user": "Cương Trần",
                "parent_content": "Nguyễn Vũ Thanh Thảo yêu xa nữa nèeeee"
            },
            "replies": [
                {
                    "reply_user": "Nguyễn Vũ Thanh Thảo",
                    "reply_content": " yên đấy chị mua cho m cái balo "
                },
                {
                    "reply_user": "Cương Trần",
                    "reply_content": " mua rồi năm sau dìa lấyyy haaaa"
                }
            ]
        },
        {
            "parent_comment": {
                "parent_user": "Minh Đức",
                "parent_content": "Dương Cẩm Ly "
            },
            "replies": [
                {
                    "reply_user": "Dương Cẩm Ly",
                    "reply_content": "  mỗi ngày gửi 1 tin nhắn thôi ha"
                },
                {
                    "reply_user": "Minh Đức",
                    "reply_content": " Đeo cái nhẫn đôi đi "
                }
            ]
        },
        {
            "parent_comment": {
                "parent_user": "Lê Gia",
                "parent_content": "阮玉海英 "
            },
            "replies": [
                {
                    "reply_user": "阮玉海英",
                    "reply_content": "黎家辉 sao giờ "
                },
                {
                    "reply_user": "Lê Gia",
                    "reply_content": "  hmmm sao giờ"
                }
            ]
        },
        {
            "parent_comment": {
                "parent_user": "Hnim Auh",
                "parent_content": "Anh Nguyen Ngoc đọc đi "
            },
            "replies": [
                {
                    "reply_user": "Ng Ngọc Anh",
                    "reply_content": "Hmmmmmm"
                },
                {
                    "reply_user": "Hnim Auh",
                    "reply_content": "Nguyen Ngoc Anh có gì đâu mà ghen tuông với nyc "
                },
                {
                    "reply_user": "Ng Ngọc Anh",
                    "reply_content": "Minh Hau thử chọc đi :\")))("
                },
                {
                    "reply_user": "Hnim Auh",
                    "reply_content": "Nguyen Ngoc Anh không nhé "
                },
                {
                    "reply_user": "Ng Ngọc Anh",
                    "reply_content": "Minh Hau Nguyy hiểm hơn chọc chó đấy:\")))"
                },
                {
                    "reply_user": "Hnim Auh",
                    "reply_content": ""
                }
            ]
        },
        {
            "parent_comment": {
                "parent_user": "Quỳnh Chi",
                "parent_content": "Mạnh"
            },
            "replies": [
                {
                    "reply_user": "Lê Đức Mạnh",
                    "reply_content": " anh chắc là em nhận ra những điều này từ trước rồi, anh cũng thế mà ^^"
                },
                {
                    "reply_user": "Quỳnh Chi",
                    "reply_content": " em thấy cái này sẽ thuyết phục hơn lời em nói nên em tag anh :>"
                }
            ]
        },
        {
            "parent_comment": {
                "parent_user": "Nhi Hoa",
                "parent_content": "Mình vừa kết thúc mối tình yêu xa nửa năm và là kiểu tình yêu võng du điển hình. Tuy thất tình gần chục lần tới nơi rồi nhưng mình vẫn luôn sẵn sàng đón nhận tình yêu mới nếu duyên tới. Cuộc sống này dù sao cũng chẳng lấy hết của ai cái gì và cũng chẳn… See More"
            },
            "replies": [
                {
                    "reply_user": "Chí Nguyễn",
                    "reply_content": " Phạm Ly bao lâu bao lâu"
                },
                {
                    "reply_user": "Nhi Hoa",
                    "reply_content": " hả???"
                }
            ]
        },
        {
            "parent_comment": {
                "parent_user": "Châu Bác Nhã",
                "parent_content": "Phạm Minh Hoàng 5 năm=))"
            },
            "replies": [
                {
                    "reply_user": "Phạm Minh Hoàng",
                    "reply_content": " \"không nhắc về nyc\""
                },
                {
                    "reply_user": "Châu Bác Nhã",
                    "reply_content": " ở gần còn có chuyện được "
                }
            ]
        },
        {
            "parent_comment": {
                "parent_user": "Hồng Ngọc",
                "parent_content": "awn, đúng là ngày nào cũng cần liên lạc với nhau"
            },
            "replies": [
                {
                    "reply_user": "Thúy Bùi",
                    "reply_content": " ngừoi có ty yêu đời ghê"
                },
                {
                    "reply_user": "Hồng Ngọc",
                    "reply_content": "Ơ, m cũng trong nhóm này à =))"
                }
            ]
        }
    ]
}