{
    "post": "800580284140015",
    "link": "html://facebook.com/groups/weibovn/permalink/800580284140015",
    "post_comments": [
        {
            "parent_comment": {
                "parent_user": "Quang Anh",
                "parent_content": "K biết mọi người nghĩ như nào chứ mình đọc nhiều bài thấy mn hay ác cảm với điều hoà trung tâm. Mình nghĩ họ đâu có lỗi gì đâu? Chỉ là những người k nhận ra được ví trí của mình trong lòng người khác bị vỡ mộng lại gán cho họ cái mác nhiều em gái/anh trai mưa. "
            },
            "replies": [
                {
                    "reply_user": "Nguyễn Thùy Dung",
                    "reply_content": " đồng quan điểm vs QA"
                },
                {
                    "reply_user": "Quang Anh",
                    "reply_content": " cũng khoe một chiếc ảnh Ba Vì nhé "
                }
            ]
        },
        {
            "parent_comment": {
                "parent_user": "Na Ri Mloo",
                "parent_content": "Mặc dù mới chia tay xong nhưng t vẫn thấy tình yêu đẹp mà =))) tình yêu đâu có lỗi, lỗi là do mình chọn sai người hay yêu sai cách thôi.  "
            },
            "replies": [
                {
                    "reply_user": "Trọng Quang",
                    "reply_content": " ghê rá"
                },
                {
                    "reply_user": "Na Ri Mloo",
                    "reply_content": " nít nôi biết gì mà rep cmt "
                }
            ]
        },
        {
            "parent_comment": {
                "parent_user": "Trần Thị Song Thương",
                "parent_content": "Toi lại ích kỷ quáaaa"
            },
            "replies": [
                {
                    "reply_user": "Huỳnh Thiên Lộc",
                    "reply_content": "  bạn xứng đáng có người tốt hơn !"
                },
                {
                    "reply_user": "Trần Thị Song Thương",
                    "reply_content": " -.-"
                }
            ]
        },
        {
            "parent_comment": {
                "parent_user": "Đào Thị Thuý Kiều",
                "parent_content": "Lê Hoàng Nam 1,3"
            },
            "replies": [
                {
                    "reply_user": "Bảo Vân",
                    "reply_content": " 1234 anh có đánh rơi nhịp nào hông :))"
                },
                {
                    "reply_user": "Đào Thị Thuý Kiều",
                    "reply_content": " rơi lon"
                }
            ]
        },
        {
            "parent_comment": {
                "parent_user": "Thục Uyên",
                "parent_content": "Thanh Thuý Trân Quắn Ngọc Trân "
            },
            "replies": [
                {
                    "reply_user": "Trân Quắn",
                    "reply_content": " Ủa dzay hả đó he"
                },
                {
                    "reply_user": "Thục Uyên",
                    "reply_content": " thì tag dzay hoyyyy"
                }
            ]
        },
        {
            "parent_comment": {
                "parent_user": "Linh Đan Đỗ",
                "parent_content": "Điều hoà trung tâm, mọi người vây quanh, chỉ có tôi ngồi cạnh cục nóng "
            },
            "replies": [
                {
                    "reply_user": "Phạm Công Thắng",
                    "reply_content": " tôi có cục đá lạnh cho bạn nè"
                },
                {
                    "reply_user": "Linh Đan Đỗ",
                    "reply_content": "Tôi xin bạn nhớ, cục đá này có thể giúp tôi đỡ rát đây  "
                },
                {
                    "reply_user": "Phạm Công Thắng",
                    "reply_content": " chờ đợi đúng người thôi có khi tôi mắc phải điều 5"
                }
            ]
        }
    ]
}