{
    "post": "836109147253795",
    "link": "html://facebook.com/groups/weibovn/permalink/836109147253795",
    "post_comments": [
        {
            "parent_comment": {
                "parent_user": "Vũ Ngọc Bảo",
                "parent_content": "Chưa bao giờ có bạn học giỏi hay sao ý. :(((( Muốn ngửi chung cái không khí với người học giỏi mà sao khó quá."
            },
            "replies": [
                {
                    "reply_user": "Phạm Chờ",
                    "reply_content": "  chúng ta cũng phải phấn đấu để bản thân đủ giỏi, đạt chỉ tiêu, mới có thể hòa nhập vào môi trường của người giỏi. Phải vô trường chuyên lớp chọn, công ty lớn thì mới gặp được nhân tài chứ '.'"
                },
                {
                    "reply_user": "Vũ Ngọc Bảo",
                    "reply_content": ":)) thật sự thì tớ k biết người giỏi khác người thường cái gì nữa. :)) Bản thân cũng kinh qua trường chuyên lớp chọn, cũng kinh qua các đợt thi lớn, những cá nhân xuất sắc ( dựa trên thành tích học tập) mà tớ quen chả ai như phía trên nêu ra cả. Bh tớ có giúp đỡ nghiên cứu cho Giáo sư cũng thấy mng cũng như bình thường cả  "
                }
            ]
        },
        {
            "parent_comment": {
                "parent_user": "吴氏玉恋",
                "parent_content": "Nguyễn Thoại Mỹ"
            },
            "replies": [
                {
                    "reply_user": "Nguyễn Thoại Mỹ",
                    "reply_content": " mấy người đó là người ngoài hành tinh à ??"
                },
                {
                    "reply_user": "吴氏玉恋",
                    "reply_content": " học bá trường ngta mà"
                }
            ]
        },
        {
            "parent_comment": {
                "parent_user": "Thảo Linhh",
                "parent_content": "Đào Kura"
            },
            "replies": [
                {
                    "reply_user": "Đào Kura",
                    "reply_content": " khóc 7749 thứ tiếng"
                },
                {
                    "reply_user": "Thảo Linhh",
                    "reply_content": " thoi di"
                }
            ]
        },
        {
            "parent_comment": {
                "parent_user": "Cửu Minh Điều",
                "parent_content": "Quân Củ Cải khao t với panda ăn đi đồ học bá "
            },
            "replies": [
                {
                    "reply_user": "Quân Củ Cải",
                    "reply_content": "Hả? Gì dị bạn? T bít gì đâu "
                },
                {
                    "reply_user": "Cửu Minh Điều",
                    "reply_content": "Quỳnh An cho vào chum muối đi panda, t muốn ăn lắm rồi "
                }
            ]
        },
        {
            "parent_comment": {
                "parent_user": "Nguyễn Thu Hương ",
                "parent_content": "Học bá số 2 có vẻ giống Dư Châu Châu nhỉ ."
            },
            "replies": [
                {
                    "reply_user": "Linh Jessica",
                    "reply_content": "Nguyễn Thu Hương  giống Lạc Chỉ hơn "
                },
                {
                    "reply_user": "Nguyễn Thu Hương ",
                    "reply_content": " Lạc Chỉ là học bá ban xã hội mà."
                }
            ]
        },
        {
            "parent_comment": {
                "parent_user": "Thanh Hà",
                "parent_content": "Thu Hiền hay lam"
            },
            "replies": [
                {
                    "reply_user": "Thu Hiền",
                    "reply_content": " phá đảo thế giới \"thật\" :)))). Hồi xưa cũng từng có một thời Hà bước đi mang theo \"gió\""
                },
                {
                    "reply_user": "Thanh Hà",
                    "reply_content": "em dang noi cai gi vay ? "
                }
            ]
        },
        {
            "parent_comment": {
                "parent_user": "Cẩm Nhung",
                "parent_content": "Minh Khuê Vũ Bảo Nhung Bùi Thu Hương "
            },
            "replies": [
                {
                    "reply_user": "Vũ Bảo Nhung",
                    "reply_content": " đọc xong kiểu mình là ai vậy"
                },
                {
                    "reply_user": "Cẩm Nhung",
                    "reply_content": " đọc mấy cái này thú vị vl"
                }
            ]
        },
        {
            "parent_comment": {
                "parent_user": "Liien Maii",
                "parent_content": "Bạn học bá của bạn tôi đi thi chuyên toán cấp tỉnh sai hai câu trầm cảm nghỉ học nguyên tuần vì để sai. Chưa kể tên đó còn thi cả Lý và giải cũng cao nữa"
            },
            "replies": [
                {
                    "reply_user": "Ying Ying",
                    "reply_content": "Joo Han lớp phó học tập lớp tôi bài một tiết toán được 9 xong ngồi khóc cả buổi vì sai mất 1 bước ở bài 1₫ cuối:>"
                },
                {
                    "reply_user": "Liien Maii",
                    "reply_content": " toàn thứ ko phải người"
                }
            ]
        },
        {
            "parent_comment": {
                "parent_user": "Minh Nhật",
                "parent_content": "Ohh trong ảnh này có 1 bạn cùng khóa cùng trường với mình này=))"
            },
            "replies": [
                {
                    "reply_user": "Bùi Hằng",
                    "reply_content": " bạn nào vậy=))))"
                },
                {
                    "reply_user": "Minh Nhật",
                    "reply_content": "  cái bạn đang múa quạt=)) "
                }
            ]
        },
        {
            "parent_comment": {
                "parent_user": "Nguyễn Thắng",
                "parent_content": "Trung quốc thật kinh khủng "
            },
            "replies": [
                {
                    "reply_user": "Phuong Phuong",
                    "reply_content": " Việt Nam cũng khủng không kém đâu nha"
                },
                {
                    "reply_user": "Nguyễn Thắng",
                    "reply_content": "  đúng đúng "
                }
            ]
        },
        {
            "parent_comment": {
                "parent_user": "Huỳnh Mỹ Chi",
                "parent_content": "Lê Trần Minh Khuê có hay đi giải cíu giun hăm"
            },
            "replies": [
                {
                    "reply_user": "Lê Trần Minh Khuê",
                    "reply_content": "  có muốn đi giải cứu giun với tui khong :>"
                },
                {
                    "reply_user": "Huỳnh Mỹ Chi",
                    "reply_content": " hong them"
                },
                {
                    "reply_user": "Lê Trần Minh Khuê",
                    "reply_content": " hui đi đi "
                },
                {
                    "reply_user": "Huỳnh Mỹ Chi",
                    "reply_content": " honggg"
                },
                {
                    "reply_user": "Lê Trần Minh Khuê",
                    "reply_content": " dị hoy"
                }
            ]
        },
        {
            "parent_comment": {
                "parent_user": "Huyền Trang",
                "parent_content": "Nguyễn Vân Minh "
            },
            "replies": [
                {
                    "reply_user": "Nguyễn Vân Minh",
                    "reply_content": " mình chẳng quen học bá nào cả  "
                },
                {
                    "reply_user": "Huyền Trang",
                    "reply_content": " tại mik chưa đi nhiều  "
                }
            ]
        },
        {
            "parent_comment": {
                "parent_user": "Nguyễn Trang",
                "parent_content": "Nguyễn Thu Thảo học bá ngầu lòi c lòng mị"
            },
            "replies": [
                {
                    "reply_user": "Nguyễn Thu Thảo",
                    "reply_content": " chị thứ 2 ấy hả"
                },
                {
                    "reply_user": "Nguyễn Trang",
                    "reply_content": " uh nhưng mình phiên bản lỗi"
                }
            ]
        }
    ]
}