{
    "post": "991278171404678",
    "link": "https://facebook.com/groups/371004360098732/permalink/991278171404678",
    "post_comments": [
        {
            "parent_comment": {
                "parent_user": "Trang Phạm",
                "parent_content": "Bạn ấy đã chuẩn bị lâu rồi. Mọi lời thương tiếc chỉ là sáo rỗng, mọi tiếc khóc nấc chẳng có giá trị. T vẫn ủng hộ quyết định của bạn ấy, nếu muốn ra đi thì đem tất cả để không còn ai nhớ đến mình cả. T cũng giống bạn đó, nhưng ít ra t vẫn còn người quan tâm nên chưa thể bỏ hết được "
            },
            "replies": [
                {
                    "reply_user": "Trung Trần Minh",
                    "reply_content": "  cuộc sống vẫn là đáng quý nhất. Phải chi mà.."
                },
                {
                    "reply_user": "Trang Phạm",
                    "reply_content": " cuộc sống là địa ngục với một vài người. Không ai biết nó đáng quý thế nào nếu không có ai cho họ thấy. Có thể nói họ quá thụ động khi không chịu kiếm tìm. Nhưng tự bản thân không ai biết phải tìm kiếm đến bao giờ và không phải ai cũng kiên nhẫn nếu không có người chung bước."
                },
                {
                    "reply_user": "Trung Trần Minh",
                    "reply_content": "  viết ra giấy những nổi buồn. Viết ra giấy vấn đề. Viết ra giấy hướng giải quyết. Và vượt qua từ những gạch đầu dòng 1"
                },
                {
                    "reply_user": "Trang Phạm",
                    "reply_content": " cám ơn bạn nhé:))) giờ mình chơi thu âm rồi bạn :))) viết thường dễ nhớ, khó quên."
                }
            ]
        },
        {
            "parent_comment": {
                "parent_user": "Sunnyjz Pham",
                "parent_content": "Cảm nhận chắc chắn một điều là facebook của bạn ấy tràn ngập nỗi cô độc, không có một ai hiểu thấu được nỗi lòng của bạn em thể hiện trên từng dòng thơ tự sự ấy...Xin chia buồn cùng em và cầu mong cho người đã mất sẽ được tái sinh về cõi an lành, không còn chịu khổ đau và cô độc nữa "
            },
            "replies": [
                {
                    "reply_user": "Trung Trần Minh",
                    "reply_content": "  tiểu sử của bạn."
                },
                {
                    "reply_user": "Sunnyjz Pham",
                    "reply_content": " thật đau lòng...mỗi khi chị nhớ về những người bạn thưở nhỏ hay người thân yêu đã mất của mình thì hay mở nghe bài này của Arvil Lagvine, When you’re gone...Trải qua những nỗi mất mát rồi ngta mới càng thấm được nỗi buồn đó như thế nào"
                },
                {
                    "reply_user": "Trung Trần Minh",
                    "reply_content": "  Chúng ta chẳng biết quý những người hay kể lể vậy , cho họ là phiền . Nhưng bạn không nghĩ là họ thừa có người khác , họ đặt lòng tin vào bạn . Và bạn phớt lờ điều đó đi . Chúng ta chẳng quý thứ gì cho đến khi mất đi , kể cả cơ hội cũng vậy  "
                }
            ]
        },
        {
            "parent_comment": {
                "parent_user": "Thư Mikan",
                "parent_content": "Bạn mình cũng vừa mới đi vào ngày 13 vừa rồi. Cũng không biết nói sao nữa.Đột ngột lắm, bệnh mất, mình cũng chẳng biết bệnh gì, bạn bè xung quanh cũng không biết. Không có bất kì một dấu hiệu nào cả.Mình vẫn không tin đó là sự thật.Hai hôm nay, nhắm mắt lại là khuôn mặt bạn ấy hiện lên, bạn ấy xinh lắm, cao, chân dài, da trắng, cười rất dễ thương.Lúc mình nhận được tin trong group chat của lớp, mình đã nhắn cho bạn ấy, cách một chút lại nhắn gọi, mình chỉ mong bạn ấy trả lời. Lần đầu mình hiểu cái gọi là sinh ly tử biệt như thế nào.Mình cứ lướt fb của bạn ấy, lục tìm nick của ny và gia đình để nhắn hỏi. Mình chỉ mong họ nói là bạn đó đang đi đâu đó, không onl được, chứ không phải là xác nhận với mình rằng bạn ấy đã đi.Bây giờ mình vẫn chưa tin. Mới hôm trước bạn ấy còn nhắn bảo khi nào học onl nhắn bạn ấy vào lớp, trước đó nữa tụi mình còn nói về idol, khi hay tin idol mình có con bạn ấy là người đầu tiên nhắn an ủi mình. Không biết diễn tả thế nào, chỉ là mong tất cả như một trò đùa, mình đang nằm mơ cũng được"
            },
            "replies": [
                {
                    "reply_user": "Trung Trần Minh",
                    "reply_content": "  bạn biết sao mình buồn không. Vì mình vô tâm quá ý. Nó mất hồi tháng 10 mà giờ mình mới biết. Biết cũng là vô tình biết ý. Và hơn thế nữa, bạn ấy mất không phải vì bệnh tật mà là tự giải thoát.. "
                },
                {
                    "reply_user": "Thư Mikan",
                    "reply_content": " mấy hôm này mình đều tự an ủi mình là có thế giới song song, ở đó bạn mình nhất định sẽ được hạnh phúc. Bạn của bạn nhất định sẽ hạnh phúc.Mình cũng vô tâm, phải chi mình nói chuyện với bạn ấy nhiều hơn, đi chơi với bạn ấy, tâm sự với bạn ấy nhiều nhiều hơn nữa.Mình cũng rất lo sợ. Mình sợ vài năm nữa mình quên mất đi bạn ấy."
                },
                {
                    "reply_user": "Trung Trần Minh",
                    "reply_content": "  phải chi.."
                }
            ]
        }
    ]
}