{
    "post": "997285824137246",
    "link": "https://facebook.com/groups/371004360098732/permalink/997285824137246",
    "post_comments": [
        {
            "parent_comment": {
                "parent_user": "Thu Nga Nguyen",
                "parent_content": "Bên Tây họ sống thế mà e, họ tự do thoải mái trong sex, với họ, sex cũng chỉ là một nhu cầu rất bt của con người thôi e. Nên e ko cần tự trách bản thân mình hay nghĩ bản thân mình tồi tệ đâu e. Chỉ có duy nhất một điều đáng lo ngại là e sex ko an toàn, cái này thì dứt khoát e phải cẩn thận và bảo vệ mình nhé. "
            },
            "replies": [
                {
                    "reply_user": "Linh Dương Sừng Tấm",
                    "reply_content": " chính 1 nhà phân tâm học đưa ra quan điểm sex là 1 như cầu cơ bản của con người giống như việc ăn ngủ..vậy nên phương tây họ sex mọi nơi,mọi lúc...sex 1 cách bệnh hoạn,sex khi không có tình yêu...và các bạn xem điều đó thể hiện sự văn minh?các bạn cũng chỉ là nạn nhân của sự đồng hóa"
                },
                {
                    "reply_user": "Thu Nga Nguyen",
                    "reply_content": " : bệnh hoạn là do cách nhìn nhận của mỗi người thôi bạn. Nói về văn minh, Ai cũng biết nơi nào văn minh hơn "
                },
                {
                    "reply_user": "Linh Dương Sừng Tấm",
                    "reply_content": " vâng..và chúng ta hấp thụ cả những thứ chống lại thuần phong mỹ tục...tôi không giống bạn tôi có cái filter của mình để biết lược lại 1 ít..có một sự thật là bọn tây thích những thứ thuộc về văn hóa bản địa hơn là nhìn cách chúng ta sao chép họ..."
                }
            ]
        }
    ]
}