{
    "post": "1000318570500638",
    "link": "https://facebook.com/groups/371004360098732/permalink/1000318570500638",
    "post_comments": [
        {
            "parent_comment": {
                "parent_user": "Tú Uyên",
                "parent_content": "Chào bạn.Vẻ bề ngoài không đủ để đánh giá bản chất một người nhưng nó là điều kiện cần để sau này bạn đi làm sẽ dễ dàng hơn và không gặp khó khăn như bao người khác. Mình từng như bạn, bị người nhà ghét bỏ dù học lực mình giỏi, sau khi mình thay đổi thì lại bảo mình lanh lợi thông minh. Bạn thay đổi vẻ ngoài 1 chút thì sẽ có những điều tốt hơn đến với bạn. Có thể là những lời không thật lòng, nhưng cũng tốt hơn là hằng ngày bạn bị soi mói đúng không nào, và cũng tốt cho tương lai của bạn nữa.Có câu không gì tuyệt vời hơn khi bạn là chính mình, không cuộc sống nào tươi đẹp bằng cuộc sống của chính bạn. Mình nghĩ là chính mình không chỉ là tính cách bên trong bạn, mà còn phải tự tin. Vẻ ngoài sẽ là yếu tố phụ giúp cho bạn, vì khi bạn đẹp thì mới tự tin được. Còn làm cách nào đẹp thì bạn có thể ib mình tư vấn một số sản phẩm mình dùng có hiệu quả nhé."
            },
            "replies": [
                {
                    "reply_user": "Phuong Anh",
                    "reply_content": "Còn cái khó là cố gắng thay đổi vẫn không thể được cơ=(("
                },
                {
                    "reply_user": "Tú Uyên",
                    "reply_content": " nhất dáng nhì da, mình thay đổi trong 2 năm. Bạn có điều kiện thì khoảng 1 năm là ok hà"
                },
                {
                    "reply_user": "Phuong Anh",
                    "reply_content": "Dạ cảm ơn bạn nhé, tui cũng đang cố"
                }
            ]
        }
    ]
}