{
    "post": "2938792509676811",
    "link": "https://facebook.com/groups/2030035913885813/permalink/2938792509676811",
    "post_comments": [
        {
            "parent_comment": {
                "parent_user": "Gia Hạo",
                "parent_content": "Vẫn bít lụy tình là sai mà sao vẫn thương k dừng lại đc"
            },
            "replies": [
                {
                    "reply_user": "Thuý Nhi",
                    "reply_content": "  giống mình rồi...."
                },
                {
                    "reply_user": "Gia Hạo",
                    "reply_content": " m cũng v.tập bỏ bớt ghen tuông. Tập bỏ bớt sự quan tâm tới 1ng..mà bỏ bớt thì tc nhạt nhẽo. Nhủ m k đc bi lụy nhưng r vẫn k làm đc.khi lụy chỉ bị ng ta coi rẽ.mà s k vượt qua đc chữ nỗi lòng "
                },
                {
                    "reply_user": "Thuý Nhi",
                    "reply_content": " lạc quan lên may nắm sẽ đến "
                }
            ]
        }
    ]
}