{
    "post": "2492149527674447",
    "link": "https://facebook.com/groups/2030035913885813/permalink/2492149527674447",
    "post_comments": [
        {
            "parent_comment": {
                "parent_user": "Nguyễn Tuấn Ken",
                "parent_content": ".thời đại 4.0 rồi mà."
            },
            "replies": [
                {
                    "reply_user": "Bước Tiếp",
                    "reply_content": "Hy Vọng rãnh rỗi sinh ra nông nỗi"
                },
                {
                    "reply_user": "Nguyễn Tuấn Ken",
                    "reply_content": " ờ."
                },
                {
                    "reply_user": "Bước Tiếp",
                    "reply_content": "Hy Vọng cai j cung nhảy vào bình luận cho bằng đc.khiếp"
                },
                {
                    "reply_user": "Nguyễn Tuấn Ken",
                    "reply_content": " a hay hèy"
                }
            ]
        },
        {
            "parent_comment": {
                "parent_user": "Vananh Hoang",
                "parent_content": "E chưa ngủ vs thằng nào cả vì bọn e toàn thức thời gian đéo đâu mà ngủ"
            },
            "replies": [
                {
                    "reply_user": "Ngô Thương",
                    "reply_content": ""
                },
                {
                    "reply_user": "Vananh Hoang",
                    "reply_content": "Mộng Thương hợp lý ko"
                },
                {
                    "reply_user": "Ngô Thương",
                    "reply_content": " k còn gi để hợp lý hơn"
                },
                {
                    "reply_user": "Vananh Hoang",
                    "reply_content": "Thế cho nó vuông các chị em nhỉ"
                }
            ]
        },
        {
            "parent_comment": {
                "parent_user": "Quách Quách",
                "parent_content": "Vậy bn có sẵn sàng cưới cave về lm vợ k??? Nếu mà bn yêu người đó?"
            },
            "replies": [
                {
                    "reply_user": "Nguyễn Quang Chung",
                    "reply_content": " còn tuỳ nữa bạn ?"
                },
                {
                    "reply_user": "Quách Quách",
                    "reply_content": "Bảo Đặng bn sẵn sàng lấy điếm về lm vợ phải k ? Hay đấy"
                },
                {
                    "reply_user": "Nguyễn Quang Chung",
                    "reply_content": "  hoàn cảnh và cuộc sống nữa bạn :))"
                },
                {
                    "reply_user": "Quách Quách",
                    "reply_content": "Đây gọi là đặt vấn đề.chủ thớt viết hay như thế còn gì..."
                },
                {
                    "reply_user": "Nguyễn Quang Chung",
                    "reply_content": " mình có đặt vấn đề với cave à bạn ?"
                }
            ]
        }
    ]
}