{
    "post": "1097361230783555",
    "link": "https://facebook.com/groups/330196354166717/permalink/1097361230783555",
    "post_comments": [
        {
            "parent_comment": {
                "parent_user": "Như Ý Hoàng",
                "parent_content": "ch doc het nhung moi quan he cua 2 ng la \" tren tinh ban duoi tinh yeu\" hay duoc goi la \" map mo\" , t nghi neu ban nam khong nam gi thi ba nen hoi ro di, map mo khong tot dau.."
            },
            "replies": [
                {
                    "reply_user": "Nguyễn Thùy Trang",
                    "reply_content": " Cảm ơn ý kiến của b "
                }
            ]
        },
        {
            "parent_comment": {
                "parent_user": "Thảo An",
                "parent_content": "thay vì em bỏ thời gian ra cho người không để mình ở trong lòng thì em nên học trước đã khi nào cảm thấy mình đủ vững để bắt đầu tình yêu mới thì yêu, em còn trẻ mà còn nhiều người tốt lắm "
            },
            "replies": [
                {
                    "reply_user": "Nguyễn Thùy Trang",
                    "reply_content": " Dạ,em cảm ơn chị"
                }
            ]
        },
        {
            "parent_comment": {
                "parent_user": "Lê Hoài Trang",
                "parent_content": "Hmmm theo tôi thì nó giống như 1 vòng luẩn quẩn ý nhỉ ,thay vì bạn cứ đau đầu vì những chuyện như vậy thì nên dứt 1 lần luôn cho xong ,chứ cứ như vậy thì đâu vẫn vào đấy thôi khó chịu cực ý"
            },
            "replies": [
                {
                    "reply_user": "Nguyễn Thùy Trang",
                    "reply_content": " Da,minh cung xin co chuyen cho tu tuan trc r b"
                },
                {
                    "reply_user": "Lê Hoài Trang",
                    "reply_content": "  dứt hẳn nka tr "
                },
                {
                    "reply_user": "Nguyễn Thùy Trang",
                    "reply_content": " Vẫn day dưa chưa quên dc hẳn ý,tối mà cbi đi ngủ lại bắt đầu nhớ đến kỷ niệm lúc trc huhu"
                },
                {
                    "reply_user": "Lê Hoài Trang",
                    "reply_content": " giờ á mà ,Em nghĩ xem nếu cứ luẩn quẩn như vậy rồi thằng kia đượt nước làm tới thì em càng mệc ảnh hưởng việc học khá nhiều đó , giờ chi bằng dứt hẳn rồi nhung nhớ 1 thời gian kiểu gì chả quên đúng không? Lâu 1 chút cũng được nma tốt hơn là day dưa"
                },
                {
                    "reply_user": "Nguyễn Thùy Trang",
                    "reply_content": " Dạ,c nói đúng ý e rồi,e cảm ơn c"
                },
                {
                    "reply_user": "Lê Hoài Trang",
                    "reply_content": "  cố lên ha :>"
                }
            ]
        },
        {
            "parent_comment": {
                "parent_user": "Tien Khanh",
                "parent_content": "lo hoc di ban oi"
            },
            "replies": [
                {
                    "reply_user": "Nguyễn Thùy Trang",
                    "reply_content": "Khanh Tien da"
                }
            ]
        }
    ]
}