{
    "post": "1097370777449267",
    "link": "https://facebook.com/groups/330196354166717/permalink/1097370777449267",
    "post_comments": [
        {
            "parent_comment": {
                "parent_user": "Ng Luu Hoa",
                "parent_content": "post này không phải chỗ để cmt còn thở còn gỡ hay đại khái thế đâu ạ  joke cũng cần biết chỗ và biết điểm dừng"
            },
            "replies": [
                {
                    "reply_user": "Nguyễn Huy",
                    "reply_content": " hên quá cancel kịp ko là cmt vậy rồi "
                }
            ]
        },
        {
            "parent_comment": {
                "parent_user": "Trần Văn Tuân",
                "parent_content": "còn chơi còn gỡ, dừng lại là thất bại nha"
            },
            "replies": [
                {
                    "reply_user": "Nguyễn Thị Ngọc Diễm",
                    "reply_content": " bậy"
                }
            ]
        },
        {
            "parent_comment": {
                "parent_user": "Biền Khán Tinh",
                "parent_content": "Mình thật sự muốn ôm bạn một cái thật lâu nếu có thể. Đừng nản lòng,bạn còn trẻ, còn có thể bắt đầu lại mà?"
            },
            "replies": [
                {
                    "reply_user": "Thiện Hình Sự",
                    "reply_content": " mình cũng kh nghỉ mình ở tuổi này mà bị vầy luôn"
                }
            ]
        },
        {
            "parent_comment": {
                "parent_user": "Tím Lịm Tìm Xim",
                "parent_content": "16 tuổi đời còn dài mà..còn rất trẻ mà, sao bạn không cố gắng bỏ và tìm 1việc làm phù hợp hay đi học may chẳng hạn. Nếu có đổ nợ thì ráng trả hết sau này con cái không khổ vì mình. Con trai nghiện là dở rồi ^^ có lẽ những áp lực đấy là do bạn tự sinh nó ra nên là \"tự làm tự dọn\". Không có í gì đâu nhưng mà những cmt khác mình thấy cũng có lí và bạn có khả năng thực hiện được, lướt đọc rồi suy nghĩ xem sao"
            },
            "replies": [
                {
                    "reply_user": "Thiện Hình Sự",
                    "reply_content": " cảm ơn bạn rất nhiều"
                },
                {
                    "reply_user": "Tím Lịm Tìm Xim",
                    "reply_content": "   cố gắng vượt qua những cám dỗ nào ><"
                },
                {
                    "reply_user": "Thiện Hình Sự",
                    "reply_content": " cảm thấy đời này có thử thách lớn và mình vượt qua kh biết mình có trưởng thành hơn hay là thất bại nhưng những điều đó chỉ coa ngày mai trả lời"
                },
                {
                    "reply_user": "Tím Lịm Tìm Xim",
                    "reply_content": "  những điều nhỏ nhặc ở ngày thường tích góp từ từ nó sẽ làm bạn trưởng thành hơn cũng như có kinh nghiệm hơn. Tương lai chẳng ai biết trước được đâu, thất bại hay không là do bạn cả"
                },
                {
                    "reply_user": "Thiện Hình Sự",
                    "reply_content": " cảm ơn babj nhiều"
                }
            ]
        },
        {
            "parent_comment": {
                "parent_user": "Thư",
                "parent_content": "hãy tận hưởng một cuộc đời mà mẹ bạn tạo ra vừa học vừa làm vì bạn tự tạo nợ thì tự trả. Trả hết nợ rồi bạn sẽ trưởng thành suy nghĩ chính chắn hơn và sẽ có nhiều điều tốt đến với bạn"
            },
            "replies": [
                {
                    "reply_user": "Thiện Hình Sự",
                    "reply_content": " đôi khi nhờ đó mà tôi cảm thấy đời nó khác và biết nhiều cách sống hơn"
                }
            ]
        },
        {
            "parent_comment": {
                "parent_user": "Thúy Liên",
                "parent_content": "Bạn áp lực chuyện gì?"
            },
            "replies": [
                {
                    "reply_user": "Thiện Hình Sự",
                    "reply_content": " chuyện nợ nần "
                }
            ]
        },
        {
            "parent_comment": {
                "parent_user": "Nguyễn Ngọc Bảo Châu",
                "parent_content": "bạn tải app cờ bạc về tự đánh trên máy đi cho đỡ nghiện"
            },
            "replies": [
                {
                    "reply_user": "Nguyễn Đình Nhật ",
                    "reply_content": " ý hay"
                },
                {
                    "reply_user": "Nguyễn Ngọc Bảo Châu",
                    "reply_content": "vậy để tôi qua đánh cùng ông"
                }
            ]
        },
        {
            "parent_comment": {
                "parent_user": "Quốc Võ",
                "parent_content": "vấn đề là nhan sắc liên quan gì cờ bạc =]]"
            },
            "replies": [
                {
                    "reply_user": "Thiện Hình Sự",
                    "reply_content": " kh biết dùng ó"
                },
                {
                    "reply_user": "Quốc Võ",
                    "reply_content": " bây h nghiện cờ bạc thì chả làm đc tích sự gì cả. nói thẳng là thế chứ chả liên quan gì đẹp xấu"
                }
            ]
        },
        {
            "parent_comment": {
                "parent_user": "Nguyễn Yến Nhi",
                "parent_content": "Nợ ai trả "
            },
            "replies": [
                {
                    "reply_user": "Thiện Hình Sự",
                    "reply_content": " thì mình phải góng gánh trả thôi chứ có nhờ bome đâu"
                },
                {
                    "reply_user": "Nguyễn Yến Nhi",
                    "reply_content": " tốt"
                },
                {
                    "reply_user": "Thiện Hình Sự",
                    "reply_content": " cảm ơn bạn đã đóng góp ý kiến cho tôi nha"
                }
            ]
        }
    ]
}