{
    "post": "1087399475113064",
    "link": "https://facebook.com/groups/330196354166717/permalink/1087399475113064",
    "post_comments": [
        {
            "parent_comment": {
                "parent_user": "Mang Thị Hồng Quyên",
                "parent_content": "Pùn mín "
            },
            "replies": [
                {
                    "reply_user": "Nguyễn Nhất HuY",
                    "reply_content": " kh cho"
                }
            ]
        },
        {
            "parent_comment": {
                "parent_user": "Hai Annh",
                "parent_content": "chuc mung sinh nhat"
            },
            "replies": [
                {
                    "reply_user": "Nguyễn Nhất HuY",
                    "reply_content": " chúc mừng sinh nhật canh nguuu"
                }
            ]
        },
        {
            "parent_comment": {
                "parent_user": "Trương Trần Que Anh",
                "parent_content": "cứ bị thích ảnh kiểu như b nhìn buồn buồn iss"
            },
            "replies": [
                {
                    "reply_user": "Nguyễn Nhất HuY",
                    "reply_content": " mình lượm nhiều nơi trên fb á "
                },
                {
                    "reply_user": "Trương Trần Que Anh",
                    "reply_content": " à, còn ảnh mình cmt là mình chụp vs mới tập blend nên hơi bị lố í"
                }
            ]
        },
        {
            "parent_comment": {
                "parent_user": "Trần Vũ Hạ Vân",
                "parent_content": "Hôm nay mình đã mạnh dạng tư tay cắt đi mái tóc của mình ,mình là con người rất thích tóc dài và tiếc tóc...Có lẽ là nổi buồn làm mình muốn cắt bỏ đi thứ mình trân quý nhất để lấy lại nụ cười thì phải...Mình chỉ mong sau hôm nay mình có thể sống trong sự hạnh phúc mà mình mong chờ!!Các bạn cũng vậy nhé"
            },
            "replies": [
                {
                    "reply_user": "Thiên Nhi",
                    "reply_content": " tui cũng mới cắt tóc ngắn, vì tên nyc thích con gái tóc dài "
                },
                {
                    "reply_user": "Trần Vũ Hạ Vân",
                    "reply_content": " còn tui thì có 1chút buồn trong chuyện tcam ,nếu bà cũng vậy thì có thể kb nếu bà buồn thì tâm sự cùng toy nhé"
                },
                {
                    "reply_user": "Thiên Nhi",
                    "reply_content": " xin lỗi, tui k muốn tsự với ai cả, vì mỗi lần khơi lại những nỗi đau k nguôi, tui sẽ k kiềm chế được mình mà làm vô số chuyện tệ hại, như là giết một ai đó chẳng hạn "
                },
                {
                    "reply_user": "Trần Vũ Hạ Vân",
                    "reply_content": " chúc bạn luôn vui vẻ mỉm cười nhé cô gái"
                },
                {
                    "reply_user": "Thiên Nhi",
                    "reply_content": " đời có gì vui mà phải cười ???  "
                }
            ]
        },
        {
            "parent_comment": {
                "parent_user": "Tiên Nga",
                "parent_content": "Ngày hôm nay những câu nói của mẹ như xát muối vào trái tim của toi:k Gía như mẹ là toi để hiểu được cảm giác nó đau đớn như thế nào.... "
            },
            "replies": [
                {
                    "reply_user": "Nguyễn Nhất HuY",
                    "reply_content": " nhưng mà mẹ vẫn thương bạn mà nhỉ"
                },
                {
                    "reply_user": "Tiên Nga",
                    "reply_content": " Mẹ thương mình nhiều lắm nhưng cách mẹ đối xử với mình mỗi khi mẹ tức giận. Khiến mình đau lắm, mình xót lắm  Bản thân mình đã có quá nhiều áp lực mà bây giờ cả người thân cũng đối xử như v :< Trái tim mình chịu không nổi... "
                },
                {
                    "reply_user": "Nguyễn Nhất HuY",
                    "reply_content": " thôi đừng vướng bận vào những suy nghĩ tiêu cực nữa nhá"
                },
                {
                    "reply_user": "Tiên Nga",
                    "reply_content": " đang cố đây hehe"
                },
                {
                    "reply_user": "Nguyễn Nhất HuY",
                    "reply_content": " mình cũng hiểu được cảm giác này, cũng hiểu được cho mẹ bạn, gì thì gì cũng đừng giận mẹ nha "
                },
                {
                    "reply_user": "Tiên Nga",
                    "reply_content": " giận thì cũng kh hẳn chỉ là trong lòng lại xuất hiện một loại tổn thương khiến cho mình càng ngày càng xa cách mẹ mình hơn. Nói thẳng ra là mình mỗi khi thấy mặt ba mẹ là mình lại bị kiểu buồn bực trong người. "
                },
                {
                    "reply_user": "Nguyễn Nhất HuY",
                    "reply_content": " hay bạn thử tâm sự với mẹ đi, mỗi ngày một câu chuyện mà bạn gặp, vui buồn gì đó, mình tin là như vậy bạn với mẹ bạn sẽ tốt hơn đó"
                },
                {
                    "reply_user": "Tiên Nga",
                    "reply_content": " mình từng thử rồii :> nhưng thay vì được cảm thông an ủi thì mình toàn bị chửi thoi. Riết kh muốn tâm sự gì cả, vì nhà khong ai hiểu mình hết"
                },
                {
                    "reply_user": "Nguyễn Nhất HuY",
                    "reply_content": " poor"
                }
            ]
        },
        {
            "parent_comment": {
                "parent_user": "Quỳnh Trang",
                "parent_content": "Ngày hôm nay mệt dã man, nhưng mà người ta không những không hiểu cho mình , an ủi mình mà còn bảo mình gây sự vô lý..."
            },
            "replies": [
                {
                    "reply_user": "Lâm Bích Ngọc",
                    "reply_content": " khong sao hết, zui lên "
                }
            ]
        },
        {
            "parent_comment": {
                "parent_user": "Mau Huyền Hậu",
                "parent_content": "Lại có thêm 1 lý do để sống vui vẻ hạnh phúc đó là quyền của mình"
            },
            "replies": [
                {
                    "reply_user": "Nguyễn Nhất HuY",
                    "reply_content": " đúng rùiiii"
                }
            ]
        },
        {
            "parent_comment": {
                "parent_user": "Kim Quyên",
                "parent_content": "Buon ma khong biet li do thi sao day"
            },
            "replies": [
                {
                    "reply_user": "Nguyễn Nhất HuY",
                    "reply_content": " giống tui quá, đôi lúc cũng vậy á mà lí do chắc là những điều nhỏ nhặt xung quanh rồi gộp lại thôi"
                }
            ]
        },
        {
            "parent_comment": {
                "parent_user": "Lân Di Hàn",
                "parent_content": "đáng iu cá "
            },
            "replies": [
                {
                    "reply_user": "Nguyễn Nhất HuY",
                    "reply_content": " mình không hiểu cho lắm "
                },
                {
                    "reply_user": "Lân Di Hàn",
                    "reply_content": " dạ tôi bảo người tôi đang rep đây nè"
                }
            ]
        },
        {
            "parent_comment": {
                "parent_user": "Ánhh Lingg",
                "parent_content": "Chỉ muốn kết thúc cuộc đời"
            },
            "replies": [
                {
                    "reply_user": "Nguyễn Nhất HuY",
                    "reply_content": " như vậy là dại lắm nha, không khuyến khích đâu"
                }
            ]
        },
        {
            "parent_comment": {
                "parent_user": "Nguyễn Khánh Tâm",
                "parent_content": "Co don, lac long, lam moi thu chi mot minh va mot minh"
            },
            "replies": [
                {
                    "reply_user": "Nguyễn Nhất HuY",
                    "reply_content": " sao bà không thử tìm niềm vui cho riêng bà"
                }
            ]
        },
        {
            "parent_comment": {
                "parent_user": "Trà Boo",
                "parent_content": "vua chia tay nguoi yeu"
            },
            "replies": [
                {
                    "reply_user": "Nguyễn Nhất HuY",
                    "reply_content": " nếu buồn quá thì yêu chục anh cho đỡ bùn nhe"
                },
                {
                    "reply_user": "Trà Boo",
                    "reply_content": " 0"
                }
            ]
        },
        {
            "parent_comment": {
                "parent_user": "Ái Khánh",
                "parent_content": "Hom nay that su buon day"
            },
            "replies": [
                {
                    "reply_user": "Nguyễn Nhất HuY",
                    "reply_content": " kể đii"
                }
            ]
        }
    ]
}