{
    "post": "1100021697184175",
    "link": "https://facebook.com/groups/330196354166717/permalink/1100021697184175",
    "post_comments": [
        {
            "parent_comment": {
                "parent_user": "Nguyễn Minh Quân",
                "parent_content": "Nói ra thì rất dễ , nhưng sự thật lại khó chấp được . vì nếu không thành công thì có lẽ chúng tôi cũng chả thể làm bạn mà còn bị mọi người xa lắng"
            },
            "replies": [
                {
                    "reply_user": "Quỳnh Chi",
                    "reply_content": " cần ib tâm sự khônggg ??"
                },
                {
                    "reply_user": "Nguyễn Minh Quân",
                    "reply_content": " xin lỗi , tâm trạng mình hiện giờ không được tốt lắm ."
                },
                {
                    "reply_user": "Quỳnh Chi",
                    "reply_content": " okee , nào cần thì có thể ib nhee "
                }
            ]
        },
        {
            "parent_comment": {
                "parent_user": "Trân Trân Phạm",
                "parent_content": "nói bth thôiii"
            },
            "replies": [
                {
                    "reply_user": "Toan Manh",
                    "reply_content": " "
                }
            ]
        }
    ]
}