{
    "post": "1098788743974137",
    "link": "https://facebook.com/groups/330196354166717/permalink/1098788743974137",
    "post_comments": [
        {
            "parent_comment": {
                "parent_user": "Trương Thanh Trúc",
                "parent_content": "thui pun` qué khoc' dok"
            },
            "replies": [
                {
                    "reply_user": "Thach Thuy Ann",
                    "reply_content": " đói qué chúccc hic"
                },
                {
                    "reply_user": "Trương Thanh Trúc",
                    "reply_content": " mới dzua dze nhà luôn gòi "
                }
            ]
        },
        {
            "parent_comment": {
                "parent_user": "Trúc Hà",
                "parent_content": "cho xin ảnh nhé bà"
            },
            "replies": [
                {
                    "reply_user": "Thach Thuy Ann",
                    "reply_content": " daaa oke"
                }
            ]
        },
        {
            "parent_comment": {
                "parent_user": "Nhi Tăng",
                "parent_content": "Ê vui lên nha Nguyễn Bảo Ngọcn"
            },
            "replies": [
                {
                    "reply_user": "Nguyễn Bảo Ngọc",
                    "reply_content": " ê mày tag vô bài này r kêu tao vui ? "
                }
            ]
        }
    ]
}