{
    "post": "1092948204558191",
    "link": "https://facebook.com/groups/330196354166717/permalink/1092948204558191",
    "post_comments": [
        {
            "parent_comment": {
                "parent_user": "Trương Thanh Huyền",
                "parent_content": "không mong giống em nhưng là em thì được=))"
            },
            "replies": [
                {
                    "reply_user": "Sầm Như Quỳnhh",
                    "reply_content": " ko mong anh tìm được người giống em, tại sao giống em mà không phải là em"
                },
                {
                    "reply_user": "Trương Thanh Huyền",
                    "reply_content": "  tai vi em ko yeu toi^^"
                }
            ]
        },
        {
            "parent_comment": {
                "parent_user": "Phan Yến Nhi",
                "parent_content": "Dù sao em cũng không mong kiếp sau chúng ta lại hẹn yêu được nhau"
            },
            "replies": [
                {
                    "reply_user": "Hứa Hiền Trang",
                    "reply_content": "khong hen gap lai "
                }
            ]
        },
        {
            "parent_comment": {
                "parent_user": "Lê Đình Trúc",
                "parent_content": "có nghĩa là bạn sống tệ vl nên ngta mới nói câu này ra :))"
            },
            "replies": [
                {
                    "reply_user": "Hứa Hiền Trang",
                    "reply_content": " ai cơ ?"
                },
                {
                    "reply_user": "Lê Đình Trúc",
                    "reply_content": " huh? í là nói ngkhac ấy"
                }
            ]
        },
        {
            "parent_comment": {
                "parent_user": "Hạ Mẫn",
                "parent_content": "tại sao anh nói thương em nhưng lại làm tổn thương em..."
            },
            "replies": [
                {
                    "reply_user": "Hứa Hiền Trang",
                    "reply_content": " thuong qua di mat.."
                }
            ]
        },
        {
            "parent_comment": {
                "parent_user": "Ước",
                "parent_content": "Chỉ cần ai đó có cử chỉ giống thôi, tôi liền nhớ tới cậu"
            },
            "replies": [
                {
                    "reply_user": "Hứa Hiền Trang",
                    "reply_content": " trai tim van thuong xuyen lech nhip trươc thoi quen cu"
                }
            ]
        },
        {
            "parent_comment": {
                "parent_user": "Kiều Trinh",
                "parent_content": "Cau rat tot nhung cung rat vo tam"
            },
            "replies": [
                {
                    "reply_user": "Hứa Hiền Trang",
                    "reply_content": " vô tư qua thanh vo tam mat roi"
                }
            ]
        },
        {
            "parent_comment": {
                "parent_user": "Lê Đức Thắng",
                "parent_content": "anh xin loi "
            },
            "replies": [
                {
                    "reply_user": "Hứa Hiền Trang",
                    "reply_content": " loi xin loi muon mang"
                }
            ]
        },
        {
            "parent_comment": {
                "parent_user": "Vân Nguyễn",
                "parent_content": "Đún vậy "
            },
            "replies": [
                {
                    "reply_user": "Uyển Như",
                    "reply_content": " tôi hả công chúa"
                },
                {
                    "reply_user": "Vân Nguyễn",
                    "reply_content": " lon yến nó cmt "
                },
                {
                    "reply_user": "Uyển Như",
                    "reply_content": " hahahahaha"
                }
            ]
        },
        {
            "parent_comment": {
                "parent_user": "Trâm Trâm",
                "parent_content": "tệ "
            },
            "replies": [
                {
                    "reply_user": "Bân Bân",
                    "reply_content": " á đù"
                }
            ]
        },
        {
            "parent_comment": {
                "parent_user": "Khánh Liinhh",
                "parent_content": "."
            },
            "replies": [
                {
                    "reply_user": "Nguyễn Nam Khoa",
                    "reply_content": " pun gke"
                }
            ]
        }
    ]
}