{
    "post": "1097419877444357",
    "link": "https://facebook.com/groups/330196354166717/permalink/1097419877444357",
    "post_comments": [
        {
            "parent_comment": {
                "parent_user": "Nguyen Van The",
                "parent_content": "Đi du học thì tốt chứ xkld chưa bao giờ là tốt, mình kiếm được nhiều tiền nhưng công sức bỏ ra cũng không ít, thậm chí rất là khổ sở. Dù sao cũng là lựa chọn của bạn thì cũng xin chúc bạn may mắn, bình an, rồi hạnh phúc sẽ mỉm cười với bạn"
            },
            "replies": [
                {
                    "reply_user": "Thảo Vân",
                    "reply_content": " người ta bảo \"Ra ngoài làm trâu, về nước làm người\" "
                },
                {
                    "reply_user": "Nguyen Van The",
                    "reply_content": "  không có tiền thì ở đâu cũng là trâu thôi bạn"
                }
            ]
        },
        {
            "parent_comment": {
                "parent_user": "Khánh Như",
                "parent_content": "Dù sao cũng phải yêu đời"
            },
            "replies": [
                {
                    "reply_user": "Thảo Vân",
                    "reply_content": " cảm ơn nhá, chứ mình yêu đời lắm luôn "
                }
            ]
        },
        {
            "parent_comment": {
                "parent_user": "Nữ",
                "parent_content": "16 tuoi cung muon di làm nuôi bản thân vì 1 mình mẹ không nuoi nổi 2 chị em mà mẹ ở nhà nuôi đứa emm 2 tuoi nên hok co tien nhưng mà mẹ hong cho ^^ mẹ nói ra xã hội cực lắm ai chăm cho con ^^"
            },
            "replies": [
                {
                    "reply_user": "Thảo Vân",
                    "reply_content": " cực thật"
                },
                {
                    "reply_user": "Nữ",
                    "reply_content": " chị cố lên nhớ "
                },
                {
                    "reply_user": "Thảo Vân",
                    "reply_content": "Bé có thử bán onl chưa?"
                },
                {
                    "reply_user": "Nữ",
                    "reply_content": " em không biết bán chị ạ mẹ cũng hong cho luôn  "
                },
                {
                    "reply_user": "Thảo Vân",
                    "reply_content": " mùa hè khi được nghỉ có thể đi cty"
                },
                {
                    "reply_user": "Nữ",
                    "reply_content": " dạ định mùa hè đii làm phục vụ kím một ít vào năm 11 trang trải í ạ "
                },
                {
                    "reply_user": "Thảo Vân",
                    "reply_content": " làm pv cũng oce đó, tiết kiệm 2 3t là có thể mua đồ cho mình (thậm chí cho em) cũng như đóng học phí"
                },
                {
                    "reply_user": "Nữ",
                    "reply_content": " dạaaa em cũng đang cố gắng đây "
                },
                {
                    "reply_user": "Thảo Vân",
                    "reply_content": " cố lên, cực mình một chút nhưng có thể đỡ cho 1 rất nhiều"
                },
                {
                    "reply_user": "Nữ",
                    "reply_content": " da em camon chị "
                }
            ]
        }
    ]
}