{
    "post": "1096738270845851",
    "link": "https://facebook.com/groups/330196354166717/permalink/1096738270845851",
    "post_comments": [
        {
            "parent_comment": {
                "parent_user": "Mỹ Trúc",
                "parent_content": "Hiểu "
            },
            "replies": [
                {
                    "reply_user": "Phúc Vũ",
                    "reply_content": " gì cũng biết, cũng hiểu em Chỉ là không biết giữ em ở lại"
                }
            ]
        }
    ]
}