{
    "post": "1088091315043880",
    "link": "https://facebook.com/groups/330196354166717/permalink/1088091315043880",
    "post_comments": [
        {
            "parent_comment": {
                "parent_user": "Ngọc Gia Uyn",
                "parent_content": "đó nghe mng nói đi"
            },
            "replies": [
                {
                    "reply_user": "Nguyễn Tường My",
                    "reply_content": " hicc tui nghe rùi bà"
                },
                {
                    "reply_user": "Ngọc Gia Uyn",
                    "reply_content": " rồi khóc tiếp đi"
                }
            ]
        },
        {
            "parent_comment": {
                "parent_user": "Fuchh",
                "parent_content": "Tự cứu lấy mình đi nè, ai cũng xứng đáng có được những nụ cười nở trên môi hơn là những giọt nước mắt lăn trên má.Trái Đất tròn, ta còn yêu ta còn quay lại với nhau.Mình còn thương nhưng họ hết rồi, mình có níu kéo họ cũng như vậy thôi, vốn dĩ tình cảm đã không còn được như trước, thì ta nên tôn trọng quyết định của nhau, đừng làm khó nhau nhiều nhiều, tình cảm nhạt phai khó lấy lại được như những phút ban đầu lắm.Cố lên, cười lên và đi tìm một hạnh phúc mới, chúc mọi điều tốt đẹp<3"
            },
            "replies": [
                {
                    "reply_user": "Nguyễn Thị Thanh Nhã",
                    "reply_content": " cậu cho tớ xin video được không ạ?"
                },
                {
                    "reply_user": "Fuchh",
                    "reply_content": "Ok luôn nhé"
                }
            ]
        },
        {
            "parent_comment": {
                "parent_user": "Linh",
                "parent_content": "Bạn nên dần quen và quên người ấy đi, sống tốt vào thay đổi bản thân đi. Nhưng mà đừng lụy nyc nhaa. Kiểu gì cũng có 1 ngày nyc bạn hối hận vì bỏ bạn thôi. Trước đây mình cũng kiểu vậy xong níu kéo bao nhiêu thái độ người ta hời hợt bấy nhiêu, còn block mình cơ, sau vài tháng ổn định tinh thần thì lại nhận được lời mời kết bạn từ nyc :))))) hài"
            },
            "replies": [
                {
                    "reply_user": "Nguyễn Tường My",
                    "reply_content": " tình đầu của tuii áa"
                },
                {
                    "reply_user": "Linh",
                    "reply_content": " tôi yêu cũng lâu lắm lun, huống chi cùng lớp lại khó quên  mà chỉ cần bạn cắt đứt toàn bộ liên lạc đi, kiểu block hết, chỉ cần họ k ib cho bạn lần nữa, bạn sẽ k rung động. Còn đã ib lại rồi thì chỉ 1 vài lần thôi bạn sẽ lại yêu họ lại như ban đầu "
                },
                {
                    "reply_user": "Nguyễn Tường My",
                    "reply_content": " tại tgian trước lúc mới quen ấy , người ta đúng thương tui luôn , nhưng mà tui lại tệ quá , xong về sau tui mới hiểu dccc"
                },
                {
                    "reply_user": "Linh",
                    "reply_content": " nyc tôi lúc ctay lấy 1 lí do gia đỉnh các thứ xong có lần ib lại cho tôi, tại tôi ghét quá ấy nên lại nói là \"hồi trước ctay do tính cách tôi như này như nọ, xong rồi còn nếu như ngày đó em không thế này thế nọ thì đã không xa nhau như bây giờ\" mẹ nó tức lắm luôn"
                },
                {
                    "reply_user": "Nguyễn Tường My",
                    "reply_content": " hết yêu thì cứ nói , toàn lí dooo"
                }
            ]
        },
        {
            "parent_comment": {
                "parent_user": "Trần Văn Tuân",
                "parent_content": "rồi bản thân bạn sẽ gặp được người xứng đáng hơn"
            },
            "replies": [
                {
                    "reply_user": "Nguyễn Tường My",
                    "reply_content": " cảm mơn ônggg"
                }
            ]
        },
        {
            "parent_comment": {
                "parent_user": "Dương Hiếu",
                "parent_content": "lâu mình cũng bị v cảm tưởng ko thể nào ngưng buồn và quên người đó đc và bùm chưa tới 1 tuần mình đã quên sạch  mong bạn cũng thế "
            },
            "replies": [
                {
                    "reply_user": "Nguyễn Tường My",
                    "reply_content": " tui cảm mơn nhoo"
                }
            ]
        },
        {
            "parent_comment": {
                "parent_user": "Diễm Quỳnh",
                "parent_content": "ngta đã quyết định nói ra lời ct là ngta hết thương bạn rồi, đừng có níu kéo ng không thương mình nữa, mệt và chả đc cái mẹ gì đâu. Buông và chừa cho nhau sự giải thoát"
            },
            "replies": [
                {
                    "reply_user": "Nguyễn Tường My",
                    "reply_content": " cảm mơn bàa"
                }
            ]
        },
        {
            "parent_comment": {
                "parent_user": "Trần Tường Vy",
                "parent_content": "Toy đã chấp nhận việc chúng toy đã xa nhau gòy sao suốt 3 tháng qua toy đều mơ thấy bạn ấy! Có cách nào ngủ mà kh mơ thấy nguoiiucu kh anhem?"
            },
            "replies": [
                {
                    "reply_user": "Nguyễn Tường My",
                    "reply_content": " ngày nào tui cũng mơ thấy nèe"
                }
            ]
        },
        {
            "parent_comment": {
                "parent_user": "Hồ Ngọc Khánh Trân",
                "parent_content": "mình giống b , mình ko níu kéo , 1 ngày sau là ng đó đã đăng nym , sau khi công khai thì mình buồn ít lại và về đêm buồn nhiều :)) nch là để thời gian giúp b thôii"
            },
            "replies": [
                {
                    "reply_user": "‎‎‏‏‏‏‏‏‏‏‏‏‏‏‏‏‏‏‏‏‏‏‏‏‏‏‏‏‏‏‏‏‏‏‏‏‏‏‏‏‏‏‏‏‏‏‏‏‏‏‏‏‏‏‏‏‏‏‏‏‏‏‏‏‏‏‏‏‏‏‏‏‏‏‏‏‏‏‏‏‏‏‏‏‏‏‏‏‏‏‏‏‏‏‏‏‏‏‏‏‏‏‏‏‏‏‏‏‏‏‏‏‏‏‏‏‏‏‏‏‏‏‏‏‏‏‏‏‏‏‏‏‏‏‏‏‏‏‏‏‏‏‏‏‏‏‏‏‏‏‏‏‏‏‏‏‏‏‏‏‏‏‏‏‏‏‏‏‏‏",
                    "reply_content": " ngu lz"
                },
                {
                    "reply_user": "Hồ Ngọc Khánh Trân",
                    "reply_content": " trời ơi sao mày biết được cảm giác này"
                },
                {
                    "reply_user": "‎‎‏‏‏‏‏‏‏‏‏‏‏‏‏‏‏‏‏‏‏‏‏‏‏‏‏‏‏‏‏‏‏‏‏‏‏‏‏‏‏‏‏‏‏‏‏‏‏‏‏‏‏‏‏‏‏‏‏‏‏‏‏‏‏‏‏‏‏‏‏‏‏‏‏‏‏‏‏‏‏‏‏‏‏‏‏‏‏‏‏‏‏‏‏‏‏‏‏‏‏‏‏‏‏‏‏‏‏‏‏‏‏‏‏‏‏‏‏‏‏‏‏‏‏‏‏‏‏‏‏‏‏‏‏‏‏‏‏‏‏‏‏‏‏‏‏‏‏‏‏‏‏‏‏‏‏‏‏‏‏‏‏‏‏‏‏‏‏‏",
                    "reply_content": " đâu sao bằng cảm giác bị thằng nhóc ct rồi mai đăng nym"
                },
                {
                    "reply_user": "Hồ Ngọc Khánh Trân",
                    "reply_content": " chắc t nói nó tránh m quá"
                },
                {
                    "reply_user": "‎‎‏‏‏‏‏‏‏‏‏‏‏‏‏‏‏‏‏‏‏‏‏‏‏‏‏‏‏‏‏‏‏‏‏‏‏‏‏‏‏‏‏‏‏‏‏‏‏‏‏‏‏‏‏‏‏‏‏‏‏‏‏‏‏‏‏‏‏‏‏‏‏‏‏‏‏‏‏‏‏‏‏‏‏‏‏‏‏‏‏‏‏‏‏‏‏‏‏‏‏‏‏‏‏‏‏‏‏‏‏‏‏‏‏‏‏‏‏‏‏‏‏‏‏‏‏‏‏‏‏‏‏‏‏‏‏‏‏‏‏‏‏‏‏‏‏‏‏‏‏‏‏‏‏‏‏‏‏‏‏‏‏‏‏‏‏‏‏‏",
                    "reply_content": " :))"
                }
            ]
        },
        {
            "parent_comment": {
                "parent_user": "Mễ Mễ",
                "parent_content": "Kh cứu được đâu, gáng khóc cho hết từ từ rồi sẽ qua"
            },
            "replies": [
                {
                    "reply_user": "Thành Lợi",
                    "reply_content": " đôi khi còn duyên thì ngta sẽ trở về"
                }
            ]
        },
        {
            "parent_comment": {
                "parent_user": "Hoang Phuoq Nhi",
                "parent_content": "để thoi gian thoi b"
            },
            "replies": [
                {
                    "reply_user": "Huỳnh Phong",
                    "reply_content": " Nguyễn Huỳnh Như!"
                }
            ]
        },
        {
            "parent_comment": {
                "parent_user": "Lê Ngọc Thúy Vy",
                "parent_content": "khóc đi, buồn đi rồi tới ngày b nhận ra điều đó khá ngu và b sẽ mở đầu 1 cuộc sống mới ><"
            },
            "replies": [
                {
                    "reply_user": "Hân",
                    "reply_content": " b làm được chưa ?"
                },
                {
                    "reply_user": "Lê Ngọc Thúy Vy",
                    "reply_content": " mình khuyên được nhưng chưa bao giờ làm được vì hlv thì ko ra sân mà =))"
                },
                {
                    "reply_user": "Hân",
                    "reply_content": " hlv cũng từng ra sân rùi b nhỏ, có kinh nghiệm rùi mới làm hlv "
                }
            ]
        },
        {
            "parent_comment": {
                "parent_user": "Gezelligheid Redamancy",
                "parent_content": "\"Gửi đến bạn một câu nói: Ngay cả khi không có ai trên chiếc xe ấy, thì tài xế vẫn sẽ mang xe lái đi đến điểm dừng tiếp theo. Ý của tôi chính là, bạn không nên vì sự rời đi của bất cứ ai mà dừng lại cuộc sống vốn có ban đầu của bạn.\"nguồn: tui nhặt được ở page nào đók tui quên ròi"
            },
            "replies": [
                {
                    "reply_user": "Thanh Huyền",
                    "reply_content": " Ngọc Trâm "
                }
            ]
        },
        {
            "parent_comment": {
                "parent_user": "Ái Khánh",
                "parent_content": "Toii cung dang bi nhu vay"
            },
            "replies": [
                {
                    "reply_user": "Nguyễn Tường My",
                    "reply_content": " cùng nhau cố lênn"
                }
            ]
        },
        {
            "parent_comment": {
                "parent_user": "Ng T Gia Han",
                "parent_content": "z đi trap với mình nè =)))"
            },
            "replies": [
                {
                    "reply_user": "Nguyễn Tường My",
                    "reply_content": " oki bà lun"
                }
            ]
        }
    ]
}