{
    "post": "1095329987653346",
    "link": "https://facebook.com/groups/330196354166717/permalink/1095329987653346",
    "post_comments": [
        {
            "parent_comment": {
                "parent_user": "Thu Ngân",
                "parent_content": "Tớ cũng từng ước như thế. Nhưng sau này, chứng kiến cuộc sống riêng của ba mẹ, tớ mới nhận ra rằng: có lẽ việc họ tách nhau ra lại tốt hơn cho cả hai. Thế là tớ không mong ước, không làm ầm lên nữa, chỉ mong hai người hạnh phúc."
            },
            "replies": [
                {
                    "reply_user": "Nguyễn Tuấn",
                    "reply_content": " me too "
                }
            ]
        },
        {
            "parent_comment": {
                "parent_user": "Uyên Trầnn",
                "parent_content": "Tôi chưa từng ước điều này và tôi cũng k cần ước nó tôi ước nó ngược lại nhưng tất nhiên nó sẽ k bh xảy ra"
            },
            "replies": [
                {
                    "reply_user": "Vỹ Cầm Trịnh",
                    "reply_content": " nói ra mà k biec nghị à e:)? "
                },
                {
                    "reply_user": "Uyên Trầnn",
                    "reply_content": " hahha e nói đùa mà có phải thật mô"
                }
            ]
        },
        {
            "parent_comment": {
                "parent_user": "Kim Ngann",
                "parent_content": "Nếu là mình thì mình không mong 2 người họ quay lại đâu. Có lẽ 2 người làm bạn tốt của nhau sẽ tốt hơn là vợ chồng "
            },
            "replies": [
                {
                    "reply_user": "Kim Ngann",
                    "reply_content": "Vì thực sự những tổn thương ba mình đã gây ra cho mẹ khó mà chữa lành…"
                }
            ]
        },
        {
            "parent_comment": {
                "parent_user": "Dang Ngoc",
                "parent_content": "thương"
            },
            "replies": [
                {
                    "reply_user": "Ngoc Do",
                    "reply_content": " "
                }
            ]
        },
        {
            "parent_comment": {
                "parent_user": "Minh Thư",
                "parent_content": "."
            },
            "replies": [
                {
                    "reply_user": "Uyên Kim",
                    "reply_content": " thưn nè"
                },
                {
                    "reply_user": "Minh Thư",
                    "reply_content": " iu nhắm"
                }
            ]
        }
    ]
}