{
    "post": "1099268017259543",
    "link": "https://facebook.com/groups/330196354166717/permalink/1099268017259543",
    "post_comments": [
        {
            "parent_comment": {
                "parent_user": "Giang Hương",
                "parent_content": "tủi"
            },
            "replies": [
                {
                    "reply_user": "Kim Thucc",
                    "reply_content": " tủi thân "
                }
            ]
        },
        {
            "parent_comment": {
                "parent_user": "Tường Vy",
                "parent_content": "không. Cứ sống bth thôi. Nếu như chưa quên đc thì tại sao phải cố.  từ từ r cũng quên thôi  chỉ kh biết là khi nào"
            },
            "replies": [
                {
                    "reply_user": "Kim Thucc",
                    "reply_content": " có ng mat 1 đời de quen 1 nguoi"
                },
                {
                    "reply_user": "Tường Vy",
                    "reply_content": " =)) ai cũng nói như thế cho đến khi gặp được ng tốt hơn"
                },
                {
                    "reply_user": "Kim Thucc",
                    "reply_content": " den luc gap dc ng tốt thi minh lai 0 yeu ho "
                }
            ]
        },
        {
            "parent_comment": {
                "parent_user": "Phương Mai",
                "parent_content": "Khổ ghê =))"
            },
            "replies": [
                {
                    "reply_user": "Kim Thucc",
                    "reply_content": " met moi qua nhii"
                },
                {
                    "reply_user": "Phương Mai",
                    "reply_content": " ừ thì thôi, mình tốt mà =))"
                },
                {
                    "reply_user": "Kim Thucc",
                    "reply_content": " mình xứng đáng co ngkhacc tot hon"
                }
            ]
        },
        {
            "parent_comment": {
                "parent_user": "Nguyễn Hoàng Ngân",
                "parent_content": "Quyên Phương đừng pùn nữa em xứng đáng có 10 người iu"
            },
            "replies": [
                {
                    "reply_user": "Phương Quyên",
                    "reply_content": "  dzaaaaaaaaa"
                }
            ]
        },
        {
            "parent_comment": {
                "parent_user": "Ngọc Nhi",
                "parent_content": "Hiện tại bây giờ 17h22p mình có cảm giác chán sống "
            },
            "replies": [
                {
                    "reply_user": "Kim Thucc",
                    "reply_content": " sống cho bản thân và gia đình, cố lên"
                },
                {
                    "reply_user": "Ngọc Nhi",
                    "reply_content": " buồn thiệt sự luôn á mọi thứ thật tồi tệ với tôi "
                },
                {
                    "reply_user": "Kim Thucc",
                    "reply_content": " ngày mai sẽ ổn hơn hnay, t lớn lên từng ngày để trưởng thành qua từng giai đoạn. Cố lên "
                },
                {
                    "reply_user": "Ngọc Nhi",
                    "reply_content": "Ngọc Nhi vậy là ngu đó bạn mình nói thật, đời còn nhiều cái vui mà suy nghĩ tích cực lên "
                }
            ]
        },
        {
            "parent_comment": {
                "parent_user": "Quỳnhh Trangg",
                "parent_content": "ngu vãi lồn luoon á :))"
            },
            "replies": [
                {
                    "reply_user": "Kim Thucc",
                    "reply_content": " hy vọng mai sẽ hết ngu"
                },
                {
                    "reply_user": "Quỳnhh Trangg",
                    "reply_content": " that vong qua"
                },
                {
                    "reply_user": "Kim Thucc",
                    "reply_content": " thoi nín, om 1 cai nha"
                },
                {
                    "reply_user": "Quỳnhh Trangg",
                    "reply_content": " da"
                }
            ]
        },
        {
            "parent_comment": {
                "parent_user": "Trà Hồng My",
                "parent_content": "Tao không cần ai thương hại !!"
            },
            "replies": [
                {
                    "reply_user": "Kim Thucc",
                    "reply_content": " v thi tu thuong ban than di co gai"
                },
                {
                    "reply_user": "Trà Hồng My",
                    "reply_content": " Yup   !! "
                }
            ]
        },
        {
            "parent_comment": {
                "parent_user": "Phạm Ngọc Hân",
                "parent_content": "ngu ngốc :))"
            },
            "replies": [
                {
                    "reply_user": "Kim Thucc",
                    "reply_content": " xin lỗi bản thân"
                }
            ]
        },
        {
            "parent_comment": {
                "parent_user": "Yến Linh Lthyl",
                "parent_content": "Sống được lần vui thì vui hết mình buồn thì hết lòng thôi vô tư đi mấy má ơi ;))"
            },
            "replies": [
                {
                    "reply_user": "Kim Thucc",
                    "reply_content": " neu duoc thi cung khong than thở dau"
                },
                {
                    "reply_user": "Yến Linh Lthyl",
                    "reply_content": " than thở cứ than Những ko phải vs ai cũng được đôi khi than thở còn nhiều người khinh còn nhiều người chỉ um ừ thôi:))) "
                },
                {
                    "reply_user": "Kim Thucc",
                    "reply_content": " 1 post nhỏ để trải lòng thôi ^^"
                },
                {
                    "reply_user": "Yến Linh Lthyl",
                    "reply_content": " sao ko thử kiếm 1 người tâm sự riêng đi ko chừng nhẹ nhõm hơn đấy "
                },
                {
                    "reply_user": "Kim Thucc",
                    "reply_content": " phien lam haha"
                },
                {
                    "reply_user": "Yến Linh Lthyl",
                    "reply_content": " thế chịu rồi cupe"
                }
            ]
        },
        {
            "parent_comment": {
                "parent_user": "Võ Thị Kim Dân",
                "parent_content": "Ko"
            },
            "replies": [
                {
                    "reply_user": "Kim Thucc",
                    "reply_content": " bat luc"
                }
            ]
        }
    ]
}