{
    "post": "1083582475494764",
    "link": "https://facebook.com/groups/330196354166717/permalink/1083582475494764",
    "post_comments": [
        {
            "parent_comment": {
                "parent_user": "Thành Nhật",
                "parent_content": "Đôi khi mình cũng có những suy nghĩ như vậy, nó cũng làm mình nhìn khác về người khác và luôn quan sát kĩ để kiểm chứng thành ra những hành động bth hoặc những lời tiêu cực mà đáng lẽ mình bỏ ngoài tai mà mình lại bị nghĩ quá lên ấy. Đôi khi con người sẽ luôn có những khoảng trầm, mình không biết là có cách nào để giúp bạn nhưng mà bạn tin mình, còn nhiều thứ tươi sáng, vui vẻ và đáng có hơn lúc này - những lời người khác nói ( nếu nó k tích cực, k cần phải quan tâm). Chỉ cần giữ cái đầu lạnh và tìm vài thứ khcs giúp bạn ít suy nghĩ tiêu cực lại. Mình nghĩ như z"
            },
            "replies": [
                {
                    "reply_user": "Phạm Kiều Trang",
                    "reply_content": " em cảm ơn ạ"
                }
            ]
        },
        {
            "parent_comment": {
                "parent_user": "Hà Phạm",
                "parent_content": "Working hard making money thôi @@ anh cũng đã vượt qua đc những tiêu cực của chính mình , từng có lúc ko thể ngủ được vào buổi tối dù anh không làm gì sai , nếu mà chết thì quá dễ r nhưng phải xem nó có đáng ko :))) thôi cố gắng yêu bản thân nhiều hơn và đặt bản thân lên tất cả mọi thứ là đc . gud luck babe"
            },
            "replies": [
                {
                    "reply_user": "Shuu Nguyenn",
                    "reply_content": " em chưa kiếm được tiền "
                },
                {
                    "reply_user": "Hà Phạm",
                    "reply_content": " kiếm tiền cũng ko khó quan trọng em muốn hay ko thôi  nó cũng tùy thuộc vào nhiều yếu tố như nhu cầu của em , hay trải nghiệm .. nói chung kiếm tiền ko khó quan trọng là ít hay nhiều tùy vào bản thân em thấy đủ thì nó đủ chưa đủ là chưa đủ :> phải biết làm vui vẻ bản thân trước đã ^^"
                },
                {
                    "reply_user": "Shuu Nguyenn",
                    "reply_content": " Em đang đi học màaaa "
                },
                {
                    "reply_user": "Hà Phạm",
                    "reply_content": " quan trọng là em muốn hay ko thôi ấy :)) nếu em đặt việc học lên hàng đầu thì nên học thôi , còn kiếm tiền thì nhiều cách lắm nhưng em phải cân bằng đc cả 2 , cứ thử trải nghiệm những thứ mới mẻ thì em sẽ tìm đc niềm vui mới thôi hehe"
                },
                {
                    "reply_user": "Shuu Nguyenn",
                    "reply_content": "  em cảm ơnnn "
                },
                {
                    "reply_user": "Hà Phạm",
                    "reply_content": "Phạm Kiều Trang em nhìn lại bản thân em xem là em đi học vì \"cái gì\" ? nếu là thành tích thì mệt mỏi là đúng rồi . Ko ai động viên em thì em phải tự động viên em thôi . Cái chính ở đây là em để tâm quá nhiều đến mọi người xung quanh "
                }
            ]
        },
        {
            "parent_comment": {
                "parent_user": "Kim Cương",
                "parent_content": "mình cũng giống bạn vậy"
            },
            "replies": [
                {
                    "reply_user": "Phạm Kiều Trang",
                    "reply_content": " cùng cố lên thuii"
                }
            ]
        },
        {
            "parent_comment": {
                "parent_user": "Hương Giang",
                "parent_content": "dẹp dẹp đi nhậuuu ey"
            },
            "replies": [
                {
                    "reply_user": "Thái Lân",
                    "reply_content": " "
                },
                {
                    "reply_user": "Hương Giang",
                    "reply_content": " mai rủ ae đi ăn trứng zịt lz"
                },
                {
                    "reply_user": "Thái Lân",
                    "reply_content": " an trung zit lz ko co' ru. nhat. Mom lam'"
                },
                {
                    "reply_user": "Hương Giang",
                    "reply_content": " viêm loét dạ dày rồi còn rủ uống ae bạn bè như cái cc"
                }
            ]
        },
        {
            "parent_comment": {
                "parent_user": "My My",
                "parent_content": "Cả 2 =))"
            },
            "replies": [
                {
                    "reply_user": "Hữu Lộc",
                    "reply_content": "Không bi quan!"
                }
            ]
        },
        {
            "parent_comment": {
                "parent_user": "Tran Phuong Anh",
                "parent_content": "cả 2  "
            },
            "replies": [
                {
                    "reply_user": "Phạm Kiều Trang",
                    "reply_content": " làm sao để gạt ra ngoài tai đâyyy"
                }
            ]
        },
        {
            "parent_comment": {
                "parent_user": "Cúc Vi",
                "parent_content": "Toi đang nghĩ có nên kết thúc bằng thuốc trừ sâu ko đâyyy"
            },
            "replies": [
                {
                    "reply_user": "Hoàng Lê",
                    "reply_content": " kh nhé,dù mọi chuyện có thế nào thì phải cố gắng lên,trên bóng râm lúc nào cũng có mặt trời mà,em cười rất xinh vì thế đừng vì lý do gì đánh mất nó nhé "
                }
            ]
        },
        {
            "parent_comment": {
                "parent_user": "Trinh Ly",
                "parent_content": "minh that su muon chet lam roi"
            },
            "replies": [
                {
                    "reply_user": "Phạm Thị Mỹ Huyền",
                    "reply_content": "  Đừng cậu ơi, tui yêu cậu lắm nè "
                },
                {
                    "reply_user": "Trinh Ly",
                    "reply_content": " mình đã rất cô độc rồi :(("
                }
            ]
        },
        {
            "parent_comment": {
                "parent_user": "Nguyễn Dương Nhật Vỹ",
                "parent_content": "Bạn cũng xinh mà , tự kiếm niềm vui đi , kiếm người đi chơi theo sở thích của bạn và điều khiển người khác theo ý mình ấy ^^"
            },
            "replies": [
                {
                    "reply_user": "Phạm Kiều Trang",
                    "reply_content": " em cảm ơn "
                }
            ]
        }
    ]
}