{
    "post": "1096041490915529",
    "link": "https://facebook.com/groups/330196354166717/permalink/1096041490915529",
    "post_comments": [
        {
            "parent_comment": {
                "parent_user": "Tuyếtt Mike",
                "parent_content": "Cha bao h anh hieu em"
            },
            "replies": [
                {
                    "reply_user": "Phạm Phương",
                    "reply_content": " bùnn lắm"
                }
            ]
        }
    ]
}