{
    "post": "1095192324333779",
    "link": "https://facebook.com/groups/330196354166717/permalink/1095192324333779",
    "post_comments": [
        {
            "parent_comment": {
                "parent_user": "Đỗ Thu Trà",
                "parent_content": ""
            },
            "replies": [
                {
                    "reply_user": "Khanh Linh",
                    "reply_content": " mai cho keo"
                },
                {
                    "reply_user": "Đỗ Thu Trà",
                    "reply_content": " do noi doi"
                },
                {
                    "reply_user": "Khanh Linh",
                    "reply_content": " ngta ngu quennnnnnnnn"
                }
            ]
        }
    ]
}