{
    "post": "751146382071710",
    "link": "https://facebook.com/groups/330196354166717/permalink/751146382071710",
    "post_comments": [
        {
            "parent_comment": {
                "parent_user": "Tuyet Quynh",
                "parent_content": "dang yeu nhi, nhung tan roi"
            },
            "replies": [
                {
                    "reply_user": "Nguyễn Quốc Khôi",
                    "reply_content": "Rõ khổ"
                },
                {
                    "reply_user": "Tuyet Quynh",
                    "reply_content": "qua la bun luon "
                },
                {
                    "reply_user": "Nguyễn Quốc Khôi",
                    "reply_content": "Quỳnh buon oi la buon"
                },
                {
                    "reply_user": "Tuyet Quynh",
                    "reply_content": "thoi hay zui ze lennn, song co bao nhieu dau ma phai buon"
                }
            ]
        },
        {
            "parent_comment": {
                "parent_user": "Nguyễnn Thị Giaa Hòaa",
                "parent_content": "ghê z"
            },
            "replies": [
                {
                    "reply_user": "Nguyễn Quốc Khôi",
                    "reply_content": " ghe z do"
                }
            ]
        },
        {
            "parent_comment": {
                "parent_user": "Nguyễn Quốc Khôi",
                "parent_content": "Ngoc Trang Quỳnh Chi đủ ác kh"
            },
            "replies": [
                {
                    "reply_user": "Quỳnh Chi",
                    "reply_content": " Cái gì mà thấy ghee z "
                }
            ]
        }
    ]
}