{
    "post": "1086098945243117",
    "link": "https://facebook.com/groups/330196354166717/permalink/1086098945243117",
    "post_comments": [
        {
            "parent_comment": {
                "parent_user": "Mỹ Hằng",
                "parent_content": "kì lạ"
            },
            "replies": [
                {
                    "reply_user": "Thảo My",
                    "reply_content": " mai tao đập cmm"
                }
            ]
        },
        {
            "parent_comment": {
                "parent_user": "Lê Hà Nguyên",
                "parent_content": "=))"
            },
            "replies": [
                {
                    "reply_user": "Mai Quốc Tuấn",
                    "reply_content": " "
                }
            ]
        }
    ]
}