{
    "post": "881820872337593",
    "link": "https://facebook.com/groups/330196354166717/permalink/881820872337593",
    "post_comments": [
        {
            "parent_comment": {
                "parent_user": "Trần Quỳnh Hoa",
                "parent_content": "Không"
            },
            "replies": [
                {
                    "reply_user": "Imma Nicolas",
                    "reply_content": " cho m về chuồng gà nha"
                }
            ]
        },
        {
            "parent_comment": {
                "parent_user": "Imma Nicolas",
                "parent_content": "damn it, i'm crying ^^"
            },
            "replies": [
                {
                    "reply_user": "Trần Quỳnh Hoa",
                    "reply_content": " chơi chữ ít thôi"
                },
                {
                    "reply_user": "Imma Nicolas",
                    "reply_content": " vkl ko choi do`, ko choi chu, chi choi anh =)))"
                },
                {
                    "reply_user": "Trần Quỳnh Hoa",
                    "reply_content": "Tró quá tró"
                },
                {
                    "reply_user": "Imma Nicolas",
                    "reply_content": "=)))) wa la dink kaooo"
                }
            ]
        },
        {
            "parent_comment": {
                "parent_user": "Ngọc Vy",
                "parent_content": "Tớ xin ảnh gốc với ạ"
            },
            "replies": [
                {
                    "reply_user": "Imma Nicolas",
                    "reply_content": " cậu down ảnh xuống, nếu không được thì ib mình nhóoo"
                },
                {
                    "reply_user": "Ngọc Vy",
                    "reply_content": "Trang Minh okii mà có ảnh hong có chữ hong cậu "
                },
                {
                    "reply_user": "Imma Nicolas",
                    "reply_content": " có nhaaa cậu"
                },
                {
                    "reply_user": "Ngọc Vy",
                    "reply_content": "Trang Minh cậu gửi cho tớ được hem"
                },
                {
                    "reply_user": "Imma Nicolas",
                    "reply_content": " ib tớ nhóoo"
                },
                {
                    "reply_user": "Ngọc Vy",
                    "reply_content": "Trang Minh oke"
                }
            ]
        },
        {
            "parent_comment": {
                "parent_user": "Thu Ngân",
                "parent_content": "chờ chờ chờ chờ chờ chờ"
            },
            "replies": [
                {
                    "reply_user": "Imma Nicolas",
                    "reply_content": " chờ thì được thôi, nhưng chờ đến bao giờ :((("
                }
            ]
        },
        {
            "parent_comment": {
                "parent_user": "Nguyễn Hoan",
                "parent_content": "Tham lam vậy "
            },
            "replies": [
                {
                    "reply_user": "Imma Nicolas",
                    "reply_content": " từ bỏ hay chờ đợi ?"
                },
                {
                    "reply_user": "Nguyễn Hoan",
                    "reply_content": "Nếu người ta muốn thì mình không phải chờ rồi "
                }
            ]
        },
        {
            "parent_comment": {
                "parent_user": "Dĩm Mi",
                "parent_content": "crush em mới ql nyc.."
            },
            "replies": [
                {
                    "reply_user": "Imma Nicolas",
                    "reply_content": "Diễm My crush em vờ như thích em, vờ như không thích em"
                },
                {
                    "reply_user": "Dĩm Mi",
                    "reply_content": "Trang Minh đau thật"
                },
                {
                    "reply_user": "Imma Nicolas",
                    "reply_content": "Diễm My điều em ghét ở crush là mập mờ :(("
                }
            ]
        },
        {
            "parent_comment": {
                "parent_user": "Lan Anh",
                "parent_content": "Hôm nay em bị cắm sừng.."
            },
            "replies": [
                {
                    "reply_user": "Imma Nicolas",
                    "reply_content": " chia buon voi banHom nay em bi crush phu neeeee"
                }
            ]
        },
        {
            "parent_comment": {
                "parent_user": "Hoàng Tú Trinh",
                "parent_content": "tui từ bỏ r mn ak "
            },
            "replies": [
                {
                    "reply_user": "Imma Nicolas",
                    "reply_content": " em thật sự phân vânEm không biết có nên uncrush khong :(("
                },
                {
                    "reply_user": "Hoàng Tú Trinh",
                    "reply_content": "nếu nó làm mình buồn thì unf đi cô bé "
                },
                {
                    "reply_user": "Imma Nicolas",
                    "reply_content": " mập mờ lắm ạBạn ấy cũng có mấy bạn,  cả chị lớn tỏ tình nữaaa"
                },
                {
                    "reply_user": "Hoàng Tú Trinh",
                    "reply_content": "Trang Minh em đã bày tỏ tcam của mình chưaa"
                },
                {
                    "reply_user": "Imma Nicolas",
                    "reply_content": " dạ rồi á chịBạn ấy cũng khá mập mờ :((("
                },
                {
                    "reply_user": "Hoàng Tú Trinh",
                    "reply_content": "Trang Minh vô thẳng vấn đề luôn em nhé đừng làm phí thgian của nhau, em xứg đáng đc yêu thương bởi những người tốt hơn thế "
                },
                {
                    "reply_user": "Imma Nicolas",
                    "reply_content": " em cảm ơn chị nhaaaa Chúc chị hạnh phúccccccc"
                }
            ]
        }
    ]
}