{
    "post": "1052732018579810",
    "link": "https://facebook.com/groups/330196354166717/permalink/1052732018579810",
    "post_comments": [
        {
            "parent_comment": {
                "parent_user": "Nguyễn Thành Công",
                "parent_content": "Me too"
            },
            "replies": [
                {
                    "reply_user": "NT Diễm Kiều",
                    "reply_content": "Thành Công "
                }
            ]
        },
        {
            "parent_comment": {
                "parent_user": "Nguyễn Hoàng Khang",
                "parent_content": "Ai chỉ tôi khóc với được không? Làm ơn. Đau lòng quá mà không khóc nổi cho nguôi được."
            },
            "replies": [
                {
                    "reply_user": "Hânn Emm",
                    "reply_content": " cạn nước mắt rồi sao"
                },
                {
                    "reply_user": "Nguyễn Hoàng Khang",
                    "reply_content": "  chẳng biết. Không thể khóc được dù cố gắng rồi. Mà không khóc thì cứ nhói lòng mãi thôi. "
                },
                {
                    "reply_user": "Hânn Emm",
                    "reply_content": " cảm giác đó thật khó chịu"
                }
            ]
        }
    ]
}