{
    "post": "904681900297226",
    "link": "https://facebook.com/groups/386973545401400/permalink/904681900297226",
    "post_comments": [
        {
            "parent_comment": {
                "parent_user": "Dao Diep",
                "parent_content": "Ngày hôm nay em đã ổn và em sẵn sàng đón nhận! Có một người thương mấy cũng đành... buông!"
            },
            "replies": [
                {
                    "reply_user": "Hồng Thỏ",
                    "reply_content": " cũng đành buông "
                },
                {
                    "reply_user": "Dao Diep",
                    "reply_content": " cảm ơn tác giả, bài viết hay lắm! Mình thích câu: suy cho cùng, là tình yêu chưa đủ lớn!"
                },
                {
                    "reply_user": "Hồng Thỏ",
                    "reply_content": " cảm ơn bạn thật nhiều. Bài viết này cũng dựa trên cảm xúc thật của mình ạ. Mai là tròn 2 tháng mình chia tay nên tâm trạng vậy đó ạ. Chúc bạn sức khỏe và hạnh phúc nhé. "
                },
                {
                    "reply_user": "Dao Diep",
                    "reply_content": " chúc bạn sẽ tìm được tình yêu đủ lớn, để nắm tay nhau đến cuối đời nhé!"
                },
                {
                    "reply_user": "Hồng Thỏ",
                    "reply_content": " dạ vâng. Mình chúc bạn gặp được một người yêu thương và trân quý bạn thật lòng!"
                }
            ]
        },
        {
            "parent_comment": {
                "parent_user": "Văn Đức",
                "parent_content": "Ổn là ok rồi nè bé thỏ ơi!"
            },
            "replies": [
                {
                    "reply_user": "Hồng Thỏ",
                    "reply_content": " Hôm nay nhá anh Đức. Mai bé Thỏ hổng biết đâu nhé."
                },
                {
                    "reply_user": "Văn Đức",
                    "reply_content": " KkkVui được ngày nào thì cứ tận hưởng ngày đó đi nè em… See More"
                },
                {
                    "reply_user": "Hồng Thỏ",
                    "reply_content": " cảm ơn anh Đức vì đã quan tâm em nhé. Em sẽ như anh nói nhé. Có một điều là em hông biết make up. Hihi."
                },
                {
                    "reply_user": "Văn Đức",
                    "reply_content": " Hihi… See More"
                },
                {
                    "reply_user": "Hồng Thỏ",
                    "reply_content": " vâng ạ . Anh Đức nhiệt tình vs em lắm ấy. Hôm qua anh Đức tí trúng số hả "
                },
                {
                    "reply_user": "Văn Đức",
                    "reply_content": " KkkMém trúng giải nhì á em… See More"
                }
            ]
        },
        {
            "parent_comment": {
                "parent_user": "Huyen Trang",
                "parent_content": "Thật xáo trộn, rõ ràng có lúc thấy rất ổn, xong chỉ vài tiếng sau or ngày hôm sau mọi thứ lại như cũ ập về như muốn dìm chết mình vậy! Ai cũng bảo mạnh mẽ lên... mình cũng muốn như thế lắm nhưng chưa làm được!"
            },
            "replies": [
                {
                    "reply_user": "Hồng Thỏ",
                    "reply_content": " mình kiểu lên xuống thất thường theo thời tiết nữa ạ. Mà biết sao được. Cứ trấn an mình tiếp thôi."
                },
                {
                    "reply_user": "Huyen Trang",
                    "reply_content": " cố gắng lên em, hình như em kém chị đến cả 10 tuổi. Em còn rất nhiều cơ hội để gặp người xứng đáng với mình!"
                },
                {
                    "reply_user": "Hồng Thỏ",
                    "reply_content": " dạ thưa. Chị sn 87 hả chị ơi?. Em cảm ơn lời động viên của chị nhé. Nếu chị sn87 thì chị đã có gia đình chưa ạ?"
                },
                {
                    "reply_user": "Huyen Trang",
                    "reply_content": " uh, gia đình đề huề, 2 bé điểm 10 luôn nhưng vẫn đang phải vượt qua đau đơn từng ngày đây em! Nên em còn tuổi trẻ, hãy cố gắng lên, sống thật tốt và  thoải mái; Cứ tiếp tục đặt niềm tin vào cuộc sống và đón nhậ… See More"
                },
                {
                    "reply_user": "Hồng Thỏ",
                    "reply_content": " dạ chị. Sao em thấy hơi sai sai ạ. Chị đang có nỗi buồn gì mà phải vượt qua đau đớn từng ngày vậy ạ. Chị có thể share vs em không."
                },
                {
                    "reply_user": "Huyen Trang",
                    "reply_content": " hjhj, nỗi buồn về cơ bản là giống nhau, nhưng chị tạm thời chưa muốn chia sẻ. Mình vào nhóm để động viên nhau sống tích cực, tươi vui và thoải mái! Con gái khổ nhật là tính khí thất thường....nên mình phải cười… See More"
                },
                {
                    "reply_user": "Hồng Thỏ",
                    "reply_content": " em không hỏi chị nữa đâu ạ. Những lời động viên của chị em đã nhớ rồi ạ. Em chúc chị và gia đình mãi luôn hạnh phúc chị nha.Em giờ đây đã ổn lên nhiều rồi chị. Em hông sao đâu!"
                }
            ]
        }
    ]
}