{
    "post": "991831371349358",
    "link": "https://facebook.com/groups/371004360098732/permalink/991831371349358",
    "post_comments": [
        {
            "parent_comment": {
                "parent_content": "Chẳng là mẹ mình muốn mình học nhanh ra trường và kết quả tốt nhưng lại vừa muốn vừa đi làm để đóng học phí và ăn uống, vấn đề là học phí trường mình cũng khá cao, và nếu đi làm thì k thể tập trung học ( mình chạy grab car ban đêm tới gần sáng )"
            },
            "replies": [
                {
                    "reply_content": "Bạn 18+ chưa? Từ 18 trở đi tự quyết định việc của bản thân bạn nhé. Thất bại hay thành công là của bạn chứ k ai hưởng thay đâu nên quan trọng nhất là bạn: bạn muốn gì, bạn có thể làm gì, học gì là do bạn quyết định. Đừng tạo áp lực là cái gì cũng phải nhanh nhanh. Nhà xây nhanh thì thường móng k chắc. No shortcut to success nên cứ chậm mà chắc là được. Muốn nhiều thứ 1 lúc dù là bạn hay ai muốn cũng là tự tạo áp lực cho bản thân mà cũng k giải quyết được vấn đề gì. Thân!"
                }
            ]
        },
        {
            "parent_comment": {
                "parent_content": "Chẳng là mẹ mình muốn mình học nhanh ra trường và kết quả tốt nhưng lại vừa muốn vừa đi làm để đóng học phí và ăn uống, vấn đề là học phí trường mình cũng khá cao, và nếu đi làm thì k thể tập trung học ( mình chạy grab car ban đêm tới gần sáng )"
            },
            "replies": [
                {
                    "reply_content": "Cố gắng mà học bạn ạ. "
                }
            ]
        },
        {
            "parent_comment": {
                "parent_content": "Chẳng là mẹ mình muốn mình học nhanh ra trường và kết quả tốt nhưng lại vừa muốn vừa đi làm để đóng học phí và ăn uống, vấn đề là học phí trường mình cũng khá cao, và nếu đi làm thì k thể tập trung học ( mình chạy grab car ban đêm tới gần sáng )"
            },
            "replies": [
                {
                    "reply_content": "Tui cũng cố gắng tự trả tiền học đây :(( mà dịch quá sợ ko đc đi làm nhiều. Nên đang suy tính đến làm việc ko chân chính để kiếm thêm thu nhập đây "
                }
            ]
        },
        {
            "parent_comment": {
                "parent_content": "Chẳng là mẹ mình muốn mình học nhanh ra trường và kết quả tốt nhưng lại vừa muốn vừa đi làm để đóng học phí và ăn uống, vấn đề là học phí trường mình cũng khá cao, và nếu đi làm thì k thể tập trung học ( mình chạy grab car ban đêm tới gần sáng )"
            },
            "replies": [
                {
                    "reply_content": "Nếu cậu khó khăn thì có thể bảo lưu 1 năm. 1 năm đó đi làm nhiều việc vừa trải nghiệm vừa tích tiền cũng tốt á"
                }
            ]
        },
        {
            "parent_comment": {
                "parent_content": "Chẳng là mẹ mình muốn mình học nhanh ra trường và kết quả tốt nhưng lại vừa muốn vừa đi làm để đóng học phí và ăn uống, vấn đề là học phí trường mình cũng khá cao, và nếu đi làm thì k thể tập trung học ( mình chạy grab car ban đêm tới gần sáng )"
            },
            "replies": [
                {
                    "reply_content": "Cậu ơi. Mình thấy học đh thường đki 1 nửa ngày thôi. Grab cũng oke nhưng khá cực mà chạy car thì còn hay tiền xe cộ nữa. Hay mình thấy cậu có thể tham khảo 1 số chỗ cho làm ca nửa buổi như marketing, sale ... chứ chạy grab thấy k ổn lắm á. Rồi mình làm ctv bán 1 số mặt hàng. Không biết cậu học trg nào, nếu có tài sản là xe cũng có thể thế chấp vay ngân hàng, vay cũng k ổn lắm nhưng quy về ngân hàng lãi cũng k quá cao, mình đi làm trả dần. "
                }
            ]
        },
        {
            "parent_comment": {
                "parent_content": "Chẳng là mẹ mình muốn mình học nhanh ra trường và kết quả tốt nhưng lại vừa muốn vừa đi làm để đóng học phí và ăn uống, vấn đề là học phí trường mình cũng khá cao, và nếu đi làm thì k thể tập trung học ( mình chạy grab car ban đêm tới gần sáng )"
            },
            "replies": [
                {
                    "reply_content": "E năm nay cũng 24t, tháng 5 này cũng quyết định đi học lại. Tài chính e cũng khá lo. Nhưng quyết tâm thì cũng còn nhiều cách a ạ.good luck"
                }
            ]
        },
        {
            "parent_comment": {
                "parent_content": "Chẳng là mẹ mình muốn mình học nhanh ra trường và kết quả tốt nhưng lại vừa muốn vừa đi làm để đóng học phí và ăn uống, vấn đề là học phí trường mình cũng khá cao, và nếu đi làm thì k thể tập trung học ( mình chạy grab car ban đêm tới gần sáng )"
            },
            "replies": [
                {
                    "reply_content": "mình có thằng bạn ngày xưa học đại học nó được ngân hàng hỗ trợ cho vay lãi suất thấp để đóng học phí 5 năm, ra trường đi làm tầm 1.5 là trả xong. nếu đc bạn thử tìm hiểu xem thế nào nhé. nhớ là tìm ngân hàng nào uy tín tí."
                }
            ]
        },
        {
            "parent_comment": {
                "parent_content": "Chẳng là mẹ mình muốn mình học nhanh ra trường và kết quả tốt nhưng lại vừa muốn vừa đi làm để đóng học phí và ăn uống, vấn đề là học phí trường mình cũng khá cao, và nếu đi làm thì k thể tập trung học ( mình chạy grab car ban đêm tới gần sáng )"
            },
            "replies": [
                {
                    "reply_content": "Nhà bạn có thực sự đang khó khăn? Mẹ bạn có đang kẹt tiền? Nếu KHÔNG phải. Bạn hãy trình bày thật với mẹ những khó khăn của bạn. Bạn cũng có thể \"vay\" mẹ cũng được. Sau này đi làm, nhất định hoàn trả cho mẹ.Còn nếu gia đình bạn đang thực gặp khó khăn, hãy thử tìm đến những người thân khác: chú, bác, cậu, mợ... Rồi thì Đoàn trường nơi bạn đang theo học, các tổ chức Đoàn thể (Thành Đoàn, Đoàn Thanh niên thành phố...), ngân hàng uy tín... để được vay tiền trang trải học tập. (Nhưng đừng bao giờ vay nặng lãi bên ngoài!).Không còn chỗ nào để mình vay mượn thì mới tạm bảo lưu kết quả học, đi làm kiếm tiền nhé.Chúc bạn may mắn. "
                }
            ]
        },
        {
            "parent_comment": {
                "parent_content": "Chẳng là mẹ mình muốn mình học nhanh ra trường và kết quả tốt nhưng lại vừa muốn vừa đi làm để đóng học phí và ăn uống, vấn đề là học phí trường mình cũng khá cao, và nếu đi làm thì k thể tập trung học ( mình chạy grab car ban đêm tới gần sáng )"
            },
            "replies": [
                {
                    "reply_content": "Bảo lưu khả năng học lại rất thấp, vì kiến thức bị đứt quãng nên không học tiếp được.Cách khả quan nhất là bạn nên tìm một công việc nhẹ nhàng và có thu nhập ổn định hơn như gia sư chẳng hạn"
                }
            ]
        },
        {
            "parent_comment": {
                "parent_content": "Chẳng là mẹ mình muốn mình học nhanh ra trường và kết quả tốt nhưng lại vừa muốn vừa đi làm để đóng học phí và ăn uống, vấn đề là học phí trường mình cũng khá cao, và nếu đi làm thì k thể tập trung học ( mình chạy grab car ban đêm tới gần sáng )"
            },
            "replies": [
                {
                    "reply_content": "Luôn có cách bạn nhé, quan trọng là ý chí của bạn, giáo dục luôn là con đường ngắn nhất để đến thành công"
                }
            ]
        },
        {
            "parent_comment": {
                "parent_content": "Chẳng là mẹ mình muốn mình học nhanh ra trường và kết quả tốt nhưng lại vừa muốn vừa đi làm để đóng học phí và ăn uống, vấn đề là học phí trường mình cũng khá cao, và nếu đi làm thì k thể tập trung học ( mình chạy grab car ban đêm tới gần sáng )"
            },
            "replies": [
                {
                    "reply_content": "Sao người mẹ nào cũng muốn quá nhiều thứ như thê. Cái gì mẹ cũng muốn."
                }
            ]
        },
        {
            "parent_comment": {
                "parent_content": "Chẳng là mẹ mình muốn mình học nhanh ra trường và kết quả tốt nhưng lại vừa muốn vừa đi làm để đóng học phí và ăn uống, vấn đề là học phí trường mình cũng khá cao, và nếu đi làm thì k thể tập trung học ( mình chạy grab car ban đêm tới gần sáng )"
            },
            "replies": [
                {
                    "reply_content": "Nếu mà lớn tuổi thì nên xác định rõ nơi bạn dg học ra có dễ xin việc ko cái đã, chứ ko xin đc việc thì chỉ tốn tiền.tốn thời gian thôi ạ...còn tiền thì có thể vay theo diện sinh viên..lãi suất rất thấp nhé...sau khi ra trường mới trả..."
                }
            ]
        },
        {
            "parent_comment": {
                "parent_content": "Chẳng là mẹ mình muốn mình học nhanh ra trường và kết quả tốt nhưng lại vừa muốn vừa đi làm để đóng học phí và ăn uống, vấn đề là học phí trường mình cũng khá cao, và nếu đi làm thì k thể tập trung học ( mình chạy grab car ban đêm tới gần sáng )"
            },
            "replies": [
                {
                    "reply_content": "cố gắng nhé. mình 25t mới học lại cao đẳng và sắp nhận bằng tốt nghiệp, hiện tại cũng đi làm tiết kiệm để trang trải mọi thứ và lo cho phần học phí liên thông đại học sẽ học vào tháng sau. Áp lực trang trải tiền bạc  và những kì vọng của mọi người xung quanh thì ai cũng có cả, nhưng bạn có thể nghĩ 1 điều, giờ cta đều đã lớn tuổi không còn nhiều thời gian hơn để hoãn lại thêm nữa mà phải rút ngắn nhiều nhất có thể....mong bạn đủ kiên trì và vững tin."
                }
            ]
        },
        {
            "parent_comment": {
                "parent_content": "Chẳng là mẹ mình muốn mình học nhanh ra trường và kết quả tốt nhưng lại vừa muốn vừa đi làm để đóng học phí và ăn uống, vấn đề là học phí trường mình cũng khá cao, và nếu đi làm thì k thể tập trung học ( mình chạy grab car ban đêm tới gần sáng )"
            },
            "replies": [
                {
                    "reply_content": "Không rõ tuổi bạn bao nhiêu ạ. Nếu lớn tuổi thì sẽ biết làm gì cho phù hợp nhất, lời khuyên của mọi người chỉ là góp ý để xem xét thôi. Theo em, khó khăn quá thì cứ bảo gia đình ạ, mình không xin mà vay chính bố mẹ. Còn không nên bỏ học giữa chừng để đi kiếm tiền rồi đi học lại ạ!"
                }
            ]
        },
        {
            "parent_comment": {
                "parent_content": "Chẳng là mẹ mình muốn mình học nhanh ra trường và kết quả tốt nhưng lại vừa muốn vừa đi làm để đóng học phí và ăn uống, vấn đề là học phí trường mình cũng khá cao, và nếu đi làm thì k thể tập trung học ( mình chạy grab car ban đêm tới gần sáng )"
            },
            "replies": [
                {
                    "reply_content": "Vic Trần đừng bảo lưu b nhé. Khi bảo lưu thì tỷ lệ nghỉ hẳn là 92% luôn đấy. Có rất rất nhiều lý do. Trong đó có đi làm rồi ngại đi học. Rồi có đủ thứ chn xảy ra. Nên tìm cách vay bạn nhé. Cố gắng lên. Học là con đường ngắn nhất dẫn đến thành công. Các con đường khác đều gập ghềnh và khó khăn rủi ro hơn nhiều vô cùng. Đừng bỏ ngang , cố gắng đến khi ko thể có cách j nữa. Mình làm thống kê ở trg đây, tin mình đi, đã bảo lưu rồi quay lại học khó lắm, dễ bỏ hẳn lắm, thay đổi một cuộc đời tệ đi luôn đấy"
                }
            ]
        },
        {
            "parent_comment": {
                "parent_content": "Chẳng là mẹ mình muốn mình học nhanh ra trường và kết quả tốt nhưng lại vừa muốn vừa đi làm để đóng học phí và ăn uống, vấn đề là học phí trường mình cũng khá cao, và nếu đi làm thì k thể tập trung học ( mình chạy grab car ban đêm tới gần sáng )"
            },
            "replies": [
                {
                    "reply_content": "A có thể kiếm công việc khá mà, đi gia sư cũng khá hơn nhiều so với đi grap, đi lm order theo ca 5h đến 10h ít thì lương cũng 2tr5 . E cũng vừa học vừa lm , biết sắp xếp thời gian và vc học hợp lí là đk ạ, còn e nghĩ k nên dừng việc học lại"
                }
            ]
        },
        {
            "parent_comment": {
                "parent_content": "Chẳng là mẹ mình muốn mình học nhanh ra trường và kết quả tốt nhưng lại vừa muốn vừa đi làm để đóng học phí và ăn uống, vấn đề là học phí trường mình cũng khá cao, và nếu đi làm thì k thể tập trung học ( mình chạy grab car ban đêm tới gần sáng )"
            },
            "replies": [
                {
                    "reply_content": "Xem trong trường có hỗ trợ chính sách cho sinh viên không có điều kiện không ấy bạn"
                }
            ]
        },
        {
            "parent_comment": {
                "parent_content": "Chẳng là mẹ mình muốn mình học nhanh ra trường và kết quả tốt nhưng lại vừa muốn vừa đi làm để đóng học phí và ăn uống, vấn đề là học phí trường mình cũng khá cao, và nếu đi làm thì k thể tập trung học ( mình chạy grab car ban đêm tới gần sáng )"
            },
            "replies": [
                {
                    "reply_content": "Mẹ bạn kco điều kiện để lo giúp bạn 1 phần hay có điều gì k bạn"
                }
            ]
        },
        {
            "parent_comment": {
                "parent_content": "Chẳng là mẹ mình muốn mình học nhanh ra trường và kết quả tốt nhưng lại vừa muốn vừa đi làm để đóng học phí và ăn uống, vấn đề là học phí trường mình cũng khá cao, và nếu đi làm thì k thể tập trung học ( mình chạy grab car ban đêm tới gần sáng )"
            },
            "replies": [
                {
                    "reply_content": "Không nhé, từ 1 ng bảo lưu đây. Học xong đi, vay bố mẹ cũng được, rảnh thì kiếm trả"
                }
            ]
        },
        {
            "parent_comment": {
                "parent_content": "Chẳng là mẹ mình muốn mình học nhanh ra trường và kết quả tốt nhưng lại vừa muốn vừa đi làm để đóng học phí và ăn uống, vấn đề là học phí trường mình cũng khá cao, và nếu đi làm thì k thể tập trung học ( mình chạy grab car ban đêm tới gần sáng )"
            },
            "replies": [
                {
                    "reply_content": "học nhanh ra trường đi bạn,  vừa học vừa làm sức khỏe bạn kham ko nổi là gục đó"
                }
            ]
        },
        {
            "parent_comment": {
                "parent_content": "Chẳng là mẹ mình muốn mình học nhanh ra trường và kết quả tốt nhưng lại vừa muốn vừa đi làm để đóng học phí và ăn uống, vấn đề là học phí trường mình cũng khá cao, và nếu đi làm thì k thể tập trung học ( mình chạy grab car ban đêm tới gần sáng )"
            },
            "replies": [
                {
                    "reply_content": "đi vay ngân hàng anh ơi"
                }
            ]
        }
    ]
}