{
    "post": "993634884502340",
    "link": "https://facebook.com/groups/371004360098732/permalink/993634884502340",
    "post_comments": [
        {
            "parent_comment": {
                "parent_content": " Chuyện là em có một người cô ruột là em ruột của ba em  ,  sn 91 nhưng khá là trẻ và chưa có ngy hay ck gì cả ,tính tình có phần hơi đanh đá , đàn ông và hay ăn mặc theo phong cách hơi con trai tí và hai cô cháu cũng khá là thân thiết , mỗi lần gặp mặt nhau là nc cười nói như điên nhưng mỗi khi về quê nội chơi và khi ngủ chung với nhau  là bả hay bóp , sờ soạn em nhất là vùng ngực rồi hay bop vs đánh vô mông của em và giở cái trò ấy lúc thấy em ngủ nhưng lần nào cũng bị em gạt tay ra và nạt cho một trận vì cảm thấy tởm vì điều đó nhưng đêm nào cũng làm tới hết khiến em cũng bất lực , thậm chí lúc bình thường cũng hay làm cái chuyện đó khiến em khá là sợ hãi , lâu lâu bả còn bất ngờ ôm em từ phía sau rồi bopnguc ,bopmong , vuốt ve tay chân em hoặc hôn lên má em một cái rồi \"phê bình \" cơ thể của em làm em sợ lắm ạ  mặc dù lúc nào em cũng phản kháng lại hết nhưng bả vẫn cứ ngựa quen đường cũ"
            },
            "replies": [
                {
                    "reply_content": "Cơ thể mình ko ai đc phép đụng chạm hết. Người nhà cũng ko. Cứng rắn lên nha, thương bạn nhiều "
                }
            ]
        },
        {
            "parent_comment": {
                "parent_content": ", thật ra bả đã bắt đầu làm điều đó lúc em còn học lớp 5 cho tới bây h nhưng chỉ có điều là bây h em ms nhận thức đc hành động đó của bả là xấu nên ms phản kháng lại thôi ạ "
            },
            "replies": [
                {
                    "reply_content": "Cơ thể mình ko ai đc phép đụng chạm hết. Người nhà cũng ko. Cứng rắn lên nha, thương bạn nhiều "
                }
            ]
        },
        {
            "parent_comment": {
                "parent_content": " Thậm chí có một lần em còn thấy bả làm chuyện tương tự đó vs đứa bn thân  nhất của em nữa  làm em cũng ớn sợ vs bó tay bả luôn "
            },
            "replies": [
                {
                    "reply_content": "Cơ thể mình ko ai đc phép đụng chạm hết. Người nhà cũng ko. Cứng rắn lên nha, thương bạn nhiều "
                }
            ]
        },
        {
            "parent_comment": {
                "parent_content": ", có nhiều lần em hỏi bả sao lại làm thế vs em và đứa bn thân của em thì bả trả lời thẳng băng luôn là \" Tại cô thương con thôi , có gì đâu \" "
            },
            "replies": [
                {
                    "reply_content": "Cơ thể mình ko ai đc phép đụng chạm hết. Người nhà cũng ko. Cứng rắn lên nha, thương bạn nhiều "
                }
            ]
        },
        {
            "parent_comment": {
                "parent_content": "Bây giờ em cũng không biết phải làm sao để trị đc cái sự bienthai đó từ bà cô ấy nữa , xin mng hãy giúp em vs ạ và cho em hỏi là bà cô đó có bị dongtinh không ạ ????"
            },
            "replies": [
                {
                    "reply_content": "Cơ thể mình ko ai đc phép đụng chạm hết. Người nhà cũng ko. Cứng rắn lên nha, thương bạn nhiều "
                }
            ]
        },
        {
            "parent_comment": {
                "parent_user": "Thu Lê Phương",
                "parent_content": " Đồng tính k phải là bệnh nên k phải bị đồng tính nhé. Còn chuyện quấy rối thì e nên phản ứng mạnh vào. Cơ thể của mình nên bản thân có toàn quyền quyết định người khác có được chạm vào hay k. Hoặc nên nói vs phụ huynh là k thích bị đụng chạm như thế, để ba mẹ giải quyết dùm.  "
            },
            "replies": [
                {
                    "reply_user": "Liam Elvira",
                    "reply_content": "dong tinh la benh nhe, binh thuong co ai dong tinh dau"
                },
                {
                    "reply_user": "Thu Lê Phương",
                    "reply_content": "   thôi thôi bạn ơi, tổ chức y tế thế giới (WHO) đã bỏ đồng tính ra khỏi danh sách bệnh lý từ năm 1970 rồi. Vẫn sống ở năm đó hay gì đấy. "
                },
                {
                    "reply_user": "Liam Elvira",
                    "reply_content": "a the a, sr tui tuonog gay la benh vi binh thuong khong ai bi"
                }
            ]
        },
        {
            "parent_comment": {
                "parent_content": " Chuyện là em có một người cô ruột là em ruột của ba em  ,  sn 91 nhưng khá là trẻ và chưa có ngy hay ck gì cả ,tính tình có phần hơi đanh đá , đàn ông và hay ăn mặc theo phong cách hơi con trai tí và hai cô cháu cũng khá là thân thiết , mỗi lần gặp mặt nhau là nc cười nói như điên nhưng mỗi khi về quê nội chơi và khi ngủ chung với nhau  là bả hay bóp , sờ soạn em nhất là vùng ngực rồi hay bop vs đánh vô mông của em và giở cái trò ấy lúc thấy em ngủ nhưng lần nào cũng bị em gạt tay ra và nạt cho một trận vì cảm thấy tởm vì điều đó nhưng đêm nào cũng làm tới hết khiến em cũng bất lực , thậm chí lúc bình thường cũng hay làm cái chuyện đó khiến em khá là sợ hãi , lâu lâu bả còn bất ngờ ôm em từ phía sau rồi bopnguc ,bopmong , vuốt ve tay chân em hoặc hôn lên má em một cái rồi \"phê bình \" cơ thể của em làm em sợ lắm ạ  mặc dù lúc nào em cũng phản kháng lại hết nhưng bả vẫn cứ ngựa quen đường cũ"
            },
            "replies": [
                {
                    "reply_content": " Đồng tính k phải là bệnh nên k phải bị đồng tính nhé. Còn chuyện quấy rối thì e nên phản ứng mạnh vào. Cơ thể của mình nên bản thân có toàn quyền quyết định người khác có được chạm vào hay k. Hoặc nên nói vs phụ huynh là k thích bị đụng chạm như thế, để ba mẹ giải quyết dùm.  "
                }
            ]
        },
        {
            "parent_comment": {
                "parent_content": ", thật ra bả đã bắt đầu làm điều đó lúc em còn học lớp 5 cho tới bây h nhưng chỉ có điều là bây h em ms nhận thức đc hành động đó của bả là xấu nên ms phản kháng lại thôi ạ "
            },
            "replies": [
                {
                    "reply_content": " Đồng tính k phải là bệnh nên k phải bị đồng tính nhé. Còn chuyện quấy rối thì e nên phản ứng mạnh vào. Cơ thể của mình nên bản thân có toàn quyền quyết định người khác có được chạm vào hay k. Hoặc nên nói vs phụ huynh là k thích bị đụng chạm như thế, để ba mẹ giải quyết dùm.  "
                }
            ]
        },
        {
            "parent_comment": {
                "parent_content": " Thậm chí có một lần em còn thấy bả làm chuyện tương tự đó vs đứa bn thân  nhất của em nữa  làm em cũng ớn sợ vs bó tay bả luôn "
            },
            "replies": [
                {
                    "reply_content": " Đồng tính k phải là bệnh nên k phải bị đồng tính nhé. Còn chuyện quấy rối thì e nên phản ứng mạnh vào. Cơ thể của mình nên bản thân có toàn quyền quyết định người khác có được chạm vào hay k. Hoặc nên nói vs phụ huynh là k thích bị đụng chạm như thế, để ba mẹ giải quyết dùm.  "
                }
            ]
        },
        {
            "parent_comment": {
                "parent_content": ", có nhiều lần em hỏi bả sao lại làm thế vs em và đứa bn thân của em thì bả trả lời thẳng băng luôn là \" Tại cô thương con thôi , có gì đâu \" "
            },
            "replies": [
                {
                    "reply_content": " Đồng tính k phải là bệnh nên k phải bị đồng tính nhé. Còn chuyện quấy rối thì e nên phản ứng mạnh vào. Cơ thể của mình nên bản thân có toàn quyền quyết định người khác có được chạm vào hay k. Hoặc nên nói vs phụ huynh là k thích bị đụng chạm như thế, để ba mẹ giải quyết dùm.  "
                }
            ]
        },
        {
            "parent_comment": {
                "parent_content": "Bây giờ em cũng không biết phải làm sao để trị đc cái sự bienthai đó từ bà cô ấy nữa , xin mng hãy giúp em vs ạ và cho em hỏi là bà cô đó có bị dongtinh không ạ ????"
            },
            "replies": [
                {
                    "reply_content": " Đồng tính k phải là bệnh nên k phải bị đồng tính nhé. Còn chuyện quấy rối thì e nên phản ứng mạnh vào. Cơ thể của mình nên bản thân có toàn quyền quyết định người khác có được chạm vào hay k. Hoặc nên nói vs phụ huynh là k thích bị đụng chạm như thế, để ba mẹ giải quyết dùm.  "
                }
            ]
        }
    ]
}