{
    "post": "975708022961693",
    "link": "https://facebook.com/groups/371004360098732/permalink/975708022961693",
    "post_comments": [
        {
            "parent_comment": {
                "parent_user": "Lành NT",
                "parent_content": "Nay m5 Tết rồi =))"
            },
            "replies": [
                {
                    "reply_user": "Hoàng Võ",
                    "reply_content": " do duyệt trễ"
                }
            ]
        },
        {
            "parent_comment": {
                "parent_content": "Không biết mình nói ra có ảnh hưởng đến tâm trạng của mọi người không, nhưng thật sự mình rất muốn được trải lòng và có người lắng nghe"
            },
            "replies": [
                {
                    "reply_content": "Nay m5 Tết rồi =))"
                }
            ]
        },
        {
            "parent_comment": {
                "parent_content": " Và dĩ nhiên, mình đã hỏi về mối quan hệ này với bạn ấy từ cách đây khoảng 1 năm và nhận được câu chúng mình chỉ là bạn bè"
            },
            "replies": [
                {
                    "reply_content": "Nay m5 Tết rồi =))"
                }
            ]
        },
        {
            "parent_comment": {
                "parent_content": " Đến tầm gần 1 tháng trước, chúng mình quyết định gặp nhau ngoài đời thực và mình mới càng khẳng định tình cảm của mình hơn"
            },
            "replies": [
                {
                    "reply_content": "Nay m5 Tết rồi =))"
                }
            ]
        },
        {
            "parent_comment": {
                "parent_content": " Cho đến khi về nhà, chính bạn ấy cũng phải băn khoăn rốt cuộc tình cảm của chúng mình là gì? Mình cứ nghĩ là mình sẽ có hy vọng thật sự"
            },
            "replies": [
                {
                    "reply_content": "Nay m5 Tết rồi =))"
                }
            ]
        },
        {
            "parent_comment": {
                "parent_content": " Một lần nữa, mình lại thổ lộ và rồi nhận được câu: Lại làm m buồn rồi? Đêm giao thừa, khi mọi người vui vẻ đón năm mới cũng là lúc bạn một lần nữa từ chối tình cảm bấy lâu của mình"
            },
            "replies": [
                {
                    "reply_content": "Nay m5 Tết rồi =))"
                }
            ]
        },
        {
            "parent_comment": {
                "parent_content": " Mình thắc mắc rằng tại sao không thể để mình cùng đồng hành, song hành cùng bạn ấy? Người thực sự muốn đi tiếp cùng bạn sẽ biết cách cân bằng tất cả mọi thứ xung quanh, còn bạn sẵn sàng gạt mình vì mọi thứ của bạn "
            },
            "replies": [
                {
                    "reply_content": "Nay m5 Tết rồi =))"
                }
            ]
        },
        {
            "parent_comment": {
                "parent_content": " Mình vẫn rất muốn được nhắn tin với bạn ấy, được nói chuyện với bạn ấy nhưng mình không biết phải đối diện như thế nào nữa"
            },
            "replies": [
                {
                    "reply_content": "Nay m5 Tết rồi =))"
                }
            ]
        },
        {
            "parent_comment": {
                "parent_content": " Là bạn thì tiếp tục như nào để không còn hy vọng nữa hay bản thân vẫn cứ đơn phương hoài không dứt rồi lại thất vọng vì người ta không vì mình?"
            },
            "replies": [
                {
                    "reply_content": "Nay m5 Tết rồi =))"
                }
            ]
        },
        {
            "parent_comment": {
                "parent_content": "Không biết mình nói ra có ảnh hưởng đến tâm trạng của mọi người không, nhưng thật sự mình rất muốn được trải lòng và có người lắng nghe"
            },
            "replies": [
                {
                    "reply_content": "Theo những gì mình trải qua thì nếu người ta đã không thích mình thì sẽ không bao giờ thích mình."
                }
            ]
        },
        {
            "parent_comment": {
                "parent_content": " Và dĩ nhiên, mình đã hỏi về mối quan hệ này với bạn ấy từ cách đây khoảng 1 năm và nhận được câu chúng mình chỉ là bạn bè"
            },
            "replies": [
                {
                    "reply_content": "Theo những gì mình trải qua thì nếu người ta đã không thích mình thì sẽ không bao giờ thích mình."
                }
            ]
        },
        {
            "parent_comment": {
                "parent_content": " Đến tầm gần 1 tháng trước, chúng mình quyết định gặp nhau ngoài đời thực và mình mới càng khẳng định tình cảm của mình hơn"
            },
            "replies": [
                {
                    "reply_content": "Theo những gì mình trải qua thì nếu người ta đã không thích mình thì sẽ không bao giờ thích mình."
                }
            ]
        },
        {
            "parent_comment": {
                "parent_content": " Cho đến khi về nhà, chính bạn ấy cũng phải băn khoăn rốt cuộc tình cảm của chúng mình là gì? Mình cứ nghĩ là mình sẽ có hy vọng thật sự"
            },
            "replies": [
                {
                    "reply_content": "Theo những gì mình trải qua thì nếu người ta đã không thích mình thì sẽ không bao giờ thích mình."
                }
            ]
        },
        {
            "parent_comment": {
                "parent_content": " Một lần nữa, mình lại thổ lộ và rồi nhận được câu: Lại làm m buồn rồi? Đêm giao thừa, khi mọi người vui vẻ đón năm mới cũng là lúc bạn một lần nữa từ chối tình cảm bấy lâu của mình"
            },
            "replies": [
                {
                    "reply_content": "Theo những gì mình trải qua thì nếu người ta đã không thích mình thì sẽ không bao giờ thích mình."
                }
            ]
        },
        {
            "parent_comment": {
                "parent_content": " Mình thắc mắc rằng tại sao không thể để mình cùng đồng hành, song hành cùng bạn ấy? Người thực sự muốn đi tiếp cùng bạn sẽ biết cách cân bằng tất cả mọi thứ xung quanh, còn bạn sẵn sàng gạt mình vì mọi thứ của bạn "
            },
            "replies": [
                {
                    "reply_content": "Theo những gì mình trải qua thì nếu người ta đã không thích mình thì sẽ không bao giờ thích mình."
                }
            ]
        },
        {
            "parent_comment": {
                "parent_content": " Mình vẫn rất muốn được nhắn tin với bạn ấy, được nói chuyện với bạn ấy nhưng mình không biết phải đối diện như thế nào nữa"
            },
            "replies": [
                {
                    "reply_content": "Theo những gì mình trải qua thì nếu người ta đã không thích mình thì sẽ không bao giờ thích mình."
                }
            ]
        },
        {
            "parent_comment": {
                "parent_content": " Là bạn thì tiếp tục như nào để không còn hy vọng nữa hay bản thân vẫn cứ đơn phương hoài không dứt rồi lại thất vọng vì người ta không vì mình?"
            },
            "replies": [
                {
                    "reply_content": "Theo những gì mình trải qua thì nếu người ta đã không thích mình thì sẽ không bao giờ thích mình."
                }
            ]
        },
        {
            "parent_comment": {
                "parent_user": "Huong DQ",
                "parent_content": "Mới có mấy hôm thì lsao mà quên dc e ơi  quen gần chục năm đến cách đây 1 tháng mới gặp ngoài đời?"
            },
            "replies": [
                {
                    "reply_user": "Bora Eun",
                    "reply_content": " Do hồi còn đi học thì nhát, không dám đi xa Lên đhoc mới có điều kiện đi lại. Bạn ấy bận nên mãi chúng e mới gặp nhau. Nhưng giờ thì hết thật r "
                }
            ]
        }
    ]
}