{
    "post": "997372424128586",
    "link": "https://facebook.com/groups/371004360098732/permalink/997372424128586",
    "post_comments": [
        {
            "parent_comment": {
                "parent_content": " Tôi đã cố hết sức, ba muốn tôi vừa phải học giỏi, vừa phải biết làm ăn kinh doanh, tính toán các thứ, còn phải giỏi việc nhà này nọ "
            },
            "replies": [
                {
                    "reply_content": "Thương quá. Cố lên nha"
                }
            ]
        },
        {
            "parent_comment": {
                "parent_content": " Ngoại trừ việc đi học thì những khi đi đâu chơi đều bị cho là la ca lêu lỏng, mẹ luôn luôn nhắc bên tai tôi là “ phải ráng, ráng học rồi sau này về làm cho nhà mình ”"
            },
            "replies": [
                {
                    "reply_content": "Thương quá. Cố lên nha"
                }
            ]
        },
        {
            "parent_comment": {
                "parent_content": " Họ chỉ gán ghép cho tôi sau này phải tiếp quản việc làm ăn của gia đình các thứ, không thì đi làm sĩ quan này nọ "
            },
            "replies": [
                {
                    "reply_content": "Thương quá. Cố lên nha"
                }
            ]
        },
        {
            "parent_comment": {
                "parent_content": " Nhưng chưa bao giờ họ hỏi tôi thích làm và muốn làm cái gì sau khi ra trường, mọi dự tính về tương lai của tôi đều bị họ cho là “ tầm bậy tầm bạ ” "
            },
            "replies": [
                {
                    "reply_content": "Thương quá. Cố lên nha"
                }
            ]
        },
        {
            "parent_comment": {
                "parent_content": " Con chỉ là thằng con trai 17 tuổi, con cũng có ước mơ, cũng có đam mê, cũng có cuộc sống riêng của con, sao bố mẹ nỡ dập tắt ước mơ đó "
            },
            "replies": [
                {
                    "reply_content": "Thương quá. Cố lên nha"
                }
            ]
        },
        {
            "parent_comment": {
                "parent_content": " Tôi đã cố hết sức, ba muốn tôi vừa phải học giỏi, vừa phải biết làm ăn kinh doanh, tính toán các thứ, còn phải giỏi việc nhà này nọ "
            },
            "replies": [
                {
                    "reply_content": "Nổi loạn đi bạn ơi, tuổi trẻ nên một lần nổi loạn. Có hư hỏng mới hiểu thế nào là ngoan hiền"
                }
            ]
        },
        {
            "parent_comment": {
                "parent_content": " Ngoại trừ việc đi học thì những khi đi đâu chơi đều bị cho là la ca lêu lỏng, mẹ luôn luôn nhắc bên tai tôi là “ phải ráng, ráng học rồi sau này về làm cho nhà mình ”"
            },
            "replies": [
                {
                    "reply_content": "Nổi loạn đi bạn ơi, tuổi trẻ nên một lần nổi loạn. Có hư hỏng mới hiểu thế nào là ngoan hiền"
                }
            ]
        },
        {
            "parent_comment": {
                "parent_content": " Họ chỉ gán ghép cho tôi sau này phải tiếp quản việc làm ăn của gia đình các thứ, không thì đi làm sĩ quan này nọ "
            },
            "replies": [
                {
                    "reply_content": "Nổi loạn đi bạn ơi, tuổi trẻ nên một lần nổi loạn. Có hư hỏng mới hiểu thế nào là ngoan hiền"
                }
            ]
        },
        {
            "parent_comment": {
                "parent_content": " Nhưng chưa bao giờ họ hỏi tôi thích làm và muốn làm cái gì sau khi ra trường, mọi dự tính về tương lai của tôi đều bị họ cho là “ tầm bậy tầm bạ ” "
            },
            "replies": [
                {
                    "reply_content": "Nổi loạn đi bạn ơi, tuổi trẻ nên một lần nổi loạn. Có hư hỏng mới hiểu thế nào là ngoan hiền"
                }
            ]
        },
        {
            "parent_comment": {
                "parent_content": " Con chỉ là thằng con trai 17 tuổi, con cũng có ước mơ, cũng có đam mê, cũng có cuộc sống riêng của con, sao bố mẹ nỡ dập tắt ước mơ đó "
            },
            "replies": [
                {
                    "reply_content": "Nổi loạn đi bạn ơi, tuổi trẻ nên một lần nổi loạn. Có hư hỏng mới hiểu thế nào là ngoan hiền"
                }
            ]
        },
        {
            "parent_comment": {
                "parent_content": " Tôi đã cố hết sức, ba muốn tôi vừa phải học giỏi, vừa phải biết làm ăn kinh doanh, tính toán các thứ, còn phải giỏi việc nhà này nọ "
            },
            "replies": [
                {
                    "reply_content": "b thử quậy 1 ngày i"
                }
            ]
        },
        {
            "parent_comment": {
                "parent_content": " Ngoại trừ việc đi học thì những khi đi đâu chơi đều bị cho là la ca lêu lỏng, mẹ luôn luôn nhắc bên tai tôi là “ phải ráng, ráng học rồi sau này về làm cho nhà mình ”"
            },
            "replies": [
                {
                    "reply_content": "b thử quậy 1 ngày i"
                }
            ]
        },
        {
            "parent_comment": {
                "parent_content": " Họ chỉ gán ghép cho tôi sau này phải tiếp quản việc làm ăn của gia đình các thứ, không thì đi làm sĩ quan này nọ "
            },
            "replies": [
                {
                    "reply_content": "b thử quậy 1 ngày i"
                }
            ]
        },
        {
            "parent_comment": {
                "parent_content": " Nhưng chưa bao giờ họ hỏi tôi thích làm và muốn làm cái gì sau khi ra trường, mọi dự tính về tương lai của tôi đều bị họ cho là “ tầm bậy tầm bạ ” "
            },
            "replies": [
                {
                    "reply_content": "b thử quậy 1 ngày i"
                }
            ]
        },
        {
            "parent_comment": {
                "parent_content": " Con chỉ là thằng con trai 17 tuổi, con cũng có ước mơ, cũng có đam mê, cũng có cuộc sống riêng của con, sao bố mẹ nỡ dập tắt ước mơ đó "
            },
            "replies": [
                {
                    "reply_content": "b thử quậy 1 ngày i"
                }
            ]
        },
        {
            "parent_comment": {
                "parent_content": " Tôi đã cố hết sức, ba muốn tôi vừa phải học giỏi, vừa phải biết làm ăn kinh doanh, tính toán các thứ, còn phải giỏi việc nhà này nọ "
            },
            "replies": [
                {
                    "reply_content": "Bố mẹ em lo cho em thôi. Nếu em có thể tự lo được thì hãy thể hiện điều ấy ra.Em tự tin lo được việc học của em thì em phải nói với bố mẹ, ko dc thì hãy chứng minh bằng kết quả học tậpEm tự tin với đam mê của em thì hãy nói vs bố mẹ, dùng hành động, kết quả để chứng minhPhải nghiêm túc đừng hời hợt, chứng tỏ bản thân. Nếu ko làm dc thì đôi phần em hãy tham khảo ý kiến của bố mẹ, người lớn vì họ ít nhất đã trải qua nhiều khó khăn hơn em nên họ có thể cho em lời khuyên"
                }
            ]
        },
        {
            "parent_comment": {
                "parent_content": " Ngoại trừ việc đi học thì những khi đi đâu chơi đều bị cho là la ca lêu lỏng, mẹ luôn luôn nhắc bên tai tôi là “ phải ráng, ráng học rồi sau này về làm cho nhà mình ”"
            },
            "replies": [
                {
                    "reply_content": "Bố mẹ em lo cho em thôi. Nếu em có thể tự lo được thì hãy thể hiện điều ấy ra.Em tự tin lo được việc học của em thì em phải nói với bố mẹ, ko dc thì hãy chứng minh bằng kết quả học tậpEm tự tin với đam mê của em thì hãy nói vs bố mẹ, dùng hành động, kết quả để chứng minhPhải nghiêm túc đừng hời hợt, chứng tỏ bản thân. Nếu ko làm dc thì đôi phần em hãy tham khảo ý kiến của bố mẹ, người lớn vì họ ít nhất đã trải qua nhiều khó khăn hơn em nên họ có thể cho em lời khuyên"
                }
            ]
        },
        {
            "parent_comment": {
                "parent_content": " Họ chỉ gán ghép cho tôi sau này phải tiếp quản việc làm ăn của gia đình các thứ, không thì đi làm sĩ quan này nọ "
            },
            "replies": [
                {
                    "reply_content": "Bố mẹ em lo cho em thôi. Nếu em có thể tự lo được thì hãy thể hiện điều ấy ra.Em tự tin lo được việc học của em thì em phải nói với bố mẹ, ko dc thì hãy chứng minh bằng kết quả học tậpEm tự tin với đam mê của em thì hãy nói vs bố mẹ, dùng hành động, kết quả để chứng minhPhải nghiêm túc đừng hời hợt, chứng tỏ bản thân. Nếu ko làm dc thì đôi phần em hãy tham khảo ý kiến của bố mẹ, người lớn vì họ ít nhất đã trải qua nhiều khó khăn hơn em nên họ có thể cho em lời khuyên"
                }
            ]
        },
        {
            "parent_comment": {
                "parent_content": " Nhưng chưa bao giờ họ hỏi tôi thích làm và muốn làm cái gì sau khi ra trường, mọi dự tính về tương lai của tôi đều bị họ cho là “ tầm bậy tầm bạ ” "
            },
            "replies": [
                {
                    "reply_content": "Bố mẹ em lo cho em thôi. Nếu em có thể tự lo được thì hãy thể hiện điều ấy ra.Em tự tin lo được việc học của em thì em phải nói với bố mẹ, ko dc thì hãy chứng minh bằng kết quả học tậpEm tự tin với đam mê của em thì hãy nói vs bố mẹ, dùng hành động, kết quả để chứng minhPhải nghiêm túc đừng hời hợt, chứng tỏ bản thân. Nếu ko làm dc thì đôi phần em hãy tham khảo ý kiến của bố mẹ, người lớn vì họ ít nhất đã trải qua nhiều khó khăn hơn em nên họ có thể cho em lời khuyên"
                }
            ]
        },
        {
            "parent_comment": {
                "parent_content": " Con chỉ là thằng con trai 17 tuổi, con cũng có ước mơ, cũng có đam mê, cũng có cuộc sống riêng của con, sao bố mẹ nỡ dập tắt ước mơ đó "
            },
            "replies": [
                {
                    "reply_content": "Bố mẹ em lo cho em thôi. Nếu em có thể tự lo được thì hãy thể hiện điều ấy ra.Em tự tin lo được việc học của em thì em phải nói với bố mẹ, ko dc thì hãy chứng minh bằng kết quả học tậpEm tự tin với đam mê của em thì hãy nói vs bố mẹ, dùng hành động, kết quả để chứng minhPhải nghiêm túc đừng hời hợt, chứng tỏ bản thân. Nếu ko làm dc thì đôi phần em hãy tham khảo ý kiến của bố mẹ, người lớn vì họ ít nhất đã trải qua nhiều khó khăn hơn em nên họ có thể cho em lời khuyên"
                }
            ]
        },
        {
            "parent_comment": {
                "parent_content": " Tôi đã cố hết sức, ba muốn tôi vừa phải học giỏi, vừa phải biết làm ăn kinh doanh, tính toán các thứ, còn phải giỏi việc nhà này nọ "
            },
            "replies": [
                {
                    "reply_content": "Tui chỉ nói thẳng một câu là hãy kệ mẹ ý kiến của họ đi. Lắm bố mẹ coi con cái như quyển sổ tiết kiệm lót gối lúc tuổi già vậy."
                }
            ]
        },
        {
            "parent_comment": {
                "parent_content": " Ngoại trừ việc đi học thì những khi đi đâu chơi đều bị cho là la ca lêu lỏng, mẹ luôn luôn nhắc bên tai tôi là “ phải ráng, ráng học rồi sau này về làm cho nhà mình ”"
            },
            "replies": [
                {
                    "reply_content": "Tui chỉ nói thẳng một câu là hãy kệ mẹ ý kiến của họ đi. Lắm bố mẹ coi con cái như quyển sổ tiết kiệm lót gối lúc tuổi già vậy."
                }
            ]
        },
        {
            "parent_comment": {
                "parent_content": " Họ chỉ gán ghép cho tôi sau này phải tiếp quản việc làm ăn của gia đình các thứ, không thì đi làm sĩ quan này nọ "
            },
            "replies": [
                {
                    "reply_content": "Tui chỉ nói thẳng một câu là hãy kệ mẹ ý kiến của họ đi. Lắm bố mẹ coi con cái như quyển sổ tiết kiệm lót gối lúc tuổi già vậy."
                }
            ]
        },
        {
            "parent_comment": {
                "parent_content": " Nhưng chưa bao giờ họ hỏi tôi thích làm và muốn làm cái gì sau khi ra trường, mọi dự tính về tương lai của tôi đều bị họ cho là “ tầm bậy tầm bạ ” "
            },
            "replies": [
                {
                    "reply_content": "Tui chỉ nói thẳng một câu là hãy kệ mẹ ý kiến của họ đi. Lắm bố mẹ coi con cái như quyển sổ tiết kiệm lót gối lúc tuổi già vậy."
                }
            ]
        },
        {
            "parent_comment": {
                "parent_content": " Con chỉ là thằng con trai 17 tuổi, con cũng có ước mơ, cũng có đam mê, cũng có cuộc sống riêng của con, sao bố mẹ nỡ dập tắt ước mơ đó "
            },
            "replies": [
                {
                    "reply_content": "Tui chỉ nói thẳng một câu là hãy kệ mẹ ý kiến của họ đi. Lắm bố mẹ coi con cái như quyển sổ tiết kiệm lót gối lúc tuổi già vậy."
                }
            ]
        },
        {
            "parent_comment": {
                "parent_content": " Tôi đã cố hết sức, ba muốn tôi vừa phải học giỏi, vừa phải biết làm ăn kinh doanh, tính toán các thứ, còn phải giỏi việc nhà này nọ "
            },
            "replies": [
                {
                    "reply_content": "Mk cũng lớn lên trong môi trường như vậy nhưng mk ko đồng cảm với bạn. Chỉ nói với bạn một câu: Dù thích hay ko hãy cứ làm hết sức mình,vì đó là một cách rèn luyện bản thân."
                }
            ]
        },
        {
            "parent_comment": {
                "parent_content": " Ngoại trừ việc đi học thì những khi đi đâu chơi đều bị cho là la ca lêu lỏng, mẹ luôn luôn nhắc bên tai tôi là “ phải ráng, ráng học rồi sau này về làm cho nhà mình ”"
            },
            "replies": [
                {
                    "reply_content": "Mk cũng lớn lên trong môi trường như vậy nhưng mk ko đồng cảm với bạn. Chỉ nói với bạn một câu: Dù thích hay ko hãy cứ làm hết sức mình,vì đó là một cách rèn luyện bản thân."
                }
            ]
        },
        {
            "parent_comment": {
                "parent_content": " Họ chỉ gán ghép cho tôi sau này phải tiếp quản việc làm ăn của gia đình các thứ, không thì đi làm sĩ quan này nọ "
            },
            "replies": [
                {
                    "reply_content": "Mk cũng lớn lên trong môi trường như vậy nhưng mk ko đồng cảm với bạn. Chỉ nói với bạn một câu: Dù thích hay ko hãy cứ làm hết sức mình,vì đó là một cách rèn luyện bản thân."
                }
            ]
        },
        {
            "parent_comment": {
                "parent_content": " Nhưng chưa bao giờ họ hỏi tôi thích làm và muốn làm cái gì sau khi ra trường, mọi dự tính về tương lai của tôi đều bị họ cho là “ tầm bậy tầm bạ ” "
            },
            "replies": [
                {
                    "reply_content": "Mk cũng lớn lên trong môi trường như vậy nhưng mk ko đồng cảm với bạn. Chỉ nói với bạn một câu: Dù thích hay ko hãy cứ làm hết sức mình,vì đó là một cách rèn luyện bản thân."
                }
            ]
        },
        {
            "parent_comment": {
                "parent_content": " Con chỉ là thằng con trai 17 tuổi, con cũng có ước mơ, cũng có đam mê, cũng có cuộc sống riêng của con, sao bố mẹ nỡ dập tắt ước mơ đó "
            },
            "replies": [
                {
                    "reply_content": "Mk cũng lớn lên trong môi trường như vậy nhưng mk ko đồng cảm với bạn. Chỉ nói với bạn một câu: Dù thích hay ko hãy cứ làm hết sức mình,vì đó là một cách rèn luyện bản thân."
                }
            ]
        },
        {
            "parent_comment": {
                "parent_content": " Tôi đã cố hết sức, ba muốn tôi vừa phải học giỏi, vừa phải biết làm ăn kinh doanh, tính toán các thứ, còn phải giỏi việc nhà này nọ "
            },
            "replies": [
                {
                    "reply_content": "Mình thật sự đồng cảm với bạn. Vì bây giờ cha mẹ vẫn ép mình học y. Mình biết đó là tốt cho tương lai sau này của mình. Nhưng cuộc đời này là của mình sống, mình tự quyết định. Nên là dù gì đi nữa, mong bạn có thể tự quyết định cuộc đời mình"
                }
            ]
        },
        {
            "parent_comment": {
                "parent_content": " Ngoại trừ việc đi học thì những khi đi đâu chơi đều bị cho là la ca lêu lỏng, mẹ luôn luôn nhắc bên tai tôi là “ phải ráng, ráng học rồi sau này về làm cho nhà mình ”"
            },
            "replies": [
                {
                    "reply_content": "Mình thật sự đồng cảm với bạn. Vì bây giờ cha mẹ vẫn ép mình học y. Mình biết đó là tốt cho tương lai sau này của mình. Nhưng cuộc đời này là của mình sống, mình tự quyết định. Nên là dù gì đi nữa, mong bạn có thể tự quyết định cuộc đời mình"
                }
            ]
        },
        {
            "parent_comment": {
                "parent_content": " Họ chỉ gán ghép cho tôi sau này phải tiếp quản việc làm ăn của gia đình các thứ, không thì đi làm sĩ quan này nọ "
            },
            "replies": [
                {
                    "reply_content": "Mình thật sự đồng cảm với bạn. Vì bây giờ cha mẹ vẫn ép mình học y. Mình biết đó là tốt cho tương lai sau này của mình. Nhưng cuộc đời này là của mình sống, mình tự quyết định. Nên là dù gì đi nữa, mong bạn có thể tự quyết định cuộc đời mình"
                }
            ]
        },
        {
            "parent_comment": {
                "parent_content": " Nhưng chưa bao giờ họ hỏi tôi thích làm và muốn làm cái gì sau khi ra trường, mọi dự tính về tương lai của tôi đều bị họ cho là “ tầm bậy tầm bạ ” "
            },
            "replies": [
                {
                    "reply_content": "Mình thật sự đồng cảm với bạn. Vì bây giờ cha mẹ vẫn ép mình học y. Mình biết đó là tốt cho tương lai sau này của mình. Nhưng cuộc đời này là của mình sống, mình tự quyết định. Nên là dù gì đi nữa, mong bạn có thể tự quyết định cuộc đời mình"
                }
            ]
        },
        {
            "parent_comment": {
                "parent_content": " Con chỉ là thằng con trai 17 tuổi, con cũng có ước mơ, cũng có đam mê, cũng có cuộc sống riêng của con, sao bố mẹ nỡ dập tắt ước mơ đó "
            },
            "replies": [
                {
                    "reply_content": "Mình thật sự đồng cảm với bạn. Vì bây giờ cha mẹ vẫn ép mình học y. Mình biết đó là tốt cho tương lai sau này của mình. Nhưng cuộc đời này là của mình sống, mình tự quyết định. Nên là dù gì đi nữa, mong bạn có thể tự quyết định cuộc đời mình"
                }
            ]
        },
        {
            "parent_comment": {
                "parent_content": " Tôi đã cố hết sức, ba muốn tôi vừa phải học giỏi, vừa phải biết làm ăn kinh doanh, tính toán các thứ, còn phải giỏi việc nhà này nọ "
            },
            "replies": [
                {
                    "reply_content": "trước đây bố mẹ cũng ép mình theo ý của bố mẹ dữ lắm, nhưng rồi sau đó mình ko đủ giỏi để đạt được nó, nên mình được chọn thứ mình đam mê. sống đúng với đam mê nó phải gọi là tuyệt vời vl. dù có khó khăn thì vẫn thấy có động lực lắm. cố gắng thuyết phục bố mẹ bằng đam mê và nhiệt huyết của bạn nhé, cố lên"
                }
            ]
        },
        {
            "parent_comment": {
                "parent_content": " Ngoại trừ việc đi học thì những khi đi đâu chơi đều bị cho là la ca lêu lỏng, mẹ luôn luôn nhắc bên tai tôi là “ phải ráng, ráng học rồi sau này về làm cho nhà mình ”"
            },
            "replies": [
                {
                    "reply_content": "trước đây bố mẹ cũng ép mình theo ý của bố mẹ dữ lắm, nhưng rồi sau đó mình ko đủ giỏi để đạt được nó, nên mình được chọn thứ mình đam mê. sống đúng với đam mê nó phải gọi là tuyệt vời vl. dù có khó khăn thì vẫn thấy có động lực lắm. cố gắng thuyết phục bố mẹ bằng đam mê và nhiệt huyết của bạn nhé, cố lên"
                }
            ]
        },
        {
            "parent_comment": {
                "parent_content": " Họ chỉ gán ghép cho tôi sau này phải tiếp quản việc làm ăn của gia đình các thứ, không thì đi làm sĩ quan này nọ "
            },
            "replies": [
                {
                    "reply_content": "trước đây bố mẹ cũng ép mình theo ý của bố mẹ dữ lắm, nhưng rồi sau đó mình ko đủ giỏi để đạt được nó, nên mình được chọn thứ mình đam mê. sống đúng với đam mê nó phải gọi là tuyệt vời vl. dù có khó khăn thì vẫn thấy có động lực lắm. cố gắng thuyết phục bố mẹ bằng đam mê và nhiệt huyết của bạn nhé, cố lên"
                }
            ]
        },
        {
            "parent_comment": {
                "parent_content": " Nhưng chưa bao giờ họ hỏi tôi thích làm và muốn làm cái gì sau khi ra trường, mọi dự tính về tương lai của tôi đều bị họ cho là “ tầm bậy tầm bạ ” "
            },
            "replies": [
                {
                    "reply_content": "trước đây bố mẹ cũng ép mình theo ý của bố mẹ dữ lắm, nhưng rồi sau đó mình ko đủ giỏi để đạt được nó, nên mình được chọn thứ mình đam mê. sống đúng với đam mê nó phải gọi là tuyệt vời vl. dù có khó khăn thì vẫn thấy có động lực lắm. cố gắng thuyết phục bố mẹ bằng đam mê và nhiệt huyết của bạn nhé, cố lên"
                }
            ]
        },
        {
            "parent_comment": {
                "parent_content": " Con chỉ là thằng con trai 17 tuổi, con cũng có ước mơ, cũng có đam mê, cũng có cuộc sống riêng của con, sao bố mẹ nỡ dập tắt ước mơ đó "
            },
            "replies": [
                {
                    "reply_content": "trước đây bố mẹ cũng ép mình theo ý của bố mẹ dữ lắm, nhưng rồi sau đó mình ko đủ giỏi để đạt được nó, nên mình được chọn thứ mình đam mê. sống đúng với đam mê nó phải gọi là tuyệt vời vl. dù có khó khăn thì vẫn thấy có động lực lắm. cố gắng thuyết phục bố mẹ bằng đam mê và nhiệt huyết của bạn nhé, cố lên"
                }
            ]
        },
        {
            "parent_comment": {
                "parent_content": " Tôi đã cố hết sức, ba muốn tôi vừa phải học giỏi, vừa phải biết làm ăn kinh doanh, tính toán các thứ, còn phải giỏi việc nhà này nọ "
            },
            "replies": [
                {
                    "reply_content": "chị 23 tuổi rồi, cũng đi ra nước ngoài học tập rồi đang ở tại Vn, nhưng mẹ cũng là người ép buộc chị với những suy nghĩ của mẹ. nhưng chị chẳng làm theo được đâu, chị thấy chị không có tự do luôn ấy. Em cố gắng và mạnh mẽ lên, bây giờ vẫn đang tuổi đến trường thì cứ gác mong muốn của bố mẹ lại đó đã, em vẫn phải học mà. em cứ tập trung hết sức vào việc học là được rồi. Sau này em có muốn làm gì, đam mê là gì thì nói lại với bố mẹ một lần nữa là được. Suy nghĩ nhiều lúc này chỉ làm em thêm mệt mỏi và không giải quyết được vấn đề hơn thôi"
                }
            ]
        },
        {
            "parent_comment": {
                "parent_content": " Ngoại trừ việc đi học thì những khi đi đâu chơi đều bị cho là la ca lêu lỏng, mẹ luôn luôn nhắc bên tai tôi là “ phải ráng, ráng học rồi sau này về làm cho nhà mình ”"
            },
            "replies": [
                {
                    "reply_content": "chị 23 tuổi rồi, cũng đi ra nước ngoài học tập rồi đang ở tại Vn, nhưng mẹ cũng là người ép buộc chị với những suy nghĩ của mẹ. nhưng chị chẳng làm theo được đâu, chị thấy chị không có tự do luôn ấy. Em cố gắng và mạnh mẽ lên, bây giờ vẫn đang tuổi đến trường thì cứ gác mong muốn của bố mẹ lại đó đã, em vẫn phải học mà. em cứ tập trung hết sức vào việc học là được rồi. Sau này em có muốn làm gì, đam mê là gì thì nói lại với bố mẹ một lần nữa là được. Suy nghĩ nhiều lúc này chỉ làm em thêm mệt mỏi và không giải quyết được vấn đề hơn thôi"
                }
            ]
        },
        {
            "parent_comment": {
                "parent_content": " Họ chỉ gán ghép cho tôi sau này phải tiếp quản việc làm ăn của gia đình các thứ, không thì đi làm sĩ quan này nọ "
            },
            "replies": [
                {
                    "reply_content": "chị 23 tuổi rồi, cũng đi ra nước ngoài học tập rồi đang ở tại Vn, nhưng mẹ cũng là người ép buộc chị với những suy nghĩ của mẹ. nhưng chị chẳng làm theo được đâu, chị thấy chị không có tự do luôn ấy. Em cố gắng và mạnh mẽ lên, bây giờ vẫn đang tuổi đến trường thì cứ gác mong muốn của bố mẹ lại đó đã, em vẫn phải học mà. em cứ tập trung hết sức vào việc học là được rồi. Sau này em có muốn làm gì, đam mê là gì thì nói lại với bố mẹ một lần nữa là được. Suy nghĩ nhiều lúc này chỉ làm em thêm mệt mỏi và không giải quyết được vấn đề hơn thôi"
                }
            ]
        },
        {
            "parent_comment": {
                "parent_content": " Nhưng chưa bao giờ họ hỏi tôi thích làm và muốn làm cái gì sau khi ra trường, mọi dự tính về tương lai của tôi đều bị họ cho là “ tầm bậy tầm bạ ” "
            },
            "replies": [
                {
                    "reply_content": "chị 23 tuổi rồi, cũng đi ra nước ngoài học tập rồi đang ở tại Vn, nhưng mẹ cũng là người ép buộc chị với những suy nghĩ của mẹ. nhưng chị chẳng làm theo được đâu, chị thấy chị không có tự do luôn ấy. Em cố gắng và mạnh mẽ lên, bây giờ vẫn đang tuổi đến trường thì cứ gác mong muốn của bố mẹ lại đó đã, em vẫn phải học mà. em cứ tập trung hết sức vào việc học là được rồi. Sau này em có muốn làm gì, đam mê là gì thì nói lại với bố mẹ một lần nữa là được. Suy nghĩ nhiều lúc này chỉ làm em thêm mệt mỏi và không giải quyết được vấn đề hơn thôi"
                }
            ]
        },
        {
            "parent_comment": {
                "parent_content": " Con chỉ là thằng con trai 17 tuổi, con cũng có ước mơ, cũng có đam mê, cũng có cuộc sống riêng của con, sao bố mẹ nỡ dập tắt ước mơ đó "
            },
            "replies": [
                {
                    "reply_content": "chị 23 tuổi rồi, cũng đi ra nước ngoài học tập rồi đang ở tại Vn, nhưng mẹ cũng là người ép buộc chị với những suy nghĩ của mẹ. nhưng chị chẳng làm theo được đâu, chị thấy chị không có tự do luôn ấy. Em cố gắng và mạnh mẽ lên, bây giờ vẫn đang tuổi đến trường thì cứ gác mong muốn của bố mẹ lại đó đã, em vẫn phải học mà. em cứ tập trung hết sức vào việc học là được rồi. Sau này em có muốn làm gì, đam mê là gì thì nói lại với bố mẹ một lần nữa là được. Suy nghĩ nhiều lúc này chỉ làm em thêm mệt mỏi và không giải quyết được vấn đề hơn thôi"
                }
            ]
        },
        {
            "parent_comment": {
                "parent_content": " Tôi đã cố hết sức, ba muốn tôi vừa phải học giỏi, vừa phải biết làm ăn kinh doanh, tính toán các thứ, còn phải giỏi việc nhà này nọ "
            },
            "replies": [
                {
                    "reply_content": "Em có thể ngừng cố gắng làm những điều mình không thích, và âm thầm làm những điều mình thích, khi bố mẹ cảm thấy con mình ko đc như mình mong đợi thì đa số sẽ chửi sấp mặt và dần dần chấp nhận điều đó =]]]]]] Nói cho vui nhưng mà thực tế đa số là thế "
                }
            ]
        },
        {
            "parent_comment": {
                "parent_content": " Ngoại trừ việc đi học thì những khi đi đâu chơi đều bị cho là la ca lêu lỏng, mẹ luôn luôn nhắc bên tai tôi là “ phải ráng, ráng học rồi sau này về làm cho nhà mình ”"
            },
            "replies": [
                {
                    "reply_content": "Em có thể ngừng cố gắng làm những điều mình không thích, và âm thầm làm những điều mình thích, khi bố mẹ cảm thấy con mình ko đc như mình mong đợi thì đa số sẽ chửi sấp mặt và dần dần chấp nhận điều đó =]]]]]] Nói cho vui nhưng mà thực tế đa số là thế "
                }
            ]
        },
        {
            "parent_comment": {
                "parent_content": " Họ chỉ gán ghép cho tôi sau này phải tiếp quản việc làm ăn của gia đình các thứ, không thì đi làm sĩ quan này nọ "
            },
            "replies": [
                {
                    "reply_content": "Em có thể ngừng cố gắng làm những điều mình không thích, và âm thầm làm những điều mình thích, khi bố mẹ cảm thấy con mình ko đc như mình mong đợi thì đa số sẽ chửi sấp mặt và dần dần chấp nhận điều đó =]]]]]] Nói cho vui nhưng mà thực tế đa số là thế "
                }
            ]
        },
        {
            "parent_comment": {
                "parent_content": " Nhưng chưa bao giờ họ hỏi tôi thích làm và muốn làm cái gì sau khi ra trường, mọi dự tính về tương lai của tôi đều bị họ cho là “ tầm bậy tầm bạ ” "
            },
            "replies": [
                {
                    "reply_content": "Em có thể ngừng cố gắng làm những điều mình không thích, và âm thầm làm những điều mình thích, khi bố mẹ cảm thấy con mình ko đc như mình mong đợi thì đa số sẽ chửi sấp mặt và dần dần chấp nhận điều đó =]]]]]] Nói cho vui nhưng mà thực tế đa số là thế "
                }
            ]
        },
        {
            "parent_comment": {
                "parent_content": " Con chỉ là thằng con trai 17 tuổi, con cũng có ước mơ, cũng có đam mê, cũng có cuộc sống riêng của con, sao bố mẹ nỡ dập tắt ước mơ đó "
            },
            "replies": [
                {
                    "reply_content": "Em có thể ngừng cố gắng làm những điều mình không thích, và âm thầm làm những điều mình thích, khi bố mẹ cảm thấy con mình ko đc như mình mong đợi thì đa số sẽ chửi sấp mặt và dần dần chấp nhận điều đó =]]]]]] Nói cho vui nhưng mà thực tế đa số là thế "
                }
            ]
        }
    ]
}