{
    "post": "997854680747027",
    "link": "https://facebook.com/groups/371004360098732/permalink/997854680747027",
    "post_comments": [
        {
            "parent_comment": {
                "parent_content": " Khi người ấy ở trong tầm mắt của bạn, bạn sẽ vờ như không nhìn thấy người ấy, nhưng khi người ấy bước ra khỏi tầm mắt của bạn, bạn sẽ không thể kìm lòng mà tìm kiếm người ấy"
            },
            "replies": [
                {
                    "reply_content": "Chuẩn  so i'm not alone "
                }
            ]
        },
        {
            "parent_comment": {
                "parent_content": " Khi người ấy ở trong tầm mắt của bạn, bạn sẽ vờ như không nhìn thấy người ấy, nhưng khi người ấy bước ra khỏi tầm mắt của bạn, bạn sẽ không thể kìm lòng mà tìm kiếm người ấy"
            },
            "replies": [
                {
                    "reply_content": "Yêu đơn phương là nhìn thấy ng mà mk thích hạnh phúc mình cũng buồn như mk cũng cảm thấy hạnh phúc khi crush mk gặp đúng người"
                }
            ]
        }
    ]
}