{
    "post": "993098041222691",
    "link": "https://facebook.com/groups/371004360098732/permalink/993098041222691",
    "post_comments": [
        {
            "parent_comment": {
                "parent_content": "Trên đời này, có hai thứ khiến chúng ta cảm thấy bất lực nhất, đó là cái chết và sự thay đổi của một người"
            },
            "replies": [
                {
                    "reply_content": "\"Gặp được cậu, tôi đã trưởng thành hơn, nhưng lạc mất cậu mới khiến tôi thật sự trưởng thành\""
                }
            ]
        },
        {
            "parent_comment": {
                "parent_content": "Sự thay đổi, là một cú chuyển mình trong câu chuyện trưởng thành của bất cứ ai, để có một chút khác biệt, một chút mới mẻ"
            },
            "replies": [
                {
                    "reply_content": "\"Gặp được cậu, tôi đã trưởng thành hơn, nhưng lạc mất cậu mới khiến tôi thật sự trưởng thành\""
                }
            ]
        },
        {
            "parent_comment": {
                "parent_content": " Đôi khi cảm xúc bị tổn thương chỉ vì quá ngỡ ngàng, \"ngộp\" đến mức không chịu chấp nhận, và rồi thoáng chốc khoảng cách thật xa"
            },
            "replies": [
                {
                    "reply_content": "\"Gặp được cậu, tôi đã trưởng thành hơn, nhưng lạc mất cậu mới khiến tôi thật sự trưởng thành\""
                }
            ]
        },
        {
            "parent_comment": {
                "parent_content": "Có một nỗi sợ vô hình, “nỗi sợ không muốn điều gì thay đổi”, vì sợ rằng mọi thứ tốt đẹp ở hiện tại sẽ chẳng còn, cũng vì thế người “ở yên” lại chính là người luôn tâm trạng và bất an"
            },
            "replies": [
                {
                    "reply_content": "\"Gặp được cậu, tôi đã trưởng thành hơn, nhưng lạc mất cậu mới khiến tôi thật sự trưởng thành\""
                }
            ]
        },
        {
            "parent_comment": {
                "parent_content": " “Không thay đổi” chẳng phải cố chấp, mà chỉ muốn giữ trọn vẹn những cảm xúc và khoảnh khắc tươi đẹp đó, lo sợ đánh mất đi những người bên cạnh"
            },
            "replies": [
                {
                    "reply_content": "\"Gặp được cậu, tôi đã trưởng thành hơn, nhưng lạc mất cậu mới khiến tôi thật sự trưởng thành\""
                }
            ]
        },
        {
            "parent_comment": {
                "parent_content": " Nhưng rồi chẳng thể làm gì khác, chẳng trách được vì sao người thay đổi, bởi làm sao hiểu được người khác đã trải qua những chuyện gì, những cảm xúc ra sao"
            },
            "replies": [
                {
                    "reply_content": "\"Gặp được cậu, tôi đã trưởng thành hơn, nhưng lạc mất cậu mới khiến tôi thật sự trưởng thành\""
                }
            ]
        },
        {
            "parent_comment": {
                "parent_content": "“Mặt trời mọc rồi mặt trời lặn, ngày tháng có trôi qua mặt trời vẫn giữ nguồn sáng rực rỡ và ấm áp nhất"
            },
            "replies": [
                {
                    "reply_content": "\"Gặp được cậu, tôi đã trưởng thành hơn, nhưng lạc mất cậu mới khiến tôi thật sự trưởng thành\""
                }
            ]
        },
        {
            "parent_comment": {
                "parent_content": "Không chắc chắn những ngày sau mình sẽ thay đổi như thế nào, trở thành một con người nào đó tích cực hay tiêu cực còn phụ thuộc vào những trải nghiệm, biến cố xảy ra"
            },
            "replies": [
                {
                    "reply_content": "\"Gặp được cậu, tôi đã trưởng thành hơn, nhưng lạc mất cậu mới khiến tôi thật sự trưởng thành\""
                }
            ]
        },
        {
            "parent_comment": {
                "parent_content": " Chấp nhận một sự thật về dòng chảy thời gian không thể dừng lại, ngoại hình có già đi, sức trẻ có vơi bớt, chỉ duy nhất mong muốn môt điều, dù thay đổi ra sao hãy giữ lại những điều tốt đẹp nhất"
            },
            "replies": [
                {
                    "reply_content": "\"Gặp được cậu, tôi đã trưởng thành hơn, nhưng lạc mất cậu mới khiến tôi thật sự trưởng thành\""
                }
            ]
        },
        {
            "parent_comment": {
                "parent_content": "“Sự thay đổi của cuộc sống là điều không thể tránh khỏi – Việc của chúng ta đơn giản là lựa chọn cách để vượt qua mà thôi"
            },
            "replies": [
                {
                    "reply_content": "\"Gặp được cậu, tôi đã trưởng thành hơn, nhưng lạc mất cậu mới khiến tôi thật sự trưởng thành\""
                }
            ]
        }
    ]
}