{
    "post": "992643551268140",
    "link": "https://facebook.com/groups/371004360098732/permalink/992643551268140",
    "post_comments": [
        {
            "parent_comment": {
                "parent_user": "Trinh Nguyễn",
                "parent_content": "14/3 cách đây 2 năm cũng là ngày mình với bạn ấy chia tay sau gần 1 năm yêu nhau. 20/4 là đúng 1 năm yêu nhau. Chỉ là ko biết sao mình giỏi nhớ mốc ngày tháng thế này nữa, tuy nhiên, từng ấy năm trôi qua nên tất cả cảm xúc đã ko còn nữa. Hiện tại 2 năm qua sống alone mình cảm thấy rất hạnh phúc, vui vẻ nhiều hơn so với những năm tháng yêu đương. Hiện tại, mình chỉ lo tập trung sự nghiệp, đam mê và yêu thương bản thân, gia đình thôi. Còn ty chỉ là 1 mảnh ghép của cs, ko có cũng chẳng sao, thêm chút gia vị, mà ko có gia vị đó thì cs của mình cũng chã sao. Chúc bạn luôn sống vui vẻ, xinh đẹp nhé cô gái "
            },
            "replies": [
                {
                    "reply_user": "Dora Nguyen",
                    "reply_content": " mình là người hay quên, đầu óc lơ ngơ mộng mơ nhưng chả hiểu sao các mốc thời gian nhớ rất rõ dù chẳng cố tình. Hiện tại bọn mình cũng chia tay hơn một năm, mình vẫn đang chật vật tự chữa lành bản thân mỗi ngày, con đường tuy dài song cố từng chút vậy. Cám ơn bạn, chúc cho bạn sớm tìm được người thương. Tình yêu chỉ là một phần cuộc sống, nhưng có nó mình nghĩ cuộc sống sẽ vui hơn nhiều!"
                }
            ]
        },
        {
            "parent_comment": {
                "parent_content": "Mình cứ ngỡ là bản thân đã thôi tha thiết với yêu đương, thôi ý niệm về những ngày lễ tình nhân, với những lời ước hẹn cũ kĩ"
            },
            "replies": [
                {
                    "reply_content": "14/3 cách đây 2 năm cũng là ngày mình với bạn ấy chia tay sau gần 1 năm yêu nhau. 20/4 là đúng 1 năm yêu nhau. Chỉ là ko biết sao mình giỏi nhớ mốc ngày tháng thế này nữa, tuy nhiên, từng ấy năm trôi qua nên tất cả cảm xúc đã ko còn nữa. Hiện tại 2 năm qua sống alone mình cảm thấy rất hạnh phúc, vui vẻ nhiều hơn so với những năm tháng yêu đương. Hiện tại, mình chỉ lo tập trung sự nghiệp, đam mê và yêu thương bản thân, gia đình thôi. Còn ty chỉ là 1 mảnh ghép của cs, ko có cũng chẳng sao, thêm chút gia vị, mà ko có gia vị đó thì cs của mình cũng chã sao. Chúc bạn luôn sống vui vẻ, xinh đẹp nhé cô gái "
                }
            ]
        },
        {
            "parent_comment": {
                "parent_content": " Nhưng rồi cuộc sống mà, chẳng ai có thể thương mãi một người, chẳng ai có thể đau đáu một ký ức và cũng chẳng ai có thể sống mãi với một hình bóng xấu xí cũ mèn của quá khứ"
            },
            "replies": [
                {
                    "reply_content": "14/3 cách đây 2 năm cũng là ngày mình với bạn ấy chia tay sau gần 1 năm yêu nhau. 20/4 là đúng 1 năm yêu nhau. Chỉ là ko biết sao mình giỏi nhớ mốc ngày tháng thế này nữa, tuy nhiên, từng ấy năm trôi qua nên tất cả cảm xúc đã ko còn nữa. Hiện tại 2 năm qua sống alone mình cảm thấy rất hạnh phúc, vui vẻ nhiều hơn so với những năm tháng yêu đương. Hiện tại, mình chỉ lo tập trung sự nghiệp, đam mê và yêu thương bản thân, gia đình thôi. Còn ty chỉ là 1 mảnh ghép của cs, ko có cũng chẳng sao, thêm chút gia vị, mà ko có gia vị đó thì cs của mình cũng chã sao. Chúc bạn luôn sống vui vẻ, xinh đẹp nhé cô gái "
                }
            ]
        },
        {
            "parent_comment": {
                "parent_content": "Ngày này cách đây 3 năm, có người đã tỏ tình em, có người đã xem em là sự thay thế bởi họ không chịu được cô đơn, em dại dột đồng ý mà chẳng mảy may nghĩ tới kết quả"
            },
            "replies": [
                {
                    "reply_content": "14/3 cách đây 2 năm cũng là ngày mình với bạn ấy chia tay sau gần 1 năm yêu nhau. 20/4 là đúng 1 năm yêu nhau. Chỉ là ko biết sao mình giỏi nhớ mốc ngày tháng thế này nữa, tuy nhiên, từng ấy năm trôi qua nên tất cả cảm xúc đã ko còn nữa. Hiện tại 2 năm qua sống alone mình cảm thấy rất hạnh phúc, vui vẻ nhiều hơn so với những năm tháng yêu đương. Hiện tại, mình chỉ lo tập trung sự nghiệp, đam mê và yêu thương bản thân, gia đình thôi. Còn ty chỉ là 1 mảnh ghép của cs, ko có cũng chẳng sao, thêm chút gia vị, mà ko có gia vị đó thì cs của mình cũng chã sao. Chúc bạn luôn sống vui vẻ, xinh đẹp nhé cô gái "
                }
            ]
        },
        {
            "parent_comment": {
                "parent_content": " Rồi thì ba năm sau, cái để nhớ lại cũng chẳng còn là mấy vì tổn thương chất chứa gấp vạn lần vài khoảnh khắc hạnh phúc ngắn ngủi"
            },
            "replies": [
                {
                    "reply_content": "14/3 cách đây 2 năm cũng là ngày mình với bạn ấy chia tay sau gần 1 năm yêu nhau. 20/4 là đúng 1 năm yêu nhau. Chỉ là ko biết sao mình giỏi nhớ mốc ngày tháng thế này nữa, tuy nhiên, từng ấy năm trôi qua nên tất cả cảm xúc đã ko còn nữa. Hiện tại 2 năm qua sống alone mình cảm thấy rất hạnh phúc, vui vẻ nhiều hơn so với những năm tháng yêu đương. Hiện tại, mình chỉ lo tập trung sự nghiệp, đam mê và yêu thương bản thân, gia đình thôi. Còn ty chỉ là 1 mảnh ghép của cs, ko có cũng chẳng sao, thêm chút gia vị, mà ko có gia vị đó thì cs của mình cũng chã sao. Chúc bạn luôn sống vui vẻ, xinh đẹp nhé cô gái "
                }
            ]
        },
        {
            "parent_comment": {
                "parent_content": "14/03/21, Cô gái bé nhỏ à, từ nay trở đi, mong em yêu chính bản thân mình hơn tất thảy, đừng bao giờ dù chuyện gì xa đi chăng nữa cũng không được phép cho người khác quyền làm em đau, em khổ"
            },
            "replies": [
                {
                    "reply_content": "14/3 cách đây 2 năm cũng là ngày mình với bạn ấy chia tay sau gần 1 năm yêu nhau. 20/4 là đúng 1 năm yêu nhau. Chỉ là ko biết sao mình giỏi nhớ mốc ngày tháng thế này nữa, tuy nhiên, từng ấy năm trôi qua nên tất cả cảm xúc đã ko còn nữa. Hiện tại 2 năm qua sống alone mình cảm thấy rất hạnh phúc, vui vẻ nhiều hơn so với những năm tháng yêu đương. Hiện tại, mình chỉ lo tập trung sự nghiệp, đam mê và yêu thương bản thân, gia đình thôi. Còn ty chỉ là 1 mảnh ghép của cs, ko có cũng chẳng sao, thêm chút gia vị, mà ko có gia vị đó thì cs của mình cũng chã sao. Chúc bạn luôn sống vui vẻ, xinh đẹp nhé cô gái "
                }
            ]
        },
        {
            "parent_comment": {
                "parent_content": " Chừng đó năm, chừng đó ký ức buồn, chừng đó những day dứt, chừng đó những đêm mất ngủ vì khóc ướt gối và từng đó những ác mộng luôn giày vò"
            },
            "replies": [
                {
                    "reply_content": "14/3 cách đây 2 năm cũng là ngày mình với bạn ấy chia tay sau gần 1 năm yêu nhau. 20/4 là đúng 1 năm yêu nhau. Chỉ là ko biết sao mình giỏi nhớ mốc ngày tháng thế này nữa, tuy nhiên, từng ấy năm trôi qua nên tất cả cảm xúc đã ko còn nữa. Hiện tại 2 năm qua sống alone mình cảm thấy rất hạnh phúc, vui vẻ nhiều hơn so với những năm tháng yêu đương. Hiện tại, mình chỉ lo tập trung sự nghiệp, đam mê và yêu thương bản thân, gia đình thôi. Còn ty chỉ là 1 mảnh ghép của cs, ko có cũng chẳng sao, thêm chút gia vị, mà ko có gia vị đó thì cs của mình cũng chã sao. Chúc bạn luôn sống vui vẻ, xinh đẹp nhé cô gái "
                }
            ]
        },
        {
            "parent_comment": {
                "parent_user": "Thiên Kim",
                "parent_content": "Đây cũng là ngày kỉ niệm yêu nhau của mình cách đây 3 năm và rồi họ chia tay mình một cách vội vã cũng vào một ngày của tháng 3 năm ngoái..nhưng đến giờ mình vẫn rất đau..chúng ta cùng nhau cố mạnh mẽ nha"
            },
            "replies": [
                {
                    "reply_user": "Dora Nguyen",
                    "reply_content": " ừ, cho mình ôm bạn một cái!"
                }
            ]
        },
        {
            "parent_comment": {
                "parent_content": "Mình cứ ngỡ là bản thân đã thôi tha thiết với yêu đương, thôi ý niệm về những ngày lễ tình nhân, với những lời ước hẹn cũ kĩ"
            },
            "replies": [
                {
                    "reply_content": "Đây cũng là ngày kỉ niệm yêu nhau của mình cách đây 3 năm và rồi họ chia tay mình một cách vội vã cũng vào một ngày của tháng 3 năm ngoái..nhưng đến giờ mình vẫn rất đau..chúng ta cùng nhau cố mạnh mẽ nha"
                }
            ]
        },
        {
            "parent_comment": {
                "parent_content": " Nhưng rồi cuộc sống mà, chẳng ai có thể thương mãi một người, chẳng ai có thể đau đáu một ký ức và cũng chẳng ai có thể sống mãi với một hình bóng xấu xí cũ mèn của quá khứ"
            },
            "replies": [
                {
                    "reply_content": "Đây cũng là ngày kỉ niệm yêu nhau của mình cách đây 3 năm và rồi họ chia tay mình một cách vội vã cũng vào một ngày của tháng 3 năm ngoái..nhưng đến giờ mình vẫn rất đau..chúng ta cùng nhau cố mạnh mẽ nha"
                }
            ]
        },
        {
            "parent_comment": {
                "parent_content": "Ngày này cách đây 3 năm, có người đã tỏ tình em, có người đã xem em là sự thay thế bởi họ không chịu được cô đơn, em dại dột đồng ý mà chẳng mảy may nghĩ tới kết quả"
            },
            "replies": [
                {
                    "reply_content": "Đây cũng là ngày kỉ niệm yêu nhau của mình cách đây 3 năm và rồi họ chia tay mình một cách vội vã cũng vào một ngày của tháng 3 năm ngoái..nhưng đến giờ mình vẫn rất đau..chúng ta cùng nhau cố mạnh mẽ nha"
                }
            ]
        },
        {
            "parent_comment": {
                "parent_content": " Rồi thì ba năm sau, cái để nhớ lại cũng chẳng còn là mấy vì tổn thương chất chứa gấp vạn lần vài khoảnh khắc hạnh phúc ngắn ngủi"
            },
            "replies": [
                {
                    "reply_content": "Đây cũng là ngày kỉ niệm yêu nhau của mình cách đây 3 năm và rồi họ chia tay mình một cách vội vã cũng vào một ngày của tháng 3 năm ngoái..nhưng đến giờ mình vẫn rất đau..chúng ta cùng nhau cố mạnh mẽ nha"
                }
            ]
        },
        {
            "parent_comment": {
                "parent_content": "14/03/21, Cô gái bé nhỏ à, từ nay trở đi, mong em yêu chính bản thân mình hơn tất thảy, đừng bao giờ dù chuyện gì xa đi chăng nữa cũng không được phép cho người khác quyền làm em đau, em khổ"
            },
            "replies": [
                {
                    "reply_content": "Đây cũng là ngày kỉ niệm yêu nhau của mình cách đây 3 năm và rồi họ chia tay mình một cách vội vã cũng vào một ngày của tháng 3 năm ngoái..nhưng đến giờ mình vẫn rất đau..chúng ta cùng nhau cố mạnh mẽ nha"
                }
            ]
        },
        {
            "parent_comment": {
                "parent_content": " Chừng đó năm, chừng đó ký ức buồn, chừng đó những day dứt, chừng đó những đêm mất ngủ vì khóc ướt gối và từng đó những ác mộng luôn giày vò"
            },
            "replies": [
                {
                    "reply_content": "Đây cũng là ngày kỉ niệm yêu nhau của mình cách đây 3 năm và rồi họ chia tay mình một cách vội vã cũng vào một ngày của tháng 3 năm ngoái..nhưng đến giờ mình vẫn rất đau..chúng ta cùng nhau cố mạnh mẽ nha"
                }
            ]
        }
    ]
}