{
    "post": "995650484300780",
    "link": "https://facebook.com/groups/371004360098732/permalink/995650484300780",
    "post_comments": [
        {
            "parent_comment": {
                "parent_content": "Hai ngày nay em bắt đầu cứa những vết cắt nhỏ lên tay, có kì lạ không nếu em thấy những vết đó đẹp rồi bật cười và khóc như một người điên ạ? "
            },
            "replies": [
                {
                    "reply_content": "Cố lên em!!! Hãy mạnh mẽ và bản lĩnh chống chọi mọi thứ xem nào!!"
                }
            ]
        },
        {
            "parent_comment": {
                "parent_content": "Trước giờ em vẫn luôn gặp khó khăn với những cảm xúc của bản thân, hay suy nghĩ tiêu cực và hay khóc, em với gia đình cũng không thân thiết"
            },
            "replies": [
                {
                    "reply_content": "Cố lên em!!! Hãy mạnh mẽ và bản lĩnh chống chọi mọi thứ xem nào!!"
                }
            ]
        },
        {
            "parent_comment": {
                "parent_content": " Em luôn cảm thấy không ai quan tâm đến mình và là gánh nặng của mọi người, em ước mình có thể biến mất"
            },
            "replies": [
                {
                    "reply_content": "Cố lên em!!! Hãy mạnh mẽ và bản lĩnh chống chọi mọi thứ xem nào!!"
                }
            ]
        },
        {
            "parent_comment": {
                "parent_content": " Em muốn nói chuyện với bạn về chuyện này nhưng thấy sợ lắm ạ, để viết ra những dòng này em cũng đã phải suy nghĩ rất nhiều"
            },
            "replies": [
                {
                    "reply_content": "Cố lên em!!! Hãy mạnh mẽ và bản lĩnh chống chọi mọi thứ xem nào!!"
                }
            ]
        },
        {
            "parent_comment": {
                "parent_content": "Hai ngày nay em bắt đầu cứa những vết cắt nhỏ lên tay, có kì lạ không nếu em thấy những vết đó đẹp rồi bật cười và khóc như một người điên ạ? "
            },
            "replies": [
                {
                    "reply_content": "Cố lên nha em. Em có thể làm những thứ giúp bản thân khuây khoả hơn như là đọc mấy câu truyền động lực, trồng cây, vẽ, viết ra mọi điều. Chị mong sao em sẽ ổn định trở lại và may mắn. Và mong sao em suy nghĩ tích cực lên, không quá đặt áp lực nặng nề lên đại học, làm hết sức bản thân có thể là được. Cố lên nhé"
                }
            ]
        },
        {
            "parent_comment": {
                "parent_content": "Trước giờ em vẫn luôn gặp khó khăn với những cảm xúc của bản thân, hay suy nghĩ tiêu cực và hay khóc, em với gia đình cũng không thân thiết"
            },
            "replies": [
                {
                    "reply_content": "Cố lên nha em. Em có thể làm những thứ giúp bản thân khuây khoả hơn như là đọc mấy câu truyền động lực, trồng cây, vẽ, viết ra mọi điều. Chị mong sao em sẽ ổn định trở lại và may mắn. Và mong sao em suy nghĩ tích cực lên, không quá đặt áp lực nặng nề lên đại học, làm hết sức bản thân có thể là được. Cố lên nhé"
                }
            ]
        },
        {
            "parent_comment": {
                "parent_content": " Em luôn cảm thấy không ai quan tâm đến mình và là gánh nặng của mọi người, em ước mình có thể biến mất"
            },
            "replies": [
                {
                    "reply_content": "Cố lên nha em. Em có thể làm những thứ giúp bản thân khuây khoả hơn như là đọc mấy câu truyền động lực, trồng cây, vẽ, viết ra mọi điều. Chị mong sao em sẽ ổn định trở lại và may mắn. Và mong sao em suy nghĩ tích cực lên, không quá đặt áp lực nặng nề lên đại học, làm hết sức bản thân có thể là được. Cố lên nhé"
                }
            ]
        },
        {
            "parent_comment": {
                "parent_content": " Em muốn nói chuyện với bạn về chuyện này nhưng thấy sợ lắm ạ, để viết ra những dòng này em cũng đã phải suy nghĩ rất nhiều"
            },
            "replies": [
                {
                    "reply_content": "Cố lên nha em. Em có thể làm những thứ giúp bản thân khuây khoả hơn như là đọc mấy câu truyền động lực, trồng cây, vẽ, viết ra mọi điều. Chị mong sao em sẽ ổn định trở lại và may mắn. Và mong sao em suy nghĩ tích cực lên, không quá đặt áp lực nặng nề lên đại học, làm hết sức bản thân có thể là được. Cố lên nhé"
                }
            ]
        },
        {
            "parent_comment": {
                "parent_content": "Hai ngày nay em bắt đầu cứa những vết cắt nhỏ lên tay, có kì lạ không nếu em thấy những vết đó đẹp rồi bật cười và khóc như một người điên ạ? "
            },
            "replies": [
                {
                    "reply_content": "Đừng làm hại bản thân e ơi. Nó không có tội mà. Nếu mệt mỏi thì nghỉ ngơi. Tìm đến 1 người bạn e tin tưởng để tâm sự. Còn nếu không thì hãy viết ra hết những thứ e đang suy nghĩ. Làm những thứ mà e cảm thấy thích hoặc thoải mái xem sao  Ai cũng từng trải qua giai đoạn khó khăn. Cố gắng lên nhé! Mong rằng mọi thứ tốt đẹp sẽ đến bên r "
                }
            ]
        },
        {
            "parent_comment": {
                "parent_content": "Trước giờ em vẫn luôn gặp khó khăn với những cảm xúc của bản thân, hay suy nghĩ tiêu cực và hay khóc, em với gia đình cũng không thân thiết"
            },
            "replies": [
                {
                    "reply_content": "Đừng làm hại bản thân e ơi. Nó không có tội mà. Nếu mệt mỏi thì nghỉ ngơi. Tìm đến 1 người bạn e tin tưởng để tâm sự. Còn nếu không thì hãy viết ra hết những thứ e đang suy nghĩ. Làm những thứ mà e cảm thấy thích hoặc thoải mái xem sao  Ai cũng từng trải qua giai đoạn khó khăn. Cố gắng lên nhé! Mong rằng mọi thứ tốt đẹp sẽ đến bên r "
                }
            ]
        },
        {
            "parent_comment": {
                "parent_content": " Em luôn cảm thấy không ai quan tâm đến mình và là gánh nặng của mọi người, em ước mình có thể biến mất"
            },
            "replies": [
                {
                    "reply_content": "Đừng làm hại bản thân e ơi. Nó không có tội mà. Nếu mệt mỏi thì nghỉ ngơi. Tìm đến 1 người bạn e tin tưởng để tâm sự. Còn nếu không thì hãy viết ra hết những thứ e đang suy nghĩ. Làm những thứ mà e cảm thấy thích hoặc thoải mái xem sao  Ai cũng từng trải qua giai đoạn khó khăn. Cố gắng lên nhé! Mong rằng mọi thứ tốt đẹp sẽ đến bên r "
                }
            ]
        },
        {
            "parent_comment": {
                "parent_content": " Em muốn nói chuyện với bạn về chuyện này nhưng thấy sợ lắm ạ, để viết ra những dòng này em cũng đã phải suy nghĩ rất nhiều"
            },
            "replies": [
                {
                    "reply_content": "Đừng làm hại bản thân e ơi. Nó không có tội mà. Nếu mệt mỏi thì nghỉ ngơi. Tìm đến 1 người bạn e tin tưởng để tâm sự. Còn nếu không thì hãy viết ra hết những thứ e đang suy nghĩ. Làm những thứ mà e cảm thấy thích hoặc thoải mái xem sao  Ai cũng từng trải qua giai đoạn khó khăn. Cố gắng lên nhé! Mong rằng mọi thứ tốt đẹp sẽ đến bên r "
                }
            ]
        },
        {
            "parent_comment": {
                "parent_content": "Hai ngày nay em bắt đầu cứa những vết cắt nhỏ lên tay, có kì lạ không nếu em thấy những vết đó đẹp rồi bật cười và khóc như một người điên ạ? "
            },
            "replies": [
                {
                    "reply_content": "Ơ...Giờ thế này :1. Bước ra ngoài, đi dạo công viên, tham gia club miễn phí (nếu ko có tiền), tăng tương tác bạn bè, lên mạng học đan, móc, gốm,...đọc truyện (tiểu thuyết, truyện tranh,...), giải trí xong thì học tiếp! Đừng sợ đặt mục tiêu cao quá mà áp lực bản thân nhen. Rồi em sẽ thấy khi em muốn thứ gì và tha thiết nó, em sẽ có được nó.2. Hocmoon tiết ra lúc bạn tự làm đau bản thân có tác dụng gây nghiện, do vậy dừng việc đó lại càng sớm càng tốt, sau này tìm đc người dám nắm bàn tay ấy và hỏi “em đã trải qua những gì” thì cũng ko phải tủi thân hay e ngại ;))3. Làm đẹp: ra chợ mua củ khoai tây về luộc lên, nghiền với sữa tươi ko đường hay vắt tí chanh, để tủ lạnh, tối rửa sạch mặt đắp lên thư giãn. Lúc nhắm mắt lại hãy nhớ về nụ cười của TẤT CẢ mọi người mình từng gặp (ca sĩ, bà bán trái cây,...) và nghĩ trong đầu “yêu thương bản thân”, tha thứ, và nhớ lại những lúc bản thân mình vui vẻ nhất. Đắp 2-3 lần/tuần, sau 2 tuần da dẻ đều màu đẹp hơn sẽ thấy yêu đời yêu mình hơn nà.4. Uống nhiều nước: khát nước sẽ gây ra đau đầu và cáu gắt, do vậy lúc nào thấy sắp bùng nổ thì mình đi ún nc lọc rồi thở đều.Và nghĩ “sống đến từng này rồi, có đếch gì mà ko sống tiếp được chứ!!”Em còn trẻ, còn dông dài, gia đình còn cần em, chồng tương lai còn đang mải miết vì em, rồi em sẽ vượt qua và thư giãn và mỉm cười, tin chị đi và đừng bỏ cuộc nhé! "
                }
            ]
        },
        {
            "parent_comment": {
                "parent_content": "Trước giờ em vẫn luôn gặp khó khăn với những cảm xúc của bản thân, hay suy nghĩ tiêu cực và hay khóc, em với gia đình cũng không thân thiết"
            },
            "replies": [
                {
                    "reply_content": "Ơ...Giờ thế này :1. Bước ra ngoài, đi dạo công viên, tham gia club miễn phí (nếu ko có tiền), tăng tương tác bạn bè, lên mạng học đan, móc, gốm,...đọc truyện (tiểu thuyết, truyện tranh,...), giải trí xong thì học tiếp! Đừng sợ đặt mục tiêu cao quá mà áp lực bản thân nhen. Rồi em sẽ thấy khi em muốn thứ gì và tha thiết nó, em sẽ có được nó.2. Hocmoon tiết ra lúc bạn tự làm đau bản thân có tác dụng gây nghiện, do vậy dừng việc đó lại càng sớm càng tốt, sau này tìm đc người dám nắm bàn tay ấy và hỏi “em đã trải qua những gì” thì cũng ko phải tủi thân hay e ngại ;))3. Làm đẹp: ra chợ mua củ khoai tây về luộc lên, nghiền với sữa tươi ko đường hay vắt tí chanh, để tủ lạnh, tối rửa sạch mặt đắp lên thư giãn. Lúc nhắm mắt lại hãy nhớ về nụ cười của TẤT CẢ mọi người mình từng gặp (ca sĩ, bà bán trái cây,...) và nghĩ trong đầu “yêu thương bản thân”, tha thứ, và nhớ lại những lúc bản thân mình vui vẻ nhất. Đắp 2-3 lần/tuần, sau 2 tuần da dẻ đều màu đẹp hơn sẽ thấy yêu đời yêu mình hơn nà.4. Uống nhiều nước: khát nước sẽ gây ra đau đầu và cáu gắt, do vậy lúc nào thấy sắp bùng nổ thì mình đi ún nc lọc rồi thở đều.Và nghĩ “sống đến từng này rồi, có đếch gì mà ko sống tiếp được chứ!!”Em còn trẻ, còn dông dài, gia đình còn cần em, chồng tương lai còn đang mải miết vì em, rồi em sẽ vượt qua và thư giãn và mỉm cười, tin chị đi và đừng bỏ cuộc nhé! "
                }
            ]
        },
        {
            "parent_comment": {
                "parent_content": " Em luôn cảm thấy không ai quan tâm đến mình và là gánh nặng của mọi người, em ước mình có thể biến mất"
            },
            "replies": [
                {
                    "reply_content": "Ơ...Giờ thế này :1. Bước ra ngoài, đi dạo công viên, tham gia club miễn phí (nếu ko có tiền), tăng tương tác bạn bè, lên mạng học đan, móc, gốm,...đọc truyện (tiểu thuyết, truyện tranh,...), giải trí xong thì học tiếp! Đừng sợ đặt mục tiêu cao quá mà áp lực bản thân nhen. Rồi em sẽ thấy khi em muốn thứ gì và tha thiết nó, em sẽ có được nó.2. Hocmoon tiết ra lúc bạn tự làm đau bản thân có tác dụng gây nghiện, do vậy dừng việc đó lại càng sớm càng tốt, sau này tìm đc người dám nắm bàn tay ấy và hỏi “em đã trải qua những gì” thì cũng ko phải tủi thân hay e ngại ;))3. Làm đẹp: ra chợ mua củ khoai tây về luộc lên, nghiền với sữa tươi ko đường hay vắt tí chanh, để tủ lạnh, tối rửa sạch mặt đắp lên thư giãn. Lúc nhắm mắt lại hãy nhớ về nụ cười của TẤT CẢ mọi người mình từng gặp (ca sĩ, bà bán trái cây,...) và nghĩ trong đầu “yêu thương bản thân”, tha thứ, và nhớ lại những lúc bản thân mình vui vẻ nhất. Đắp 2-3 lần/tuần, sau 2 tuần da dẻ đều màu đẹp hơn sẽ thấy yêu đời yêu mình hơn nà.4. Uống nhiều nước: khát nước sẽ gây ra đau đầu và cáu gắt, do vậy lúc nào thấy sắp bùng nổ thì mình đi ún nc lọc rồi thở đều.Và nghĩ “sống đến từng này rồi, có đếch gì mà ko sống tiếp được chứ!!”Em còn trẻ, còn dông dài, gia đình còn cần em, chồng tương lai còn đang mải miết vì em, rồi em sẽ vượt qua và thư giãn và mỉm cười, tin chị đi và đừng bỏ cuộc nhé! "
                }
            ]
        },
        {
            "parent_comment": {
                "parent_content": " Em muốn nói chuyện với bạn về chuyện này nhưng thấy sợ lắm ạ, để viết ra những dòng này em cũng đã phải suy nghĩ rất nhiều"
            },
            "replies": [
                {
                    "reply_content": "Ơ...Giờ thế này :1. Bước ra ngoài, đi dạo công viên, tham gia club miễn phí (nếu ko có tiền), tăng tương tác bạn bè, lên mạng học đan, móc, gốm,...đọc truyện (tiểu thuyết, truyện tranh,...), giải trí xong thì học tiếp! Đừng sợ đặt mục tiêu cao quá mà áp lực bản thân nhen. Rồi em sẽ thấy khi em muốn thứ gì và tha thiết nó, em sẽ có được nó.2. Hocmoon tiết ra lúc bạn tự làm đau bản thân có tác dụng gây nghiện, do vậy dừng việc đó lại càng sớm càng tốt, sau này tìm đc người dám nắm bàn tay ấy và hỏi “em đã trải qua những gì” thì cũng ko phải tủi thân hay e ngại ;))3. Làm đẹp: ra chợ mua củ khoai tây về luộc lên, nghiền với sữa tươi ko đường hay vắt tí chanh, để tủ lạnh, tối rửa sạch mặt đắp lên thư giãn. Lúc nhắm mắt lại hãy nhớ về nụ cười của TẤT CẢ mọi người mình từng gặp (ca sĩ, bà bán trái cây,...) và nghĩ trong đầu “yêu thương bản thân”, tha thứ, và nhớ lại những lúc bản thân mình vui vẻ nhất. Đắp 2-3 lần/tuần, sau 2 tuần da dẻ đều màu đẹp hơn sẽ thấy yêu đời yêu mình hơn nà.4. Uống nhiều nước: khát nước sẽ gây ra đau đầu và cáu gắt, do vậy lúc nào thấy sắp bùng nổ thì mình đi ún nc lọc rồi thở đều.Và nghĩ “sống đến từng này rồi, có đếch gì mà ko sống tiếp được chứ!!”Em còn trẻ, còn dông dài, gia đình còn cần em, chồng tương lai còn đang mải miết vì em, rồi em sẽ vượt qua và thư giãn và mỉm cười, tin chị đi và đừng bỏ cuộc nhé! "
                }
            ]
        },
        {
            "parent_comment": {
                "parent_content": "Hai ngày nay em bắt đầu cứa những vết cắt nhỏ lên tay, có kì lạ không nếu em thấy những vết đó đẹp rồi bật cười và khóc như một người điên ạ? "
            },
            "replies": [
                {
                    "reply_content": "Có lẽ e đang gặp vấn đề về giá trị của bản thân mình, e à đôi khi chỉ một nụ cười của e cũng làm bừng sáng một ngày của ai đó, sự hiện diện của e cũng làm ấm áp cõi lòng ai,...Chỉ muốn nói là mỗi người chúng ta đều có giá trị riêng của bản thân mình. Chính e đang quay lưng lại với bản thân mình nên mới cảm nhận như cả thế giới cũng như vậy đấy. E hãy ngồi xuống và nói chuyện với bản thân mình như một người bạn thân, đứa bạn ấy giờ như một đứa trẻ  tràn đầy nỗi sợ, vết thương, thèm khát sự yêu thương của mọi người,... hãy vỗ về và dỗ nó, hỏi nó xem là c đang sợ gì thế ? Kể với tớ đi ? C đừng  làm vậy với bản thân vậy nữa, t thấy đau lòng lắm?,... hãy trao cho nó những quan tâm, yêu thương vô điều kiện như tình cảm một người mẹ, ng chị, ng bạn... Đằng sau nỗi sợ luôn là sự kì vọng, đừng áp lực lên bản thân quá e nhé, nuông chiều bản thân tí cho nó làm những điều mình thích,.. nó sẽ vui vẻ lên ngay ấy mà. Ngoài ra thì tập thể dục, chơi môn thể thao nào đó luôn rất hữu ích cho cả thân thể lẫn tinh thần e nhé( còn gì sảng khoái hơn cốc nước mát sau 3 vòng chạy mồ hôi nhễ nhãi chứ :))), và âm nhạc nữa,những bài hát xuất phát từ trái tim và cũng sẽ chạm đến trái tim ... e nghe thử bài Talk to me, This is home của Cavetown nhé, khi nào cần động lực tí thì nghe nhạc của Alessia Cara, Sia,...Cuối cùng chị chỉ muốn nói là dù thế nào đi nữa e cũng đừng chết, chỉ cần còn sống thì dù khó khăn thế nào thì e sẽ đều vượt qua được mà, cả những điều tuyệt đẹp phía trước mà e còn chưa thấy nữa, đáng tiếc lắm. Cố lên e nhé !"
                }
            ]
        },
        {
            "parent_comment": {
                "parent_content": "Trước giờ em vẫn luôn gặp khó khăn với những cảm xúc của bản thân, hay suy nghĩ tiêu cực và hay khóc, em với gia đình cũng không thân thiết"
            },
            "replies": [
                {
                    "reply_content": "Có lẽ e đang gặp vấn đề về giá trị của bản thân mình, e à đôi khi chỉ một nụ cười của e cũng làm bừng sáng một ngày của ai đó, sự hiện diện của e cũng làm ấm áp cõi lòng ai,...Chỉ muốn nói là mỗi người chúng ta đều có giá trị riêng của bản thân mình. Chính e đang quay lưng lại với bản thân mình nên mới cảm nhận như cả thế giới cũng như vậy đấy. E hãy ngồi xuống và nói chuyện với bản thân mình như một người bạn thân, đứa bạn ấy giờ như một đứa trẻ  tràn đầy nỗi sợ, vết thương, thèm khát sự yêu thương của mọi người,... hãy vỗ về và dỗ nó, hỏi nó xem là c đang sợ gì thế ? Kể với tớ đi ? C đừng  làm vậy với bản thân vậy nữa, t thấy đau lòng lắm?,... hãy trao cho nó những quan tâm, yêu thương vô điều kiện như tình cảm một người mẹ, ng chị, ng bạn... Đằng sau nỗi sợ luôn là sự kì vọng, đừng áp lực lên bản thân quá e nhé, nuông chiều bản thân tí cho nó làm những điều mình thích,.. nó sẽ vui vẻ lên ngay ấy mà. Ngoài ra thì tập thể dục, chơi môn thể thao nào đó luôn rất hữu ích cho cả thân thể lẫn tinh thần e nhé( còn gì sảng khoái hơn cốc nước mát sau 3 vòng chạy mồ hôi nhễ nhãi chứ :))), và âm nhạc nữa,những bài hát xuất phát từ trái tim và cũng sẽ chạm đến trái tim ... e nghe thử bài Talk to me, This is home của Cavetown nhé, khi nào cần động lực tí thì nghe nhạc của Alessia Cara, Sia,...Cuối cùng chị chỉ muốn nói là dù thế nào đi nữa e cũng đừng chết, chỉ cần còn sống thì dù khó khăn thế nào thì e sẽ đều vượt qua được mà, cả những điều tuyệt đẹp phía trước mà e còn chưa thấy nữa, đáng tiếc lắm. Cố lên e nhé !"
                }
            ]
        },
        {
            "parent_comment": {
                "parent_content": " Em luôn cảm thấy không ai quan tâm đến mình và là gánh nặng của mọi người, em ước mình có thể biến mất"
            },
            "replies": [
                {
                    "reply_content": "Có lẽ e đang gặp vấn đề về giá trị của bản thân mình, e à đôi khi chỉ một nụ cười của e cũng làm bừng sáng một ngày của ai đó, sự hiện diện của e cũng làm ấm áp cõi lòng ai,...Chỉ muốn nói là mỗi người chúng ta đều có giá trị riêng của bản thân mình. Chính e đang quay lưng lại với bản thân mình nên mới cảm nhận như cả thế giới cũng như vậy đấy. E hãy ngồi xuống và nói chuyện với bản thân mình như một người bạn thân, đứa bạn ấy giờ như một đứa trẻ  tràn đầy nỗi sợ, vết thương, thèm khát sự yêu thương của mọi người,... hãy vỗ về và dỗ nó, hỏi nó xem là c đang sợ gì thế ? Kể với tớ đi ? C đừng  làm vậy với bản thân vậy nữa, t thấy đau lòng lắm?,... hãy trao cho nó những quan tâm, yêu thương vô điều kiện như tình cảm một người mẹ, ng chị, ng bạn... Đằng sau nỗi sợ luôn là sự kì vọng, đừng áp lực lên bản thân quá e nhé, nuông chiều bản thân tí cho nó làm những điều mình thích,.. nó sẽ vui vẻ lên ngay ấy mà. Ngoài ra thì tập thể dục, chơi môn thể thao nào đó luôn rất hữu ích cho cả thân thể lẫn tinh thần e nhé( còn gì sảng khoái hơn cốc nước mát sau 3 vòng chạy mồ hôi nhễ nhãi chứ :))), và âm nhạc nữa,những bài hát xuất phát từ trái tim và cũng sẽ chạm đến trái tim ... e nghe thử bài Talk to me, This is home của Cavetown nhé, khi nào cần động lực tí thì nghe nhạc của Alessia Cara, Sia,...Cuối cùng chị chỉ muốn nói là dù thế nào đi nữa e cũng đừng chết, chỉ cần còn sống thì dù khó khăn thế nào thì e sẽ đều vượt qua được mà, cả những điều tuyệt đẹp phía trước mà e còn chưa thấy nữa, đáng tiếc lắm. Cố lên e nhé !"
                }
            ]
        },
        {
            "parent_comment": {
                "parent_content": " Em muốn nói chuyện với bạn về chuyện này nhưng thấy sợ lắm ạ, để viết ra những dòng này em cũng đã phải suy nghĩ rất nhiều"
            },
            "replies": [
                {
                    "reply_content": "Có lẽ e đang gặp vấn đề về giá trị của bản thân mình, e à đôi khi chỉ một nụ cười của e cũng làm bừng sáng một ngày của ai đó, sự hiện diện của e cũng làm ấm áp cõi lòng ai,...Chỉ muốn nói là mỗi người chúng ta đều có giá trị riêng của bản thân mình. Chính e đang quay lưng lại với bản thân mình nên mới cảm nhận như cả thế giới cũng như vậy đấy. E hãy ngồi xuống và nói chuyện với bản thân mình như một người bạn thân, đứa bạn ấy giờ như một đứa trẻ  tràn đầy nỗi sợ, vết thương, thèm khát sự yêu thương của mọi người,... hãy vỗ về và dỗ nó, hỏi nó xem là c đang sợ gì thế ? Kể với tớ đi ? C đừng  làm vậy với bản thân vậy nữa, t thấy đau lòng lắm?,... hãy trao cho nó những quan tâm, yêu thương vô điều kiện như tình cảm một người mẹ, ng chị, ng bạn... Đằng sau nỗi sợ luôn là sự kì vọng, đừng áp lực lên bản thân quá e nhé, nuông chiều bản thân tí cho nó làm những điều mình thích,.. nó sẽ vui vẻ lên ngay ấy mà. Ngoài ra thì tập thể dục, chơi môn thể thao nào đó luôn rất hữu ích cho cả thân thể lẫn tinh thần e nhé( còn gì sảng khoái hơn cốc nước mát sau 3 vòng chạy mồ hôi nhễ nhãi chứ :))), và âm nhạc nữa,những bài hát xuất phát từ trái tim và cũng sẽ chạm đến trái tim ... e nghe thử bài Talk to me, This is home của Cavetown nhé, khi nào cần động lực tí thì nghe nhạc của Alessia Cara, Sia,...Cuối cùng chị chỉ muốn nói là dù thế nào đi nữa e cũng đừng chết, chỉ cần còn sống thì dù khó khăn thế nào thì e sẽ đều vượt qua được mà, cả những điều tuyệt đẹp phía trước mà e còn chưa thấy nữa, đáng tiếc lắm. Cố lên e nhé !"
                }
            ]
        },
        {
            "parent_comment": {
                "parent_content": "Hai ngày nay em bắt đầu cứa những vết cắt nhỏ lên tay, có kì lạ không nếu em thấy những vết đó đẹp rồi bật cười và khóc như một người điên ạ? "
            },
            "replies": [
                {
                    "reply_content": "Cố lên bạn ơi"
                }
            ]
        },
        {
            "parent_comment": {
                "parent_content": "Trước giờ em vẫn luôn gặp khó khăn với những cảm xúc của bản thân, hay suy nghĩ tiêu cực và hay khóc, em với gia đình cũng không thân thiết"
            },
            "replies": [
                {
                    "reply_content": "Cố lên bạn ơi"
                }
            ]
        },
        {
            "parent_comment": {
                "parent_content": " Em luôn cảm thấy không ai quan tâm đến mình và là gánh nặng của mọi người, em ước mình có thể biến mất"
            },
            "replies": [
                {
                    "reply_content": "Cố lên bạn ơi"
                }
            ]
        },
        {
            "parent_comment": {
                "parent_content": " Em muốn nói chuyện với bạn về chuyện này nhưng thấy sợ lắm ạ, để viết ra những dòng này em cũng đã phải suy nghĩ rất nhiều"
            },
            "replies": [
                {
                    "reply_content": "Cố lên bạn ơi"
                }
            ]
        },
        {
            "parent_comment": {
                "parent_content": "Hai ngày nay em bắt đầu cứa những vết cắt nhỏ lên tay, có kì lạ không nếu em thấy những vết đó đẹp rồi bật cười và khóc như một người điên ạ? "
            },
            "replies": [
                {
                    "reply_content": "thật ra vết cắt đó chẳng phải gì bạn lưu luyến hay cho bạn cảm giác tồn tại, mà nó là gì thì chỉ có bạn ở tương lai nhìn lại chính bản thể kí ức lúc này mới tự nhận xét tự mình cười tự mình khóc tự mình cố lên hay gục ngã . À tôi chỉ muốn cho bạn xem anime này thôi á, chẳng phải nó là thứ gì độc hại , cũng có thể xem nó sẽ làm bạn tốn thời gian cho việc học và thấy áp lực hơn, nhưng đây chỉ là mong muốn của tôi dành cho bạn, mong muốn bạn xem bộ anime đó vì tôi, chứ không phải vì bạn , vì vậy bạn sẵn lòng xem nó ? ( or bạn ghét anime thì tui cũng chịu luôn nah  )https://animehay.tv/.../wonder-egg-priority-tap-1-e95935...xem đi và level up nào , dù nó xấu hay tốt "
                }
            ]
        },
        {
            "parent_comment": {
                "parent_content": "Trước giờ em vẫn luôn gặp khó khăn với những cảm xúc của bản thân, hay suy nghĩ tiêu cực và hay khóc, em với gia đình cũng không thân thiết"
            },
            "replies": [
                {
                    "reply_content": "thật ra vết cắt đó chẳng phải gì bạn lưu luyến hay cho bạn cảm giác tồn tại, mà nó là gì thì chỉ có bạn ở tương lai nhìn lại chính bản thể kí ức lúc này mới tự nhận xét tự mình cười tự mình khóc tự mình cố lên hay gục ngã . À tôi chỉ muốn cho bạn xem anime này thôi á, chẳng phải nó là thứ gì độc hại , cũng có thể xem nó sẽ làm bạn tốn thời gian cho việc học và thấy áp lực hơn, nhưng đây chỉ là mong muốn của tôi dành cho bạn, mong muốn bạn xem bộ anime đó vì tôi, chứ không phải vì bạn , vì vậy bạn sẵn lòng xem nó ? ( or bạn ghét anime thì tui cũng chịu luôn nah  )https://animehay.tv/.../wonder-egg-priority-tap-1-e95935...xem đi và level up nào , dù nó xấu hay tốt "
                }
            ]
        },
        {
            "parent_comment": {
                "parent_content": " Em luôn cảm thấy không ai quan tâm đến mình và là gánh nặng của mọi người, em ước mình có thể biến mất"
            },
            "replies": [
                {
                    "reply_content": "thật ra vết cắt đó chẳng phải gì bạn lưu luyến hay cho bạn cảm giác tồn tại, mà nó là gì thì chỉ có bạn ở tương lai nhìn lại chính bản thể kí ức lúc này mới tự nhận xét tự mình cười tự mình khóc tự mình cố lên hay gục ngã . À tôi chỉ muốn cho bạn xem anime này thôi á, chẳng phải nó là thứ gì độc hại , cũng có thể xem nó sẽ làm bạn tốn thời gian cho việc học và thấy áp lực hơn, nhưng đây chỉ là mong muốn của tôi dành cho bạn, mong muốn bạn xem bộ anime đó vì tôi, chứ không phải vì bạn , vì vậy bạn sẵn lòng xem nó ? ( or bạn ghét anime thì tui cũng chịu luôn nah  )https://animehay.tv/.../wonder-egg-priority-tap-1-e95935...xem đi và level up nào , dù nó xấu hay tốt "
                }
            ]
        },
        {
            "parent_comment": {
                "parent_content": " Em muốn nói chuyện với bạn về chuyện này nhưng thấy sợ lắm ạ, để viết ra những dòng này em cũng đã phải suy nghĩ rất nhiều"
            },
            "replies": [
                {
                    "reply_content": "thật ra vết cắt đó chẳng phải gì bạn lưu luyến hay cho bạn cảm giác tồn tại, mà nó là gì thì chỉ có bạn ở tương lai nhìn lại chính bản thể kí ức lúc này mới tự nhận xét tự mình cười tự mình khóc tự mình cố lên hay gục ngã . À tôi chỉ muốn cho bạn xem anime này thôi á, chẳng phải nó là thứ gì độc hại , cũng có thể xem nó sẽ làm bạn tốn thời gian cho việc học và thấy áp lực hơn, nhưng đây chỉ là mong muốn của tôi dành cho bạn, mong muốn bạn xem bộ anime đó vì tôi, chứ không phải vì bạn , vì vậy bạn sẵn lòng xem nó ? ( or bạn ghét anime thì tui cũng chịu luôn nah  )https://animehay.tv/.../wonder-egg-priority-tap-1-e95935...xem đi và level up nào , dù nó xấu hay tốt "
                }
            ]
        },
        {
            "parent_comment": {
                "parent_content": "Hai ngày nay em bắt đầu cứa những vết cắt nhỏ lên tay, có kì lạ không nếu em thấy những vết đó đẹp rồi bật cười và khóc như một người điên ạ? "
            },
            "replies": [
                {
                    "reply_content": "Đừng ở một mình bạn nhé. Nhưng lúc thế này càng đến chỗ đông người ngoài quán cafe nào dễ thương 1 chút or quán cafe vẻ hè cũng được cứ ngồi đó và quan sát mọi người và không nghĩ gì nữa, cứ để mọi thứ tự nhiên. Vết thương cơ thể có thể giúp bạn giảm đau tức thời nhưng đó không phải là một cách tốt, nó chỉ càng làm bạn lún sâu thêm thôi. Or bạn có thể mở Radio Nâng dậy tâm hồn của thầy Minh Niệm bạn sẽ luôn cảm thấy có một người đồng hành bên mình nè."
                }
            ]
        },
        {
            "parent_comment": {
                "parent_content": "Trước giờ em vẫn luôn gặp khó khăn với những cảm xúc của bản thân, hay suy nghĩ tiêu cực và hay khóc, em với gia đình cũng không thân thiết"
            },
            "replies": [
                {
                    "reply_content": "Đừng ở một mình bạn nhé. Nhưng lúc thế này càng đến chỗ đông người ngoài quán cafe nào dễ thương 1 chút or quán cafe vẻ hè cũng được cứ ngồi đó và quan sát mọi người và không nghĩ gì nữa, cứ để mọi thứ tự nhiên. Vết thương cơ thể có thể giúp bạn giảm đau tức thời nhưng đó không phải là một cách tốt, nó chỉ càng làm bạn lún sâu thêm thôi. Or bạn có thể mở Radio Nâng dậy tâm hồn của thầy Minh Niệm bạn sẽ luôn cảm thấy có một người đồng hành bên mình nè."
                }
            ]
        },
        {
            "parent_comment": {
                "parent_content": " Em luôn cảm thấy không ai quan tâm đến mình và là gánh nặng của mọi người, em ước mình có thể biến mất"
            },
            "replies": [
                {
                    "reply_content": "Đừng ở một mình bạn nhé. Nhưng lúc thế này càng đến chỗ đông người ngoài quán cafe nào dễ thương 1 chút or quán cafe vẻ hè cũng được cứ ngồi đó và quan sát mọi người và không nghĩ gì nữa, cứ để mọi thứ tự nhiên. Vết thương cơ thể có thể giúp bạn giảm đau tức thời nhưng đó không phải là một cách tốt, nó chỉ càng làm bạn lún sâu thêm thôi. Or bạn có thể mở Radio Nâng dậy tâm hồn của thầy Minh Niệm bạn sẽ luôn cảm thấy có một người đồng hành bên mình nè."
                }
            ]
        },
        {
            "parent_comment": {
                "parent_content": " Em muốn nói chuyện với bạn về chuyện này nhưng thấy sợ lắm ạ, để viết ra những dòng này em cũng đã phải suy nghĩ rất nhiều"
            },
            "replies": [
                {
                    "reply_content": "Đừng ở một mình bạn nhé. Nhưng lúc thế này càng đến chỗ đông người ngoài quán cafe nào dễ thương 1 chút or quán cafe vẻ hè cũng được cứ ngồi đó và quan sát mọi người và không nghĩ gì nữa, cứ để mọi thứ tự nhiên. Vết thương cơ thể có thể giúp bạn giảm đau tức thời nhưng đó không phải là một cách tốt, nó chỉ càng làm bạn lún sâu thêm thôi. Or bạn có thể mở Radio Nâng dậy tâm hồn của thầy Minh Niệm bạn sẽ luôn cảm thấy có một người đồng hành bên mình nè."
                }
            ]
        },
        {
            "parent_comment": {
                "parent_content": "Hai ngày nay em bắt đầu cứa những vết cắt nhỏ lên tay, có kì lạ không nếu em thấy những vết đó đẹp rồi bật cười và khóc như một người điên ạ? "
            },
            "replies": [
                {
                    "reply_content": "Nếu em cần có ai để tâm sự hoặc nói hết nỗi lòng của mình thì chị luôn ở đây, tuy rằng mình không biết nhau, nhưng nếu em cần một chỗ dựa thì rep cmt chị nhé, hi vọng những lời này có thể giúp được em"
                }
            ]
        },
        {
            "parent_comment": {
                "parent_content": "Trước giờ em vẫn luôn gặp khó khăn với những cảm xúc của bản thân, hay suy nghĩ tiêu cực và hay khóc, em với gia đình cũng không thân thiết"
            },
            "replies": [
                {
                    "reply_content": "Nếu em cần có ai để tâm sự hoặc nói hết nỗi lòng của mình thì chị luôn ở đây, tuy rằng mình không biết nhau, nhưng nếu em cần một chỗ dựa thì rep cmt chị nhé, hi vọng những lời này có thể giúp được em"
                }
            ]
        },
        {
            "parent_comment": {
                "parent_content": " Em luôn cảm thấy không ai quan tâm đến mình và là gánh nặng của mọi người, em ước mình có thể biến mất"
            },
            "replies": [
                {
                    "reply_content": "Nếu em cần có ai để tâm sự hoặc nói hết nỗi lòng của mình thì chị luôn ở đây, tuy rằng mình không biết nhau, nhưng nếu em cần một chỗ dựa thì rep cmt chị nhé, hi vọng những lời này có thể giúp được em"
                }
            ]
        },
        {
            "parent_comment": {
                "parent_content": " Em muốn nói chuyện với bạn về chuyện này nhưng thấy sợ lắm ạ, để viết ra những dòng này em cũng đã phải suy nghĩ rất nhiều"
            },
            "replies": [
                {
                    "reply_content": "Nếu em cần có ai để tâm sự hoặc nói hết nỗi lòng của mình thì chị luôn ở đây, tuy rằng mình không biết nhau, nhưng nếu em cần một chỗ dựa thì rep cmt chị nhé, hi vọng những lời này có thể giúp được em"
                }
            ]
        },
        {
            "parent_comment": {
                "parent_content": "Hai ngày nay em bắt đầu cứa những vết cắt nhỏ lên tay, có kì lạ không nếu em thấy những vết đó đẹp rồi bật cười và khóc như một người điên ạ? "
            },
            "replies": [
                {
                    "reply_content": "Thật lạ nhỉ, trong khi mình lại muốn không ai quan tâm tới mình, mỗi khi có người quan tâm chú ý đến lại cảm thấy buồn, áp lực nhể"
                }
            ]
        },
        {
            "parent_comment": {
                "parent_content": "Trước giờ em vẫn luôn gặp khó khăn với những cảm xúc của bản thân, hay suy nghĩ tiêu cực và hay khóc, em với gia đình cũng không thân thiết"
            },
            "replies": [
                {
                    "reply_content": "Thật lạ nhỉ, trong khi mình lại muốn không ai quan tâm tới mình, mỗi khi có người quan tâm chú ý đến lại cảm thấy buồn, áp lực nhể"
                }
            ]
        },
        {
            "parent_comment": {
                "parent_content": " Em luôn cảm thấy không ai quan tâm đến mình và là gánh nặng của mọi người, em ước mình có thể biến mất"
            },
            "replies": [
                {
                    "reply_content": "Thật lạ nhỉ, trong khi mình lại muốn không ai quan tâm tới mình, mỗi khi có người quan tâm chú ý đến lại cảm thấy buồn, áp lực nhể"
                }
            ]
        },
        {
            "parent_comment": {
                "parent_content": " Em muốn nói chuyện với bạn về chuyện này nhưng thấy sợ lắm ạ, để viết ra những dòng này em cũng đã phải suy nghĩ rất nhiều"
            },
            "replies": [
                {
                    "reply_content": "Thật lạ nhỉ, trong khi mình lại muốn không ai quan tâm tới mình, mỗi khi có người quan tâm chú ý đến lại cảm thấy buồn, áp lực nhể"
                }
            ]
        },
        {
            "parent_comment": {
                "parent_content": "Hai ngày nay em bắt đầu cứa những vết cắt nhỏ lên tay, có kì lạ không nếu em thấy những vết đó đẹp rồi bật cười và khóc như một người điên ạ? "
            },
            "replies": [
                {
                    "reply_content": " thấy tội lỗi quá, trước giờ mình cứ coi thường bệnh tâm lý và coi những ng mắc là yếu đuối. Ai ngờ đến lúc mình dính 1 loạt stress liên tục thì mới hiểu được. Cố lên bạn ơi tuổi còn trẻ đừng lãng phí "
                }
            ]
        },
        {
            "parent_comment": {
                "parent_content": "Trước giờ em vẫn luôn gặp khó khăn với những cảm xúc của bản thân, hay suy nghĩ tiêu cực và hay khóc, em với gia đình cũng không thân thiết"
            },
            "replies": [
                {
                    "reply_content": " thấy tội lỗi quá, trước giờ mình cứ coi thường bệnh tâm lý và coi những ng mắc là yếu đuối. Ai ngờ đến lúc mình dính 1 loạt stress liên tục thì mới hiểu được. Cố lên bạn ơi tuổi còn trẻ đừng lãng phí "
                }
            ]
        },
        {
            "parent_comment": {
                "parent_content": " Em luôn cảm thấy không ai quan tâm đến mình và là gánh nặng của mọi người, em ước mình có thể biến mất"
            },
            "replies": [
                {
                    "reply_content": " thấy tội lỗi quá, trước giờ mình cứ coi thường bệnh tâm lý và coi những ng mắc là yếu đuối. Ai ngờ đến lúc mình dính 1 loạt stress liên tục thì mới hiểu được. Cố lên bạn ơi tuổi còn trẻ đừng lãng phí "
                }
            ]
        },
        {
            "parent_comment": {
                "parent_content": " Em muốn nói chuyện với bạn về chuyện này nhưng thấy sợ lắm ạ, để viết ra những dòng này em cũng đã phải suy nghĩ rất nhiều"
            },
            "replies": [
                {
                    "reply_content": " thấy tội lỗi quá, trước giờ mình cứ coi thường bệnh tâm lý và coi những ng mắc là yếu đuối. Ai ngờ đến lúc mình dính 1 loạt stress liên tục thì mới hiểu được. Cố lên bạn ơi tuổi còn trẻ đừng lãng phí "
                }
            ]
        },
        {
            "parent_comment": {
                "parent_content": "Hai ngày nay em bắt đầu cứa những vết cắt nhỏ lên tay, có kì lạ không nếu em thấy những vết đó đẹp rồi bật cười và khóc như một người điên ạ? "
            },
            "replies": [
                {
                    "reply_content": "Cảm ơn mọi người rất nhiều vì đã dành những lời động viên tốt đẹp đến em, và cũng xin lỗi vì đã mang điều tiêu cực đến cho mọi người. Em sẽ cố gắng ạ."
                }
            ]
        },
        {
            "parent_comment": {
                "parent_content": "Trước giờ em vẫn luôn gặp khó khăn với những cảm xúc của bản thân, hay suy nghĩ tiêu cực và hay khóc, em với gia đình cũng không thân thiết"
            },
            "replies": [
                {
                    "reply_content": "Cảm ơn mọi người rất nhiều vì đã dành những lời động viên tốt đẹp đến em, và cũng xin lỗi vì đã mang điều tiêu cực đến cho mọi người. Em sẽ cố gắng ạ."
                }
            ]
        },
        {
            "parent_comment": {
                "parent_content": " Em luôn cảm thấy không ai quan tâm đến mình và là gánh nặng của mọi người, em ước mình có thể biến mất"
            },
            "replies": [
                {
                    "reply_content": "Cảm ơn mọi người rất nhiều vì đã dành những lời động viên tốt đẹp đến em, và cũng xin lỗi vì đã mang điều tiêu cực đến cho mọi người. Em sẽ cố gắng ạ."
                }
            ]
        },
        {
            "parent_comment": {
                "parent_content": " Em muốn nói chuyện với bạn về chuyện này nhưng thấy sợ lắm ạ, để viết ra những dòng này em cũng đã phải suy nghĩ rất nhiều"
            },
            "replies": [
                {
                    "reply_content": "Cảm ơn mọi người rất nhiều vì đã dành những lời động viên tốt đẹp đến em, và cũng xin lỗi vì đã mang điều tiêu cực đến cho mọi người. Em sẽ cố gắng ạ."
                }
            ]
        }
    ]
}