{
    "post": "1000463620486133",
    "link": "https://facebook.com/groups/371004360098732/permalink/1000463620486133",
    "post_comments": [
        {
            "parent_comment": {
                "parent_content": " Mình thật sự rất cô đơn thế nên mình muốn tìm một bạn nữ cùng tìm hiểu cùng vượt qua chứng trầm cảm "
            },
            "replies": [
                {
                    "reply_content": "Nếu bạn cần ai tâm sự thì cứ inbox với mình nhé. Mình cũng mắc trầm cảm nặng 6-7 năm rồi"
                }
            ]
        },
        {
            "parent_comment": {
                "parent_content": " Mình thật sự rất cô đơn thế nên mình muốn tìm một bạn nữ cùng tìm hiểu cùng vượt qua chứng trầm cảm "
            },
            "replies": [
                {
                    "reply_content": "Có thể ib cho mình nếu bạn cần ai đó tâm sự"
                }
            ]
        },
        {
            "parent_comment": {
                "parent_content": " Mình thật sự rất cô đơn thế nên mình muốn tìm một bạn nữ cùng tìm hiểu cùng vượt qua chứng trầm cảm "
            },
            "replies": [
                {
                    "reply_content": "Đây, mình nè b ơi"
                }
            ]
        },
        {
            "parent_comment": {
                "parent_content": " Mình thật sự rất cô đơn thế nên mình muốn tìm một bạn nữ cùng tìm hiểu cùng vượt qua chứng trầm cảm "
            },
            "replies": [
                {
                    "reply_content": "Bạn giống i như mình. Chỉ khác mình may mắn vượt qua được bệnh này trong khoảng 2 tháng. Nếu bạn cần mình sẵn sàng lắng nghe."
                }
            ]
        },
        {
            "parent_comment": {
                "parent_content": " Mình thật sự rất cô đơn thế nên mình muốn tìm một bạn nữ cùng tìm hiểu cùng vượt qua chứng trầm cảm "
            },
            "replies": [
                {
                    "reply_content": "Sao không phải là nam??"
                }
            ]
        },
        {
            "parent_comment": {
                "parent_content": " Mình thật sự rất cô đơn thế nên mình muốn tìm một bạn nữ cùng tìm hiểu cùng vượt qua chứng trầm cảm "
            },
            "replies": [
                {
                    "reply_content": "Cảm ơn mọi người  nhiều lắm . "
                }
            ]
        },
        {
            "parent_comment": {
                "parent_content": " Mình thật sự rất cô đơn thế nên mình muốn tìm một bạn nữ cùng tìm hiểu cùng vượt qua chứng trầm cảm "
            },
            "replies": [
                {
                    "reply_content": "sao lại là nữ nhỉ? "
                }
            ]
        }
    ]
}