{
    "post": "2940851249571089",
    "link": "https://facebook.com/groups/2673981529591397/permalink/2940851249571089",
    "post_comments": [
        {
            "parent_comment": {
                "parent_user": "Sang Trần",
                "parent_content": "Trang Trang 2 đứa mình ngược lại."
            },
            "replies": [
                {
                    "reply_user": "Trang Trang",
                    "reply_content": " tiểu sử ảnh bìa? Đâu ra bạn"
                },
                {
                    "reply_user": "Sang Trần",
                    "reply_content": " mún giấu cho em thui"
                }
            ]
        },
        {
            "parent_comment": {
                "parent_user": "Nguyễn Nhã Thuỳ Linh",
                "parent_content": "Sal mà ngu v :)) ??? Theo mình nghĩ con gái k nên làm vậy :))"
            },
            "replies": [
                {
                    "reply_user": "Huỳnh Trọng Nghĩa",
                    "reply_content": " ồ vậy hả chảnh  "
                },
                {
                    "reply_user": "Nguyễn Nhã Thuỳ Linh",
                    "reply_content": " anh nói lại cho tui coi "
                }
            ]
        },
        {
            "parent_comment": {
                "parent_user": "Ngân Nguyễn",
                "parent_content": "Mai Hương Giangg"
            },
            "replies": [
                {
                    "reply_user": "Mai Hương Giangg",
                    "reply_content": " bbi0bun"
                },
                {
                    "reply_user": "Ngân Nguyễn",
                    "reply_content": " dzị ó hỏ"
                },
                {
                    "reply_user": "Mai Hương Giangg",
                    "reply_content": " im đi con lôz kẹp ham bơ gơ"
                },
                {
                    "reply_user": "Ngân Nguyễn",
                    "reply_content": " :)))"
                }
            ]
        }
    ]
}