{
    "post": "2943532662636281",
    "link": "https://facebook.com/groups/2673981529591397/permalink/2943532662636281",
    "post_comments": [
        {
            "parent_comment": {
                "parent_user": "Khoa Lê",
                "parent_content": "Nhi Lê "
            },
            "replies": [
                {
                    "reply_user": "Nhi Lê",
                    "reply_content": " z á hã"
                },
                {
                    "reply_user": "Khoa Lê",
                    "reply_content": " đúng rồi"
                }
            ]
        },
        {
            "parent_comment": {
                "parent_user": " Lâm Nguyễn ",
                "parent_content": "Nhựt Ánh hôm nay có ... "
            },
            "replies": [
                {
                    "reply_user": "Nhựt Ánh",
                    "reply_content": "Lâm Nguyễn  hôm nay em nói ít quá mà "
                },
                {
                    "reply_user": " Lâm Nguyễn ",
                    "reply_content": "  em nói có nhiu đâu vòng thêm mấy vong nữa thoy "
                }
            ]
        },
        {
            "parent_comment": {
                "parent_user": "Thùy Trang",
                "parent_content": "thích cảm giác này"
            },
            "replies": [
                {
                    "reply_user": "Minh Tuấn",
                    "reply_content": " giống anh ônnn "
                },
                {
                    "reply_user": "Thùy Trang",
                    "reply_content": " giống sương sương thôi nha "
                }
            ]
        },
        {
            "parent_comment": {
                "parent_user": "Hoàng Long",
                "parent_content": "Em khum nói "
            },
            "replies": [
                {
                    "reply_user": "Trần Diễm Quỳnh",
                    "reply_content": " có gì đâu mà nói "
                },
                {
                    "reply_user": "Hoàng Long",
                    "reply_content": "  nghĩ buồn"
                }
            ]
        },
        {
            "parent_comment": {
                "parent_user": "Dii Anh",
                "parent_content": "Nguyen Hong Thi  :333"
            },
            "replies": [
                {
                    "reply_user": "Nguyen Hong Thi",
                    "reply_content": " do than kinhhh"
                },
                {
                    "reply_user": "Dii Anh",
                    "reply_content": " hí hí"
                },
                {
                    "reply_user": "Nguyen Hong Thi",
                    "reply_content": " riet rui dien rui"
                },
                {
                    "reply_user": "Dii Anh",
                    "reply_content": " có đâu tr :33"
                },
                {
                    "reply_user": "Nguyen Hong Thi",
                    "reply_content": " ko co ma z a"
                },
                {
                    "reply_user": "Dii Anh",
                    "reply_content": " mà dui á :333"
                },
                {
                    "reply_user": "Nguyen Hong Thi",
                    "reply_content": " boi z moi khum a"
                },
                {
                    "reply_user": "Dii Anh",
                    "reply_content": " mà vẫn yêu emmmmm "
                },
                {
                    "reply_user": "Nguyen Hong Thi",
                    "reply_content": " khummm"
                },
                {
                    "reply_user": "Dii Anh",
                    "reply_content": " :33 yêu e"
                }
            ]
        },
        {
            "parent_comment": {
                "parent_user": "Hồ Nguyễn Sỹ Công",
                "parent_content": "Lê Thị Thúy Hằng mong bị nghe kể"
            },
            "replies": [
                {
                    "reply_user": "Lê Thị Thúy Hằng",
                    "reply_content": " bị nghe đầu a á"
                },
                {
                    "reply_user": "Hồ Nguyễn Sỹ Công",
                    "reply_content": " "
                }
            ]
        },
        {
            "parent_comment": {
                "parent_user": "Thai Nguyet",
                "parent_content": "Hi"
            },
            "replies": [
                {
                    "reply_user": "Truc Huynh",
                    "reply_content": " mệt "
                },
                {
                    "reply_user": "Thai Nguyet",
                    "reply_content": " cc"
                }
            ]
        }
    ]
}