{
    "post": "375367820125206",
    "link": "https://facebook.com/groups/Emlanguoitotnhatthegian/permalink/375367820125206",
    "post_comments": [
        {
            "parent_comment": {
                "parent_user": "Mtuan Nguyen",
                "parent_content": "Con bé xin 10k card mà ông bơm hẳn 200k thì đích thị ông là simp!"
            },
            "replies": [
                {
                    "reply_user": "Vũ Phan Tuấn Bảo",
                    "reply_content": " oan quá  tui bị lẻ số dư đó huhu "
                },
                {
                    "reply_user": "Mtuan Nguyen",
                    "reply_content": " nói chứ 2021 rồi ai cũng là simp thôi, nhưng mà nếu con bé vẫn liên lạc với ông sau khi tỏ tình thì sure kèo sau này đấy "
                }
            ]
        },
        {
            "parent_comment": {
                "parent_user": "Pham Phuong Anh",
                "parent_content": "Á đù tt cao quá"
            },
            "replies": [
                {
                    "reply_user": "Vũ Phan Tuấn Bảo",
                    "reply_content": " không nghĩ nhiều chữ vậy mà mọi người vẫn đọc luôn haha =))))) "
                },
                {
                    "reply_user": "Pham Phuong Anh",
                    "reply_content": "  tui hong đọc hihi"
                }
            ]
        },
        {
            "parent_comment": {
                "parent_user": "Pham Phuong Anh",
                "parent_content": "Kang Kang bài này lượt tt khủng vl á anh :)) nhiều like hơn bài anh ghim nữa"
            },
            "replies": [
                {
                    "reply_user": "Kang Kang",
                    "reply_content": " pùns"
                }
            ]
        }
    ]
}