{
    "post": "377376676590987",
    "link": "https://facebook.com/groups/Emlanguoitotnhatthegian/permalink/377376676590987",
    "post_comments": [
        {
            "parent_comment": {
                "parent_user": "Jin Lê",
                "parent_content": " quay đầu là bờ nên thay đổi đi em ạ"
            },
            "replies": [
                {
                    "reply_user": "Nguyễn Thị Lan Anh",
                    "reply_content": " em cảm ơn"
                }
            ]
        }
    ]
}