{
    "post": "377232179938770",
    "link": "https://facebook.com/groups/Emlanguoitotnhatthegian/permalink/377232179938770",
    "post_comments": [
        {
            "parent_comment": {
                "parent_user": "Nguyen Van Trung",
                "parent_content": "Đừng buồn nữa vui lên là được "
            },
            "replies": [
                {
                    "reply_user": "Huyền",
                    "reply_content": " bro nói câu đó , mình có ý chí hẳn luôn =))))"
                },
                {
                    "reply_user": "Nguyen Van Trung",
                    "reply_content": "Thôi thì như này :vv"
                }
            ]
        },
        {
            "parent_comment": {
                "parent_user": "Uyên Phương",
                "parent_content": "Đừng rưng rưng nữa. Dồn hết lại rồi khóc nhiều vào. Khóc tới khi nào thấy bản thân ko còn khóc được nữa và cảm thấy sự rỗng tuết trong tâm trí, từ đó cậu ko còn khóc vặt nữa."
            },
            "replies": [
                {
                    "reply_user": "Huyền",
                    "reply_content": " muốn làm như vậy lắm nhma khóc ở nhà thì nhà có đông người , nếu khi khóc thì khóc không ra tiếng , còn ở ngoài như trường học thì kiểu chỉ rưng rưng , nếu có ai hỏi là nói buồn ngủ nên z  chứ không dám khóc to "
                },
                {
                    "reply_user": "Uyên Phương",
                    "reply_content": " nhà tắm là 1 suggest. Ờmm cứ bật nước lên r khóc thôi đừng hú hét là dc"
                }
            ]
        },
        {
            "parent_comment": {
                "parent_user": "Đỗ Thảo Duyên",
                "parent_content": "mình cũng bị vậy mà k biết làm như nào nữa "
            },
            "replies": [
                {
                    "reply_user": "Huyền",
                    "reply_content": " ngàn lần em yếu đúi ~~~"
                }
            ]
        },
        {
            "parent_comment": {
                "parent_user": "Trinh Yêu Winston",
                "parent_content": "Ừ, quát 1 chút là rưng rưng rồi  bữa bị crush quát 1 phát xong tôi bảo \"m quát tao cái nữa tao khóc cho m xem\" nó không tin, nó quát thêm cái nữa tôi khóc cho nó xem thiệt :)) rồi nó ngồi dỗ :))"
            },
            "replies": [
                {
                    "reply_user": "Việt Linh",
                    "reply_content": " đáng eo"
                }
            ]
        }
    ]
}