{
    "post": "373061500355838",
    "link": "https://facebook.com/groups/Emlanguoitotnhatthegian/permalink/373061500355838",
    "post_comments": [
        {
            "parent_comment": {
                "parent_user": "Nguyễn Hiển",
                "parent_content": "Hù..... "
            },
            "replies": [
                {
                    "reply_user": "Hoàng Như",
                    "reply_content": " Giả bộ hết hồn "
                }
            ]
        },
        {
            "parent_comment": {
                "parent_user": "Yến Huỳnh",
                "parent_content": "Người nói ra được câu đó mới thật sự là kẻ chẳng có gì tốt đẹp"
            },
            "replies": [
                {
                    "reply_user": "Hoàng Như",
                    "reply_content": " Ai cũng có trái tim cũng biết buồn mà !"
                }
            ]
        },
        {
            "parent_comment": {
                "parent_user": "Dạ Uyên",
                "parent_content": "Chỉ những kẻ không tốt đẹp mới phủ nhận sự tốt đẹp của người khác. Với những người như thế đừng nên gần họ nữa, bạn phải gặp người tốt hơn để trân trọng"
            },
            "replies": [
                {
                    "reply_user": "Hoàng Như",
                    "reply_content": " dạ mình cảm ơn"
                }
            ]
        },
        {
            "parent_comment": {
                "parent_user": "Phạm Thành Đạt",
                "parent_content": "Đọc cap đ hiểu nói conme gì"
            },
            "replies": [
                {
                    "reply_user": "Hoàng Như",
                    "reply_content": " kệ m chứ :))"
                }
            ]
        },
        {
            "parent_comment": {
                "parent_user": "Mỹ Ngân",
                "parent_content": "Ùa"
            },
            "replies": [
                {
                    "reply_user": "Hoàng Như",
                    "reply_content": " buồn"
                }
            ]
        },
        {
            "parent_comment": {
                "parent_user": "Duy Quang",
                "parent_content": "Ảo thật đấy :))"
            },
            "replies": [
                {
                    "reply_user": "Hoàng Như",
                    "reply_content": " mờ mờ ảo ảo"
                }
            ]
        }
    ]
}