{
    "post": "377362663259055",
    "link": "https://facebook.com/groups/Emlanguoitotnhatthegian/permalink/377362663259055",
    "post_comments": [
        {
            "parent_comment": {
                "parent_user": "Thy Anh Nguyen",
                "parent_content": "Tóc b giống con b m ghê"
            },
            "replies": [
                {
                    "reply_user": "Phong Nha",
                    "reply_content": " khổ lắm bạn"
                }
            ]
        },
        {
            "parent_comment": {
                "parent_user": "Trương Đinhh Gia Ngânn",
                "parent_content": "Không nha bạn , dưỡng tóc kỹ tí là được rồi"
            },
            "replies": [
                {
                    "reply_user": "Phong Nha",
                    "reply_content": " vậy là không bị xù đúng không ạ"
                },
                {
                    "reply_user": "Trương Đinhh Gia Ngânn",
                    "reply_content": " Đúng rồi bạn , đừng uốn xoăn nhiều quá là được "
                }
            ]
        },
        {
            "parent_comment": {
                "parent_user": "Nguyễn T.Yến Nhi",
                "parent_content": "Sẽ không bị xù đâu nha"
            },
            "replies": [
                {
                    "reply_user": "Phong Nha",
                    "reply_content": " cảm ơn bạn nhé"
                },
                {
                    "reply_user": "Nguyễn T.Yến Nhi",
                    "reply_content": " nếu bạn kh uốn :)))"
                },
                {
                    "reply_user": "Phong Nha",
                    "reply_content": "Mình chỉ định làm xoăn bằng máy thôi"
                }
            ]
        }
    ]
}