{
    "post": "377029123292409",
    "link": "https://facebook.com/groups/Emlanguoitotnhatthegian/permalink/377029123292409",
    "post_comments": [
        {
            "parent_comment": {
                "parent_user": "Quý Đức",
                "parent_content": "Lỡ tắm khuya phải đầu khô mới ngủ được "
            },
            "replies": [
                {
                    "reply_user": "Nguyễn Trang",
                    "reply_content": " troi oi tắm khuya nguy hiểm lắm cậu ơi "
                }
            ]
        },
        {
            "parent_comment": {
                "parent_user": "Dạ Uyên",
                "parent_content": "Mới mày mò xong nên chưa ngủ được"
            },
            "replies": [
                {
                    "reply_user": "Trang Ngô",
                    "reply_content": " giỏi thế ối giồi ôi"
                },
                {
                    "reply_user": "Dạ Uyên",
                    "reply_content": " cám ơn ạ"
                }
            ]
        }
    ]
}