{
    "post": "377280806600574",
    "link": "https://facebook.com/groups/Emlanguoitotnhatthegian/permalink/377280806600574",
    "post_comments": [
        {
            "parent_comment": {
                "parent_user": "Mai",
                "parent_content": "tưởng đăng gì liên quan đến crush nhất thời các thứ"
            },
            "replies": [
                {
                    "reply_user": "Đoàn Trọng Bách",
                    "reply_content": "+1"
                },
                {
                    "reply_user": "Mai",
                    "reply_content": "Trần Khánh Linh ok nhoo"
                }
            ]
        }
    ]
}