{
    "post": "377452296583425",
    "link": "https://facebook.com/groups/Emlanguoitotnhatthegian/permalink/377452296583425",
    "post_comments": [
        {
            "parent_comment": {
                "parent_user": "Trần Kim Thoa",
                "parent_content": "Em thấy không đủ khả năng thì cứ lên xin gvcn từ chức thôi, nhớ nói riêng đừng để mấy bạn biết (có thể bị ghẹo, nói này kia...) Nếu gv không cho thì e nhớ nói rõ mình sẽ yên lặng và giao trách nhiệm cho b trên. Em hãy suy nghĩ cho kỹ, vì kể từ giây phút em lên xin gv thì ấn tượng của gv đối với \"có thể\" sẽ giảm xuống và nếu mn trong lớp biết được thì dù em có từ chức được hay không (đa phần là không) thì mn đều sẽ có lời ra lời vào phía sau e (cũng có thể là trước mặt)"
            },
            "replies": [
                {
                    "reply_user": "Hồ Bắc Nam",
                    "reply_content": " em cũng có suy nghĩ tới đây rồi ạ. Em thấy bất lực, cô em cũng cứng tuổi rồi mà mới vô dạy năm đầu. Em sợ cô khó khăn khi ở trường ạ."
                },
                {
                    "reply_user": "Trần Kim Thoa",
                    "reply_content": "  sao em lại nghĩ cô khó khăn nhỉ? Cô có các mqh của cô các đồng nghiệp...Nhưng c nghĩ cô e vẫn sẽ rất vui khi biết có hs nghĩ về mình =))"
                },
                {
                    "reply_user": "Hồ Bắc Nam",
                    "reply_content": " dạ em muốn giúp cô nhưng em thấy cô và mấy bạn  không coi trọng em, trong khi mấy bạn nghỉ em cũng ráng tìm giúp 1 cái lí do, mà nỡ như vậy với em."
                },
                {
                    "reply_user": "Trần Kim Thoa",
                    "reply_content": "  cố lên em, hãy vì bản thân. Cứ làm những gì có thể khiến em vui vẻ (không gây ảnh hưởng đến người khác) đừng để ý ánh mắt người khác vì phiền lắm ạ. Giúp người khác (cô và các bạn) trong khả năng thôi e nha, hành động tìm lý do của e sẽ cho thầy/cô ấn tượng là e bao che các bạn đó (1 vài gv không thích điều đó) và các bạn chưa hẳn sẽ nhớ đến hành động của e."
                },
                {
                    "reply_user": "Hồ Bắc Nam",
                    "reply_content": " em cảm ơn chị ạ, em sẽ ráng suy nghĩ để hành động thật sáng suốt ạ."
                },
                {
                    "reply_user": "Trần Kim Thoa",
                    "reply_content": "  cố lên e"
                }
            ]
        },
        {
            "parent_comment": {
                "parent_user": "Trương Đinhh Gia Ngânn",
                "parent_content": "Bạn nên từ chức đi ạ , mình cũng thấy bất bình thay cho bạn . Cô giáo thì đéo nghe ý kiến của học sinh còn bạn bè thì không để ý đến lòng tốt của bạn nên thoi đừng có gắng nữa , mệt lắm :(("
            },
            "replies": [
                {
                    "reply_user": "Hồ Bắc Nam",
                    "reply_content": " tội tụi nó bạn ơi, dẫu sao cũng cùng lớp"
                },
                {
                    "reply_user": "Trương Đinhh Gia Ngânn",
                    "reply_content": " Giúp một lần ròii mà tụi nó không cần thì thôi , đừng có nghĩ cho người khác nhiều quá . Thật đấy , thiệt thòi cho bản thân thôi bạn ạ"
                },
                {
                    "reply_user": "Hồ Bắc Nam",
                    "reply_content": " giờ nếu từ chức là cả 1 ván cược đó bạn ơi. Áp lực có thể còn lớn hơn á"
                },
                {
                    "reply_user": "Trương Đinhh Gia Ngânn",
                    "reply_content": " Sao vậy ??"
                },
                {
                    "reply_user": "Hồ Bắc Nam",
                    "reply_content": " cô chủ nhiệm sẽ nói 1 lần, các giáo viên bộ môn sẽ nói tới nói lui, rồi bạn bè nghĩ mình tự ái nên như vậy. Ván cược này lớn, nhưng khẳng định được vai trò của mình"
                },
                {
                    "reply_user": "Trương Đinhh Gia Ngânn",
                    "reply_content": " Thế thì tùy vào quyết định của bạn vậy , chúc bạn có kết quả tốt nhá :^"
                },
                {
                    "reply_user": "Hồ Bắc Nam",
                    "reply_content": " mong là ổn. Cảm ơn bạn."
                }
            ]
        },
        {
            "parent_comment": {
                "parent_user": "Zalia Sun",
                "parent_content": "( Một câu chuyện về bản thân của em)  Đầu năm khi cô giao cho em chức lớp trưởng em  đã từ chối vì lo mình ko làm được nhưng cô không chịu cứ bắt em làm. Giữa năm có cô giáo chủ nhiệm mới dạy thay em cũng xin cô từ chức nhưng cô cũng không chịu luôn, cô nói cô mới vô dạy mà đổi chức lớp trưởng của em sợ em buồn(mặc dù đây là em tự nói với cô ). Học kì 2, em nói với cô lần nữa thì cô nói là đã trễ rồi nên em vẫn cứ làm đi để lớp phó quản lớp cũng được ( em thật sự là quản lớp không được nên mới 5 lần 7 lượt xin cô chứ không phải là tại em ngựa ngựa đâu :)). Mà cái lớp em có khá nhiều thành phần cá biệt nên \"cô làm nhiều cách\" cũng không quản được???  Không biết nên nói như nào, em văn hơi... Cô lại đi đổ hết lỗi lên em kêu em không có trách nhiệm bla bla bla... Sau một hồi chửi thì cô vẫn để em làm lớp trưởng ( nói mà muốn \"gớt\" nước mắt luôn dị á )"
            },
            "replies": [
                {
                    "reply_user": "Hồ Bắc Nam",
                    "reply_content": " lúc đầu mình cũng là thầy, lúc sao là đổi gv là cô á. Cũng y vậy. Lớpới được 2 tiết C với 8l không thuộc bài nè."
                }
            ]
        },
        {
            "parent_comment": {
                "parent_user": "Khoc Trong Mua",
                "parent_content": "Nể nhất con trai lớp trưởng:))) công bằng hơn con gái"
            },
            "replies": [
                {
                    "reply_user": "Hồ Bắc Nam",
                    "reply_content": " mà không ai thương em luôn."
                }
            ]
        }
    ]
}