{
    "post": "3827762717286681",
    "link": "https://facebook.com/groups/315154351880886/permalink/3827762717286681",
    "post_comments": [
        {
            "parent_comment": {
                "parent_user": "Phạm Trung Hiếu",
                "parent_content": "Trung Béo Bác sĩ trung chuyên điều trị triệu chứng trên nhé Chỉ chữa một lần liệt luôn k còn bị 1-2 phút nữa"
            },
            "replies": [
                {
                    "reply_user": "Trung Béo",
                    "reply_content": "  vl :))) đi cắt bao quy đầu nhé :)))"
                },
                {
                    "reply_user": "Phạm Trung Hiếu",
                    "reply_content": " t có cắt éo đâu vẫn 20 phút đây  đm lừa đảo ad"
                }
            ]
        },
        {
            "parent_comment": {
                "parent_user": "Lan Hoàng",
                "parent_content": "Sìn sú rocket"
            },
            "replies": [
                {
                    "reply_user": "Lặnq Lẽ",
                    "reply_content": " bác xài qua chưa. Cho e ít rìviu"
                },
                {
                    "reply_user": "Lan Hoàng",
                    "reply_content": " người nóng chim cứng ngắc à"
                }
            ]
        },
        {
            "parent_comment": {
                "parent_user": "Nguyễn Đứcc",
                "parent_content": "Tôi tưởng từ phát thứ 2 trở đi nó phải lâu hơn chứ "
            },
            "replies": [
                {
                    "reply_user": "Lê Bảo",
                    "reply_content": "sợ phát 1 đã nằm "
                },
                {
                    "reply_user": "Nguyễn Đứcc",
                    "reply_content": "Lặnq Lẽ  thế bác kém thật, phát thứ 3-4 gặp e thì dã mỏi luôn "
                }
            ]
        },
        {
            "parent_comment": {
                "parent_user": "Lê Quốc Toàn",
                "parent_content": "https://youtu.be/L2chG0gyzhA?t=688em để ý thấy thì có 3 cách sau.- xài thuốc uống / xịt kéo dài- tập luyện thể dục, Thẩm du, sếch và điều khiển tâm trí của bản thân như clip của sếp Sin chỉ dạy.- sử dụng BCS dày hơn ?!"
            },
            "replies": [
                {
                    "reply_user": "Lặnq Lẽ",
                    "reply_content": "  clip nói tiếng anh e k hiểu bác ơi. Bác có biết thuốc uống nào hiệu quả k"
                },
                {
                    "reply_user": "Lê Quốc Toàn",
                    "reply_content": " hiểu đơn giản là khi bác lâm trận thì phải từ từ và quên việc sướng đi, thay vào đó phải suy nghĩ đến việc khác như giải toán, chính trị (hoặc coi tivi) v.v... Khi gần xuất thì nhả ra đợi 30s-60s hoặc lâu hơn cho thằng em nó nguội bớt rồi tiếp tục lâm trận, trong thời gian nguội có thể hôn hít hay dùng miệng gì đó.À quên nữa là cố gắng làm sao khúc dạo đầu hoặc lúc lâm trận cố gắng tìm điểm G cho bạn gái ra trước là xong, về sau bác ra nhanh hay chậm đều ổn. P/s: cái này em dịch tóm tắt từ clip ấy nhé chứ em làm đéo gì có ny  P/s 2: thuốc xịt kéo dài cuộc chơi thì bác mò lên thiendia tìm hiểu thử"
                },
                {
                    "reply_user": "Lặnq Lẽ",
                    "reply_content": " ok. Cảm ơn bác nhiều nhé"
                },
                {
                    "reply_user": "Lê Quốc Toàn",
                    "reply_content": " quên mất còn 1 trick cổ điển mà tụi diễn viên JAV vẫn xài đến giờ là để 1 ly/chai nước lạnh bên cạnh, đại loại thứ nào có thể đựng nước lạnh bên cạnh. Cứ vừa lâm trận vừa bỏ ngón tay vào ly để tạm thời quên đi cảm giác sướng khi làm tình, giúp kéo dài cuộc vui.Khó cái là làm sao để bỏ ngón tay vào ly lạnh liên tục dc "
                }
            ]
        },
        {
            "parent_comment": {
                "parent_user": "Đỗ Bích Thục",
                "parent_content": "Bình thường thì bao lâu là chuẩn vậy các bác ?"
            },
            "replies": [
                {
                    "reply_user": "Anh Tu Truong",
                    "reply_content": " 15 đến 20 phút không kể dạo đầu thím nhé!"
                },
                {
                    "reply_user": "Đỗ Bích Thục",
                    "reply_content": "Ngọc Giang  để em kiếm con dao thủ tiêu anh thôi. Anh đã biết quá nhiều"
                }
            ]
        },
        {
            "parent_comment": {
                "parent_user": "Bình",
                "parent_content": "Mình có ông anh 3 năm k sex, lần đầu đút vô 1 cái là phọt.Sau đó ổng nhịn sex đến bây giờ"
            },
            "replies": [
                {
                    "reply_user": "Vũ Tiến",
                    "reply_content": " ông anh nào cơ"
                },
                {
                    "reply_user": "Bình",
                    "reply_content": "Ông anh thân thiết á thím"
                }
            ]
        },
        {
            "parent_comment": {
                "parent_user": "Nam Dinh",
                "parent_content": "Thím biết câu \"mồm miệng đỡ tay chân\" ko? Cứ thế mà thực hành nhé! Cổ nhân đã dậy thì cấm có sai "
            },
            "replies": [
                {
                    "reply_user": "Diệp Huy",
                    "reply_content": " kaka!"
                },
                {
                    "reply_user": "Nam Dinh",
                    "reply_content": "Lặnq Lẽ đỡ đc nhiều chứ bác :)) lưỡi bác ngoáy như xào rau xem, cả 1 sự khác biệt đấy :))"
                },
                {
                    "reply_user": "Diệp Huy",
                    "reply_content": " rau có tý mắm tôm nhẽ ngon bác nhỉ hehe!"
                },
                {
                    "reply_user": "Nam Dinh",
                    "reply_content": " ngon luôn "
                }
            ]
        },
        {
            "parent_comment": {
                "parent_user": "Mạnh Hùng",
                "parent_content": "Tập kegel nha thím, đảm bảo tùy ý trên bảo dưới phải nghe :))"
            },
            "replies": [
                {
                    "reply_user": "Nấm Mỡ",
                    "reply_content": "  bạn mình gì cũng biết "
                },
                {
                    "reply_user": "Mạnh Hùng",
                    "reply_content": " đấy là bạn t bảo thế chứ t có biết gì đâu "
                },
                {
                    "reply_user": "Nấm Mỡ",
                    "reply_content": "   Mình lại giả vờ tin nhau tý nhề"
                },
                {
                    "reply_user": "Mạnh Hùng",
                    "reply_content": "Lặnq Lẽ bạn mình bảo tập từ thời c3, ngày đấy nó với thằng cùng bàn toàn nói chuyện 18+ xong khoe nhau qwerty được bao lâu, xong sau này chúng nó có ny nên phong độ đỉnh cao vl, chứ iem tình đầu chưa có chưa biết được bn phút "
                },
                {
                    "reply_user": "Nấm Mỡ",
                    "reply_content": "  xạocho"
                },
                {
                    "reply_user": "Mạnh Hùng",
                    "reply_content": " thề t mà xạo con chuột nhà hàng xóm chết"
                },
                {
                    "reply_user": "Nấm Mỡ",
                    "reply_content": "  đúng rồi, bảo sao xunh quanh chả có chuột"
                }
            ]
        },
        {
            "parent_comment": {
                "parent_user": "Hậu Ngọc Hoàng",
                "parent_content": "Vừa qh vừa đọc bảng cửu chương bác nhé, thuộc làu rồi thì tăng độ khó lên, kiểu như giải phương trình khoa học chẳng hạn, như em giờ là vừa qh vừa làm luận án tiến sĩ luôn. "
            },
            "replies": [
                {
                    "reply_user": "Phương Gà",
                    "reply_content": " thế mà lại phải ở nhà phụ gia đình, phí nhân tài"
                },
                {
                    "reply_user": "Hậu Ngọc Hoàng",
                    "reply_content": " ts xạo loz đó con zai"
                }
            ]
        },
        {
            "parent_comment": {
                "parent_user": "Đoàn Chính Thuần",
                "parent_content": "Nhất lưỡi, nhì râu, tam đầu, tứ củ"
            },
            "replies": [
                {
                    "reply_user": "Lặnq Lẽ",
                    "reply_content": " nhì râu với tam đầu làm làm ntn ạ. Thông giúp e phát "
                },
                {
                    "reply_user": "Đoàn Chính Thuần",
                    "reply_content": " râu để cọ ấy, tam đầu là đầu ngón tay móc "
                }
            ]
        },
        {
            "parent_comment": {
                "parent_user": "Nguyễn Quang Tuấn",
                "parent_content": "Tập kegel, ít quan hệ hay quay tay lại, tập thể dục để tăng testosterone, ăn đồ bổ và tâm lý phải tự tin(tự tin mình là người đàn ông đủ đáp ứng nhu cầu cho người phụ nữ). Đặc biệt cấm xài mấy thuốc này nọ. "
            },
            "replies": [
                {
                    "reply_user": "Đỗ Bích Thục",
                    "reply_content": "  cái kegel này tập bao lâu thì có hiệu quả vậy bác"
                },
                {
                    "reply_user": "Nguyễn Quang Tuấn",
                    "reply_content": " chắc phải tập như thể dục, tầm vài 1-2 Tháng để có khác biệt quá."
                },
                {
                    "reply_user": "Đỗ Bích Thục",
                    "reply_content": "  lâu quá bác "
                }
            ]
        },
        {
            "parent_comment": {
                "parent_user": "Nguyễn Thanh Hùng",
                "parent_content": "thằng bạn tôi thì ngược lại "
            },
            "replies": [
                {
                    "reply_user": "Nấm Mỡ",
                    "reply_content": " hóng ạ"
                },
                {
                    "reply_user": "Nguyễn Thanh Hùng",
                    "reply_content": " lại chẳng thế "
                },
                {
                    "reply_user": "Nấm Mỡ",
                    "reply_content": "  ơ gì ạ"
                },
                {
                    "reply_user": "Nguyễn Thanh Hùng",
                    "reply_content": " ai biết gù đâuuu"
                }
            ]
        }
    ]
}