{
    "post": "2306850546044580",
    "link": "https://facebook.com/groups/315154351880886/permalink/2306850546044580",
    "post_comments": [
        {
            "parent_comment": {
                "parent_user": "Trung Phạm",
                "parent_content": "Truyện đâu lắm thế Khánh?"
            },
            "replies": [
                {
                    "reply_user": "Nguyễn Ngọc Khánh",
                    "reply_content": " quay tay ra ::"
                },
                {
                    "reply_user": "Trung Phạm",
                    "reply_content": " khá lắm))"
                }
            ]
        },
        {
            "parent_comment": {
                "parent_user": "Sói Xám",
                "parent_content": "Phước đi nghĩa vụ về chưa"
            },
            "replies": [
                {
                    "reply_user": "Nguyễn Ngọc Khánh",
                    "reply_content": " phước lol nào "
                },
                {
                    "reply_user": "Sói Xám",
                    "reply_content": " ơ thế k phải Phước à "
                },
                {
                    "reply_user": "Nguyễn Ngọc Khánh",
                    "reply_content": " không nhé"
                }
            ]
        },
        {
            "parent_comment": {
                "parent_user": "Trần Mỹ Duyên",
                "parent_content": "Đọc câu đầu thấy hư cấu vch rồi. M làm lol gì có nyc"
            },
            "replies": [
                {
                    "reply_user": "Nguyễn Ngọc Khánh",
                    "reply_content": " im mẹ đi Duyên "
                },
                {
                    "reply_user": "Trần Mỹ Duyên",
                    "reply_content": " sao trc t k thấy bài này nhỉ. Đọc cầu đầu xong khỏi đọc phần sau"
                },
                {
                    "reply_user": "Nguyễn Ngọc Khánh",
                    "reply_content": " trước t đăng nhiều mà "
                }
            ]
        }
    ]
}