{
    "post": "3917171315012487",
    "link": "https://facebook.com/groups/315154351880886/permalink/3917171315012487",
    "post_comments": [
        {
            "parent_comment": {
                "parent_user": "HOang Ngoc",
                "parent_content": "Ko có thằng em trai nào ở đây hết"
            },
            "replies": [
                {
                    "reply_user": "Hà Trangg",
                    "reply_content": " có :))"
                },
                {
                    "reply_user": "HOang Ngoc",
                    "reply_content": ""
                }
            ]
        },
        {
            "parent_comment": {
                "parent_user": "Thiện Nguyễn Trung",
                "parent_content": "ko trách đc, giờ công nghệ phát triển đâm ra trẻ con tiếp cận mấy cái này sớm sinh ra tò mò, như hồi mình 6 tuổi vẫn đọc doraemon cả tin em bé đc sinh ra từ nách "
            },
            "replies": [
                {
                    "reply_user": "Long Nguyễn Tiến",
                    "reply_content": "  mình còn k nghĩ tới việc em bé đc sinh ea tnao luôn "
                },
                {
                    "reply_user": "Thiện Nguyễn Trung",
                    "reply_content": " giờ bọn trẻ con nó tiếp xúc điện thoại thông minh cả mạng nhiều quá, chứ như hồi trước toàn câu cá bắn bi thì làm gì có mấy việc như này"
                }
            ]
        },
        {
            "parent_comment": {
                "parent_user": "Vu Khiem",
                "parent_content": "Sự thật là không có đứa em trai 6 tuổi nào ở đây cả "
            },
            "replies": [
                {
                    "reply_user": "Hà Trangg",
                    "reply_content": " ơ có mà"
                },
                {
                    "reply_user": "Vu Khiem",
                    "reply_content": " thôi đừng lấy đứa em ra để giải thích. Mọi người đều biết “kẻ mà ai cũng biết là ai” mà. Không phải ngại đâu bạn êyyyyy"
                }
            ]
        },
        {
            "parent_comment": {
                "parent_user": "Mạnh",
                "parent_content": "Nhớ đọc buổi sáng cũng chủ đề này"
            },
            "replies": [
                {
                    "reply_user": "Hà Trangg",
                    "reply_content": " cũng lớp 1 hả tr :))"
                },
                {
                    "reply_user": "Mạnh",
                    "reply_content": " bài kia thì phát hiện r, xong có nc nhỏ nhẹ r, xong nay lại thấy xem tiêpd"
                }
            ]
        },
        {
            "parent_comment": {
                "parent_user": "Lê Quốc Toàn",
                "parent_content": "vote đấm =)) khóa youtube lại, cho coi youtube kid thôi, mà chủ yếu vẫn là hạn chế tụi trẻ sử dụng dt cá nhân"
            },
            "replies": [
                {
                    "reply_user": "Hà Trangg",
                    "reply_content": " em mình với mình dùng chung để học í :(("
                },
                {
                    "reply_user": "Lê Quốc Toàn",
                    "reply_content": " thế phải làm gắt thôi bác, chỉ có người lớn quát hay nói nặng nó mới sợ. Cố gắng hướng nó chú ý đến các video khác hay hoạt động khác hoặc dụ nó coi anime đi, wibu còn tốt hơn."
                }
            ]
        },
        {
            "parent_comment": {
                "parent_user": "Võ Đạt",
                "parent_content": "cách giải quyết"
            },
            "replies": [
                {
                    "reply_user": "Hà Trangg",
                    "reply_content": " stolen nhé"
                },
                {
                    "reply_user": "Võ Đạt",
                    "reply_content": " cẩn thận khi xem H thì th em b vô tình thấy r bắt chước theo.Android thì có app này cũng ok nè:https://github.com/.../2.7.8/NClientV2.2.7.8.Release.apkhỗ trợ login tài khoản r còn khoá được app luôn  k quảng cáo, free."
                }
            ]
        },
        {
            "parent_comment": {
                "parent_user": "Phạm Anh Tuấn",
                "parent_content": "6t nó xem cũng có cửng đc đâu nhỉ. Ngày xưa học lớp 3 1 con lớp trưởng 1 con cán bộ giờ ra chơi còn ôm nhau ứ ừ. Bọn trẻ con lớn nhanh lắm cấm nó ra net xem vs b. Nên định hướng dạy giáo dục giới tính or chuyển hướng sự tò mò của nó sang cái khác. Tầm tuổi ấy dễ dụ hơn cái tầm 14 16 lúc ấy hoocmoon nứng cao mới khó dụ"
            },
            "replies": [
                {
                    "reply_user": "Nguyễn HảiAnh",
                    "reply_content": " cửng chán r` bác, ngày xưa cháu em 4 tuổi lúc nhủ cờ u nó dựng đứng luôn =))))"
                },
                {
                    "reply_user": "Phạm Anh Tuấn",
                    "reply_content": " vãi tưởng tầm nhóc con ấy nó cương sao nổi hay b nhầm sang dạng cửng vì buồn tiểu. Cương kích cơ nó tăng mới đúng chuẩn."
                }
            ]
        }
    ]
}