{
    "post": "3881781835218102",
    "link": "https://facebook.com/groups/315154351880886/permalink/3881781835218102",
    "post_comments": [
        {
            "parent_comment": {
                "parent_user": "Tuna Alex",
                "parent_content": "Các thím nào mà bảo mua cc thì xin lỗi,các thím đéo bg tán đc gái lạ. Tâm lý các thím nghĩ cốc ts to thế à,thế ở nhà thẩm du xong lên mạng than ế đi. Dù chưa biết ,chưa gặp lần nào nhưng nếu chủ thớt cầm cốc ts sang thì mới có cơ hội lần sau đi ăn ,đi chơi đó. Còn ntn tự thím đóng cánh cửa tìm hiểu con nhà ngta rồi. Phải hông Lê Thảo ( xl vì đã tag e)"
            },
            "replies": [
                {
                    "reply_user": "Pham Sang",
                    "reply_content": " lúc đầu là ly ts về sau và về sau còn nữa bác ơi"
                },
                {
                    "reply_user": "Tuna Alex",
                    "reply_content": " để bắt đầu 1 mqh thì tự bản thân m phải tạo cho đối tác 1 sự tin tưởng nhất định. Tôi thấy e ý trả lời là ts tự e cũng mua đc,còn thím trả lời làm ng đọc nghĩ e ý đang vòi vĩnh thím 1 cái gì đó to lớn. Bt nếu rủ đc e ý đi ăn thì thím có trả tiền bữa ăn và cuộc đi chơi đó ko? Tôi đoán là ko. Nếu kinh tế m ko đủ mình có thể nói tk,vì chưa là gì của nhau. Ko đủ tiền đi chơi thì ko rủ,đơn giản vậy thôi "
                }
            ]
        },
        {
            "parent_comment": {
                "parent_user": "Hiên Phan",
                "parent_content": "Chán ông. Có 1 ly trà sựa mà cũng không mua được. Ế tiếp đi anh"
            },
            "replies": [
                {
                    "reply_user": "Pham Sang",
                    "reply_content": " Cảm ơn bạn đã góp ý nhưng mà mình hiểu mà, đã từng mua cho bạn bị bệnh kia 1 hộp cháo ( mua loại ngon với nhiều người ăn nha ) đem qua tầm 13km gì ấy. Trên đường đi còn mua thêm sủi berocca. Xong 2 hôm sau thèm Phúc Long mình vẫn mua, mà mua phải 4 ly chứ đâu ít ( do bảo phòng 4 đứa mà mua có 1 ly cũng kỳ nên mình mua hẳn 4 ly, thêm 2 bịch bánh tráng nữa ). Xong 1 vài hôm kêu mình mua sản phẩm ngũ cốc là mình hiểu, tự động rút lui"
                },
                {
                    "reply_user": "Hiên Phan",
                    "reply_content": " bạn bị bệnh với bạn gái trên có cùng 1 người không ấy. "
                },
                {
                    "reply_user": "Pham Sang",
                    "reply_content": " ko nhưng mà thấy zalo thì coa bán sản phẩm chức năng sức khỏe gì đó mình cũng hơi có ác cảm xíu"
                },
                {
                    "reply_user": "Hiên Phan",
                    "reply_content": " "
                }
            ]
        },
        {
            "parent_comment": {
                "parent_user": "Người Qua Đường",
                "parent_content": "Ly trà sữa to như bánh xe bò"
            },
            "replies": [
                {
                    "reply_user": "Pham Sang",
                    "reply_content": " bác đi mua xong chạy qua 15km giao nha "
                },
                {
                    "reply_user": "Người Qua Đường",
                    "reply_content": " thế sao không chơi bài đặt cho quán ship. Thế cũng ga lăng mặc dù hơi kém tự mua"
                },
                {
                    "reply_user": "Pham Sang",
                    "reply_content": "  rồi dc 1 lần xong 9 10 lần nữa bác mua ko hay từ bỏ"
                }
            ]
        },
        {
            "parent_comment": {
                "parent_user": "Thai Thien Di",
                "parent_content": "Đm cái ly trà sữa của anh bự quá, uống chắc đái ra vàng. Không mua được thì câm mẹ đi. Đ hiểu nghĩ cl gì luôn. Định \" tiền ít mà đòi hít l thơm hả \". Đuyz ngựa."
            },
            "replies": [
                {
                    "reply_user": "Trương Thị Kim Chi",
                    "reply_content": " ối giời ơi bà lặn lội cả vào nhóm này lun"
                },
                {
                    "reply_user": "Thai Thien Di",
                    "reply_content": " haha"
                },
                {
                    "reply_user": "Trương Thị Kim Chi",
                    "reply_content": " đọc cmt cuối nghe vô duyên vđ c ôi :))) "
                },
                {
                    "reply_user": "Thai Thien Di",
                    "reply_content": "Taan Lee lớn mà ăn nói như cc vậy ba"
                }
            ]
        },
        {
            "parent_comment": {
                "parent_user": "Nguyễn Hữu Quốc",
                "parent_content": "Ngày xưa em cũng hay đi mua ts lắm :< giờ đéo có ai để mà mua cho cơ.mm"
            },
            "replies": [
                {
                    "reply_user": "Nguyễn Đỗ Đạt",
                    "reply_content": " mua cho mình đi nek "
                },
                {
                    "reply_user": "Nguyễn Hữu Quốc",
                    "reply_content": "  kust"
                },
                {
                    "reply_user": "Nguyễn Đỗ Đạt",
                    "reply_content": "  mình xem có nhiệt tình hay k thôiChứ trà sữa mình có thể mua nợ mà"
                },
                {
                    "reply_user": "Nguyễn Hữu Quốc",
                    "reply_content": "  về TN đi  ez mà"
                },
                {
                    "reply_user": "Nguyễn Đỗ Đạt",
                    "reply_content": " đợi mấy nữaĐang chờ việc ngoài kia rồi về đây"
                },
                {
                    "reply_user": "Nguyễn Hữu Quốc",
                    "reply_content": " °)) ghê vậy. Mình chờ à nhen "
                },
                {
                    "reply_user": "Nguyễn Đỗ Đạt",
                    "reply_content": " chè Thái gái Tuyên. Làm rể đất chè thì bố mình k lo thiếu chè uống rồi"
                },
                {
                    "reply_user": "Nguyễn Hữu Quốc",
                    "reply_content": " tai họa thiếu nữ  đất mình còn chưa đủ hay sao mà còn định đi tai họa thiếu nữ xứ khác vậy :<"
                },
                {
                    "reply_user": "Nguyễn Đỗ Đạt",
                    "reply_content": " nam nhi 4 bể là nhà. Mình còn muốn lấy cô vợ Ninh Bình để sau này bố mình lúc nào cũng có rượu Kim Sơn uống :(("
                },
                {
                    "reply_user": "Nguyễn Hữu Quốc",
                    "reply_content": " tưởng chốt Đông Anh rồi :< chiều chiều dẫn nhau ra Cổ Loa"
                },
                {
                    "reply_user": "Nguyễn Đỗ Đạt",
                    "reply_content": " :(( "
                },
                {
                    "reply_user": "Nguyễn Hữu Quốc",
                    "reply_content": " "
                },
                {
                    "reply_user": "Nguyễn Đỗ Đạt",
                    "reply_content": " thôi đừng nhắc nữa"
                },
                {
                    "reply_user": "Nguyễn Hữu Quốc",
                    "reply_content": "  nếu đó là 1 câu chuyện buồn  thôi để mình haha vào mặt Đạt vậy"
                },
                {
                    "reply_user": "Nguyễn Đỗ Đạt",
                    "reply_content": " Quốc cứ cười mình đi, Roi co ngay Minh se cuoi Quoc"
                },
                {
                    "reply_user": "Nguyễn Hữu Quốc",
                    "reply_content": "  thôi ông im mịa đi  "
                }
            ]
        }
    ]
}