{
    "post": "3836486979747588",
    "link": "https://facebook.com/groups/315154351880886/permalink/3836486979747588",
    "post_comments": [
        {
            "parent_comment": {
                "parent_user": "Đại Hùng",
                "parent_content": "Đấy, thấy hậu quả của việc onl voz chưa "
            },
            "replies": [
                {
                    "reply_user": "Trang Phạm",
                    "reply_content": "  sắp sang năm mới! Nghe nói ngành xd thưởng tết to lắm nhò. Lixi tết năm ngoái năm nay gộp 1 nhể "
                },
                {
                    "reply_user": "Đại Hùng",
                    "reply_content": " chỉ chờ mỗi dịp ra HL thôi chứ chuẩn bị đủ cả rồi "
                },
                {
                    "reply_user": "Trang Phạm",
                    "reply_content": "  :))) HL bị phong toả rồi:)))Giờ còn làm ở HaNoi nữa k"
                },
                {
                    "reply_user": "Đại Hùng",
                    "reply_content": " mình về nam lâu rồi, đợt trước ra được tới hải phòng thôi, ko có tg ra Hl thăm bạn, tiếc hùi hụi ấy"
                },
                {
                    "reply_user": "Trang Phạm",
                    "reply_content": " xa nhao ghê"
                },
                {
                    "reply_user": "Đại Hùng",
                    "reply_content": " thì đấy , đợt ấy còn dịch, chỉ ra được tơi hp để bắt máy bay về nam thôi, chứ gần thì dễ dầu gì mà mình bỏ qua nè "
                },
                {
                    "reply_user": "Trang Phạm",
                    "reply_content": "  ủa ra có xíu là về à =)))"
                },
                {
                    "reply_user": "Đại Hùng",
                    "reply_content": " đâu, mình ra hp 2 ngày hơn lận, nhưng vì dịch nên ko được đi đâu cả"
                },
                {
                    "reply_user": "Trang Phạm",
                    "reply_content": "  thế giờ làm gì rồii"
                },
                {
                    "reply_user": "Đại Hùng",
                    "reply_content": " giờ thì về quê ăn tết, gia đình lo hết rồi bạn ơi "
                },
                {
                    "reply_user": "Trang Phạm",
                    "reply_content": " sướng nhở =)))"
                },
                {
                    "reply_user": "Đại Hùng",
                    "reply_content": " thế có muốn sướng cùng ko, mì gói trong này cũng ngon lắm ấy "
                },
                {
                    "reply_user": "Trang Phạm",
                    "reply_content": " mình k ăn đc nỳ gói. Hihi"
                },
                {
                    "reply_user": "Đại Hùng",
                    "reply_content": " đâu, mì gói mình ăn, còn trang ăn cái khác "
                }
            ]
        },
        {
            "parent_comment": {
                "parent_user": "Elise Nguyen",
                "parent_content": "K biết bao h mới đc ăn cưới "
            },
            "replies": [
                {
                    "reply_user": "Trang Phạm",
                    "reply_content": "  ăn cưới nhớ báo mình trc 1 tháng nhaaa"
                },
                {
                    "reply_user": "Elise Nguyen",
                    "reply_content": " ủa. Chag đợi ăn cưới á. Chứ chag chắc ko cưới đâu "
                },
                {
                    "reply_user": "Trang Phạm",
                    "reply_content": "   ơ ơ ơ. Đaua ai lói trc đc điều gề"
                },
                {
                    "reply_user": "Elise Nguyen",
                    "reply_content": " "
                },
                {
                    "reply_user": "Trang Phạm",
                    "reply_content": "  ok , mình cũng giống changgg"
                },
                {
                    "reply_user": "Elise Nguyen",
                    "reply_content": " ủa định lam couple trinh nữ Bắc Nam à?"
                },
                {
                    "reply_user": "Trang Phạm",
                    "reply_content": "  ừ , rồi rủ nhau về lập miếu sống chung. Hí hí"
                },
                {
                    "reply_user": "Elise Nguyen",
                    "reply_content": " ơ kìa. Lập ở miền Trung cho trung lập nha "
                },
                {
                    "reply_user": "Trang Phạm",
                    "reply_content": "  ừ đúng rồi và cực hợp lý:))"
                },
                {
                    "reply_user": "Elise Nguyen",
                    "reply_content": " thế nheeeee"
                }
            ]
        },
        {
            "parent_comment": {
                "parent_user": "Tùng Lê Đoàn",
                "parent_content": "Ok chị"
            },
            "replies": [
                {
                    "reply_user": "Trang Phạm",
                    "reply_content": "  cho c nha"
                },
                {
                    "reply_user": "Tùng Lê Đoàn",
                    "reply_content": " e đứa nào nó tặng  "
                },
                {
                    "reply_user": "Trang Phạm",
                    "reply_content": " ai biết đc e =)))"
                },
                {
                    "reply_user": "Tùng Lê Đoàn",
                    "reply_content": " e mong lắm mà 25 năm nay chưa đc tặng bao giờ "
                },
                {
                    "reply_user": "Trang Phạm",
                    "reply_content": "  thì e tặng ngta đi=))"
                },
                {
                    "reply_user": "Tùng Lê Đoàn",
                    "reply_content": " e cũng chả có ngta mà tặng"
                },
                {
                    "reply_user": "Trang Phạm",
                    "reply_content": " tặng c "
                },
                {
                    "reply_user": "Tùng Lê Đoàn",
                    "reply_content": " xa quá ngại ship lắm chị"
                },
                {
                    "reply_user": "Trang Phạm",
                    "reply_content": "  ui ui ui"
                },
                {
                    "reply_user": "Tùng Lê Đoàn",
                    "reply_content": " món quà đặc biệt nên trao tận tay mới ý nghĩa đc "
                },
                {
                    "reply_user": "Trang Phạm",
                    "reply_content": " "
                }
            ]
        },
        {
            "parent_comment": {
                "parent_user": "Đặng Long",
                "parent_content": ""
            },
            "replies": [
                {
                    "reply_user": "Trang Phạm",
                    "reply_content": "  a cười????? Em????"
                },
                {
                    "reply_user": "Đặng Long",
                    "reply_content": " có xin được miếng socola chia a với nhá. "
                },
                {
                    "reply_user": "Trang Phạm",
                    "reply_content": "  a chia e thì có =))))"
                }
            ]
        },
        {
            "parent_comment": {
                "parent_user": "Trần Sỹ Quý",
                "parent_content": "Câu chuyện thoát ế mấy năm vẫn chưa xong."
            },
            "replies": [
                {
                    "reply_user": "Trang Phạm",
                    "reply_content": "  hơ hơ"
                },
                {
                    "reply_user": "Trần Sỹ Quý",
                    "reply_content": " thấy từ năm trước hay từ 2019 nhỉ ."
                },
                {
                    "reply_user": "Trang Phạm",
                    "reply_content": " ơ chả nhớ "
                }
            ]
        },
        {
            "parent_comment": {
                "parent_user": "Hoàng Văn Mạnh",
                "parent_content": "Tưởng thím vài hỗ trợ thoát ế choChứ như này thì bằng không à thím"
            },
            "replies": [
                {
                    "reply_user": "Trang Phạm",
                    "reply_content": " kệ ló :))Em xin scl cơ mà"
                },
                {
                    "reply_user": "Hoàng Văn Mạnh",
                    "reply_content": "Thôi bắt ông ny mua đi cho nhanh thím à :))"
                },
                {
                    "reply_user": "Trang Phạm",
                    "reply_content": "  tôi nào đã có ny chứ:("
                }
            ]
        }
    ]
}