{
    "post": "3829885380407748",
    "link": "https://facebook.com/groups/315154351880886/permalink/3829885380407748",
    "post_comments": [
        {
            "parent_comment": {
                "parent_user": "Hoàng Thiên",
                "parent_content": "nhân tiện cho mình hỏi ké, lap Asus của mình từ khi lên win 10 thì k cài đc driver của chuột laptop nữa, chỉ xài đc chuột dây thôi, ai có biết cách fix k chỉ mình với"
            },
            "replies": [
                {
                    "reply_user": "Đình Thanh Lê",
                    "reply_content": " lên https://www.asus.com/vn/support/Download-Center/ tải driver nha ông.tìm tên máy.r tải Poiting device cài là oke"
                },
                {
                    "reply_user": "Hoàng Thiên",
                    "reply_content": " tks bác, để mai e thử xem sao, chứ giờ tắt lap nằm mất rồi "
                }
            ]
        }
    ]
}