{
    "post": "3879589838770635",
    "link": "https://facebook.com/groups/315154351880886/permalink/3879589838770635",
    "post_comments": [
        {
            "parent_comment": {
                "parent_user": "Doan Chi Bao",
                "parent_content": "Dell rồi lên ổ HDD mà phang . Dùng misa với vacom là chủ yếu"
            },
            "replies": [
                {
                    "reply_user": "Phạm Tuấn",
                    "reply_content": " lên ổ HDD gì bro"
                },
                {
                    "reply_user": "Doan Chi Bao",
                    "reply_content": " nhầm ổ SSD "
                }
            ]
        },
        {
            "parent_comment": {
                "parent_user": "Hải Đăng",
                "parent_content": "Tầm tiền đó làm con asus Vivobook mỏng đẹp. I5 đầu 8 ram 8 ssd là bao tác vụ văn phòng, pts, đồ họa nhẹ"
            },
            "replies": [
                {
                    "reply_user": "Tuna Alex",
                    "reply_content": " 13 củ ko có i5 đâu thím. Chỉ đc i3 thôi. Hôm qua vừa mua i5 acer 18củ ram 8,ổ 512"
                },
                {
                    "reply_user": "Hải Đăng",
                    "reply_content": " mua hàng xách tay thì dc i5 đầu 8 đấy bác ạ"
                }
            ]
        }
    ]
}