{
    "post": "3907003302695955",
    "link": "https://facebook.com/groups/315154351880886/permalink/3907003302695955",
    "post_comments": [
        {
            "parent_comment": {
                "parent_user": "Quốc Toàn",
                "parent_content": "Gọi any đến. Lúc nào ngủ gật bảo a ý vả cho cái là tỉnh ngủ liền à "
            },
            "replies": [
                {
                    "reply_user": "Thu Phương",
                    "reply_content": " Thế thì lại tỉnh táo quá bác ơi  . E hỏi tư vấn món ăn đồ uống thật cơ ý"
                },
                {
                    "reply_user": "Quốc Toàn",
                    "reply_content": " à vậy thì chuẩn bị ít snack với lon bò cụng ấy. Uống bò cụng vào bao mất ngủ luôn"
                }
            ]
        },
        {
            "parent_comment": {
                "parent_user": "Đinh Sơn",
                "parent_content": "Ăn cái này thì khỏi lo buồn ngủ nè bạn ơi"
            },
            "replies": [
                {
                    "reply_user": "Thu Phương",
                    "reply_content": " bỏng này mua ở đâu đấy bạn"
                },
                {
                    "reply_user": "Đinh Sơn",
                    "reply_content": " mình mua trên page này https://www.facebook.com/eurekasnackvietnam"
                },
                {
                    "reply_user": "Thu Phương",
                    "reply_content": " "
                }
            ]
        },
        {
            "parent_comment": {
                "parent_user": "Lê Minh Đăng",
                "parent_content": "Ăn anh nè em =)))"
            },
            "replies": [
                {
                    "reply_user": "Thu Phương",
                    "reply_content": "Louis Vu món này sợ hơi khó nuốt =))), món khác thì đc nè "
                },
                {
                    "reply_user": "Lê Minh Đăng",
                    "reply_content": "E muốn ăn loại đồ ăn thế nào?"
                }
            ]
        }
    ]
}