{
    "post": "3843198989076387",
    "link": "https://facebook.com/groups/315154351880886/permalink/3843198989076387",
    "post_comments": [
        {
            "parent_comment": {
                "parent_user": "Phố Đêm",
                "parent_content": "Kk"
            },
            "replies": [
                {
                    "reply_user": "Trần Sỹ Quý",
                    "reply_content": " thế này là oẳng rồi chứ bác"
                },
                {
                    "reply_user": "Phố Đêm",
                    "reply_content": "   Chưa oẳng mới nghỉ chơi núc thôi khuya r làm lại"
                },
                {
                    "reply_user": "Trần Sỹ Quý",
                    "reply_content": " chúc bác may mắn.chứ thằng cu e ở cty mới oẳng 100củ b52 tuần trước xog."
                },
                {
                    "reply_user": "Phố Đêm",
                    "reply_content": " vậy ak kkk"
                },
                {
                    "reply_user": "Trần Sỹ Quý",
                    "reply_content": " nói gì nói e thấy chơi kiểu game bài này nó ko xanh chín như trước bác ạ "
                },
                {
                    "reply_user": "Phố Đêm",
                    "reply_content": "  thì hên xui mà b"
                },
                {
                    "reply_user": "Trần Sỹ Quý",
                    "reply_content": " ko.e thấy kiểu nhà cái họ cũng tác động.ko như rikvip hoặc bon ngày trước"
                },
                {
                    "reply_user": "Phố Đêm",
                    "reply_content": "    Mình thấy đánh cầm trừng thì dc ăn. Còn khi mà tốp vô đánh thì mình nghỉ b ak"
                }
            ]
        }
    ]
}