{
    "post": "3802104653185821",
    "link": "https://facebook.com/groups/315154351880886/permalink/3802104653185821",
    "post_comments": [
        {
            "parent_comment": {
                "parent_user": "Nguyễn Thanh Tuấn",
                "parent_content": "trên đây không phải ai cũng là bác si đa khoa, nên đừng lên mạng hỏi kẻo nhận được những câu trả lời gây hậu quả khó lường nếu bạn vô tình tin nónghe theo chỉ dẫn của bác sĩ là tốt nhất nhé !!!"
            },
            "replies": [
                {
                    "reply_user": "Tà Mei",
                    "reply_content": " bạn ơi, nếu nặng thì mình ko lên đây hỏi đâu ạ."
                },
                {
                    "reply_user": "Nguyễn Thanh Tuấn",
                    "reply_content": " thế tức là nhẹ thôi đúng k?thế b có ra hiệu thuốc chứ?có hỏi ng bán thuốc là nên kiêng cái gì chứ?"
                },
                {
                    "reply_user": "Tà Mei",
                    "reply_content": " dạ, kiểu có triệu chứng muốn bênh thôi ạ"
                }
            ]
        },
        {
            "parent_comment": {
                "parent_user": "TrầnLê NhưÝ",
                "parent_content": "Bệnh gì mới đc chứ, mới mổ xẻ hay té xe mà ăn bò cho lòi lờ triến xĩ à"
            },
            "replies": [
                {
                    "reply_user": "Tà Mei",
                    "reply_content": " có triệu chứng muốn bệnh, nóng lạnh trong người"
                },
                {
                    "reply_user": "TrầnLê NhưÝ",
                    "reply_content": " hồi ông nội tôi gần chết cũng bị như bác, triệu chứng này cũng nhẹ thôi, chỉ nặng người khiêng"
                },
                {
                    "reply_user": "Tà Mei",
                    "reply_content": ""
                }
            ]
        }
    ]
}