{
    "post": "3942727495790202",
    "link": "https://facebook.com/groups/315154351880886/permalink/3942727495790202",
    "post_comments": [
        {
            "parent_comment": {
                "parent_user": "Minh Nguyen",
                "parent_content": "Khs lương mình lại đưa bm làm gì."
            },
            "replies": [
                {
                    "reply_user": "Dương Tấn Định",
                    "reply_content": " thế sau này thím không đưa cho bố mẹ hay vợ mà tự quản à"
                },
                {
                    "reply_user": "Minh Nguyen",
                    "reply_content": "Sau này gì, mình đi làm nhiều năm nay rồi. Tiền mình làm ra, mình giữ, việc gì phải đưa cho ai. Nhất là tiền đưa hết cho vợ thì thôi coi như hỏng."
                },
                {
                    "reply_user": "Dương Tấn Định",
                    "reply_content": " thế thì em nghĩ thím chưa có vợ âu cũng là điều nên và phải thôi . em nghĩ đưa khoảng 90% là hợp lý . không thể bắt vợ 1 tay bế con 1 tay phải hỏi là em muốn mua cái này anh cho em tiền trong khi họ có thể tự lấy "
                }
            ]
        },
        {
            "parent_comment": {
                "parent_user": "Nguyễn Linh Linh",
                "parent_content": "Cứ làm cho các cụ nàng dâu vs đứa cháu là vui ngay"
            },
            "replies": [
                {
                    "reply_user": "Triệu Mẫn",
                    "reply_content": " rõ ràng"
                },
                {
                    "reply_user": "Nguyễn Linh Linh",
                    "reply_content": "Dương Tấn Định như chị nhé, xây nhà cho các cụ các cụ cũng chẳng thấy vui, mà cưới phát , ngày cưới bố chị vui đến nỗi khóc như mưa luôn."
                },
                {
                    "reply_user": "Triệu Mẫn",
                    "reply_content": " em 29t chưa 1 lần dẫn 1 cô gái nào về nhà đây ông bà cứ phải gọi là ngồi trên đống lửa, mặc dù là con út mà ông bà cũng có cháu nội cháy ngoại nếp tẻ đầy đủ cả rồi thế mà vẫn căng hơn dây đàn đây, tết nào về quê cũng phải gọi là cực hình, ob giờ chỉ mong con cái yên bề gia thất thôi chứ tiền bạc thì trời cho nhiêu ăn nhiêu à "
                }
            ]
        }
    ]
}