{
    "post": "3816039655125654",
    "link": "https://facebook.com/groups/315154351880886/permalink/3816039655125654",
    "post_comments": [
        {
            "parent_comment": {
                "parent_user": "Lặng",
                "parent_content": "Ra gái nhìn vẫn ngon =)))"
            },
            "replies": [
                {
                    "reply_user": "Phùng Hùng",
                    "reply_content": " của nhà thím tất :))))"
                },
                {
                    "reply_user": "Lặng",
                    "reply_content": " nhìn ngon thôi chứ em k có húp "
                }
            ]
        }
    ]
}