{
    "post": "3790783894317897",
    "link": "https://facebook.com/groups/315154351880886/permalink/3790783894317897",
    "post_comments": [
        {
            "parent_comment": {
                "parent_user": "Ngô Trọng Nghĩa",
                "parent_content": ""
            },
            "replies": [
                {
                    "reply_user": "Hoang JC",
                    "reply_content": " làm 1 stt cảnh báo mọi ng k chuyển khoản hay mua thẻ đt đi bác"
                },
                {
                    "reply_user": "Ngô Trọng Nghĩa",
                    "reply_content": " mình vừa làm rồi, giờ hoang mang quá"
                },
                {
                    "reply_user": "Hoang JC",
                    "reply_content": " ông anh tôi bị gì đấy tự dưng đăng cai link tào lao lên mạng tôi nghĩ lắmMấy ngày sau vì ổng đăng lên mạng FB có bị hack r không ai đc chuyển tiền nha"
                },
                {
                    "reply_user": "Ngô Trọng Nghĩa",
                    "reply_content": " mình thắc mắc là fb mình không có gì với lại cũng không vào mấy link này kia mà sao lại vậy."
                }
            ]
        },
        {
            "parent_comment": {
                "parent_user": "Trần Hồng Hạnh",
                "parent_content": "Khóa kb, chỉ có bạn chung mới kb đc mà bữa h tự nhiên quá trời ng k cần bạn chung vẫn add đc, sợ vl "
            },
            "replies": [
                {
                    "reply_user": "Ngô Trọng Nghĩa",
                    "reply_content": " haiz, khổ"
                },
                {
                    "reply_user": "Trần Hồng Hạnh",
                    "reply_content": " hồi đó mất fb 1 lần, cũng kb vô tội vạ nè, tự nhiên bị report, chụp cmnd báo cáo lên fb các thứ, cả tuần em nó mới về nhưng cuối cùng vẫn mất "
                }
            ]
        }
    ]
}