{
    "post": "3847860091943610",
    "link": "https://facebook.com/groups/315154351880886/permalink/3847860091943610",
    "post_comments": [
        {
            "parent_comment": {
                "parent_user": "Pì Ká Chù",
                "parent_content": "Tiền k tự nhiên sinh ra,ngồi chơi mà đòi có tiền thì e nghĩ chắc chỉ có làm phi pháp hoặc a bờ cờ scam đủ kiểu ...em nghĩ thế kbt có đúng k các voz :)))"
            },
            "replies": [
                {
                    "reply_user": "Đăng Nguyễn",
                    "reply_content": " nó làm nhân viên tư vấn. Tìm người kêu ngta chơi rồi ăn % ý. K biết có đi tù hay gì k. Tính qua đó làm chung"
                },
                {
                    "reply_user": "Pì Ká Chù",
                    "reply_content": " vậy thì cx kiểu CTV rồi ăn hoa hồng,mà đc thưởng cao thế cơ à bác "
                },
                {
                    "reply_user": "Đăng Nguyễn",
                    "reply_content": "Đào Minh Đức  check ib tôi ông kkk"
                }
            ]
        },
        {
            "parent_comment": {
                "parent_user": "My Tra Tran",
                "parent_content": "Ơ tưởng forex vừa sập nhỉ?"
            },
            "replies": [
                {
                    "reply_user": "Ngoc Son",
                    "reply_content": " nghĩ gì mà Forex sập đc"
                },
                {
                    "reply_user": "My Tra Tran",
                    "reply_content": "Thế mấy hôm đưa tin ầm ĩ sàn forex ở VN sập :))Thôi nói chung ai ham hố thì cứ nhảy vào "
                }
            ]
        },
        {
            "parent_comment": {
                "parent_user": "Trần Việt Tú",
                "parent_content": "Lấy tiền người sau trả người trước thôi  Bác ham thì cứ bước vào"
            },
            "replies": [
                {
                    "reply_user": "Anbu Itachi",
                    "reply_content": "Tiền ng sau trả ng trước??? Ko biết đừng phán bác ơi..."
                },
                {
                    "reply_user": "Trần Việt Tú",
                    "reply_content": " Thấy bác đi trả lời từng cmt thì chắc dân trong ngành nên thôi không tranh cãi"
                }
            ]
        },
        {
            "parent_comment": {
                "parent_user": "Đào Đức Trung",
                "parent_content": "nghe nó kêu đc 90tr 1 tháng mà bác tin thì cả xã hội đi chơi forex rồi =)))"
            },
            "replies": [
                {
                    "reply_user": "Anbu Itachi",
                    "reply_content": "Bác biết vì sao nhà nước ko dám cấm ko "
                },
                {
                    "reply_user": "Đào Đức Trung",
                    "reply_content": " vì tất cả tiền cho vào đều dưới dạng đầu tư, và biến độnng tỉ giá đều cho bọn nó điều khiển, bác tìm hiểu thêm nhé chứ em chơi bitcoin từ thời cái forex này chưa mở em lạ gì ba cái trò mèo này =))) nên nhớ không ai rảnh đi làm giàu hộ mình"
                },
                {
                    "reply_user": "Anbu Itachi",
                    "reply_content": "Bác phán thế e chịu, bác chơi BTC mà nói Forex là đa cấp e xin lạy bác chục lạy"
                },
                {
                    "reply_user": "Đào Đức Trung",
                    "reply_content": " mình đi từ bittrex, polo rồi về remitano từ hồi coin có 1k$ cho đến đỉnh 20k$ năm 2018 :))) chưa biết ai loi nhoi hơn đâu bạn :))) forex, wefinex,... mấy cái sàn nhị phân này mà không chạy thêm đa cấp kiếm người chơi thì có ma nó vào :))) tìm hiểu thêm về đa cấp đi bạn :))))"
                },
                {
                    "reply_user": "Anbu Itachi",
                    "reply_content": "Nguyên cái group chuyện trò linh tinh mạnh như thế mà quá ít ng trẻ biết được forex là j, BO là gì. M.n cứ nhầm lẫn BO và Forex. E sẽ giải thích sơ thế này, BO là quyền chọn nhị phân, nghĩa là tài xỉu, còn Forex là hệ thống tài chính, nhà nước tại sao ko cấm, vì nhà nước ta ko dám cấm hệ thống này, nó sự mua bán trao đổi hàng hoá, tiền tệ giữa các quốc gia, nhà nước chỉ cho phép các bank và quỹ đc phép trade vì họ có kinh nghiệm và đc đào tạo bài bản, những ai là sv học viện tài chính sẽ biết về điều này. Cấm dân đầu tư Forex vì sợ nguồn tiền chảy ra nước ngoài. Rất nhiều nữa vì mình là trader, ko kêu gọi hay mời chào ai, mình đấu trí với quốc tế mang ngoại hối về cho đất nước."
                },
                {
                    "reply_user": "Đào Đức Trung",
                    "reply_content": " coin là tiền ảo, nó đã bao gồm btc và alt coin rồi =)))) chia ra làm gì nữa bạn, bạn nói đến polo, remitano chỉ là ví thì chứng tỏ bạn chả biết gì về sàn coin =))))) đặt cược vào biến động tỉ giá lên hoặc xuống thì không là BO thì là gì =)))) còn đa cấp đơn giản là giới thiệu người vào sau phát sinh giao dịch thì sẽ được cắt hoa hồng ra trả cho người vào trước nó đã là đa cấp rồi =)))))) chả biết bạn nghiên cứu forex như nào chứ hội miner bọn mình từ hồi ngta mới xài RX đi cày ETH thì bọn mình đã vác 1070 đi cày ZEC rồi, chưa thấy cúng ai tí nào =))))) chỉ thấy các cháu làm forex về lòe bịp mấy đứa mông lung về coin xong tơ tưởng người khác làm giàu hộ mình bằng cách nghiên cứu kèo nào chắc ăn xong mách cho =)))) giàu thế thì chúng nó im ỉm giàu 1 mình rồi chứ không rảnh đi làm giàu cho người khác =))))"
                },
                {
                    "reply_user": "Anbu Itachi",
                    "reply_content": "Đã ngu còn cố chấp, bạn nói coin 1k thì nghĩa là cái đầu bạn chả có j rồi, z t lấy coin rác giá 0,0000001 r bán 1k nhé, còn cái ví như b nói thì t cũng đã thử qua mua tích trữ thì thấy ko hiệu quả. Đây là đang nói về ngành Forex, chứ ko phải là trader, bạn đưa cái link chả liên quan j, cryp thì nói thật nó mới chính xác là lừa đảo, giảm giá 90-99% 1 đồng coin mà đi nói Forex, nick chính nick ảo thì chả liên quan j, t ở thị trường này, làm ra tiền, sống bằng nó là đc, nhà nước ko cấm là ok"
                },
                {
                    "reply_user": "Đào Đức Trung",
                    "reply_content": " mua coin là đặt cược biến động tỉ giá  bỏ tiền ra thì mua được coin, bạn đổ tiền vào forex bạn mua được gì vậy =))))) cái cơ bản của đầu tư còn chưa hiểu mà cứ vác cái nick clone đi loè thiên hạ thế bạn =))) vác nick thật ra tranh luận xem nào =))))"
                },
                {
                    "reply_user": "Anbu Itachi",
                    "reply_content": "Bác k thấy e đã mua đc coin bỏ vào ví remitano à, bác chỉ ở 1 phương, e thì tung hoành tứ phương bát hướng rồi, đừng nghĩ mình mua 3 cái coin rác rồi cho là ng khác kém hơn. Chắc bác cũng ko biết crypto là j đâu haha"
                },
                {
                    "reply_user": "Đào Đức Trung",
                    "reply_content": " sàn nào là không có ví ? Biết người ta cày coin gì bảo rác =))) đăng cái post khác thanh minh bị gr chửi vẫn chưa khôn ra à =))) u mê quá =))) bạn mình làm forex chứ k chơi nhé =))))"
                },
                {
                    "reply_user": "Anbu Itachi",
                    "reply_content": "Thanh minh của j bác, thôi bác cố mà sống, e chỉ hơi buồn vì cố chấp cổ hủ chứ chả ảnh hưởng j cuộc sống của e, à e đưa nick chính r đó, bác có j nói vs nick chính của e ko"
                },
                {
                    "reply_user": "Đào Đức Trung",
                    "reply_content": " úi dời tung hoành bát hướng mặt mũi thế đã mua sắm đc gì chưa =))) wefinex nó là sàn BO thì lấy đâu ra ví hả con giời =))) không mua được tài sản thì ai người ta tạo ví =))) đổ tiền vào đưa thằng khác cầm hộ thôi =)))"
                },
                {
                    "reply_user": "Anbu Itachi",
                    "reply_content": "Có phải bác vừa nói sàn nào k có phí ko, e thì k tự hào j nhưng đã có nhà riêng xe riêng, đất 3 4 lô ở đà nẵng,đủ chưa bác"
                }
            ]
        },
        {
            "parent_comment": {
                "parent_user": "Anh Le Tuan",
                "parent_content": "Về cơ bản thì theo room cũng khá ok chốt lợi nhuận thì ăn 5/7 còn hoa hồng thì mình ăn 3%/1000$ của f1 1000$ này tính nạp hay tiêu đều dc ăn ( f1 là người đăng ký theo link của mình ) dưới 1000$ thì ăn 2%"
            },
            "replies": [
                {
                    "reply_user": "Anbu Itachi",
                    "reply_content": "Đó là BO bác, chán ghê, cái ngành tài chính của ngta mà mấy bố VN mang về cải tạo lại thành tài xỉu đi lừa ng Việt báo sao ai cũng mang ác cảm về Forex..."
                },
                {
                    "reply_user": "Anh Le Tuan",
                    "reply_content": " đúng rồi b ạ. Những ai hiểu dc thì tốt còn ai k hiểu thì cho là lừa đảo."
                }
            ]
        }
    ]
}