{
    "post": "3856882681041351",
    "link": "https://facebook.com/groups/315154351880886/permalink/3856882681041351",
    "post_comments": [
        {
            "parent_comment": {
                "parent_user": "Ngô Minh",
                "parent_content": ". "
            },
            "replies": [
                {
                    "reply_user": "Phạm Thị Nhi",
                    "reply_content": " may quá có người giống em "
                },
                {
                    "reply_user": "Ngô Minh",
                    "reply_content": "Mai tôi tự tặng tôi cái AW làm quà Va linh tinh"
                }
            ]
        },
        {
            "parent_comment": {
                "parent_user": "Hong Nguyen",
                "parent_content": "Bank cho mình đi thím rồi mai thím sẽ có món quà bất ngờ luôn..."
            },
            "replies": [
                {
                    "reply_user": "Phạm Thị Nhi",
                    "reply_content": " tin đc ko thím êii"
                },
                {
                    "reply_user": "Hong Nguyen",
                    "reply_content": " người già neo đơn ko lừa dối bao giờ nhé"
                },
                {
                    "reply_user": "Phạm Thị Nhi",
                    "reply_content": "  em thì trẻ con nhưng ko dễ tin người đâu , từ chối bank tiền ạ "
                },
                {
                    "reply_user": "Hong Nguyen",
                    "reply_content": " ok, thế thì thím bỏ lỡ món quà bất ngờ rồi"
                },
                {
                    "reply_user": "Phạm Thị Nhi",
                    "reply_content": " em biết thím định tặng gì luôn nháa "
                },
                {
                    "reply_user": "Hong Nguyen",
                    "reply_content": " biết rồi thì còn gọi gì là bất ngờ "
                },
                {
                    "reply_user": "Phạm Thị Nhi",
                    "reply_content": " nhưng nhỡ đâu em đoán nhầm thím ạ "
                },
                {
                    "reply_user": "Hong Nguyen",
                    "reply_content": " thôi thì cứ tin vào chính bản thân mình đi thím, chúc thím m3 Tết vui vẻ "
                },
                {
                    "reply_user": "Phạm Thị Nhi",
                    "reply_content": " cảm ơn thím nhé, mà thím chúc luôn cho ngày mai cơ à "
                }
            ]
        },
        {
            "parent_comment": {
                "parent_user": "Ngoc Quang Vy",
                "parent_content": "Đừng làm phiền đến shiper ăn tết, vì cái sự ế của bản thân chứ  ko biết tự ái sao"
            },
            "replies": [
                {
                    "reply_user": "Phạm Thị Nhi",
                    "reply_content": "Ngọc Quang thím nói thế em buồn đếyy "
                },
                {
                    "reply_user": "Ngoc Quang Vy",
                    "reply_content": " kệ chứ"
                },
                {
                    "reply_user": "Phạm Thị Nhi",
                    "reply_content": "Ngọc Quang  "
                },
                {
                    "reply_user": "Ngoc Quang Vy",
                    "reply_content": " khóc lóc cái gì  oan lắm sao"
                },
                {
                    "reply_user": "Phạm Thị Nhi",
                    "reply_content": "Ngọc Quang thề em câm nín luôn thím ạ, em đùa thôi màa "
                },
                {
                    "reply_user": "Ngoc Quang Vy",
                    "reply_content": " ngoan ghê ha "
                },
                {
                    "reply_user": "Phạm Thị Nhi",
                    "reply_content": "Ngọc Quang gái hư em ko phải diễn, gái tốt em phải vào vai , em diễn tốt vl thề , bác tin người thế "
                },
                {
                    "reply_user": "Ngoc Quang Vy",
                    "reply_content": " khen giả anh chả phải nghỉ, khen kỹ a phải suy tư tin người thế"
                },
                {
                    "reply_user": "Phạm Thị Nhi",
                    "reply_content": "Ngọc Quang   "
                }
            ]
        },
        {
            "parent_comment": {
                "parent_user": "Lê Xuân Hà",
                "parent_content": "Năm cũ k làm ra đc xu nào thì x5 x10 khác gì nhau đâu"
            },
            "replies": [
                {
                    "reply_user": "Phạm Thị Nhi",
                    "reply_content": "  năm nay nhỡ đâu có khởi sắc gì đấy thì sao hả thím, thôi chúc thím sức khỏe thôi vậy "
                },
                {
                    "reply_user": "Lê Xuân Hà",
                    "reply_content": " chỉ mong năm nay k chết đói là vui lắm r thím ơi Cơ mà cảm ơn thím nhé Chúc mừng năm mới "
                }
            ]
        },
        {
            "parent_comment": {
                "parent_user": "Nguyễn Anh Đức",
                "parent_content": "Năm ngoái nợ hơi nhiều nên đừng x5 x10 nhé hic"
            },
            "replies": [
                {
                    "reply_user": "Phạm Thị Nhi",
                    "reply_content": " nghe có vẻ toang thế thím, vậy chúc thím nhiều sức khỏe vậy, có sức khỏe là có tất cả "
                },
                {
                    "reply_user": "Nguyễn Anh Đức",
                    "reply_content": " chúc Nhi xinh gái, có bạn trai, giàu và mạnh khỏe nhé"
                },
                {
                    "reply_user": "Phạm Thị Nhi",
                    "reply_content": " "
                }
            ]
        },
        {
            "parent_comment": {
                "parent_user": "Thái Nguyễn",
                "parent_content": "Năm ngoái nợ hơn trăm củ. Gấp 5 gấp 10..."
            },
            "replies": [
                {
                    "reply_user": "Phạm Thị Nhi",
                    "reply_content": " khéo phải bảo là trừ mấy thím có nợ ra mới đc , toàn thấy các thím nợ trên trăm củ thế này "
                },
                {
                    "reply_user": "Thái Nguyễn",
                    "reply_content": " chúc làm ăn Tốt là đc rồi. Đừng X5 X10 nghe nó như kiểu \" ngã ở đâu x5 chỗ đấy ý\" "
                },
                {
                    "reply_user": "Phạm Thị Nhi",
                    "reply_content": "  xin lỗi đc chưaa "
                }
            ]
        },
        {
            "parent_comment": {
                "parent_user": "Khang Đặng",
                "parent_content": "Mất công đặt thì ship đến nhà t này thím."
            },
            "replies": [
                {
                    "reply_user": "Phạm Thị Nhi",
                    "reply_content": " nhà thím ở đâu để em phi trâu tới này "
                },
                {
                    "reply_user": "Khang Đặng",
                    "reply_content": " ở trong tim thím ý ."
                }
            ]
        },
        {
            "parent_comment": {
                "parent_user": "Vũ Tuấn Quyền",
                "parent_content": "Tôi chỉ cần ai chúc tôi có ny thôi chứ ngoài ra không cần gì cả =]]"
            },
            "replies": [
                {
                    "reply_user": "Phạm Thị Nhi",
                    "reply_content": "chúc thím  có nhiều người yêu luôn nhé "
                },
                {
                    "reply_user": "Vũ Tuấn Quyền",
                    "reply_content": "  đúg câu này của tôi từ tết đến giờ gặp ai t cũg chúc thế này luôn "
                },
                {
                    "reply_user": "Phạm Thị Nhi",
                    "reply_content": " rồi họ có ny chưa thím "
                },
                {
                    "reply_user": "Vũ Tuấn Quyền",
                    "reply_content": "  sao có thể nhanh thế được. Nay mới mùng 2 thôi mà"
                },
                {
                    "reply_user": "Phạm Thị Nhi",
                    "reply_content": " cũng đúng nhỉ "
                },
                {
                    "reply_user": "Vũ Tuấn Quyền",
                    "reply_content": "  nếu chúc mà có ny được thì t phải nhiều ny lắm rồi. Nhưng cuối cùng thì "
                },
                {
                    "reply_user": "Phạm Thị Nhi",
                    "reply_content": " an ủi một chút này thím "
                },
                {
                    "reply_user": "Vũ Tuấn Quyền",
                    "reply_content": "  an ủi làm gì. Sao k đẩy láo luôn đi thím "
                },
                {
                    "reply_user": "Phạm Thị Nhi",
                    "reply_content": " mấy bác mới kiểu người chơi hệ đẩy láo thôi, em là nữ nên hơi rén @@"
                },
                {
                    "reply_user": "Vũ Tuấn Quyền",
                    "reply_content": "  ơ mạnh dạn lên nào Tết đến rồi ai cũng xứng đáng được yêu thương"
                },
                {
                    "reply_user": "Phạm Thị Nhi",
                    "reply_content": "  thoii thím "
                },
                {
                    "reply_user": "Vũ Tuấn Quyền",
                    "reply_content": "  thực ra t chỉ kiểu thèm người nc tâm sự thôi chứ cũg chưa hẳn đến đoạn vật vã tìm ny đâu "
                },
                {
                    "reply_user": "Phạm Thị Nhi",
                    "reply_content": " me too "
                },
                {
                    "reply_user": "Vũ Tuấn Quyền",
                    "reply_content": "  ơ là như nào"
                },
                {
                    "reply_user": "Phạm Thị Nhi",
                    "reply_content": " ý là em cũng ko có ý tìm ny ấy thím, kiểu thích xàm xàm thôi cho vui thôi, ý em là vậy á "
                },
                {
                    "reply_user": "Vũ Tuấn Quyền",
                    "reply_content": "  kiểu thỉh thoảng tìm ng xàm xàm tâm sự cùng ng lạ thôi ấy hả"
                },
                {
                    "reply_user": "Phạm Thị Nhi",
                    "reply_content": " yepp"
                },
                {
                    "reply_user": "Vũ Tuấn Quyền",
                    "reply_content": "  hi. Thế chúg ta có vẻ giốg nhau 1 tí rồi ấy "
                }
            ]
        },
        {
            "parent_comment": {
                "parent_user": "Triệu Mẫn",
                "parent_content": "Ghtk họ làm việc xuyên tết đó"
            },
            "replies": [
                {
                    "reply_user": "Phạm Thị Nhi",
                    "reply_content": " vâg, em cảm ơn ạ "
                },
                {
                    "reply_user": "Triệu Mẫn",
                    "reply_content": " ae voz ế đầy ra đây, làm chi thế cho khổ hả bạn, tụi tui chỉ dốt toán thôi chứ cái gì cũng giỏi "
                },
                {
                    "reply_user": "Phạm Thị Nhi",
                    "reply_content": " ok thím "
                }
            ]
        },
        {
            "parent_comment": {
                "parent_user": "Nguyễn Thúy",
                "parent_content": "Đặt grap giao đc mà thím"
            },
            "replies": [
                {
                    "reply_user": "Phạm Thị Nhi",
                    "reply_content": " vâg, em cảm ơn ạ Nhưng mà em cũng đùa thôi thím chứ ko làm thật đâu, để yên cho các chú shipper còn ăn tết chứ hì "
                },
                {
                    "reply_user": "Nguyễn Thúy",
                    "reply_content": " năm trước em còn mua son nhờ ng tặng kìa. Năm nay ah ny ở xa nên nhịn luôn khỏi quà"
                },
                {
                    "reply_user": "Phạm Thị Nhi",
                    "reply_content": " ko có quà thì hơi buồn nhưng quan trọng nhất vẫn là tình cảm thôi thím nhỉ, chúc 2 thím luôn vui vẻ, hạnh phúc ạ "
                }
            ]
        },
        {
            "parent_comment": {
                "parent_user": "Đinh Trọng Thủy",
                "parent_content": "22 năm rồi chửa biết cái mùi valentine là cái gì"
            },
            "replies": [
                {
                    "reply_user": "Phạm Thị Nhi",
                    "reply_content": " em ko tin đâu thím "
                },
                {
                    "reply_user": "Đinh Trọng Thủy",
                    "reply_content": "  biết ngay mà"
                }
            ]
        },
        {
            "parent_comment": {
                "parent_user": "Phạm Quốc Việt",
                "parent_content": "Hi"
            },
            "replies": [
                {
                    "reply_user": "Phạm Thị Nhi",
                    "reply_content": " chúc 2 thím va lung tung vui vẻ nhé , haizz cẩu lương ở khắp nơi "
                },
                {
                    "reply_user": "Phạm Quốc Việt",
                    "reply_content": " kẻ khóc phải có người cười chứ :))"
                },
                {
                    "reply_user": "Phạm Thị Nhi",
                    "reply_content": "  quạo ghê haha"
                },
                {
                    "reply_user": "Phạm Quốc Việt",
                    "reply_content": "Lê Doãn Quang Minh oki tks bạn iu của tớ "
                }
            ]
        },
        {
            "parent_comment": {
                "parent_user": "Lương Mến",
                "parent_content": " chả lẽ cũng chạy đi tự mua tự tặng tự ăn"
            },
            "replies": [
                {
                    "reply_user": "Phạm Thị Nhi",
                    "reply_content": "  cũng hợp lý mà thím, con gái phải tự biết yêu thương bản thân mình hehe. Năm mới hoan hỉ nhaa thím ơiii "
                },
                {
                    "reply_user": "Lương Mến",
                    "reply_content": " thím năm mới an khang như ý nha  chỗ tôi ổ dịch nên tôi sợ ra ngoài đó mà"
                }
            ]
        }
    ]
}