{
    "post": "3833141096748843",
    "link": "https://facebook.com/groups/315154351880886/permalink/3833141096748843",
    "post_comments": [
        {
            "parent_comment": {
                "parent_user": "Trần Khắc Nam",
                "parent_content": "Boku no piko"
            },
            "replies": [
                {
                    "reply_user": "Thành Hà Tuấn",
                    "reply_content": " "
                },
                {
                    "reply_user": "Trần Khắc Nam",
                    "reply_content": "Kim Thắng  ko. Anime action fantasy shounen siêu phẩm đấy bạn. "
                }
            ]
        }
    ]
}