{
    "post": "3829933990402887",
    "link": "https://facebook.com/groups/315154351880886/permalink/3829933990402887",
    "post_comments": [
        {
            "parent_comment": {
                "parent_user": "Tuấn Phạm",
                "parent_content": "phần mềm nào không quan trọng, khi bạn đủ tầm rồi thì phần mềm nào cũng thấy tựa tựa như nhau. Quan trọng là môi trường xung quanh bạn dùng  phần mềm gì thì theo thôi chứ một mình mình 1 kiểu thì có biết mình ngu cũng không hỏi được ai  đâu.Chúc bạn sớm trở thành 1 kĩ sư cơ khí giỏi."
            },
            "replies": [
                {
                    "reply_user": "Lưu Bình Công",
                    "reply_content": "  nhưng với tình trạng hiện tại của bạn ý thì TODO đầu tiên là chọn được 1 phần mềm đã"
                },
                {
                    "reply_user": "Tuấn Phạm",
                    "reply_content": "  theo ý kiến cá nhân của mình thì nên học NX vừa mạnh phần cad lại khoẻ phần cam thà giỏi 1 thứ còn hơn cái gì cũng hay mà chả hay thứ gì"
                }
            ]
        }
    ]
}