{
    "post": "3789016197828000",
    "link": "https://facebook.com/groups/315154351880886/permalink/3789016197828000",
    "post_comments": [
        {
            "parent_comment": {
                "parent_user": "Quỳnh Tú",
                "parent_content": "Bệ k nhấc lên đc con chó ạ"
            },
            "replies": [
                {
                    "reply_user": "Đức Nghĩa",
                    "reply_content": " ý là cái nắp bồn nước ấy"
                },
                {
                    "reply_user": "Quỳnh Tú",
                    "reply_content": " tiểu lên bồn nước á"
                }
            ]
        },
        {
            "parent_comment": {
                "parent_user": "Trần Hồng Hạnh",
                "parent_content": "Khá thốn...."
            },
            "replies": [
                {
                    "reply_user": "Hoàng Anh Đức",
                    "reply_content": "  có kinh nghiệm à bà cô "
                },
                {
                    "reply_user": "Trần Hồng Hạnh",
                    "reply_content": " nghe tả k là đủ thốn r  ai táng t v mà còn sống, hơi lạ đó"
                }
            ]
        }
    ]
}