{
    "post": "884118288822779",
    "link": "https://facebook.com/groups/821166098451332/permalink/884118288822779",
    "post_comments": [
        {
            "parent_comment": {
                "parent_user": "Nguyễn Hữu Bảo",
                "parent_content": ""
            },
            "replies": [
                {
                    "reply_user": "Thương Thương",
                    "reply_content": " https://www.facebook.com/388751788266869/posts/1092434567898584Tim + share để chế độ công khai hộ e với ạ"
                }
            ]
        },
        {
            "parent_comment": {
                "parent_user": "Hoàng My",
                "parent_content": "quá là mợt"
            },
            "replies": [
                {
                    "reply_user": "Ngô Lâm Nhật",
                    "reply_content": " đừng nx mà"
                }
            ]
        },
        {
            "parent_comment": {
                "parent_user": "Hota Anh",
                "parent_content": "Yepp"
            },
            "replies": [
                {
                    "reply_user": "Trần Văn Trung",
                    "reply_content": " tưởng là yup"
                }
            ]
        }
    ]
}