{
    "post": "889710891596852",
    "link": "https://facebook.com/groups/821166098451332/permalink/889710891596852",
    "post_comments": [
        {
            "parent_comment": {
                "parent_user": "Mai Vy",
                "parent_content": "^^"
            },
            "replies": [
                {
                    "reply_user": "Trần Thảo Vy",
                    "reply_content": " hoy mà"
                }
            ]
        },
        {
            "parent_comment": {
                "parent_user": "Tran Trong",
                "parent_content": "..."
            },
            "replies": [
                {
                    "reply_user": "Tran Le Annh",
                    "reply_content": " thế hả"
                }
            ]
        },
        {
            "parent_comment": {
                "parent_user": "Đã Ẩn Danh",
                "parent_content": "thì ra là vậy "
            },
            "replies": [
                {
                    "reply_user": "Phương",
                    "reply_content": " "
                }
            ]
        }
    ]
}