{
    "post": "889676541600287",
    "link": "https://facebook.com/groups/821166098451332/permalink/889676541600287",
    "post_comments": [
        {
            "parent_comment": {
                "parent_user": "Huyen Tran",
                "parent_content": ""
            },
            "replies": [
                {
                    "reply_user": "Ngọc Dung",
                    "reply_content": " bùn qué hiuhiuuu :(("
                },
                {
                    "reply_user": "Huyen Tran",
                    "reply_content": " hong pun hahahahahahha"
                }
            ]
        },
        {
            "parent_comment": {
                "parent_user": "Doanh Hải Ly",
                "parent_content": "Buồn nhỉ??"
            },
            "replies": [
                {
                    "reply_user": "Gia Anh Thư",
                    "reply_content": " ngủ đi dm"
                },
                {
                    "reply_user": "Doanh Hải Ly",
                    "reply_content": " nâu"
                }
            ]
        },
        {
            "parent_comment": {
                "parent_user": "Thảo Bé",
                "parent_content": "buonnn"
            },
            "replies": [
                {
                    "reply_user": "Ngọc Tú",
                    "reply_content": " iu ai gòi nè "
                },
                {
                    "reply_user": "Thảo Bé",
                    "reply_content": " làm gì cóoo"
                },
                {
                    "reply_user": "Ngọc Tú",
                    "reply_content": " bt mà hí có ny mà "
                },
                {
                    "reply_user": "Thảo Bé",
                    "reply_content": " doau hí doau như mintu doau "
                },
                {
                    "reply_user": "Ngọc Tú",
                    "reply_content": " xl mìn hog có ny "
                }
            ]
        },
        {
            "parent_comment": {
                "parent_user": "Thùy Nguyễn",
                "parent_content": "hmm"
            },
            "replies": [
                {
                    "reply_user": "Han Nguyen",
                    "reply_content": " tội nghiệp bạn ghe"
                }
            ]
        }
    ]
}