{
    "post": "827405484494060",
    "link": "https://facebook.com/groups/821166098451332/permalink/827405484494060",
    "post_comments": [
        {
            "parent_comment": {
                "parent_content": "Cậu không hề thích tôi"
            },
            "replies": [
                {
                    "reply_content": "Nguyễn H.Đức giống m với bạn ý nèk =)))))"
                }
            ]
        },
        {
            "parent_comment": {
                "parent_content": "Thứ cậu thích chỉ là cảm giác có người yêu bên cạnh"
            },
            "replies": [
                {
                    "reply_content": "Nguyễn H.Đức giống m với bạn ý nèk =)))))"
                }
            ]
        },
        {
            "parent_comment": {
                "parent_content": "Ai cũng được"
            },
            "replies": [
                {
                    "reply_content": "Nguyễn H.Đức giống m với bạn ý nèk =)))))"
                }
            ]
        },
        {
            "parent_comment": {
                "parent_content": "Tôi cũng được"
            },
            "replies": [
                {
                    "reply_content": "Nguyễn H.Đức giống m với bạn ý nèk =)))))"
                }
            ]
        },
        {
            "parent_comment": {
                "parent_content": "Cậu không hề thích tôi"
            },
            "replies": [
                {
                    "reply_content": "Ra vậy"
                }
            ]
        },
        {
            "parent_comment": {
                "parent_content": "Thứ cậu thích chỉ là cảm giác có người yêu bên cạnh"
            },
            "replies": [
                {
                    "reply_content": "Ra vậy"
                }
            ]
        },
        {
            "parent_comment": {
                "parent_content": "Ai cũng được"
            },
            "replies": [
                {
                    "reply_content": "Ra vậy"
                }
            ]
        },
        {
            "parent_comment": {
                "parent_content": "Tôi cũng được"
            },
            "replies": [
                {
                    "reply_content": "Ra vậy"
                }
            ]
        },
        {
            "parent_comment": {
                "parent_content": "Cậu không hề thích tôi"
            },
            "replies": [
                {
                    "reply_content": "ai cũng đc nhưng tôi k đc"
                }
            ]
        },
        {
            "parent_comment": {
                "parent_content": "Thứ cậu thích chỉ là cảm giác có người yêu bên cạnh"
            },
            "replies": [
                {
                    "reply_content": "ai cũng đc nhưng tôi k đc"
                }
            ]
        },
        {
            "parent_comment": {
                "parent_content": "Ai cũng được"
            },
            "replies": [
                {
                    "reply_content": "ai cũng đc nhưng tôi k đc"
                }
            ]
        },
        {
            "parent_comment": {
                "parent_content": "Tôi cũng được"
            },
            "replies": [
                {
                    "reply_content": "ai cũng đc nhưng tôi k đc"
                }
            ]
        },
        {
            "parent_comment": {
                "parent_content": "Cậu không hề thích tôi"
            },
            "replies": [
                {
                    "reply_content": "Nhưng khi cậu bên cạnh ms là cảm giác có ny Còn đối vs nhkhac chỉ là cảm giác như ng dưng mà thôi "
                }
            ]
        },
        {
            "parent_comment": {
                "parent_content": "Thứ cậu thích chỉ là cảm giác có người yêu bên cạnh"
            },
            "replies": [
                {
                    "reply_content": "Nhưng khi cậu bên cạnh ms là cảm giác có ny Còn đối vs nhkhac chỉ là cảm giác như ng dưng mà thôi "
                }
            ]
        },
        {
            "parent_comment": {
                "parent_content": "Ai cũng được"
            },
            "replies": [
                {
                    "reply_content": "Nhưng khi cậu bên cạnh ms là cảm giác có ny Còn đối vs nhkhac chỉ là cảm giác như ng dưng mà thôi "
                }
            ]
        },
        {
            "parent_comment": {
                "parent_content": "Tôi cũng được"
            },
            "replies": [
                {
                    "reply_content": "Nhưng khi cậu bên cạnh ms là cảm giác có ny Còn đối vs nhkhac chỉ là cảm giác như ng dưng mà thôi "
                }
            ]
        },
        {
            "parent_comment": {
                "parent_content": "Cậu không hề thích tôi"
            },
            "replies": [
                {
                    "reply_content": "Minh Trung  thôi kh buồn"
                }
            ]
        },
        {
            "parent_comment": {
                "parent_content": "Thứ cậu thích chỉ là cảm giác có người yêu bên cạnh"
            },
            "replies": [
                {
                    "reply_content": "Minh Trung  thôi kh buồn"
                }
            ]
        },
        {
            "parent_comment": {
                "parent_content": "Ai cũng được"
            },
            "replies": [
                {
                    "reply_content": "Minh Trung  thôi kh buồn"
                }
            ]
        },
        {
            "parent_comment": {
                "parent_content": "Tôi cũng được"
            },
            "replies": [
                {
                    "reply_content": "Minh Trung  thôi kh buồn"
                }
            ]
        },
        {
            "parent_comment": {
                "parent_content": "Cậu không hề thích tôi"
            },
            "replies": [
                {
                    "reply_content": "Nguoi giong chi khong phai cam giac"
                }
            ]
        },
        {
            "parent_comment": {
                "parent_content": "Thứ cậu thích chỉ là cảm giác có người yêu bên cạnh"
            },
            "replies": [
                {
                    "reply_content": "Nguoi giong chi khong phai cam giac"
                }
            ]
        },
        {
            "parent_comment": {
                "parent_content": "Ai cũng được"
            },
            "replies": [
                {
                    "reply_content": "Nguoi giong chi khong phai cam giac"
                }
            ]
        },
        {
            "parent_comment": {
                "parent_content": "Tôi cũng được"
            },
            "replies": [
                {
                    "reply_content": "Nguoi giong chi khong phai cam giac"
                }
            ]
        },
        {
            "parent_comment": {
                "parent_content": "Cậu không hề thích tôi"
            },
            "replies": [
                {
                    "reply_content": "Thấy giống ai đó"
                }
            ]
        },
        {
            "parent_comment": {
                "parent_content": "Thứ cậu thích chỉ là cảm giác có người yêu bên cạnh"
            },
            "replies": [
                {
                    "reply_content": "Thấy giống ai đó"
                }
            ]
        },
        {
            "parent_comment": {
                "parent_content": "Ai cũng được"
            },
            "replies": [
                {
                    "reply_content": "Thấy giống ai đó"
                }
            ]
        },
        {
            "parent_comment": {
                "parent_content": "Tôi cũng được"
            },
            "replies": [
                {
                    "reply_content": "Thấy giống ai đó"
                }
            ]
        },
        {
            "parent_comment": {
                "parent_content": "Cậu không hề thích tôi"
            },
            "replies": [
                {
                    "reply_content": "Còn tôi thì chỉ cần cậu:))"
                }
            ]
        },
        {
            "parent_comment": {
                "parent_content": "Thứ cậu thích chỉ là cảm giác có người yêu bên cạnh"
            },
            "replies": [
                {
                    "reply_content": "Còn tôi thì chỉ cần cậu:))"
                }
            ]
        },
        {
            "parent_comment": {
                "parent_content": "Ai cũng được"
            },
            "replies": [
                {
                    "reply_content": "Còn tôi thì chỉ cần cậu:))"
                }
            ]
        },
        {
            "parent_comment": {
                "parent_content": "Tôi cũng được"
            },
            "replies": [
                {
                    "reply_content": "Còn tôi thì chỉ cần cậu:))"
                }
            ]
        },
        {
            "parent_comment": {
                "parent_content": "Cậu không hề thích tôi"
            },
            "replies": [
                {
                    "reply_content": "tôi cũng thế : \" mãi sau này anh mới biết..........\""
                }
            ]
        },
        {
            "parent_comment": {
                "parent_content": "Thứ cậu thích chỉ là cảm giác có người yêu bên cạnh"
            },
            "replies": [
                {
                    "reply_content": "tôi cũng thế : \" mãi sau này anh mới biết..........\""
                }
            ]
        },
        {
            "parent_comment": {
                "parent_content": "Ai cũng được"
            },
            "replies": [
                {
                    "reply_content": "tôi cũng thế : \" mãi sau này anh mới biết..........\""
                }
            ]
        },
        {
            "parent_comment": {
                "parent_content": "Tôi cũng được"
            },
            "replies": [
                {
                    "reply_content": "tôi cũng thế : \" mãi sau này anh mới biết..........\""
                }
            ]
        },
        {
            "parent_comment": {
                "parent_content": "Cậu không hề thích tôi"
            },
            "replies": [
                {
                    "reply_content": "Một mình cũng được?"
                }
            ]
        },
        {
            "parent_comment": {
                "parent_content": "Thứ cậu thích chỉ là cảm giác có người yêu bên cạnh"
            },
            "replies": [
                {
                    "reply_content": "Một mình cũng được?"
                }
            ]
        },
        {
            "parent_comment": {
                "parent_content": "Ai cũng được"
            },
            "replies": [
                {
                    "reply_content": "Một mình cũng được?"
                }
            ]
        },
        {
            "parent_comment": {
                "parent_content": "Tôi cũng được"
            },
            "replies": [
                {
                    "reply_content": "Một mình cũng được?"
                }
            ]
        },
        {
            "parent_comment": {
                "parent_content": "Cậu không hề thích tôi"
            },
            "replies": [
                {
                    "reply_content": "Trinh Quoc Toan u nauu"
                }
            ]
        },
        {
            "parent_comment": {
                "parent_content": "Thứ cậu thích chỉ là cảm giác có người yêu bên cạnh"
            },
            "replies": [
                {
                    "reply_content": "Trinh Quoc Toan u nauu"
                }
            ]
        },
        {
            "parent_comment": {
                "parent_content": "Ai cũng được"
            },
            "replies": [
                {
                    "reply_content": "Trinh Quoc Toan u nauu"
                }
            ]
        },
        {
            "parent_comment": {
                "parent_content": "Tôi cũng được"
            },
            "replies": [
                {
                    "reply_content": "Trinh Quoc Toan u nauu"
                }
            ]
        },
        {
            "parent_comment": {
                "parent_content": "Cậu không hề thích tôi"
            },
            "replies": [
                {
                    "reply_content": "AO TUONG:))"
                }
            ]
        },
        {
            "parent_comment": {
                "parent_content": "Thứ cậu thích chỉ là cảm giác có người yêu bên cạnh"
            },
            "replies": [
                {
                    "reply_content": "AO TUONG:))"
                }
            ]
        },
        {
            "parent_comment": {
                "parent_content": "Ai cũng được"
            },
            "replies": [
                {
                    "reply_content": "AO TUONG:))"
                }
            ]
        },
        {
            "parent_comment": {
                "parent_content": "Tôi cũng được"
            },
            "replies": [
                {
                    "reply_content": "AO TUONG:))"
                }
            ]
        }
    ]
}