{
    "post": "890264841541457",
    "link": "https://facebook.com/groups/821166098451332/permalink/890264841541457",
    "post_comments": [
        {
            "parent_comment": {
                "parent_user": "Tín Thành",
                "parent_content": "Chời ưi ngiu tui hf kìa "
            },
            "replies": [
                {
                    "reply_user": "Lê Hoàng Vy",
                    "reply_content": " ơ kìa ơ kìa kìa =)))"
                },
                {
                    "reply_user": "Tín Thành",
                    "reply_content": " quaoooo được hf rep kìa "
                }
            ]
        },
        {
            "parent_comment": {
                "parent_user": "Ngọc Kim",
                "parent_content": "Kiều Mỵ  quen không chứ tao thấy tởm vc "
            },
            "replies": [
                {
                    "reply_user": "Kiều Mỵ",
                    "reply_content": "  đù má"
                }
            ]
        }
    ]
}