{
    "post": "887290148505593",
    "link": "https://facebook.com/groups/821166098451332/permalink/887290148505593",
    "post_comments": [
        {
            "parent_comment": {
                "parent_content": "\"Thế giới này không có người vô tâm"
            },
            "replies": [
                {
                    "reply_content": "Em biết bản thân mình chẳng là gì với anh!! "
                }
            ]
        },
        {
            "parent_comment": {
                "parent_content": "Chỉ là tâm của họ không hướng về bạn mà thôi \""
            },
            "replies": [
                {
                    "reply_content": "Em biết bản thân mình chẳng là gì với anh!! "
                }
            ]
        },
        {
            "parent_comment": {
                "parent_content": "\"Thế giới này không có người vô tâm"
            },
            "replies": [
                {
                    "reply_content": "đồng ý"
                }
            ]
        },
        {
            "parent_comment": {
                "parent_content": "Chỉ là tâm của họ không hướng về bạn mà thôi \""
            },
            "replies": [
                {
                    "reply_content": "đồng ý"
                }
            ]
        },
        {
            "parent_comment": {
                "parent_content": "\"Thế giới này không có người vô tâm"
            },
            "replies": [
                {
                    "reply_content": "Duma"
                }
            ]
        },
        {
            "parent_comment": {
                "parent_content": "Chỉ là tâm của họ không hướng về bạn mà thôi \""
            },
            "replies": [
                {
                    "reply_content": "Duma"
                }
            ]
        },
        {
            "parent_comment": {
                "parent_content": "\"Thế giới này không có người vô tâm"
            },
            "replies": [
                {
                    "reply_content": "Nguyễn Mạnh Lưu "
                }
            ]
        },
        {
            "parent_comment": {
                "parent_content": "Chỉ là tâm của họ không hướng về bạn mà thôi \""
            },
            "replies": [
                {
                    "reply_content": "Nguyễn Mạnh Lưu "
                }
            ]
        },
        {
            "parent_comment": {
                "parent_content": "\"Thế giới này không có người vô tâm"
            },
            "replies": [
                {
                    "reply_content": "Nguyễn Thị Kim Oanh "
                }
            ]
        },
        {
            "parent_comment": {
                "parent_content": "Chỉ là tâm của họ không hướng về bạn mà thôi \""
            },
            "replies": [
                {
                    "reply_content": "Nguyễn Thị Kim Oanh "
                }
            ]
        }
    ]
}