{
    "post": "885934245307850",
    "link": "https://facebook.com/groups/821166098451332/permalink/885934245307850",
    "post_comments": [
        {
            "parent_comment": {
                "parent_user": "Cloud Bae",
                "parent_content": " đúng rồi, quá là pubz"
            },
            "replies": [
                {
                    "reply_user": "Trần Như Bình",
                    "reply_content": " "
                }
            ]
        },
        {
            "parent_comment": {
                "parent_user": "Bùi Thị Hà Phương",
                "parent_content": "Đừng buồn vì b xấu  ngoài xấu ra bạn còn nghèo nữa mà:v nhưng cô gái ơi dù thế nào bạn cũng đẹp theo nét riêng của mình  việc của bạn hiện tại bạn phải khiến mn công nhận điều đó , yêu thương bản thân đi nè skincare dưỡng da đi làm đẹp đi rồi nhất định b sẽ tìm được chân mệnh của đời mình thôi . Tin tui đi"
            },
            "replies": [
                {
                    "reply_user": "Nguyễn Yến",
                    "reply_content": " Tiền đâu hả bạn iu oiii Có tiền mới đẹp đc nhoa =((("
                },
                {
                    "reply_user": "Bùi Thị Hà Phương",
                    "reply_content": " :))) tiết kiệm tiền đi:v mk cx tiết kiệm tiền mua đồ về á"
                }
            ]
        },
        {
            "parent_comment": {
                "parent_user": "Trần Phạm Phương Uyên",
                "parent_content": "Nguyễn Kiều Mai Vy "
            },
            "replies": [
                {
                    "reply_user": "Nguyễn Kiều Mai Vy",
                    "reply_content": " do mình hong sink"
                }
            ]
        },
        {
            "parent_comment": {
                "parent_user": "Ngọc Hà",
                "parent_content": "Thảo Vân chắc là v "
            },
            "replies": [
                {
                    "reply_user": "Thảo Vân",
                    "reply_content": " Chắc chắn là vậy "
                }
            ]
        },
        {
            "parent_comment": {
                "parent_user": "Uyên Phương",
                "parent_content": "Thảo "
            },
            "replies": [
                {
                    "reply_user": "Thảo Hoàng",
                    "reply_content": " có 1 chút nhan sắc thì mọi chuyện đã khong như bh"
                }
            ]
        },
        {
            "parent_comment": {
                "parent_user": "Hoang Mai Tuan",
                "parent_content": "tai sao lai tu ti chu "
            },
            "replies": [
                {
                    "reply_user": "Phuong Pham",
                    "reply_content": " tu tin len bbi"
                }
            ]
        }
    ]
}