{
    "post": "886770461890895",
    "link": "https://facebook.com/groups/821166098451332/permalink/886770461890895",
    "post_comments": [
        {
            "parent_comment": {
                "parent_user": "Mỹ Lệ",
                "parent_content": "có ai khóc mà nước mắt chỉ rơi một bên 0 "
            },
            "replies": [
                {
                    "reply_user": "Thúy Nguyễn",
                    "reply_content": "   k nói"
                },
                {
                    "reply_user": "Mỹ Lệ",
                    "reply_content": "  ủa 0 hỏi vì sao khoc à"
                }
            ]
        },
        {
            "parent_comment": {
                "parent_user": "Nguyễn Thiện Nhân",
                "parent_content": "cầu mong a sẽ không dùng polime để lau nước mắt"
            },
            "replies": [
                {
                    "reply_user": "Phuong Duien",
                    "reply_content": " đại za"
                },
                {
                    "reply_user": "Nguyễn Thiện Nhân",
                    "reply_content": " thenkiu"
                }
            ]
        },
        {
            "parent_comment": {
                "parent_user": "Nguyễn Hiền",
                "parent_content": "v bồ mik là bê đê r"
            },
            "replies": [
                {
                    "reply_user": "Lê Trần Ngọc Hoài",
                    "reply_content": "là do không chơi đồ đấy bạn ạ"
                }
            ]
        },
        {
            "parent_comment": {
                "parent_user": "Nguyễn Quyên",
                "parent_content": "tai chung ta chua truong thanh..."
            },
            "replies": [
                {
                    "reply_user": "Tran My",
                    "reply_content": " tại m trẻ trâu"
                }
            ]
        },
        {
            "parent_comment": {
                "parent_user": "Nhung Beo",
                "parent_content": "Nguyễn HằNg trưởng thanh lai cang khok nhieu hon!"
            },
            "replies": [
                {
                    "reply_user": "Nguyễn HằNg",
                    "reply_content": "  yepp"
                }
            ]
        },
        {
            "parent_comment": {
                "parent_user": "Trúc Quỳnh",
                "parent_content": "tại chúng ta nuwngloonf"
            },
            "replies": [
                {
                    "reply_user": "Thu Anh Nguyen",
                    "reply_content": " gì thấy ghe zãy "
                },
                {
                    "reply_user": "Trúc Quỳnh",
                    "reply_content": " nunglon tự nhiên buồn rồi khóc đó =}}"
                },
                {
                    "reply_user": "Thu Anh Nguyen",
                    "reply_content": " để tao đá cho cái tắt nuwngs luôn này"
                },
                {
                    "reply_user": "Trúc Quỳnh",
                    "reply_content": " cailunme giang hồ kìa"
                },
                {
                    "reply_user": "Thu Anh Nguyen",
                    "reply_content": " ngon báo công an đi"
                },
                {
                    "reply_user": "Trúc Quỳnh",
                    "reply_content": " tao thích báo 113 chứ không thích báo công an đực khong"
                },
                {
                    "reply_user": "Thu Anh Nguyen",
                    "reply_content": " tao méc mẹ"
                },
                {
                    "reply_user": "Trúc Quỳnh",
                    "reply_content": " Tao khóc"
                }
            ]
        },
        {
            "parent_comment": {
                "parent_user": "Lê Tấn Lộc",
                "parent_content": "Kagarizuki Yunki "
            },
            "replies": [
                {
                    "reply_user": "Yunki Kagarizuki",
                    "reply_content": "  Buồn thì khóc ik em dỗ"
                }
            ]
        },
        {
            "parent_comment": {
                "parent_user": "Pé Thẳm",
                "parent_content": "Duma nín coi hơi bị chửi nữa giờ "
            },
            "replies": [
                {
                    "reply_user": "Thu Anh Nguyen",
                    "reply_content": " sao chửi dạ ?"
                },
                {
                    "reply_user": "Pé Thẳm",
                    "reply_content": " thì dị đó hmmm"
                }
            ]
        }
    ]
}