{
    "post": "885222572045684",
    "link": "https://facebook.com/groups/821166098451332/permalink/885222572045684",
    "post_comments": [
        {
            "parent_comment": {
                "parent_user": "Nguyễn N. Khánhh",
                "parent_content": "Vang"
            },
            "replies": [
                {
                    "reply_user": "Khánh Trang",
                    "reply_content": "Nguyễn Nam Khánhh vỗ mồm"
                }
            ]
        },
        {
            "parent_comment": {
                "parent_user": "Khả Ái",
                "parent_content": "Có khi ngta đọc được ròiii....nhưg thích làm ngơ đấy :(((("
            },
            "replies": [
                {
                    "reply_user": "Trần Thị Kiều Ang",
                    "reply_content": " đã xem  "
                }
            ]
        },
        {
            "parent_comment": {
                "parent_user": "Minhh Hoàngg",
                "parent_content": ""
            },
            "replies": [
                {
                    "reply_user": "Nguyễn Thanh Hiền",
                    "reply_content": " lụy tình là dở rồi"
                }
            ]
        }
    ]
}