{
    "post": "806440089956695",
    "link": "https://facebook.com/groups/362531861014189/permalink/806440089956695",
    "post_comments": [
        {
            "parent_comment": {
                "parent_user": "Ngọc Linh",
                "parent_content": "Do bn chưa gặp người hiểu và quan tâm đến bn thôi, chứ chơi vs mấy người ko quan tâm nhiều đến mik lúc đi chung nó chỉ nói chuyện vs đứa khác mà ko chịu để ý đến mik thì cũng cô đơn"
            },
            "replies": [
                {
                    "reply_user": "Cười Lên Nhé",
                    "reply_content": " nếu thế thì nên tìm cách làm bản thân hấp dẫn lên, hoặc tìm những đứa bạn bớt bớt cái tính thích thể hiện, chúng nó sống cá nhân quá thì ko nên chơi thân"
                }
            ]
        }
    ]
}