{
    "post": "807814306485940",
    "link": "https://facebook.com/groups/362531861014189/permalink/807814306485940",
    "post_comments": [
        {
            "parent_comment": {
                "parent_user": "Cỏ Linh Lăng",
                "parent_content": "Bạn là người quyết định mọi chuyện. Bạn biết điều này phải không? Cam xúc của bạn hiện nay do chính bạn tạo ra không phải một ai đó. Theo mình bạn nên nói rõ với bạn trai đó đi. Có thể chỉ một nút thắt nhỏ dc tháo gỡ. Cuộc đời còn người có thể sẽ bừng sáng hơn. Bạn sẽ có một ty đẹp, sẽ gặp dc một a ny thương bạn nhiều hơn bạn nghĩ. Chỉ cần bạn sống tốt mà thôi. Mình nghĩ anh kia không phải là của bạn đâu. Người yêu thương bạn vẫn đang chờ đợi bạn"
            },
            "replies": [
                {
                    "reply_user": "Liciiana Bangtan",
                    "reply_content": "vâng, cảm ơn lời khuyên của bạn"
                }
            ]
        }
    ]
}