{
    "post": "785767765357261",
    "link": "https://facebook.com/groups/362531861014189/permalink/785767765357261",
    "post_comments": [
        {
            "parent_comment": {
                "parent_user": "Cuong Quach",
                "parent_content": "Em check inbox nhé!"
            },
            "replies": [
                {
                    "reply_user": "Khánh Ly Khánh Ly",
                    "reply_content": " dạ"
                }
            ]
        },
        {
            "parent_comment": {
                "parent_user": "Nguyễn Hoàng",
                "parent_content": "Bạn ib mình. Mình sẽ hỗ trợ bạn"
            },
            "replies": [
                {
                    "reply_user": "Hoài Nguyễn",
                    "reply_content": " check ib ạ"
                }
            ]
        }
    ]
}