{
    "post": "812293229371381",
    "link": "https://facebook.com/groups/362531861014189/permalink/812293229371381",
    "post_comments": [
        {
            "parent_comment": {
                "parent_user": "Hồ Ngọc Quỳnh",
                "parent_content": "Mình đã từng giống bạn nhưng chắc mình lại khó chịu x3 x4 lần lận"
            },
            "replies": [
                {
                    "reply_user": "Lệ Quyên",
                    "reply_content": " hic kiểu làm người khác tổn thương xong không biết xin lỗi sao luôn ý"
                },
                {
                    "reply_user": "Hồ Ngọc Quỳnh",
                    "reply_content": "Bà ibox tui đi tui nói xem có giống tui k nhé"
                },
                {
                    "reply_user": "Lệ Quyên",
                    "reply_content": " ok bà"
                }
            ]
        },
        {
            "parent_comment": {
                "parent_user": "Cười Lên Nhé",
                "parent_content": "Anh đã từng bị và thấy nhiều người nóng tính và la hét. Theo anh thì. Em hãy nghĩ là mình không thể khăng khăng uốn nắn một người trưởng thành nghe theo ý mình nếu họ không thích. Chấp nhận cuộc sống có rất rất nhiều thứ không theo ý mình và mình phải học cách chấp nhận chứ không phải kháng cự vô ích. Hoặc hạn chế áp đặt suy nghĩ của mình. Khi em có thể làm được điều đó thì những việc không như ý sẽ ít hoặc không còn làm em nóng giận bực tức nữa. Đơn giản vậy thôi em."
            },
            "replies": [
                {
                    "reply_user": "Lệ Quyên",
                    "reply_content": " nhiều lúc em nghĩ ns ra để hiểu nhau hơn trong mọi mqh nhưng dường như toàn làm xa cách nhau thôi "
                },
                {
                    "reply_user": "Cười Lên Nhé",
                    "reply_content": " sau khi em.nói ra thì em.bực tức lên ha"
                },
                {
                    "reply_user": "Lệ Quyên",
                    "reply_content": " em ns trong lúc bực tức luôn ạ. Có khi còn thái độ thậm chí làm dằn mặt đối phương nữa"
                },
                {
                    "reply_user": "Cười Lên Nhé",
                    "reply_content": " bình thản mà sống thui em. Có thể người đó có lý của họ nên họ ko nghe em. Cũng có thể họ không quan tâm đến cảm xúc của em nên em có tức giận cũng vô ít. Vẫn như anh nói phái trên đó. Tập quen dần với những điều ko như ý mình trong cuộc sống. Đó là điều hiển nhiên để giảm cái giận giữ."
                },
                {
                    "reply_user": "Lệ Quyên",
                    "reply_content": " dạ em cảm ơn anh ạ"
                }
            ]
        },
        {
            "parent_comment": {
                "parent_user": "Nguyễn Hiếu",
                "parent_content": " mình trải qua những thứ ấy mới về , "
            },
            "replies": [
                {
                    "reply_user": "Lệ Quyên",
                    "reply_content": " dạ"
                }
            ]
        },
        {
            "parent_comment": {
                "parent_user": "Hạ Vân",
                "parent_content": "Mỗi lần c muốn nói ra những lời tổn thương người khác thì hãy đặt vào vị trí ngta xem cảm giác như thế nào. Từ đấy c phải thật kiềm chế vào cảm xúc của mình . những lúc định nói ra hãy dừng lại kiềm chế cảm xúc . hãy làm điều đó vào thì  những lúc như vậy . tuy cách làm này hơi khó nhưng nó lại rất hiệu quả. E đã từng như c và e đã tự kiềm chế cảm xúc như v . rất tốt"
            },
            "replies": [
                {
                    "reply_user": "Lệ Quyên",
                    "reply_content": " cũng cố lắm ạ nhưng đa số kiểu lời ns ngta vừa thốt ra mình có ý vặn vẹo ngay ấy thành ra cãi nhau mãi"
                },
                {
                    "reply_user": "Hạ Vân",
                    "reply_content": " bn vặn vẹo . okee . nhưng hãy lựa lời tránh những câu nói quá tổn thương đến họ. Cần điều chỉnh cảm xúc và câu từ trước khi nói ra "
                },
                {
                    "reply_user": "Lệ Quyên",
                    "reply_content": " dạ "
                }
            ]
        }
    ]
}