{
    "post": "323400379221560",
    "link": "https://facebook.com/groups/304774881084110/permalink/323400379221560",
    "post_comments": [
        {
            "parent_comment": {
                "parent_content": "/Chan chua ?/"
            },
            "replies": [
                {
                    "reply_content": "Đó là những gì các đồng chí FA muốn nghe “chiatay”"
                }
            ]
        }
    ]
}