{
    "post": "314107056817559",
    "link": "https://facebook.com/groups/304774881084110/permalink/314107056817559",
    "post_comments": [
        {
            "parent_comment": {
                "parent_content": "/uh dung vay"
            },
            "replies": [
                {
                    "reply_content": "Mình không có nhan sắc đâu, thích gái đẹp thì phắn:)"
                }
            ]
        },
        {
            "parent_comment": {
                "parent_content": "/uh dung vay"
            },
            "replies": [
                {
                    "reply_content": "Một thứ mà sẽ ko bao h tôi có đc "
                }
            ]
        },
        {
            "parent_comment": {
                "parent_content": "/uh dung vay"
            },
            "replies": [
                {
                    "reply_content": "Một người bảo vệ tôi khỏi.."
                }
            ]
        },
        {
            "parent_comment": {
                "parent_content": "/uh dung vay"
            },
            "replies": [
                {
                    "reply_content": "Khó lắm"
                }
            ]
        },
        {
            "parent_comment": {
                "parent_content": "/uh dung vay"
            },
            "replies": [
                {
                    "reply_content": "Đơn giản vãi r mà chẳng ai thực hiện đc buồn ghê "
                }
            ]
        }
    ]
}