{
    "post": "317406843154247",
    "link": "https://facebook.com/groups/304774881084110/permalink/317406843154247",
    "post_comments": [
        {
            "parent_comment": {
                "parent_content": "Đúng phải không?"
            },
            "replies": [
                {
                    "reply_content": "Nếu tốt thì hong có cũ"
                }
            ]
        },
        {
            "parent_comment": {
                "parent_content": "Đúng phải không?"
            },
            "replies": [
                {
                    "reply_content": "Vang :>"
                }
            ]
        },
        {
            "parent_comment": {
                "parent_content": "Đúng phải không?"
            },
            "replies": [
                {
                    "reply_content": "dm để xem... dc bao lâu"
                }
            ]
        },
        {
            "parent_comment": {
                "parent_content": "Đúng phải không?"
            },
            "replies": [
                {
                    "reply_content": "Đúng vậy!"
                }
            ]
        },
        {
            "parent_comment": {
                "parent_content": "Đúng phải không?"
            },
            "replies": [
                {
                    "reply_content": "Bắt đầu còn thấy khó :(( Minh Thuw "
                }
            ]
        },
        {
            "parent_comment": {
                "parent_content": "Đúng phải không?"
            },
            "replies": [
                {
                    "reply_content": "Umm^^"
                }
            ]
        },
        {
            "parent_comment": {
                "parent_content": "Đúng phải không?"
            },
            "replies": [
                {
                    "reply_content": "Hazz"
                }
            ]
        },
        {
            "parent_comment": {
                "parent_content": "Đúng phải không?"
            },
            "replies": [
                {
                    "reply_content": "Đúng vậy"
                }
            ]
        },
        {
            "parent_comment": {
                "parent_content": "Đúng phải không?"
            },
            "replies": [
                {
                    "reply_content": "thấy rồi thì cho 1p để gọi cho mình"
                }
            ]
        },
        {
            "parent_comment": {
                "parent_content": "Đúng phải không?"
            },
            "replies": [
                {
                    "reply_content": "Dạ ^^"
                }
            ]
        },
        {
            "parent_comment": {
                "parent_content": "Đúng phải không?"
            },
            "replies": [
                {
                    "reply_content": "Haizzz"
                }
            ]
        },
        {
            "parent_comment": {
                "parent_content": "Đúng phải không?"
            },
            "replies": [
                {
                    "reply_content": "Mệt khong"
                }
            ]
        },
        {
            "parent_comment": {
                "parent_content": "Đúng phải không?"
            },
            "replies": [
                {
                    "reply_content": "Càng níu kéo càng dễ mất"
                }
            ]
        },
        {
            "parent_comment": {
                "parent_content": "Đúng phải không?"
            },
            "replies": [
                {
                    "reply_content": "Chúng ta đều bỏ lỡ nhau thay vì tiếp tục cho tương lai sau này! "
                }
            ]
        },
        {
            "parent_comment": {
                "parent_content": "Đúng phải không?"
            },
            "replies": [
                {
                    "reply_content": "đúng rồi"
                }
            ]
        },
        {
            "parent_comment": {
                "parent_content": "Đúng phải không?"
            },
            "replies": [
                {
                    "reply_content": "Con yeu em khong ?"
                }
            ]
        },
        {
            "parent_comment": {
                "parent_content": "Đúng phải không?"
            },
            "replies": [
                {
                    "reply_content": "Tôi ghét tất cả mọi thứ ! Kể cả nguyện vọng duy nhất của tôi cũng bị tôi phá hủy ! Lần đầu tiên thấy thất vọng về bản thân tuột cùng :))"
                }
            ]
        },
        {
            "parent_comment": {
                "parent_content": "Đúng phải không?"
            },
            "replies": [
                {
                    "reply_content": "Đối với tui thì cái nào nó cũng khó hết nha"
                }
            ]
        },
        {
            "parent_comment": {
                "parent_content": "Đúng phải không?"
            },
            "replies": [
                {
                    "reply_content": "Đúng"
                }
            ]
        },
        {
            "parent_comment": {
                "parent_content": "Đúng phải không?"
            },
            "replies": [
                {
                    "reply_content": "Ct thì càng đơn giản"
                }
            ]
        },
        {
            "parent_comment": {
                "parent_content": "Đúng phải không?"
            },
            "replies": [
                {
                    "reply_content": "Đúng"
                }
            ]
        },
        {
            "parent_comment": {
                "parent_content": "Đúng phải không?"
            },
            "replies": [
                {
                    "reply_content": "Kho khong ?"
                }
            ]
        },
        {
            "parent_comment": {
                "parent_content": "Đúng phải không?"
            },
            "replies": [
                {
                    "reply_content": "Đúng"
                }
            ]
        },
        {
            "parent_comment": {
                "parent_content": "Đúng phải không?"
            },
            "replies": [
                {
                    "reply_content": "Bắt đầu rất dễ kết thúc cũng rất nhanh nhưng nó lại rất khó quên"
                }
            ]
        },
        {
            "parent_comment": {
                "parent_content": "Đúng phải không?"
            },
            "replies": [
                {
                    "reply_content": "Yess"
                }
            ]
        },
        {
            "parent_comment": {
                "parent_content": "Đúng phải không?"
            },
            "replies": [
                {
                    "reply_content": "Đặng Đình Vinh chắc là m hông hiểu gì đâu ha"
                }
            ]
        },
        {
            "parent_comment": {
                "parent_content": "Đúng phải không?"
            },
            "replies": [
                {
                    "reply_content": "Dung roi :))"
                }
            ]
        },
        {
            "parent_comment": {
                "parent_content": "Đúng phải không?"
            },
            "replies": [
                {
                    "reply_content": "Hehe"
                }
            ]
        }
    ]
}