{
    "post": "312632413631690",
    "link": "https://facebook.com/groups/304774881084110/permalink/312632413631690",
    "post_comments": [
        {
            "parent_comment": {
                "parent_user": "Dương Minh An",
                "parent_content": "yahh from yesterday i missed you, it ended "
            },
            "replies": [
                {
                    "reply_user": "Bạn Còii",
                    "reply_content": " Really disappointing"
                }
            ]
        },
        {
            "parent_comment": {
                "parent_content": "/6-3-2021 vao luc 23h56 toi bo cuoc"
            },
            "replies": [
                {
                    "reply_content": "Bên mình vẫn nhận : - Khôi phục tài khoản khi bị chiếm quyền kiểm soát- Xóa tài khoản người bạn ghét- Buff follow, like, share và nhiều dịch vụ khác...- Ai có nhu cầu ib cho mình nhé !"
                }
            ]
        },
        {
            "parent_comment": {
                "parent_user": "Ngô Thu Thảo",
                "parent_content": "Hi"
            },
            "replies": [
                {
                    "reply_user": "Hoàng Kim Liên",
                    "reply_content": " đaubuoi"
                },
                {
                    "reply_user": "Ngô Thu Thảo",
                    "reply_content": " cailongivaydcm"
                }
            ]
        },
        {
            "parent_comment": {
                "parent_user": "Nguyễn Thị Thu",
                "parent_content": "Nguyễn Thanh Bình k biet tôi còn bao nhieu cái cuối cùng nữa "
            },
            "replies": [
                {
                    "reply_user": "Nguyễn Thanh Bình",
                    "reply_content": " cạn lời vs b luôn"
                }
            ]
        },
        {
            "parent_comment": {
                "parent_content": "/6-3-2021 vao luc 23h56 toi bo cuoc"
            },
            "replies": [
                {
                    "reply_content": "Nguyễn Thanh Bình k biet tôi còn bao nhieu cái cuối cùng nữa "
                }
            ]
        },
        {
            "parent_comment": {
                "parent_user": "Tiên Mỹ",
                "parent_content": "Ngọc Thảo de de"
            },
            "replies": [
                {
                    "reply_user": "Ngọc Thảo",
                    "reply_content": " dìa diaa"
                }
            ]
        },
        {
            "parent_comment": {
                "parent_content": "/6-3-2021 vao luc 23h56 toi bo cuoc"
            },
            "replies": [
                {
                    "reply_content": "Ngọc Thảo de de"
                }
            ]
        },
        {
            "parent_comment": {
                "parent_content": "/6-3-2021 vao luc 23h56 toi bo cuoc"
            },
            "replies": [
                {
                    "reply_content": "21:39 ngày 12/3/2021 "
                }
            ]
        },
        {
            "parent_comment": {
                "parent_content": "/6-3-2021 vao luc 23h56 toi bo cuoc"
            },
            "replies": [
                {
                    "reply_content": "Và ngày 12/3 t phát hiện ra sự thật"
                }
            ]
        },
        {
            "parent_comment": {
                "parent_content": "/6-3-2021 vao luc 23h56 toi bo cuoc"
            },
            "replies": [
                {
                    "reply_content": "Bye ex nhaTao đéo luỵ nữa đâu thằng lon "
                }
            ]
        },
        {
            "parent_comment": {
                "parent_content": "/6-3-2021 vao luc 23h56 toi bo cuoc"
            },
            "replies": [
                {
                    "reply_content": "Ban be bao em tu bo anhEm thi chi biet noi \" em nho anh \"Roi anh bao \" anh cung vay \"...."
                }
            ]
        },
        {
            "parent_comment": {
                "parent_user": "Phùng Thu Hà",
                "parent_content": "sao lại là 6/3 đúng sinh nhật mình"
            },
            "replies": [
                {
                    "reply_user": "Bạn Còii",
                    "reply_content": " vì hôm đó tôi up tus ad mới duyệt hôm nay -))"
                }
            ]
        },
        {
            "parent_comment": {
                "parent_content": "/6-3-2021 vao luc 23h56 toi bo cuoc"
            },
            "replies": [
                {
                    "reply_content": "sao lại là 6/3 đúng sinh nhật mình"
                }
            ]
        },
        {
            "parent_comment": {
                "parent_content": "/6-3-2021 vao luc 23h56 toi bo cuoc"
            },
            "replies": [
                {
                    "reply_content": "Buồn vậy ạ????"
                }
            ]
        },
        {
            "parent_comment": {
                "parent_content": "/6-3-2021 vao luc 23h56 toi bo cuoc"
            },
            "replies": [
                {
                    "reply_content": "Mohican Xuân Đức :))) kìa "
                }
            ]
        },
        {
            "parent_comment": {
                "parent_user": "Đoàn Yến",
                "parent_content": "chuc anh hanh fuck"
            },
            "replies": [
                {
                    "reply_user": "Vy Nguyễn",
                    "reply_content": " chuc anh hanh fuck,em da co nguoi moi roi=))"
                },
                {
                    "reply_user": "Đoàn Yến",
                    "reply_content": " moi cailon :(( "
                }
            ]
        },
        {
            "parent_comment": {
                "parent_content": "/6-3-2021 vao luc 23h56 toi bo cuoc"
            },
            "replies": [
                {
                    "reply_content": "chuc anh hanh fuck"
                }
            ]
        },
        {
            "parent_comment": {
                "parent_content": "/6-3-2021 vao luc 23h56 toi bo cuoc"
            },
            "replies": [
                {
                    "reply_content": "La ngay cuoi cung, chac la vay"
                }
            ]
        },
        {
            "parent_comment": {
                "parent_user": "Thaoo Mei",
                "parent_content": "Thúy Hạnh =))"
            },
            "replies": [
                {
                    "reply_user": "Thúy Hạnh",
                    "reply_content": " ơ con bé này, nhưng... "
                },
                {
                    "reply_user": "Thaoo Mei",
                    "reply_content": " khok huhu i"
                }
            ]
        },
        {
            "parent_comment": {
                "parent_content": "/6-3-2021 vao luc 23h56 toi bo cuoc"
            },
            "replies": [
                {
                    "reply_content": "Thúy Hạnh =))"
                }
            ]
        },
        {
            "parent_comment": {
                "parent_content": "/6-3-2021 vao luc 23h56 toi bo cuoc"
            },
            "replies": [
                {
                    "reply_content": "Tài Thành buon:("
                }
            ]
        }
    ]
}