{
    "post": "313633510198247",
    "link": "https://facebook.com/groups/304774881084110/permalink/313633510198247",
    "post_comments": [
        {
            "parent_comment": {
                "parent_content": "“Đó là lần đầu tiên trong đời tôi nhận thức được rằng, trong tình yêu, thứ tự cũng thật sự rất quan trọng"
            },
            "replies": [
                {
                    "reply_content": "Hieu chuyen qua cung la 1 toi."
                }
            ]
        },
        {
            "parent_comment": {
                "parent_content": " Người ta không thể rời bỏ người đã đến trước đó để mà nắm lấy tay tôi"
            },
            "replies": [
                {
                    "reply_content": "Hieu chuyen qua cung la 1 toi."
                }
            ]
        },
        {
            "parent_comment": {
                "parent_content": " Vậy nên tôi chủ động rời đi"
            },
            "replies": [
                {
                    "reply_content": "Hieu chuyen qua cung la 1 toi."
                }
            ]
        },
        {
            "parent_comment": {
                "parent_content": "“Đó là lần đầu tiên trong đời tôi nhận thức được rằng, trong tình yêu, thứ tự cũng thật sự rất quan trọng"
            },
            "replies": [
                {
                    "reply_content": "Là bản thân gặp được người mà mình muốn chăm sóc cả đời nhưng ở cái thời điểm đó, người đó lại chưa thể quên được người cũ. Đúng người, đúng thời điểm là hạnh phúc, còn đúng người nhưng sai thời điểm chỉ còn là tiếng thở dài.."
                }
            ]
        },
        {
            "parent_comment": {
                "parent_content": " Người ta không thể rời bỏ người đã đến trước đó để mà nắm lấy tay tôi"
            },
            "replies": [
                {
                    "reply_content": "Là bản thân gặp được người mà mình muốn chăm sóc cả đời nhưng ở cái thời điểm đó, người đó lại chưa thể quên được người cũ. Đúng người, đúng thời điểm là hạnh phúc, còn đúng người nhưng sai thời điểm chỉ còn là tiếng thở dài.."
                }
            ]
        },
        {
            "parent_comment": {
                "parent_content": " Vậy nên tôi chủ động rời đi"
            },
            "replies": [
                {
                    "reply_content": "Là bản thân gặp được người mà mình muốn chăm sóc cả đời nhưng ở cái thời điểm đó, người đó lại chưa thể quên được người cũ. Đúng người, đúng thời điểm là hạnh phúc, còn đúng người nhưng sai thời điểm chỉ còn là tiếng thở dài.."
                }
            ]
        }
    ]
}