{
    "post": "314993273395604",
    "link": "https://facebook.com/groups/304774881084110/permalink/314993273395604",
    "post_comments": [
        {
            "parent_comment": {
                "parent_content": "Nếu em biết được những gì anh đã trải qua "
            },
            "replies": [
                {
                    "reply_content": "Có những chuyện,chỉ một mình hiểu là đủ ^^"
                }
            ]
        },
        {
            "parent_comment": {
                "parent_content": "Thì có lẽ em sẽ hiểu và thương anh hơn thay vì trách anh"
            },
            "replies": [
                {
                    "reply_content": "Có những chuyện,chỉ một mình hiểu là đủ ^^"
                }
            ]
        },
        {
            "parent_comment": {
                "parent_content": "Nếu em biết được những gì anh đã trải qua "
            },
            "replies": [
                {
                    "reply_content": "Thương anh"
                }
            ]
        },
        {
            "parent_comment": {
                "parent_content": "Thì có lẽ em sẽ hiểu và thương anh hơn thay vì trách anh"
            },
            "replies": [
                {
                    "reply_content": "Thương anh"
                }
            ]
        }
    ]
}