{
    "post": "793443687923002",
    "link": "https://facebook.com/groups/362531861014189/permalink/793443687923002",
    "post_comments": [
        {
            "parent_comment": {
                "parent_user": "Chang Tỷ Tỷ",
                "parent_content": "B cu hỏi nhé ạ"
            },
            "replies": [
                {
                    "reply_user": "Xanh Lá",
                    "reply_content": " ib ạ"
                }
            ]
        }
    ]
}