{
    "post": "807645373169500",
    "link": "https://facebook.com/groups/362531861014189/permalink/807645373169500",
    "post_comments": [
        {
            "parent_comment": {
                "parent_user": "Nguyễn Bá Mạnh",
                "parent_content": "Bạn đã thử hỏi gia đình bạn chưa."
            },
            "replies": [
                {
                    "reply_user": "Ca Ca",
                    "reply_content": " bame nói đi đi r vào học nhưng mà mik sợ ko kịp í;-;;;"
                },
                {
                    "reply_user": "Nguyễn Bá Mạnh",
                    "reply_content": ". Bạn nghĩ sao nếu mik mong bạn nói với ba mẹ bạn là muốn ba mẹ bạn nói chuyện với giáo viên của bạn."
                }
            ]
        },
        {
            "parent_comment": {
                "parent_user": "Diễm Quỳnh",
                "parent_content": "Khi nào c đi chơi vậy? Nếu muốn thì ta tìm cách, làm hết btap và chuẩn bị đủ bài cho các môn học hôm t2 rồi thoải mái đi chơi, sáng t2 về đi học là được"
            },
            "replies": [
                {
                    "reply_user": "Ca Ca",
                    "reply_content": " sáng mai và mik mới đc thông báo:)"
                },
                {
                    "reply_user": "Diễm Quỳnh",
                    "reply_content": "   Cày cuốc đêm hôm để đi thoi bạn"
                }
            ]
        }
    ]
}