{
    "post": "802339877033383",
    "link": "https://facebook.com/groups/362531861014189/permalink/802339877033383",
    "post_comments": [
        {
            "parent_comment": {
                "parent_user": "Dương Đức Nguyên",
                "parent_content": "Tìm chỗ nào phù hợp rồi rủ một người bạn đi dạo tâm sự đi bạn"
            },
            "replies": [
                {
                    "reply_user": "Nguyễn Thoa",
                    "reply_content": " không có ai có thì không đi đc cùng với họ"
                }
            ]
        }
    ]
}