{
    "post": "809382012995836",
    "link": "https://facebook.com/groups/362531861014189/permalink/809382012995836",
    "post_comments": [
        {
            "parent_comment": {
                "parent_user": "Lê Văn Khoa",
                "parent_content": "Dĩ độc trị độc là phương án cuối cùng nếu khuyên không được, răn chẳng xong. Mà phải thực hiện có kế hoạch mới mong đạt kết quả như ý muốn!"
            },
            "replies": [
                {
                    "reply_user": "Như Quỳnh",
                    "reply_content": "  mình chưa biết phải xử lí ntn ạ"
                }
            ]
        },
        {
            "parent_comment": {
                "parent_user": "Trần Thị Hòa",
                "parent_content": "E khuyên chồng e chồng e phản ứng ntn"
            },
            "replies": [
                {
                    "reply_user": "Như Quỳnh",
                    "reply_content": " chồng e nói nếu bây giờ 2 vc vay đc tiền chồng e trả nợ 25tr xong sẽ k phải nghĩ ngợi ng này đòi ng kia đòi nữa mà tập chung làm ăn k đỏ đen nữa chị ạ"
                },
                {
                    "reply_user": "Trần Thị Hòa",
                    "reply_content": " hôm qua c bận, hn c mới nt lại,đầu tiên e phải làm mọi cách để chồng e hiểu chỉ có dừng lại và tập trung làm ăn thì mới trả hết nợ, chứ còn tiếp tục thì càng chơi càng cay mà nợ ngày càng nhiều,lãi mẹ đẻ lãi con, nếu e nói mà a ấy k chịu hiểu thì e phải cho a ấy hiểu cái cảm giác về nhà cơm k có mà ăn, quần áo k có ai giặt, nhà cửa vắng tanh k có ai, e về nhà bố mẹ đẻ e chơi mấy hôm, e sợ ô bà biết thì bịa ra lý do gì đấy bảo là 2 mẹ con về chơi mấy hôm, 2 mẹ con e đi mà ô ấy k có ý kiến ý có gì thì e phải xem lại bản thân mình muốn gì, nếu e vẫn muốn sống với chồng e, thì e hãy tiếp tục sống vì k phải ng phụ nữ nào sinh ra đã đủ mạnh mẽ để nuôi con 1 mình e ạ, e có tin tưởng chồng e k, nếu tin tưởng thì e vay tiền trả nợ cho a ấy cũng dk nhưng phải bắt a ấy viết giấy ghi rõ vợ tôi trả nợ cho t để t bỏ đề đóm đỏ đen, nếu t k bỏ đk thì cuộc hôn nhân này cũng xin chấm dứt"
                },
                {
                    "reply_user": "Như Quỳnh",
                    "reply_content": " e cảm ơn c nhiều ạ"
                }
            ]
        }
    ]
}