{
    "post": "802336083700429",
    "link": "https://facebook.com/groups/362531861014189/permalink/802336083700429",
    "post_comments": [
        {
            "parent_comment": {
                "parent_user": "Thanh Oa",
                "parent_content": "Mình nghĩ bạn nên nhận từ nhiều ý kiến của mọi người thì bạn sẽ có cái nhìn đa chiều hơn để có thể lựa chọn cái bạn thấy thích hợp nhất hơn là tin vào 1 người."
            },
            "replies": [
                {
                    "reply_user": "Thùy Linh Lung",
                    "reply_content": "  nhưng mk muốn nc trực tiếp để hiểu rõ vấn đề hơn"
                },
                {
                    "reply_user": "Thanh Oa",
                    "reply_content": " vâng, bạn liên hệ với họ đi, vì VN ít phát triển ngành tâm lí học nên rất ít người làm, nếu ko có thì bạn nt mình."
                },
                {
                    "reply_user": "Thùy Linh Lung",
                    "reply_content": " mk cảm ơn b"
                }
            ]
        },
        {
            "parent_comment": {
                "parent_user": "Nguyễn Huyền",
                "parent_content": "Hiền Diệu Julia chị gặp chị Hiền nhé. Chị sẽ tư vấn cho bạn nha"
            },
            "replies": [
                {
                    "reply_user": "Thùy Linh Lung",
                    "reply_content": "  em cảm ơn a"
                },
                {
                    "reply_user": "Nguyễn Huyền",
                    "reply_content": " Chúc bạn may mắn và hạnh phúc nha"
                },
                {
                    "reply_user": "Thùy Linh Lung",
                    "reply_content": "  em cảm ơn nhiều "
                },
                {
                    "reply_user": "Nguyễn Huyền",
                    "reply_content": " "
                }
            ]
        },
        {
            "parent_comment": {
                "parent_user": "Nguyễn Thoa",
                "parent_content": "E cũng muốn đc tư vấn"
            },
            "replies": [
                {
                    "reply_user": "Nguyễn Huyền",
                    "reply_content": " Nếu bạn cần liên hệ với chị Hiền Diệu Julia  nha chị tv cho bạn. Chúc bạn hạnh phúc nha"
                }
            ]
        }
    ]
}