{
    "post": "807835713150466",
    "link": "https://facebook.com/groups/362531861014189/permalink/807835713150466",
    "post_comments": [
        {
            "parent_comment": {
                "parent_user": "Nguyễn Quốc Kỳ",
                "parent_content": "Ib nhé"
            },
            "replies": [
                {
                    "reply_user": "Nhật Khánh Nguyễn",
                    "reply_content": " mình cũng muốn đx tham vấn"
                },
                {
                    "reply_user": "Nguyễn Quốc Kỳ",
                    "reply_content": " ib cho Kỳ nhé "
                }
            ]
        }
    ]
}