{
    "post": "818733568727347",
    "link": "https://facebook.com/groups/362531861014189/permalink/818733568727347",
    "post_comments": [
        {
            "parent_comment": {
                "parent_user": "Chang Tỷ Tỷ",
                "parent_content": "Dạ không nên ạ"
            },
            "replies": [
                {
                    "reply_user": "Trần Bảo",
                    "reply_content": "Là thế nào à bạn"
                },
                {
                    "reply_user": "Chang Tỷ Tỷ",
                    "reply_content": " ng sống bạc tình bạc nghĩa như bạn nói o trên, dù có níu kéo nhg về bản chất cg chỉ là tạm thời vì khi con người ta bị mất đi cái gì đó, mới thấy tiếc nuối, nhg nếu quay lại họ sẽ trở về bản tính cũ b ạ"
                },
                {
                    "reply_user": "Trần Bảo",
                    "reply_content": " Vì quá mải mê làm việc đưa tiền cho vợ ko cờ bạc trai gái"
                },
                {
                    "reply_user": "Chang Tỷ Tỷ",
                    "reply_content": "  bạn có thể inb kỹ hơn giúp mh nhé với ạ"
                }
            ]
        },
        {
            "parent_comment": {
                "parent_user": "Oanh Lê",
                "parent_content": "Mình cũng đang trong tình trạng này mà mình ko biết nên hay ko"
            },
            "replies": [
                {
                    "reply_user": "Trần Bảo",
                    "reply_content": " mình nói chuyện riêng msg đi bạn "
                }
            ]
        },
        {
            "parent_comment": {
                "parent_user": "Sa Sara",
                "parent_content": "Mất đi mới tiếc mà liệu bản tính con người có thay đổi không?"
            },
            "replies": [
                {
                    "reply_user": "Trần Bảo",
                    "reply_content": " bạn đừng nói như thế. Ko phải bản tính như thế mà là chưa biết cách y "
                }
            ]
        }
    ]
}