{
    "post": "798319080805426",
    "link": "https://facebook.com/groups/443921992911805/permalink/798319080805426",
    "post_comments": [
        {
            "parent_comment": {
                "parent_user": "Cẩm Ly",
                "parent_content": "Gái hay trai"
            },
            "replies": [
                {
                    "reply_user": "Nguyên Dương",
                    "reply_content": "Mình là gái bọn nó là trai"
                }
            ]
        },
        {
            "parent_comment": {
                "parent_user": "Kudo Shinji",
                "parent_content": "Kiếm một người bạn trai nào đó bảo vệ bạn ."
            },
            "replies": [
                {
                    "reply_user": "Nguyên Dương",
                    "reply_content": "Uhuhu mình không thể quen bạn trai, mình chưa muốn yêu cho lắm và va mẹ không muốn mình yêu đương sớm"
                },
                {
                    "reply_user": "Kudo Shinji",
                    "reply_content": "  nói mẹ hoặc cô giáo chủ nhiệm lúc ra về các bạn xàm sở em ..... "
                },
                {
                    "reply_user": "Nguyên Dương",
                    "reply_content": "Không hẳn là sàm sỡ đâu, chỉ lấy cặp hoặc chọc phá thôi, mình không dám nói cô giáo vì có 2 lí do1. Mình sợ cô sẽ xử qua loa2. Sợ chúng nó ghét và làm tới "
                },
                {
                    "reply_user": "Kudo Shinji",
                    "reply_content": " nhảy vô hội con gái chơi, lúc ra về đi chung với hội gái luôn "
                },
                {
                    "reply_user": "Nguyên Dương",
                    "reply_content": "Kkk, chắc bạn chưa biết, con gái lớp mình chảnh lắm, chảnh đến nổi mà cả khối đều biết luôn ấy, lâu lâu còn có war với mấy anh chị khối trên nữa"
                },
                {
                    "reply_user": "Kudo Shinji",
                    "reply_content": " thôi cứ chảnh đừng đi war là được "
                }
            ]
        },
        {
            "parent_comment": {
                "parent_user": "Cẩm Ly",
                "parent_content": "Bạn thân  của bạn hok ai nói j à"
            },
            "replies": [
                {
                    "reply_user": "Nguyên Dương",
                    "reply_content": "Bạn thân của mình chúng nó không biết chuyện đó, tại vì mình đi về sau chúng nó cả"
                },
                {
                    "reply_user": "Cẩm Ly",
                    "reply_content": " kể cho tụi nó nghe ikk"
                },
                {
                    "reply_user": "Nguyên Dương",
                    "reply_content": "Cũng chả giúp được gì đâu, không phải chúng nó vô tâm, mà là tụi kia cũng sẽ lấn tới hơn thôi"
                },
                {
                    "reply_user": "Cẩm Ly",
                    "reply_content": "Nguyên Dương nói vs GĐ ikk hỏng lẽ để tụi nó. Lm z hoài"
                },
                {
                    "reply_user": "Nguyên Dương",
                    "reply_content": "Mình phải xem coi là nó làm như thế đến khi nào thì mình mới dám bảo với gia đình, nếu cứ thế hoài thì chắc phải bảo với gia đình"
                },
                {
                    "reply_user": "Cẩm Ly",
                    "reply_content": "  đr nên z"
                },
                {
                    "reply_user": "Nguyên Dương",
                    "reply_content": "Vâng,"
                }
            ]
        },
        {
            "parent_comment": {
                "parent_user": "Súp Lơ",
                "parent_content": "Kiếm 1 nhóm nữ mà chơi. :))) Ở trong một nhóm nữ không bao giờ bị bắt nạt đâu . Ai bắt nạt bạn thì khóc thút thít tí là bọn kia làm ầm lên rồi  (nếu là bạn tốt)"
            },
            "replies": [
                {
                    "reply_user": "Nguyên Dương",
                    "reply_content": "Kkk"
                }
            ]
        }
    ]
}