{
    "post": "800154797288521",
    "link": "https://facebook.com/groups/443921992911805/permalink/800154797288521",
    "post_comments": [
        {
            "parent_comment": {
                "parent_user": "Ngat Ho Happiness",
                "parent_content": "Dừng lại hay tiếp tục nó phụ thuộc vào việc b có cần cô ấy nữa hay k thôi. Nhưng có vẻ như chính b cũng chưa tỏ tình với cô ấy."
            },
            "replies": [
                {
                    "reply_user": "­­Vũ Duy ­­Sơn ",
                    "reply_content": "  mình đã tỏ tình mới nhận lại việc chỉ làm bạn"
                },
                {
                    "reply_user": "Ngat Ho Happiness",
                    "reply_content": " Cứ tiếp tục thôi b, có thể cô ấy đang có nhiều sự lựa chọn. Thậm chí có người còn dành nhiều tc cho họ hơn b thì sao."
                }
            ]
        },
        {
            "parent_comment": {
                "parent_user": "Ngọc Linh",
                "parent_content": "Cùng tớ tương tác bạn nhaa hi hi  "
            },
            "replies": [
                {
                    "reply_user": "­­Vũ Duy ­­Sơn ",
                    "reply_content": "  ??"
                }
            ]
        }
    ]
}