[
    {
        "post": "549426749274206",
        "link": "https://facebook.com/groups/241769123373305/permalink/549426749274206"
    },
    {
        "post": "595058758044338",
        "link": "https://facebook.com/groups/241769123373305/permalink/595058758044338"
    },
    {
        "post": "595042544712626",
        "link": "https://facebook.com/groups/241769123373305/permalink/595042544712626"
    },
    {
        "post": "595027274714153",
        "link": "https://facebook.com/groups/241769123373305/permalink/595027274714153"
    },
    {
        "post": "594546671428880",
        "link": "https://facebook.com/groups/241769123373305/permalink/594546671428880"
    },
    {
        "post": "594045681478979",
        "link": "https://facebook.com/groups/241769123373305/permalink/594045681478979"
    },
    {
        "post": "594671278083086",
        "link": "https://facebook.com/groups/241769123373305/permalink/594671278083086"
    },
    {
        "post": "594077898142424",
        "link": "https://facebook.com/groups/241769123373305/permalink/594077898142424"
    },
    {
        "post": "594057864811094",
        "link": "https://facebook.com/groups/241769123373305/permalink/594057864811094"
    },
    {
        "post": "593800961503451",
        "link": "https://facebook.com/groups/241769123373305/permalink/593800961503451"
    },
    {
        "post": "593401291543418",
        "link": "https://facebook.com/groups/241769123373305/permalink/593401291543418"
    },
    {
        "post": "593378328212381",
        "link": "https://facebook.com/groups/241769123373305/permalink/593378328212381"
    },
    {
        "post": "592925838257630",
        "link": "https://facebook.com/groups/241769123373305/permalink/592925838257630"
    },
    {
        "post": "593026811580866",
        "link": "https://facebook.com/groups/241769123373305/permalink/593026811580866"
    },
    {
        "post": "592986461584901",
        "link": "https://facebook.com/groups/241769123373305/permalink/592986461584901"
    },
    {
        "post": "592953074921573",
        "link": "https://facebook.com/groups/241769123373305/permalink/592953074921573"
    },
    {
        "post": "592903774926503",
        "link": "https://facebook.com/groups/241769123373305/permalink/592903774926503"
    },
    {
        "post": "592485771634970",
        "link": "https://facebook.com/groups/241769123373305/permalink/592485771634970"
    },
    {
        "post": "590023035214577",
        "link": "https://facebook.com/groups/241769123373305/permalink/590023035214577"
    },
    {
        "post": "591869335029947",
        "link": "https://facebook.com/groups/241769123373305/permalink/591869335029947"
    },
    {
        "post": "story.php?story_fbid=434561824470121&id=100037489204089",
        "link": "https://facebook.com/story.php?story_fbid=434561824470121&id=100037489204089"
    },
    {
        "post": "549426749274206",
        "link": "https://facebook.com/groups/241769123373305/permalink/549426749274206"
    },
    {
        "post": "591294725087408",
        "link": "https://facebook.com/groups/241769123373305/permalink/591294725087408"
    },
    {
        "post": "591514641732083",
        "link": "https://facebook.com/groups/241769123373305/permalink/591514641732083"
    },
    {
        "post": "591315158418698",
        "link": "https://facebook.com/groups/241769123373305/permalink/591315158418698"
    },
    {
        "post": "590398641843683",
        "link": "https://facebook.com/groups/241769123373305/permalink/590398641843683"
    },
    {
        "post": "588717422011805",
        "link": "https://facebook.com/groups/241769123373305/permalink/588717422011805"
    },
    {
        "post": "589952278554986",
        "link": "https://facebook.com/groups/241769123373305/permalink/589952278554986"
    },
    {
        "post": "589934838556730",
        "link": "https://facebook.com/groups/241769123373305/permalink/589934838556730"
    },
    {
        "post": "589847175232163",
        "link": "https://facebook.com/groups/241769123373305/permalink/589847175232163"
    },
    {
        "post": "589805911902956",
        "link": "https://facebook.com/groups/241769123373305/permalink/589805911902956"
    },
    {
        "post": "588604728689741",
        "link": "https://facebook.com/groups/241769123373305/permalink/588604728689741"
    },
    {
        "post": "588935278656686",
        "link": "https://facebook.com/groups/241769123373305/permalink/588935278656686"
    },
    {
        "post": "588713165345564",
        "link": "https://facebook.com/groups/241769123373305/permalink/588713165345564"
    },
    {
        "post": "588510388699175",
        "link": "https://facebook.com/groups/241769123373305/permalink/588510388699175"
    },
    {
        "post": "588478205369060",
        "link": "https://facebook.com/groups/241769123373305/permalink/588478205369060"
    },
    {
        "post": "588293932054154",
        "link": "https://facebook.com/groups/241769123373305/permalink/588293932054154"
    },
    {
        "post": "story.php?story_fbid=388917272156272&id=347358389645494",
        "link": "https://facebook.com/story.php?story_fbid=388917272156272&id=347358389645494"
    },
    {
        "post": "587069835509897",
        "link": "https://facebook.com/groups/241769123373305/permalink/587069835509897"
    },
    {
        "post": "586258118924402",
        "link": "https://facebook.com/groups/241769123373305/permalink/586258118924402"
    },
    {
        "post": "554743728742508",
        "link": "https://facebook.com/groups/241769123373305/permalink/554743728742508"
    },
    {
        "post": "585461225670758",
        "link": "https://facebook.com/groups/241769123373305/permalink/585461225670758"
    },
    {
        "post": "586102052273342",
        "link": "https://facebook.com/groups/241769123373305/permalink/586102052273342"
    },
    {
        "post": "585713008978913",
        "link": "https://facebook.com/groups/241769123373305/permalink/585713008978913"
    },
    {
        "post": "586157168934497",
        "link": "https://facebook.com/groups/241769123373305/permalink/586157168934497"
    },
    {
        "post": "586093298940884",
        "link": "https://facebook.com/groups/241769123373305/permalink/586093298940884"
    },
    {
        "post": "586031208947093",
        "link": "https://facebook.com/groups/241769123373305/permalink/586031208947093"
    },
    {
        "post": "585104715706409",
        "link": "https://facebook.com/groups/241769123373305/permalink/585104715706409"
    },
    {
        "post": "585254305691450",
        "link": "https://facebook.com/groups/241769123373305/permalink/585254305691450"
    },
    {
        "post": "584637315753149",
        "link": "https://facebook.com/groups/241769123373305/permalink/584637315753149"
    },
    {
        "post": "584602159089998",
        "link": "https://facebook.com/groups/241769123373305/permalink/584602159089998"
    },
    {
        "post": "584163929133821",
        "link": "https://facebook.com/groups/241769123373305/permalink/584163929133821"
    },
    {
        "post": "583670475849833",
        "link": "https://facebook.com/groups/241769123373305/permalink/583670475849833"
    },
    {
        "post": "583479325868948",
        "link": "https://facebook.com/groups/241769123373305/permalink/583479325868948"
    },
    {
        "post": "582464122637135",
        "link": "https://facebook.com/groups/241769123373305/permalink/582464122637135"
    },
    {
        "post": "582247222658825",
        "link": "https://facebook.com/groups/241769123373305/permalink/582247222658825"
    },
    {
        "post": "580011072882440",
        "link": "https://facebook.com/groups/241769123373305/permalink/580011072882440"
    },
    {
        "post": "580015949548619",
        "link": "https://facebook.com/groups/241769123373305/permalink/580015949548619"
    },
    {
        "post": "579748246242056",
        "link": "https://facebook.com/groups/241769123373305/permalink/579748246242056"
    },
    {
        "post": "578770466339834",
        "link": "https://facebook.com/groups/241769123373305/permalink/578770466339834"
    },
    {
        "post": "579212416295639",
        "link": "https://facebook.com/groups/241769123373305/permalink/579212416295639"
    },
    {
        "post": "579516716265209",
        "link": "https://facebook.com/groups/241769123373305/permalink/579516716265209"
    },
    {
        "post": "578155963067951",
        "link": "https://facebook.com/groups/241769123373305/permalink/578155963067951"
    },
    {
        "post": "577192673164280",
        "link": "https://facebook.com/groups/241769123373305/permalink/577192673164280"
    },
    {
        "post": "576799853203562",
        "link": "https://facebook.com/groups/241769123373305/permalink/576799853203562"
    },
    {
        "post": "575614489988765",
        "link": "https://facebook.com/groups/241769123373305/permalink/575614489988765"
    },
    {
        "post": "576345526582328",
        "link": "https://facebook.com/groups/241769123373305/permalink/576345526582328"
    },
    {
        "post": "574291083454439",
        "link": "https://facebook.com/groups/241769123373305/permalink/574291083454439"
    },
    {
        "post": "575752153308332",
        "link": "https://facebook.com/groups/241769123373305/permalink/575752153308332"
    },
    {
        "post": "555014208715460",
        "link": "https://facebook.com/groups/241769123373305/permalink/555014208715460"
    },
    {
        "post": "557363161813898",
        "link": "https://facebook.com/groups/241769123373305/permalink/557363161813898"
    },
    {
        "post": "556168531933361",
        "link": "https://facebook.com/groups/241769123373305/permalink/556168531933361"
    },
    {
        "post": "555281535355394",
        "link": "https://facebook.com/groups/241769123373305/permalink/555281535355394"
    },
    {
        "post": "555616031988611",
        "link": "https://facebook.com/groups/241769123373305/permalink/555616031988611"
    },
    {
        "post": "552677975615750",
        "link": "https://facebook.com/groups/241769123373305/permalink/552677975615750"
    },
    {
        "post": "556693755214172",
        "link": "https://facebook.com/groups/241769123373305/permalink/556693755214172"
    },
    {
        "post": "566544807562400",
        "link": "https://facebook.com/groups/241769123373305/permalink/566544807562400"
    },
    {
        "post": "560800518136829",
        "link": "https://facebook.com/groups/241769123373305/permalink/560800518136829"
    },
    {
        "post": "1438244269856598",
        "link": "https://facebook.com/groups/2003toanlyhoa/permalink/1438244269856598"
    },
    {
        "post": "566465100903704",
        "link": "https://facebook.com/groups/241769123373305/permalink/566465100903704"
    },
    {
        "post": "564491751101039",
        "link": "https://facebook.com/groups/241769123373305/permalink/564491751101039"
    },
    {
        "post": "565926297624251",
        "link": "https://facebook.com/groups/241769123373305/permalink/565926297624251"
    },
    {
        "post": "562200744663473",
        "link": "https://facebook.com/groups/241769123373305/permalink/562200744663473"
    },
    {
        "post": "562670044616543",
        "link": "https://facebook.com/groups/241769123373305/permalink/562670044616543"
    },
    {
        "post": "561716131378601",
        "link": "https://facebook.com/groups/241769123373305/permalink/561716131378601"
    },
    {
        "post": "563910824492465",
        "link": "https://facebook.com/groups/241769123373305/permalink/563910824492465"
    },
    {
        "post": "551022089114672",
        "link": "https://facebook.com/groups/241769123373305/permalink/551022089114672"
    },
    {
        "post": "559816704901877",
        "link": "https://facebook.com/groups/241769123373305/permalink/559816704901877"
    },
    {
        "post": "560274011522813",
        "link": "https://facebook.com/groups/241769123373305/permalink/560274011522813"
    },
    {
        "post": "559265414957006",
        "link": "https://facebook.com/groups/241769123373305/permalink/559265414957006"
    },
    {
        "post": "547365982813616",
        "link": "https://facebook.com/groups/241769123373305/permalink/547365982813616"
    },
    {
        "post": "552117795671768",
        "link": "https://facebook.com/groups/241769123373305/permalink/552117795671768"
    },
    {
        "post": "549002222649992",
        "link": "https://facebook.com/groups/241769123373305/permalink/549002222649992"
    },
    {
        "post": "550035675879980",
        "link": "https://facebook.com/groups/241769123373305/permalink/550035675879980"
    },
    {
        "post": "553215888895292",
        "link": "https://facebook.com/groups/241769123373305/permalink/553215888895292"
    },
    {
        "post": "549195859297295",
        "link": "https://facebook.com/groups/241769123373305/permalink/549195859297295"
    },
    {
        "post": "555759148640966",
        "link": "https://facebook.com/groups/241769123373305/permalink/555759148640966"
    },
    {
        "post": "551747582375456",
        "link": "https://facebook.com/groups/241769123373305/permalink/551747582375456"
    },
    {
        "post": "553998912150323",
        "link": "https://facebook.com/groups/241769123373305/permalink/553998912150323"
    },
    {
        "post": "554263175457230",
        "link": "https://facebook.com/groups/241769123373305/permalink/554263175457230"
    },
    {
        "post": "552998698917011",
        "link": "https://facebook.com/groups/241769123373305/permalink/552998698917011"
    },
    {
        "post": "553665532183661",
        "link": "https://facebook.com/groups/241769123373305/permalink/553665532183661"
    },
    {
        "post": "553197588897122",
        "link": "https://facebook.com/groups/241769123373305/permalink/553197588897122"
    },
    {
        "post": "553181308898750",
        "link": "https://facebook.com/groups/241769123373305/permalink/553181308898750"
    },
    {
        "post": "540728423477372",
        "link": "https://facebook.com/groups/241769123373305/permalink/540728423477372"
    },
    {
        "post": "545223519694529",
        "link": "https://facebook.com/groups/241769123373305/permalink/545223519694529"
    },
    {
        "post": "548680786015469",
        "link": "https://facebook.com/groups/241769123373305/permalink/548680786015469"
    },
    {
        "post": "552132215670326",
        "link": "https://facebook.com/groups/241769123373305/permalink/552132215670326"
    },
    {
        "post": "539348810282000",
        "link": "https://facebook.com/groups/241769123373305/permalink/539348810282000"
    },
    {
        "post": "552208712329343",
        "link": "https://facebook.com/groups/241769123373305/permalink/552208712329343"
    },
    {
        "post": "552122645671283",
        "link": "https://facebook.com/groups/241769123373305/permalink/552122645671283"
    },
    {
        "post": "542571089959772",
        "link": "https://facebook.com/groups/241769123373305/permalink/542571089959772"
    },
    {
        "post": "550079182542296",
        "link": "https://facebook.com/groups/241769123373305/permalink/550079182542296"
    },
    {
        "post": "549908035892744",
        "link": "https://facebook.com/groups/241769123373305/permalink/549908035892744"
    },
    {
        "post": "550959309120950",
        "link": "https://facebook.com/groups/241769123373305/permalink/550959309120950"
    },
    {
        "post": "550609925822555",
        "link": "https://facebook.com/groups/241769123373305/permalink/550609925822555"
    },
    {
        "post": "543072646576283",
        "link": "https://facebook.com/groups/241769123373305/permalink/543072646576283"
    },
    {
        "post": "542574406626107",
        "link": "https://facebook.com/groups/241769123373305/permalink/542574406626107"
    },
    {
        "post": "542583519958529",
        "link": "https://facebook.com/groups/241769123373305/permalink/542583519958529"
    },
    {
        "post": "546706402879574",
        "link": "https://facebook.com/groups/241769123373305/permalink/546706402879574"
    },
    {
        "post": "549704185913129",
        "link": "https://facebook.com/groups/241769123373305/permalink/549704185913129"
    },
    {
        "post": "543208439896037",
        "link": "https://facebook.com/groups/241769123373305/permalink/543208439896037"
    },
    {
        "post": "550212735862274",
        "link": "https://facebook.com/groups/241769123373305/permalink/550212735862274"
    },
    {
        "post": "549567942593420",
        "link": "https://facebook.com/groups/241769123373305/permalink/549567942593420"
    },
    {
        "post": "549944705889077",
        "link": "https://facebook.com/groups/241769123373305/permalink/549944705889077"
    },
    {
        "post": "549916165891931",
        "link": "https://facebook.com/groups/241769123373305/permalink/549916165891931"
    },
    {
        "post": "547420679474813",
        "link": "https://facebook.com/groups/241769123373305/permalink/547420679474813"
    },
    {
        "post": "548555352694679",
        "link": "https://facebook.com/groups/241769123373305/permalink/548555352694679"
    },
    {
        "post": "549221592628055",
        "link": "https://facebook.com/groups/241769123373305/permalink/549221592628055"
    },
    {
        "post": "548585879358293",
        "link": "https://facebook.com/groups/241769123373305/permalink/548585879358293"
    },
    {
        "post": "549591599257721",
        "link": "https://facebook.com/groups/241769123373305/permalink/549591599257721"
    },
    {
        "post": "549334412616773",
        "link": "https://facebook.com/groups/241769123373305/permalink/549334412616773"
    },
    {
        "post": "543556506527897",
        "link": "https://facebook.com/groups/241769123373305/permalink/543556506527897"
    },
    {
        "post": "542086806674867",
        "link": "https://facebook.com/groups/241769123373305/permalink/542086806674867"
    },
    {
        "post": "545224729694408",
        "link": "https://facebook.com/groups/241769123373305/permalink/545224729694408"
    },
    {
        "post": "546566786226869",
        "link": "https://facebook.com/groups/241769123373305/permalink/546566786226869"
    },
    {
        "post": "541441580072723",
        "link": "https://facebook.com/groups/241769123373305/permalink/541441580072723"
    },
    {
        "post": "547491022801112",
        "link": "https://facebook.com/groups/241769123373305/permalink/547491022801112"
    },
    {
        "post": "545759869640894",
        "link": "https://facebook.com/groups/241769123373305/permalink/545759869640894"
    },
    {
        "post": "546570542893160",
        "link": "https://facebook.com/groups/241769123373305/permalink/546570542893160"
    },
    {
        "post": "545233409693540",
        "link": "https://facebook.com/groups/241769123373305/permalink/545233409693540"
    },
    {
        "post": "546008062949408",
        "link": "https://facebook.com/groups/241769123373305/permalink/546008062949408"
    },
    {
        "post": "543688526514695",
        "link": "https://facebook.com/groups/241769123373305/permalink/543688526514695"
    },
    {
        "post": "290076415209242",
        "link": "https://facebook.com/groups/241769123373305/permalink/290076415209242"
    },
    {
        "post": "544201113130103",
        "link": "https://facebook.com/groups/241769123373305/permalink/544201113130103"
    },
    {
        "post": "545207436362804",
        "link": "https://facebook.com/groups/241769123373305/permalink/545207436362804"
    },
    {
        "post": "544207283129486",
        "link": "https://facebook.com/groups/241769123373305/permalink/544207283129486"
    },
    {
        "post": "544284356455112",
        "link": "https://facebook.com/groups/241769123373305/permalink/544284356455112"
    },
    {
        "post": "544220139794867",
        "link": "https://facebook.com/groups/241769123373305/permalink/544220139794867"
    },
    {
        "post": "542640139952867",
        "link": "https://facebook.com/groups/241769123373305/permalink/542640139952867"
    },
    {
        "post": "544555826427965",
        "link": "https://facebook.com/groups/241769123373305/permalink/544555826427965"
    },
    {
        "post": "544336469783234",
        "link": "https://facebook.com/groups/241769123373305/permalink/544336469783234"
    },
    {
        "post": "544566349760246",
        "link": "https://facebook.com/groups/241769123373305/permalink/544566349760246"
    },
    {
        "post": "543038133246401",
        "link": "https://facebook.com/groups/241769123373305/permalink/543038133246401"
    },
    {
        "post": "544302723119942",
        "link": "https://facebook.com/groups/241769123373305/permalink/544302723119942"
    },
    {
        "post": "543524923197722",
        "link": "https://facebook.com/groups/241769123373305/permalink/543524923197722"
    },
    {
        "post": "544051116478436",
        "link": "https://facebook.com/groups/241769123373305/permalink/544051116478436"
    },
    {
        "post": "543690336514514",
        "link": "https://facebook.com/groups/241769123373305/permalink/543690336514514"
    },
    {
        "post": "540224520194429",
        "link": "https://facebook.com/groups/241769123373305/permalink/540224520194429"
    },
    {
        "post": "542605956622952",
        "link": "https://facebook.com/groups/241769123373305/permalink/542605956622952"
    },
    {
        "post": "543460176537530",
        "link": "https://facebook.com/groups/241769123373305/permalink/543460176537530"
    },
    {
        "post": "543138069903074",
        "link": "https://facebook.com/groups/241769123373305/permalink/543138069903074"
    },
    {
        "post": "539273516956196",
        "link": "https://facebook.com/groups/241769123373305/permalink/539273516956196"
    },
    {
        "post": "543132463236968",
        "link": "https://facebook.com/groups/241769123373305/permalink/543132463236968"
    },
    {
        "post": "543029426580605",
        "link": "https://facebook.com/groups/241769123373305/permalink/543029426580605"
    },
    {
        "post": "543042576579290",
        "link": "https://facebook.com/groups/241769123373305/permalink/543042576579290"
    },
    {
        "post": "542857126597835",
        "link": "https://facebook.com/groups/241769123373305/permalink/542857126597835"
    },
    {
        "post": "541450780071803",
        "link": "https://facebook.com/groups/241769123373305/permalink/541450780071803"
    },
    {
        "post": "541815310035350",
        "link": "https://facebook.com/groups/241769123373305/permalink/541815310035350"
    },
    {
        "post": "540394953510719",
        "link": "https://facebook.com/groups/241769123373305/permalink/540394953510719"
    },
    {
        "post": "543026886580859",
        "link": "https://facebook.com/groups/241769123373305/permalink/543026886580859"
    },
    {
        "post": "542689976614550",
        "link": "https://facebook.com/groups/241769123373305/permalink/542689976614550"
    },
    {
        "post": "542579173292297",
        "link": "https://facebook.com/groups/241769123373305/permalink/542579173292297"
    },
    {
        "post": "540386636844884",
        "link": "https://facebook.com/groups/241769123373305/permalink/540386636844884"
    },
    {
        "post": "540861423464072",
        "link": "https://facebook.com/groups/241769123373305/permalink/540861423464072"
    },
    {
        "post": "540324093517805",
        "link": "https://facebook.com/groups/241769123373305/permalink/540324093517805"
    },
    {
        "post": "540166130200268",
        "link": "https://facebook.com/groups/241769123373305/permalink/540166130200268"
    },
    {
        "post": "540379486845599",
        "link": "https://facebook.com/groups/241769123373305/permalink/540379486845599"
    },
    {
        "post": "540929333457281",
        "link": "https://facebook.com/groups/241769123373305/permalink/540929333457281"
    },
    {
        "post": "538158950400986",
        "link": "https://facebook.com/groups/241769123373305/permalink/538158950400986"
    },
    {
        "post": "540178500199031",
        "link": "https://facebook.com/groups/241769123373305/permalink/540178500199031"
    },
    {
        "post": "539919816891566",
        "link": "https://facebook.com/groups/241769123373305/permalink/539919816891566"
    },
    {
        "post": "538648347018713",
        "link": "https://facebook.com/groups/241769123373305/permalink/538648347018713"
    },
    {
        "post": "539666900250191",
        "link": "https://facebook.com/groups/241769123373305/permalink/539666900250191"
    },
    {
        "post": "540310183519196",
        "link": "https://facebook.com/groups/241769123373305/permalink/540310183519196"
    },
    {
        "post": "540178403532374",
        "link": "https://facebook.com/groups/241769123373305/permalink/540178403532374"
    },
    {
        "post": "539617030255178",
        "link": "https://facebook.com/groups/241769123373305/permalink/539617030255178"
    },
    {
        "post": "539895160227365",
        "link": "https://facebook.com/groups/241769123373305/permalink/539895160227365"
    },
    {
        "post": "539723436911204",
        "link": "https://facebook.com/groups/241769123373305/permalink/539723436911204"
    },
    {
        "post": "538606477022900",
        "link": "https://facebook.com/groups/241769123373305/permalink/538606477022900"
    },
    {
        "post": "539594590257422",
        "link": "https://facebook.com/groups/241769123373305/permalink/539594590257422"
    },
    {
        "post": "527139408169607",
        "link": "https://facebook.com/groups/241769123373305/permalink/527139408169607"
    },
    {
        "post": "539104240306457",
        "link": "https://facebook.com/groups/241769123373305/permalink/539104240306457"
    },
    {
        "post": "538002017083346",
        "link": "https://facebook.com/groups/241769123373305/permalink/538002017083346"
    },
    {
        "post": "535688943981320",
        "link": "https://facebook.com/groups/241769123373305/permalink/535688943981320"
    },
    {
        "post": "538752820341599",
        "link": "https://facebook.com/groups/241769123373305/permalink/538752820341599"
    },
    {
        "post": "538457313704483",
        "link": "https://facebook.com/groups/241769123373305/permalink/538457313704483"
    },
    {
        "post": "538561320360749",
        "link": "https://facebook.com/groups/241769123373305/permalink/538561320360749"
    },
    {
        "post": "537881443762070",
        "link": "https://facebook.com/groups/241769123373305/permalink/537881443762070"
    },
    {
        "post": "538504507033097",
        "link": "https://facebook.com/groups/241769123373305/permalink/538504507033097"
    },
    {
        "post": "536094147274133",
        "link": "https://facebook.com/groups/241769123373305/permalink/536094147274133"
    },
    {
        "post": "538469520369929",
        "link": "https://facebook.com/groups/241769123373305/permalink/538469520369929"
    },
    {
        "post": "532582734291941",
        "link": "https://facebook.com/groups/241769123373305/permalink/532582734291941"
    },
    {
        "post": "535155644034650",
        "link": "https://facebook.com/groups/241769123373305/permalink/535155644034650"
    },
    {
        "post": "532169490999932",
        "link": "https://facebook.com/groups/241769123373305/permalink/532169490999932"
    },
    {
        "post": "537551690461712",
        "link": "https://facebook.com/groups/241769123373305/permalink/537551690461712"
    },
    {
        "post": "538111787072369",
        "link": "https://facebook.com/groups/241769123373305/permalink/538111787072369"
    },
    {
        "post": "537853970431484",
        "link": "https://facebook.com/groups/241769123373305/permalink/537853970431484"
    },
    {
        "post": "536661303884084",
        "link": "https://facebook.com/groups/241769123373305/permalink/536661303884084"
    },
    {
        "post": "537394247144123",
        "link": "https://facebook.com/groups/241769123373305/permalink/537394247144123"
    },
    {
        "post": "536796113870603",
        "link": "https://facebook.com/groups/241769123373305/permalink/536796113870603"
    },
    {
        "post": "536942573855957",
        "link": "https://facebook.com/groups/241769123373305/permalink/536942573855957"
    },
    {
        "post": "530625744487640",
        "link": "https://facebook.com/groups/241769123373305/permalink/530625744487640"
    },
    {
        "post": "535139874036227",
        "link": "https://facebook.com/groups/241769123373305/permalink/535139874036227"
    },
    {
        "post": "536365933913621",
        "link": "https://facebook.com/groups/241769123373305/permalink/536365933913621"
    },
    {
        "post": "536210450595836",
        "link": "https://facebook.com/groups/241769123373305/permalink/536210450595836"
    },
    {
        "post": "536084117275136",
        "link": "https://facebook.com/groups/241769123373305/permalink/536084117275136"
    },
    {
        "post": "536082593941955",
        "link": "https://facebook.com/groups/241769123373305/permalink/536082593941955"
    },
    {
        "post": "536070073943207",
        "link": "https://facebook.com/groups/241769123373305/permalink/536070073943207"
    },
    {
        "post": "536050607278487",
        "link": "https://facebook.com/groups/241769123373305/permalink/536050607278487"
    },
    {
        "post": "535665463983668",
        "link": "https://facebook.com/groups/241769123373305/permalink/535665463983668"
    },
    {
        "post": "535543043995910",
        "link": "https://facebook.com/groups/241769123373305/permalink/535543043995910"
    },
    {
        "post": "535628977320650",
        "link": "https://facebook.com/groups/241769123373305/permalink/535628977320650"
    },
    {
        "post": "535594753990739",
        "link": "https://facebook.com/groups/241769123373305/permalink/535594753990739"
    }
]