[
    {
        "post": "789022475379038",
        "link": "https://facebook.com/groups/307960726818551/permalink/789022475379038"
    },
    {
        "post": "806620523619233",
        "link": "https://facebook.com/groups/307960726818551/permalink/806620523619233"
    },
    {
        "post": "809220773359208",
        "link": "https://facebook.com/groups/307960726818551/permalink/809220773359208"
    },
    {
        "post": "809245350023417",
        "link": "https://facebook.com/groups/307960726818551/permalink/809245350023417"
    },
    {
        "post": "809474716667147",
        "link": "https://facebook.com/groups/307960726818551/permalink/809474716667147"
    },
    {
        "post": "807677006846918",
        "link": "https://facebook.com/groups/307960726818551/permalink/807677006846918"
    },
    {
        "post": "803725850575367",
        "link": "https://facebook.com/groups/307960726818551/permalink/803725850575367"
    },
    {
        "post": "807652373516048",
        "link": "https://facebook.com/groups/307960726818551/permalink/807652373516048"
    },
    {
        "post": "808503146764304",
        "link": "https://facebook.com/groups/307960726818551/permalink/808503146764304"
    },
    {
        "post": "806032420344710",
        "link": "https://facebook.com/groups/307960726818551/permalink/806032420344710"
    },
    {
        "post": "807657760182176",
        "link": "https://facebook.com/groups/307960726818551/permalink/807657760182176"
    },
    {
        "post": "808934673387818",
        "link": "https://facebook.com/groups/307960726818551/permalink/808934673387818"
    },
    {
        "post": "807720336842585",
        "link": "https://facebook.com/groups/307960726818551/permalink/807720336842585"
    },
    {
        "post": "806256466988972",
        "link": "https://facebook.com/groups/307960726818551/permalink/806256466988972"
    },
    {
        "post": "807845853496700",
        "link": "https://facebook.com/groups/307960726818551/permalink/807845853496700"
    },
    {
        "post": "801879020760050",
        "link": "https://facebook.com/groups/307960726818551/permalink/801879020760050"
    },
    {
        "post": "808428203438465",
        "link": "https://facebook.com/groups/307960726818551/permalink/808428203438465"
    },
    {
        "post": "808281930119759",
        "link": "https://facebook.com/groups/307960726818551/permalink/808281930119759"
    },
    {
        "post": "806965916918027",
        "link": "https://facebook.com/groups/307960726818551/permalink/806965916918027"
    },
    {
        "post": "755759705371982",
        "link": "https://facebook.com/groups/307960726818551/permalink/755759705371982"
    },
    {
        "post": "804146727199946",
        "link": "https://facebook.com/groups/307960726818551/permalink/804146727199946"
    },
    {
        "post": "806293870318565",
        "link": "https://facebook.com/groups/307960726818551/permalink/806293870318565"
    },
    {
        "post": "672057130408907",
        "link": "https://facebook.com/groups/307960726818551/permalink/672057130408907"
    },
    {
        "post": "664080154539938",
        "link": "https://facebook.com/groups/307960726818551/permalink/664080154539938"
    },
    {
        "post": "617054325909188",
        "link": "https://facebook.com/groups/307960726818551/permalink/617054325909188"
    },
    {
        "post": "806328770315075",
        "link": "https://facebook.com/groups/307960726818551/permalink/806328770315075"
    },
    {
        "post": "805501147064504",
        "link": "https://facebook.com/groups/307960726818551/permalink/805501147064504"
    },
    {
        "post": "801880807426538",
        "link": "https://facebook.com/groups/307960726818551/permalink/801880807426538"
    },
    {
        "post": "801149440833008",
        "link": "https://facebook.com/groups/307960726818551/permalink/801149440833008"
    },
    {
        "post": "801663900781562",
        "link": "https://facebook.com/groups/307960726818551/permalink/801663900781562"
    },
    {
        "post": "800016040946348",
        "link": "https://facebook.com/groups/307960726818551/permalink/800016040946348"
    },
    {
        "post": "783148389299780",
        "link": "https://facebook.com/groups/307960726818551/permalink/783148389299780"
    },
    {
        "post": "803649077249711",
        "link": "https://facebook.com/groups/307960726818551/permalink/803649077249711"
    },
    {
        "post": "797887487825870",
        "link": "https://facebook.com/groups/307960726818551/permalink/797887487825870"
    },
    {
        "post": "804070633874222",
        "link": "https://facebook.com/groups/307960726818551/permalink/804070633874222"
    },
    {
        "post": "802656024015683",
        "link": "https://facebook.com/groups/307960726818551/permalink/802656024015683"
    },
    {
        "post": "802758494005436",
        "link": "https://facebook.com/groups/307960726818551/permalink/802758494005436"
    },
    {
        "post": "803353697279249",
        "link": "https://facebook.com/groups/307960726818551/permalink/803353697279249"
    },
    {
        "post": "803250380622914",
        "link": "https://facebook.com/groups/307960726818551/permalink/803250380622914"
    },
    {
        "post": "800629230885029",
        "link": "https://facebook.com/groups/307960726818551/permalink/800629230885029"
    },
    {
        "post": "801374610810491",
        "link": "https://facebook.com/groups/307960726818551/permalink/801374610810491"
    },
    {
        "post": "802641957350423",
        "link": "https://facebook.com/groups/307960726818551/permalink/802641957350423"
    },
    {
        "post": "802745334006752",
        "link": "https://facebook.com/groups/307960726818551/permalink/802745334006752"
    },
    {
        "post": "802827723998513",
        "link": "https://facebook.com/groups/307960726818551/permalink/802827723998513"
    },
    {
        "post": "799685150979437",
        "link": "https://facebook.com/groups/307960726818551/permalink/799685150979437"
    },
    {
        "post": "801146297499989",
        "link": "https://facebook.com/groups/307960726818551/permalink/801146297499989"
    },
    {
        "post": "798462404435045",
        "link": "https://facebook.com/groups/307960726818551/permalink/798462404435045"
    },
    {
        "post": "802082747406344",
        "link": "https://facebook.com/groups/307960726818551/permalink/802082747406344"
    },
    {
        "post": "800590417555577",
        "link": "https://facebook.com/groups/307960726818551/permalink/800590417555577"
    },
    {
        "post": "796928891255063",
        "link": "https://facebook.com/groups/307960726818551/permalink/796928891255063"
    },
    {
        "post": "793815841566368",
        "link": "https://facebook.com/groups/307960726818551/permalink/793815841566368"
    },
    {
        "post": "799957627618856",
        "link": "https://facebook.com/groups/307960726818551/permalink/799957627618856"
    },
    {
        "post": "754345088846777",
        "link": "https://facebook.com/groups/307960726818551/permalink/754345088846777"
    },
    {
        "post": "799920407622578",
        "link": "https://facebook.com/groups/307960726818551/permalink/799920407622578"
    },
    {
        "post": "755062292108390",
        "link": "https://facebook.com/groups/307960726818551/permalink/755062292108390"
    },
    {
        "post": "789022475379038",
        "link": "https://facebook.com/groups/307960726818551/permalink/789022475379038"
    },
    {
        "post": "801272920820660",
        "link": "https://facebook.com/groups/307960726818551/permalink/801272920820660"
    },
    {
        "post": "798538654427420",
        "link": "https://facebook.com/groups/307960726818551/permalink/798538654427420"
    },
    {
        "post": "794078241540128",
        "link": "https://facebook.com/groups/307960726818551/permalink/794078241540128"
    },
    {
        "post": "795654874715798",
        "link": "https://facebook.com/groups/307960726818551/permalink/795654874715798"
    },
    {
        "post": "798433817771237",
        "link": "https://facebook.com/groups/307960726818551/permalink/798433817771237"
    },
    {
        "post": "754973522117267",
        "link": "https://facebook.com/groups/307960726818551/permalink/754973522117267"
    },
    {
        "post": "797554027859216",
        "link": "https://facebook.com/groups/307960726818551/permalink/797554027859216"
    },
    {
        "post": "797803694500916",
        "link": "https://facebook.com/groups/307960726818551/permalink/797803694500916"
    },
    {
        "post": "799759704305315",
        "link": "https://facebook.com/groups/307960726818551/permalink/799759704305315"
    },
    {
        "post": "795565234724762",
        "link": "https://facebook.com/groups/307960726818551/permalink/795565234724762"
    },
    {
        "post": "797844291163523",
        "link": "https://facebook.com/groups/307960726818551/permalink/797844291163523"
    },
    {
        "post": "797744241173528",
        "link": "https://facebook.com/groups/307960726818551/permalink/797744241173528"
    },
    {
        "post": "797876507826968",
        "link": "https://facebook.com/groups/307960726818551/permalink/797876507826968"
    },
    {
        "post": "798544134426872",
        "link": "https://facebook.com/groups/307960726818551/permalink/798544134426872"
    },
    {
        "post": "784867962461156",
        "link": "https://facebook.com/groups/307960726818551/permalink/784867962461156"
    },
    {
        "post": "786618688952750",
        "link": "https://facebook.com/groups/307960726818551/permalink/786618688952750"
    },
    {
        "post": "796126008002018",
        "link": "https://facebook.com/groups/307960726818551/permalink/796126008002018"
    },
    {
        "post": "788334365447849",
        "link": "https://facebook.com/groups/307960726818551/permalink/788334365447849"
    },
    {
        "post": "798307834450502",
        "link": "https://facebook.com/groups/307960726818551/permalink/798307834450502"
    },
    {
        "post": "795404751407477",
        "link": "https://facebook.com/groups/307960726818551/permalink/795404751407477"
    },
    {
        "post": "795399638074655",
        "link": "https://facebook.com/groups/307960726818551/permalink/795399638074655"
    },
    {
        "post": "796014231346529",
        "link": "https://facebook.com/groups/307960726818551/permalink/796014231346529"
    },
    {
        "post": "794829831464969",
        "link": "https://facebook.com/groups/307960726818551/permalink/794829831464969"
    },
    {
        "post": "796212191326733",
        "link": "https://facebook.com/groups/307960726818551/permalink/796212191326733"
    },
    {
        "post": "796126561335296",
        "link": "https://facebook.com/groups/307960726818551/permalink/796126561335296"
    },
    {
        "post": "795546901393262",
        "link": "https://facebook.com/groups/307960726818551/permalink/795546901393262"
    },
    {
        "post": "793339721613980",
        "link": "https://facebook.com/groups/307960726818551/permalink/793339721613980"
    },
    {
        "post": "795534074727878",
        "link": "https://facebook.com/groups/307960726818551/permalink/795534074727878"
    },
    {
        "post": "796884754592810",
        "link": "https://facebook.com/groups/307960726818551/permalink/796884754592810"
    },
    {
        "post": "794408874840398",
        "link": "https://facebook.com/groups/307960726818551/permalink/794408874840398"
    },
    {
        "post": "795654948049124",
        "link": "https://facebook.com/groups/307960726818551/permalink/795654948049124"
    },
    {
        "post": "784303272517625",
        "link": "https://facebook.com/groups/307960726818551/permalink/784303272517625"
    },
    {
        "post": "786551068959512",
        "link": "https://facebook.com/groups/307960726818551/permalink/786551068959512"
    },
    {
        "post": "785545959060023",
        "link": "https://facebook.com/groups/307960726818551/permalink/785545959060023"
    },
    {
        "post": "790467245234561",
        "link": "https://facebook.com/groups/307960726818551/permalink/790467245234561"
    },
    {
        "post": "789253815355904",
        "link": "https://facebook.com/groups/307960726818551/permalink/789253815355904"
    },
    {
        "post": "795404034740882",
        "link": "https://facebook.com/groups/307960726818551/permalink/795404034740882"
    },
    {
        "post": "791929928421626",
        "link": "https://facebook.com/groups/307960726818551/permalink/791929928421626"
    },
    {
        "post": "793185161629436",
        "link": "https://facebook.com/groups/307960726818551/permalink/793185161629436"
    },
    {
        "post": "793390761608876",
        "link": "https://facebook.com/groups/307960726818551/permalink/793390761608876"
    },
    {
        "post": "792739471674005",
        "link": "https://facebook.com/groups/307960726818551/permalink/792739471674005"
    },
    {
        "post": "790829308531688",
        "link": "https://facebook.com/groups/307960726818551/permalink/790829308531688"
    },
    {
        "post": "789999948614624",
        "link": "https://facebook.com/groups/307960726818551/permalink/789999948614624"
    },
    {
        "post": "791184585162827",
        "link": "https://facebook.com/groups/307960726818551/permalink/791184585162827"
    },
    {
        "post": "794833984797887",
        "link": "https://facebook.com/groups/307960726818551/permalink/794833984797887"
    },
    {
        "post": "792119615069324",
        "link": "https://facebook.com/groups/307960726818551/permalink/792119615069324"
    },
    {
        "post": "792441221703830",
        "link": "https://facebook.com/groups/307960726818551/permalink/792441221703830"
    },
    {
        "post": "788307275450558",
        "link": "https://facebook.com/groups/307960726818551/permalink/788307275450558"
    },
    {
        "post": "785709002377052",
        "link": "https://facebook.com/groups/307960726818551/permalink/785709002377052"
    },
    {
        "post": "793326441615308",
        "link": "https://facebook.com/groups/307960726818551/permalink/793326441615308"
    },
    {
        "post": "791899355091350",
        "link": "https://facebook.com/groups/307960726818551/permalink/791899355091350"
    },
    {
        "post": "385125915768698",
        "link": "https://facebook.com/groups/307960726818551/permalink/385125915768698"
    },
    {
        "post": "793247418289877",
        "link": "https://facebook.com/groups/307960726818551/permalink/793247418289877"
    },
    {
        "post": "764624767818809",
        "link": "https://facebook.com/groups/307960726818551/permalink/764624767818809"
    },
    {
        "post": "582622722685682",
        "link": "https://facebook.com/groups/307960726818551/permalink/582622722685682"
    },
    {
        "post": "790769528537666",
        "link": "https://facebook.com/groups/307960726818551/permalink/790769528537666"
    },
    {
        "post": "788341555447130",
        "link": "https://facebook.com/groups/307960726818551/permalink/788341555447130"
    },
    {
        "post": "790785121869440",
        "link": "https://facebook.com/groups/307960726818551/permalink/790785121869440"
    },
    {
        "post": "783941432553809",
        "link": "https://facebook.com/groups/307960726818551/permalink/783941432553809"
    },
    {
        "post": "789847188629900",
        "link": "https://facebook.com/groups/307960726818551/permalink/789847188629900"
    },
    {
        "post": "790688418545777",
        "link": "https://facebook.com/groups/307960726818551/permalink/790688418545777"
    },
    {
        "post": "790609558553663",
        "link": "https://facebook.com/groups/307960726818551/permalink/790609558553663"
    },
    {
        "post": "789799318634687",
        "link": "https://facebook.com/groups/307960726818551/permalink/789799318634687"
    },
    {
        "post": "729906054624014",
        "link": "https://facebook.com/groups/307960726818551/permalink/729906054624014"
    },
    {
        "post": "785018765779409",
        "link": "https://facebook.com/groups/307960726818551/permalink/785018765779409"
    },
    {
        "post": "744965029784783",
        "link": "https://facebook.com/groups/307960726818551/permalink/744965029784783"
    },
    {
        "post": "787345215546764",
        "link": "https://facebook.com/groups/307960726818551/permalink/787345215546764"
    },
    {
        "post": "788677352080217",
        "link": "https://facebook.com/groups/307960726818551/permalink/788677352080217"
    },
    {
        "post": "788700915411194",
        "link": "https://facebook.com/groups/307960726818551/permalink/788700915411194"
    },
    {
        "post": "786478822300070",
        "link": "https://facebook.com/groups/307960726818551/permalink/786478822300070"
    },
    {
        "post": "786560472291905",
        "link": "https://facebook.com/groups/307960726818551/permalink/786560472291905"
    },
    {
        "post": "785313482416604",
        "link": "https://facebook.com/groups/307960726818551/permalink/785313482416604"
    },
    {
        "post": "656046162010004",
        "link": "https://facebook.com/groups/307960726818551/permalink/656046162010004"
    },
    {
        "post": "786726712275281",
        "link": "https://facebook.com/groups/307960726818551/permalink/786726712275281"
    },
    {
        "post": "786517062296246",
        "link": "https://facebook.com/groups/307960726818551/permalink/786517062296246"
    },
    {
        "post": "786016139013005",
        "link": "https://facebook.com/groups/307960726818551/permalink/786016139013005"
    },
    {
        "post": "785119035769382",
        "link": "https://facebook.com/groups/307960726818551/permalink/785119035769382"
    },
    {
        "post": "785159305765355",
        "link": "https://facebook.com/groups/307960726818551/permalink/785159305765355"
    },
    {
        "post": "645534633061157",
        "link": "https://facebook.com/groups/307960726818551/permalink/645534633061157"
    },
    {
        "post": "784641629150456",
        "link": "https://facebook.com/groups/307960726818551/permalink/784641629150456"
    },
    {
        "post": "784610432486909",
        "link": "https://facebook.com/groups/307960726818551/permalink/784610432486909"
    },
    {
        "post": "783115645969721",
        "link": "https://facebook.com/groups/307960726818551/permalink/783115645969721"
    },
    {
        "post": "780276839586935",
        "link": "https://facebook.com/groups/307960726818551/permalink/780276839586935"
    },
    {
        "post": "questions.php?question_id=778936176387668",
        "link": "https://facebook.com/questions.php?question_id=778936176387668"
    },
    {
        "post": "597640084517279",
        "link": "https://facebook.com/groups/307960726818551/permalink/597640084517279"
    },
    {
        "post": "497375574543731",
        "link": "https://facebook.com/groups/307960726818551/permalink/497375574543731"
    },
    {
        "post": "784064669208152",
        "link": "https://facebook.com/groups/307960726818551/permalink/784064669208152"
    },
    {
        "post": "781925699422049",
        "link": "https://facebook.com/groups/307960726818551/permalink/781925699422049"
    },
    {
        "post": "631833297764624",
        "link": "https://facebook.com/groups/307960726818551/permalink/631833297764624"
    },
    {
        "post": "747321179549168",
        "link": "https://facebook.com/groups/307960726818551/permalink/747321179549168"
    },
    {
        "post": "784546209159998",
        "link": "https://facebook.com/groups/307960726818551/permalink/784546209159998"
    },
    {
        "post": "783220485959237",
        "link": "https://facebook.com/groups/307960726818551/permalink/783220485959237"
    },
    {
        "post": "783834165897869",
        "link": "https://facebook.com/groups/307960726818551/permalink/783834165897869"
    },
    {
        "post": "769276287353657",
        "link": "https://facebook.com/groups/307960726818551/permalink/769276287353657"
    },
    {
        "post": "783041509310468",
        "link": "https://facebook.com/groups/307960726818551/permalink/783041509310468"
    },
    {
        "post": "783216305959655",
        "link": "https://facebook.com/groups/307960726818551/permalink/783216305959655"
    },
    {
        "post": "763019004646052",
        "link": "https://facebook.com/groups/307960726818551/permalink/763019004646052"
    },
    {
        "post": "626816991599588",
        "link": "https://facebook.com/groups/307960726818551/permalink/626816991599588"
    },
    {
        "post": "783239895957296",
        "link": "https://facebook.com/groups/307960726818551/permalink/783239895957296"
    },
    {
        "post": "775898873358065",
        "link": "https://facebook.com/groups/307960726818551/permalink/775898873358065"
    },
    {
        "post": "782446972703255",
        "link": "https://facebook.com/groups/307960726818551/permalink/782446972703255"
    },
    {
        "post": "780314182916534",
        "link": "https://facebook.com/groups/307960726818551/permalink/780314182916534"
    },
    {
        "post": "780995556181730",
        "link": "https://facebook.com/groups/307960726818551/permalink/780995556181730"
    },
    {
        "post": "783248009289818",
        "link": "https://facebook.com/groups/307960726818551/permalink/783248009289818"
    },
    {
        "post": "782064739408145",
        "link": "https://facebook.com/groups/307960726818551/permalink/782064739408145"
    },
    {
        "post": "774205796860706",
        "link": "https://facebook.com/groups/307960726818551/permalink/774205796860706"
    },
    {
        "post": "779607362987216",
        "link": "https://facebook.com/groups/307960726818551/permalink/779607362987216"
    },
    {
        "post": "780361249578494",
        "link": "https://facebook.com/groups/307960726818551/permalink/780361249578494"
    },
    {
        "post": "776629033285049",
        "link": "https://facebook.com/groups/307960726818551/permalink/776629033285049"
    },
    {
        "post": "781648476116438",
        "link": "https://facebook.com/groups/307960726818551/permalink/781648476116438"
    },
    {
        "post": "779986282949324",
        "link": "https://facebook.com/groups/307960726818551/permalink/779986282949324"
    },
    {
        "post": "778593609755258",
        "link": "https://facebook.com/groups/307960726818551/permalink/778593609755258"
    },
    {
        "post": "781364649478154",
        "link": "https://facebook.com/groups/307960726818551/permalink/781364649478154"
    },
    {
        "post": "780372889577330",
        "link": "https://facebook.com/groups/307960726818551/permalink/780372889577330"
    },
    {
        "post": "754344555513497",
        "link": "https://facebook.com/groups/307960726818551/permalink/754344555513497"
    },
    {
        "post": "779563229658296",
        "link": "https://facebook.com/groups/307960726818551/permalink/779563229658296"
    },
    {
        "post": "778466463101306",
        "link": "https://facebook.com/groups/307960726818551/permalink/778466463101306"
    },
    {
        "post": "780235352924417",
        "link": "https://facebook.com/groups/307960726818551/permalink/780235352924417"
    },
    {
        "post": "780194142928538",
        "link": "https://facebook.com/groups/307960726818551/permalink/780194142928538"
    },
    {
        "post": "776299879984631",
        "link": "https://facebook.com/groups/307960726818551/permalink/776299879984631"
    },
    {
        "post": "754212052193414",
        "link": "https://facebook.com/groups/307960726818551/permalink/754212052193414"
    },
    {
        "post": "780271446254141",
        "link": "https://facebook.com/groups/307960726818551/permalink/780271446254141"
    },
    {
        "post": "776098920004727",
        "link": "https://facebook.com/groups/307960726818551/permalink/776098920004727"
    },
    {
        "post": "780323419582277",
        "link": "https://facebook.com/groups/307960726818551/permalink/780323419582277"
    },
    {
        "post": "770776577203628",
        "link": "https://facebook.com/groups/307960726818551/permalink/770776577203628"
    },
    {
        "post": "755112455436707",
        "link": "https://facebook.com/groups/307960726818551/permalink/755112455436707"
    },
    {
        "post": "778222126459073",
        "link": "https://facebook.com/groups/307960726818551/permalink/778222126459073"
    },
    {
        "post": "772816443666308",
        "link": "https://facebook.com/groups/307960726818551/permalink/772816443666308"
    },
    {
        "post": "646032606344693",
        "link": "https://facebook.com/groups/307960726818551/permalink/646032606344693"
    },
    {
        "post": "778046803143272",
        "link": "https://facebook.com/groups/307960726818551/permalink/778046803143272"
    },
    {
        "post": "775825350032084",
        "link": "https://facebook.com/groups/307960726818551/permalink/775825350032084"
    },
    {
        "post": "779520276329258",
        "link": "https://facebook.com/groups/307960726818551/permalink/779520276329258"
    },
    {
        "post": "777671043180848",
        "link": "https://facebook.com/groups/307960726818551/permalink/777671043180848"
    },
    {
        "post": "778838689730750",
        "link": "https://facebook.com/groups/307960726818551/permalink/778838689730750"
    },
    {
        "post": "775560906725195",
        "link": "https://facebook.com/groups/307960726818551/permalink/775560906725195"
    },
    {
        "post": "777479093200043",
        "link": "https://facebook.com/groups/307960726818551/permalink/777479093200043"
    },
    {
        "post": "777641789850440",
        "link": "https://facebook.com/groups/307960726818551/permalink/777641789850440"
    },
    {
        "post": "776045656676720",
        "link": "https://facebook.com/groups/307960726818551/permalink/776045656676720"
    },
    {
        "post": "774835543464398",
        "link": "https://facebook.com/groups/307960726818551/permalink/774835543464398"
    },
    {
        "post": "776816313266321",
        "link": "https://facebook.com/groups/307960726818551/permalink/776816313266321"
    },
    {
        "post": "776853589929260",
        "link": "https://facebook.com/groups/307960726818551/permalink/776853589929260"
    },
    {
        "post": "772990326982253",
        "link": "https://facebook.com/groups/307960726818551/permalink/772990326982253"
    },
    {
        "post": "775834243364528",
        "link": "https://facebook.com/groups/307960726818551/permalink/775834243364528"
    },
    {
        "post": "772247707056515",
        "link": "https://facebook.com/groups/307960726818551/permalink/772247707056515"
    },
    {
        "post": "776534636627822",
        "link": "https://facebook.com/groups/307960726818551/permalink/776534636627822"
    },
    {
        "post": "768503787430907",
        "link": "https://facebook.com/groups/307960726818551/permalink/768503787430907"
    },
    {
        "post": "774921583455794",
        "link": "https://facebook.com/groups/307960726818551/permalink/774921583455794"
    },
    {
        "post": "769841980630421",
        "link": "https://facebook.com/groups/307960726818551/permalink/769841980630421"
    },
    {
        "post": "770086630605956",
        "link": "https://facebook.com/groups/307960726818551/permalink/770086630605956"
    },
    {
        "post": "773917203556232",
        "link": "https://facebook.com/groups/307960726818551/permalink/773917203556232"
    },
    {
        "post": "773902280224391",
        "link": "https://facebook.com/groups/307960726818551/permalink/773902280224391"
    },
    {
        "post": "760496348231651",
        "link": "https://facebook.com/groups/307960726818551/permalink/760496348231651"
    },
    {
        "post": "775290246752261",
        "link": "https://facebook.com/groups/307960726818551/permalink/775290246752261"
    },
    {
        "post": "774791740135445",
        "link": "https://facebook.com/groups/307960726818551/permalink/774791740135445"
    },
    {
        "post": "772973430317276",
        "link": "https://facebook.com/groups/307960726818551/permalink/772973430317276"
    },
    {
        "post": "758981345049818",
        "link": "https://facebook.com/groups/307960726818551/permalink/758981345049818"
    },
    {
        "post": "767985927482693",
        "link": "https://facebook.com/groups/307960726818551/permalink/767985927482693"
    },
    {
        "post": "768688147412471",
        "link": "https://facebook.com/groups/307960726818551/permalink/768688147412471"
    },
    {
        "post": "772707327010553",
        "link": "https://facebook.com/groups/307960726818551/permalink/772707327010553"
    },
    {
        "post": "771518427129443",
        "link": "https://facebook.com/groups/307960726818551/permalink/771518427129443"
    },
    {
        "post": "772252250389394",
        "link": "https://facebook.com/groups/307960726818551/permalink/772252250389394"
    },
    {
        "post": "688544212093532",
        "link": "https://facebook.com/groups/307960726818551/permalink/688544212093532"
    },
    {
        "post": "773985516882734",
        "link": "https://facebook.com/groups/307960726818551/permalink/773985516882734"
    },
    {
        "post": "759660311648588",
        "link": "https://facebook.com/groups/307960726818551/permalink/759660311648588"
    },
    {
        "post": "772662300348389",
        "link": "https://facebook.com/groups/307960726818551/permalink/772662300348389"
    },
    {
        "post": "770502643897688",
        "link": "https://facebook.com/groups/307960726818551/permalink/770502643897688"
    },
    {
        "post": "768011754146777",
        "link": "https://facebook.com/groups/307960726818551/permalink/768011754146777"
    },
    {
        "post": "771520963795856",
        "link": "https://facebook.com/groups/307960726818551/permalink/771520963795856"
    },
    {
        "post": "770710537210232",
        "link": "https://facebook.com/groups/307960726818551/permalink/770710537210232"
    },
    {
        "post": "646716806276273",
        "link": "https://facebook.com/groups/307960726818551/permalink/646716806276273"
    },
    {
        "post": "771667867114499",
        "link": "https://facebook.com/groups/307960726818551/permalink/771667867114499"
    },
    {
        "post": "771890870425532",
        "link": "https://facebook.com/groups/307960726818551/permalink/771890870425532"
    },
    {
        "post": "771545507126735",
        "link": "https://facebook.com/groups/307960726818551/permalink/771545507126735"
    },
    {
        "post": "769063784041574",
        "link": "https://facebook.com/groups/307960726818551/permalink/769063784041574"
    },
    {
        "post": "771524087128877",
        "link": "https://facebook.com/groups/307960726818551/permalink/771524087128877"
    },
    {
        "post": "764510384496914",
        "link": "https://facebook.com/groups/307960726818551/permalink/764510384496914"
    },
    {
        "post": "770049417276344",
        "link": "https://facebook.com/groups/307960726818551/permalink/770049417276344"
    },
    {
        "post": "769058854042067",
        "link": "https://facebook.com/groups/307960726818551/permalink/769058854042067"
    },
    {
        "post": "765241997757086",
        "link": "https://facebook.com/groups/307960726818551/permalink/765241997757086"
    },
    {
        "post": "770073660607253",
        "link": "https://facebook.com/groups/307960726818551/permalink/770073660607253"
    },
    {
        "post": "770654850549134",
        "link": "https://facebook.com/groups/307960726818551/permalink/770654850549134"
    },
    {
        "post": "770537260560893",
        "link": "https://facebook.com/groups/307960726818551/permalink/770537260560893"
    },
    {
        "post": "770600847221201",
        "link": "https://facebook.com/groups/307960726818551/permalink/770600847221201"
    },
    {
        "post": "761951298086156",
        "link": "https://facebook.com/groups/307960726818551/permalink/761951298086156"
    },
    {
        "post": "768471464100806",
        "link": "https://facebook.com/groups/307960726818551/permalink/768471464100806"
    },
    {
        "post": "767908480823771",
        "link": "https://facebook.com/groups/307960726818551/permalink/767908480823771"
    },
    {
        "post": "534614120819876",
        "link": "https://facebook.com/groups/307960726818551/permalink/534614120819876"
    },
    {
        "post": "767976724150280",
        "link": "https://facebook.com/groups/307960726818551/permalink/767976724150280"
    },
    {
        "post": "767398097541476",
        "link": "https://facebook.com/groups/307960726818551/permalink/767398097541476"
    },
    {
        "post": "764660704481882",
        "link": "https://facebook.com/groups/307960726818551/permalink/764660704481882"
    },
    {
        "post": "767149460899673",
        "link": "https://facebook.com/groups/307960726818551/permalink/767149460899673"
    },
    {
        "post": "765825417698744",
        "link": "https://facebook.com/groups/307960726818551/permalink/765825417698744"
    },
    {
        "post": "749839499297336",
        "link": "https://facebook.com/groups/307960726818551/permalink/749839499297336"
    },
    {
        "post": "764005694547383",
        "link": "https://facebook.com/groups/307960726818551/permalink/764005694547383"
    },
    {
        "post": "767343967546889",
        "link": "https://facebook.com/groups/307960726818551/permalink/767343967546889"
    },
    {
        "post": "765494457731840",
        "link": "https://facebook.com/groups/307960726818551/permalink/765494457731840"
    },
    {
        "post": "765177337763552",
        "link": "https://facebook.com/groups/307960726818551/permalink/765177337763552"
    },
    {
        "post": "766243030990316",
        "link": "https://facebook.com/groups/307960726818551/permalink/766243030990316"
    },
    {
        "post": "690074728607147",
        "link": "https://facebook.com/groups/307960726818551/permalink/690074728607147"
    },
    {
        "post": "760553281559291",
        "link": "https://facebook.com/groups/307960726818551/permalink/760553281559291"
    },
    {
        "post": "767322317549054",
        "link": "https://facebook.com/groups/307960726818551/permalink/767322317549054"
    },
    {
        "post": "766039501010669",
        "link": "https://facebook.com/groups/307960726818551/permalink/766039501010669"
    },
    {
        "post": "758946865053266",
        "link": "https://facebook.com/groups/307960726818551/permalink/758946865053266"
    },
    {
        "post": "767092884238664",
        "link": "https://facebook.com/groups/307960726818551/permalink/767092884238664"
    },
    {
        "post": "767347660879853",
        "link": "https://facebook.com/groups/307960726818551/permalink/767347660879853"
    }
]