{
    "post": "447645123135039",
    "link": "https://facebook.com/groups/nhungconnguoithattinh/permalink/447645123135039",
    "post_comments": [
        {
            "parent_comment": {
                "parent_user": "Nhi Võ",
                "parent_content": "Huy Gia :(("
            },
            "replies": [
                {
                    "reply_user": "Huy Gia",
                    "reply_content": " gì gì-.-?"
                },
                {
                    "reply_user": "Nhi Võ",
                    "reply_content": " thì t saiiii ko bt trân trọng m-.-"
                }
            ]
        }
    ]
}