{
    "post": "448911363008415",
    "link": "https://facebook.com/groups/nhungconnguoithattinh/permalink/448911363008415",
    "post_comments": [
        {
            "parent_comment": {
                "parent_user": "Đoan Trúc Nguyễn Ngọc",
                "parent_content": "Mình thuộc dạng 2  tự ôm tự buồn tự giải quyết r sẽ tự đứng lên . Vì đã 1m quen r"
            },
            "replies": [
                {
                    "reply_user": "Mầm Mầm",
                    "reply_content": " còn có ng hay đi tâm sự mà :)) "
                },
                {
                    "reply_user": "Đoan Trúc Nguyễn Ngọc",
                    "reply_content": " vờ ko thấy cmt t đc hem :)))"
                }
            ]
        },
        {
            "parent_comment": {
                "parent_user": "Hoang Hai Anh",
                "parent_content": "um"
            },
            "replies": [
                {
                    "reply_user": "Vu Dieu Anh",
                    "reply_content": " đứt tay vì gọt "
                },
                {
                    "reply_user": "Hoang Hai Anh",
                    "reply_content": " lon"
                }
            ]
        }
    ]
}