{
    "post": "445005436732341",
    "link": "https://facebook.com/groups/nhungconnguoithattinh/permalink/445005436732341",
    "post_comments": [
        {
            "parent_comment": {
                "parent_user": "Hoang Hai Anh",
                "parent_content": "right"
            },
            "replies": [
                {
                    "reply_user": "Nguyen Hoang Anh",
                    "reply_content": " thế sao"
                },
                {
                    "reply_user": "Hoang Hai Anh",
                    "reply_content": " ừa"
                }
            ]
        }
    ]
}