{
    "post": "447543599811858",
    "link": "https://facebook.com/groups/nhungconnguoithattinh/permalink/447543599811858",
    "post_comments": [
        {
            "parent_comment": {
                "parent_user": "Vu Van Ngo",
                "parent_content": "Cú lừa "
            },
            "replies": [
                {
                    "reply_user": "Nguyễn Văn Thọ",
                    "reply_content": " dạ"
                },
                {
                    "reply_user": "Vu Van Ngo",
                    "reply_content": " moản "
                }
            ]
        },
        {
            "parent_comment": {
                "parent_user": "Mą Døãn Văn",
                "parent_content": "Được gì ta"
            },
            "replies": [
                {
                    "reply_user": "Ma Doãn Quang",
                    "reply_content": " Sừng á m"
                },
                {
                    "reply_user": "Mą Døãn Văn",
                    "reply_content": " Hv "
                }
            ]
        },
        {
            "parent_comment": {
                "parent_user": "Nguyễn Thị Thuỳ Trân",
                "parent_content": "cha nhan lai duoc gi"
            },
            "replies": [
                {
                    "reply_user": "Diễm My",
                    "reply_content": "Ừ hé"
                },
                {
                    "reply_user": "Nguyễn Thị Thuỳ Trân",
                    "reply_content": "  chac duoc ton thuong dó mé"
                }
            ]
        }
    ]
}