{
    "post": "450133859552832",
    "link": "https://facebook.com/groups/nhungconnguoithattinh/permalink/450133859552832",
    "post_comments": [
        {
            "parent_comment": {
                "parent_user": "Khánh Ly",
                "parent_content": "Lê Nguyễn Thu Hương"
            },
            "replies": [
                {
                    "reply_user": "Lê Nguyễn Thu Hương",
                    "reply_content": " mình hết quan trọng rồi^^..."
                },
                {
                    "reply_user": "Khánh Ly",
                    "reply_content": " hmm:("
                }
            ]
        }
    ]
}