{
    "post": "446447179921500",
    "link": "https://facebook.com/groups/nhungconnguoithattinh/permalink/446447179921500",
    "post_comments": [
        {
            "parent_comment": {
                "parent_user": "Cường Nguyễn",
                "parent_content": "Hiền Nguyễn ayda"
            },
            "replies": [
                {
                    "reply_user": "Hiền Nguyễn",
                    "reply_content": " mõm"
                },
                {
                    "reply_user": "Cường Nguyễn",
                    "reply_content": " quên mất khum có đt để ngắm"
                }
            ]
        },
        {
            "parent_comment": {
                "parent_user": "Lương Quỳnh Em",
                "parent_content": "Còn phải nói "
            },
            "replies": [
                {
                    "reply_user": "Yến Vy",
                    "reply_content": " chắc là tin nhắn của tuiii"
                },
                {
                    "reply_user": "Lương Quỳnh Em",
                    "reply_content": " cậu có ib cho mình không"
                }
            ]
        },
        {
            "parent_comment": {
                "parent_user": "Phạm Gia Huy",
                "parent_content": "Thu Hà đâu òi"
            },
            "replies": [
                {
                    "reply_user": "Thu Hà",
                    "reply_content": " "
                },
                {
                    "reply_user": "Phạm Gia Huy",
                    "reply_content": " co gi cho anh hok "
                },
                {
                    "reply_user": "Thu Hà",
                    "reply_content": " hok"
                },
                {
                    "reply_user": "Phạm Gia Huy",
                    "reply_content": " hun anh di nhanh len "
                },
                {
                    "reply_user": "Thu Hà",
                    "reply_content": " hun moamoaz chụt chụt "
                },
                {
                    "reply_user": "Phạm Gia Huy",
                    "reply_content": " maiiii gap iii "
                }
            ]
        },
        {
            "parent_comment": {
                "parent_user": "Lâm A' Tuấn",
                "parent_content": "Linh Điền"
            },
            "replies": [
                {
                    "reply_user": "Linh Điền",
                    "reply_content": " thế á"
                },
                {
                    "reply_user": "Lâm A' Tuấn",
                    "reply_content": " dạ"
                }
            ]
        },
        {
            "parent_comment": {
                "parent_user": "Vũ Nhỏ",
                "parent_content": "Huỳnh Diệu"
            },
            "replies": [
                {
                    "reply_user": "Huỳnh Diệu",
                    "reply_content": " hình như trong hình đó đang nói em  "
                },
                {
                    "reply_user": "Vũ Nhỏ",
                    "reply_content": " trồ "
                },
                {
                    "reply_user": "Huỳnh Diệu",
                    "reply_content": " sự thật là như v đấy cv "
                },
                {
                    "reply_user": "Vũ Nhỏ",
                    "reply_content": " yêu em"
                },
                {
                    "reply_user": "Huỳnh Diệu",
                    "reply_content": " ai lớp diuuuu chu cờ mo. "
                }
            ]
        }
    ]
}