{
    "post": "447346959831522",
    "link": "https://facebook.com/groups/nhungconnguoithattinh/permalink/447346959831522",
    "post_comments": [
        {
            "parent_comment": {
                "parent_user": "Lâm Minh Thư",
                "parent_content": "Cung vui "
            },
            "replies": [
                {
                    "reply_user": "Văn Khang",
                    "reply_content": " ủa rồi anh bỏ đâu"
                },
                {
                    "reply_user": "Lâm Minh Thư",
                    "reply_content": " tự biết "
                }
            ]
        },
        {
            "parent_comment": {
                "parent_user": "Yêuu Tấn",
                "parent_content": "Có"
            },
            "replies": [
                {
                    "reply_user": "Ng Hiền",
                    "reply_content": " Thực lo hết "
                },
                {
                    "reply_user": "Yêuu Tấn",
                    "reply_content": " Đmm ngao à ?"
                }
            ]
        }
    ]
}