{
    "post": "449953132904238",
    "link": "https://facebook.com/groups/nhungconnguoithattinh/permalink/449953132904238",
    "post_comments": [
        {
            "parent_comment": {
                "parent_user": "Thiên Phong Dương",
                "parent_content": "những gì anh thổ lộ ra là tất cả sự chân thành mà anh muốn dành hết cho em vào khoảng thanh xuân ngăn ngủi này "
            },
            "replies": [
                {
                    "reply_user": "Lâm Nguyễn Phi",
                    "reply_content": " nghe buồn thế "
                },
                {
                    "reply_user": "Thiên Phong Dương",
                    "reply_content": " mang tiếng là người đến sau nên tất xả những gì xấu người trước đã làm mình đều phải gánh hết ..."
                }
            ]
        }
    ]
}