{
    "post": "445363413363210",
    "link": "https://facebook.com/groups/nhungconnguoithattinh/permalink/445363413363210",
    "post_comments": [
        {
            "parent_comment": {
                "parent_user": "Hà Thị Thanh Trà",
                "parent_content": "Haha =))"
            },
            "replies": [
                {
                    "reply_user": "Hà Mạnh",
                    "reply_content": " cười cức à"
                },
                {
                    "reply_user": "Hà Thị Thanh Trà",
                    "reply_content": " thích dị đó =))"
                }
            ]
        }
    ]
}