{
    "post": "449522199613998",
    "link": "https://facebook.com/groups/nhungconnguoithattinh/permalink/449522199613998",
    "post_comments": [
        {
            "parent_comment": {
                "parent_user": "Diễm Trinh",
                "parent_content": "tr oi còn gì bằng Nhật Aanh"
            },
            "replies": [
                {
                    "reply_user": "Thanhh  Tâmm",
                    "reply_content": " ê ê t ăn cơm no roi nhe"
                },
                {
                    "reply_user": "Diễm Trinh",
                    "reply_content": " tr oi co dau"
                }
            ]
        }
    ]
}