{
    "post": "437095224190029",
    "link": "https://facebook.com/groups/nhungconnguoithattinh/permalink/437095224190029",
    "post_comments": [
        {
            "parent_comment": {
                "parent_user": "Như Trần",
                "parent_content": "Nó tự rơi mà Trang Nguyễn "
            },
            "replies": [
                {
                    "reply_user": "Trang Nguyễn",
                    "reply_content": " "
                },
                {
                    "reply_user": "Như Trần",
                    "reply_content": " e cs lmj âuKhùn khùn cái khók"
                }
            ]
        }
    ]
}