{
    "post": "443137410252477",
    "link": "https://facebook.com/groups/nhungconnguoithattinh/permalink/443137410252477",
    "post_comments": [
        {
            "parent_comment": {
                "parent_user": "Yến Nhi",
                "parent_content": "hjhj"
            },
            "replies": [
                {
                    "reply_user": "Levi Ackerman",
                    "reply_content": " sao v yn"
                },
                {
                    "reply_user": "Yến Nhi",
                    "reply_content": " sau đâu"
                }
            ]
        },
        {
            "parent_comment": {
                "parent_user": "Nguyễn Đăng Hoàng Nguyên",
                "parent_content": "Hoàng Bảo Minh cố lên"
            },
            "replies": [
                {
                    "reply_user": "Hoàng Bảo Minh",
                    "reply_content": " phải chi ngày đó mình đừng yêu nhau.."
                },
                {
                    "reply_user": "Nguyễn Đăng Hoàng Nguyên",
                    "reply_content": " thi 2 trái tim sẽ như lúc đầu.."
                }
            ]
        }
    ]
}