{
    "post": "450060586226826",
    "link": "https://facebook.com/groups/nhungconnguoithattinh/permalink/450060586226826",
    "post_comments": [
        {
            "parent_comment": {
                "parent_user": "Nguyễn Thùy Dương",
                "parent_content": "Story còn chua rep sao iu"
            },
            "replies": [
                {
                    "reply_user": "Nguyệt Nga",
                    "reply_content": " khóc:<"
                },
                {
                    "reply_user": "Nguyễn Thùy Dương",
                    "reply_content": "  tinh dang do :<<"
                }
            ]
        },
        {
            "parent_comment": {
                "parent_user": "Nguyễn Duy Khánh",
                "parent_content": "Lê Diễm Mi"
            },
            "replies": [
                {
                    "reply_user": "Lê Diễm Mi",
                    "reply_content": " khùng"
                },
                {
                    "reply_user": "Nguyễn Duy Khánh",
                    "reply_content": "  khóc"
                }
            ]
        },
        {
            "parent_comment": {
                "parent_user": "Triệu Văn Vương",
                "parent_content": ""
            },
            "replies": [
                {
                    "reply_user": "Luân Nguyễn",
                    "reply_content": " buồn k bạn"
                },
                {
                    "reply_user": "Triệu Văn Vương",
                    "reply_content": " như bạn thôi  nên mới rủ đi nhậu"
                }
            ]
        },
        {
            "parent_comment": {
                "parent_user": "Nhật",
                "parent_content": "Lê Thị Như Quỳnh  thế rá"
            },
            "replies": [
                {
                    "reply_user": "Lê Thị Như Quỳnh",
                    "reply_content": " Yêu quạ"
                },
                {
                    "reply_user": "Nhật",
                    "reply_content": " "
                }
            ]
        }
    ]
}