{
    "post": "584637315753149",
    "link": "https://facebook.com/groups/241769123373305/permalink/584637315753149",
    "post_comments": [
        {
            "parent_comment": {
                "parent_user": "Văn Tuấn Ngô",
                "parent_content": "Nên nhờ người có đủ tầm và tâm hơn ở trong trường, có thể là giám thị hoặc ban giám hiệu"
            },
            "replies": [
                {
                    "reply_user": "Nhàn Uy",
                    "reply_content": " cảm ơn ạ"
                }
            ]
        },
        {
            "parent_comment": {
                "parent_user": "Hoàng Mai Liên",
                "parent_content": "Có thể tìm tới người có thẩm quyền cao hơn như cmt ở trên nhưng trước hết người thân cũng cần thông báo với gvcn để gvcn ít nhất sẽ ý thức và có trách nhiệm đảm bảo an toàn cho bạn ấy về cả thể chất lẫn tinh thần ạ."
            },
            "replies": [
                {
                    "reply_user": "Nhàn Uy",
                    "reply_content": " mình đã báo rồi ạ. Chúng nó hẹn chiều nay đánh nhau, mình báo lúc trưa, cô bảo chiều cô xử lý rồi cuối cùng thì không thấy bóng cô đâu ạ. Người nhà học sinh hỏi về vấn đề này thì cúp máy ngang, không trả lời tin nhắn. Mình không hiểu sao cô có thể làm vậy. "
                },
                {
                    "reply_user": "Hoàng Mai Liên",
                    "reply_content": "  gia đình cứ lưu lại hết chứng cứ việc đã thông báo tới gvcn và tìm tới người có thẩm quyền cao hơn thôi ạ. Dù là lý do nào thì gvcn cũng sẽ phải chịu trách nhiệm cho sự lựa chọn ấy."
                }
            ]
        }
    ]
}