{
    "post": "527139408169607",
    "link": "https://facebook.com/groups/241769123373305/permalink/527139408169607",
    "post_comments": [
        {
            "parent_comment": {
                "parent_user": "Quỳnh Nguyễn",
                "parent_content": "19"
            },
            "replies": [
                {
                    "reply_user": "Linh Laii",
                    "reply_content": " gác cổng chán sinh nông nổi à"
                },
                {
                    "reply_user": "Quỳnh Nguyễn",
                    "reply_content": " ơ "
                },
                {
                    "reply_user": "Linh Laii",
                    "reply_content": " chết thôi, nao về mang đs hnam cho t"
                },
                {
                    "reply_user": "Quỳnh Nguyễn",
                    "reply_content": "Hà nam có đs gì ta "
                }
            ]
        },
        {
            "parent_comment": {
                "parent_user": "Lê Hồng Hoa",
                "parent_content": "chính xác là 19 nha cam đoan"
            },
            "replies": [
                {
                    "reply_user": "Trần Văn Nghĩa",
                    "reply_content": " con mèo cuối ko đeo còi và có 1 cái còi :))"
                }
            ]
        }
    ]
}