{
    "post": "535688943981320",
    "link": "https://facebook.com/groups/241769123373305/permalink/535688943981320",
    "post_comments": [
        {
            "parent_comment": {
                "parent_user": "Trang Nguyễn",
                "parent_content": ".."
            },
            "replies": [
                {
                    "reply_user": "TK Để Học",
                    "reply_content": "bạn accept lời mời kết bạn, r mình ib nhé"
                }
            ]
        }
    ]
}