{
    "post": "1148354778958309",
    "link": "https://facebook.com/groups/chuyencuato/permalink/1148354778958309",
    "post_comments": [
        {
            "parent_comment": {
                "parent_user": "An Nekk",
                "parent_content": "Biết đâu lại bị ngta đem tình cảm ra đùa giỡn một lần nữa?"
            },
            "replies": [
                {
                    "reply_user": "Dang Phuong Chi",
                    "reply_content": " thì chỉu"
                }
            ]
        }
    ]
}