{
    "post": "1145200205940433",
    "link": "https://facebook.com/groups/chuyencuato/permalink/1145200205940433",
    "post_comments": [
        {
            "parent_comment": {
                "parent_user": "Bảo An",
                "parent_content": "22 tuổi sẽ thấy khác, ngủ sớm đi =)))"
            },
            "replies": [
                {
                    "reply_user": "Bạc Xỉu",
                    "reply_content": " đúng rồi ạ, năm tuổi ấy bản thân chỉ lo đến cơm áo gạo tiền thôi thời gian đâu nhiều để suy nghĩ đến yêu đương"
                },
                {
                    "reply_user": "Bảo An",
                    "reply_content": " sợ rớt môn chứ cơm áo gạo tiền vẫn chưa. Nchung tuổi này thì tớ chỉ tiếc thời mới lớn mình nên đi ngủ sớm để thật xinh đẹp, chứ chả thấy tiếc gì những người đã đi qua =))"
                }
            ]
        },
        {
            "parent_comment": {
                "parent_user": "Thùy Dương",
                "parent_content": "8 ngày nữa toi 18.. Mà đầu tôi có sừng chân thì dẫm trap ,:)). Không gì thay đổi đc bạn bằng thời gian nên hãy cứ cảm nhận hết tất cả cảm xúc của mình. Chỉ là đừng dành quá nhiều thời gian cho cam xuc tiêu cực, bạn sẽ tiếc đó. Cười lên nhé, ngủ ngon "
            },
            "replies": [
                {
                    "reply_user": "Hoàng Thanh",
                    "reply_content": " khum"
                }
            ]
        },
        {
            "parent_comment": {
                "parent_user": "Long Hà",
                "parent_content": "Nhớ em"
            },
            "replies": [
                {
                    "reply_user": "Minh",
                    "reply_content": " nhớ ít thôi emTập trung vào đầu đi em"
                }
            ]
        },
        {
            "parent_comment": {
                "parent_user": "Minh Anh",
                "parent_content": "đỉnh quá cậu ơi "
            },
            "replies": [
                {
                    "reply_user": "Bạc Xỉu",
                    "reply_content": " Cảm ơn nha , cậu viết cũng hay lắm á mấy bài này do cảm xúc nói lên thôi"
                }
            ]
        }
    ]
}