{
    "post": "1146867275773726",
    "link": "https://facebook.com/groups/chuyencuato/permalink/1146867275773726",
    "post_comments": [
        {
            "parent_comment": {
                "parent_user": "Như Nguyệt",
                "parent_content": "hay quáaaa "
            },
            "replies": [
                {
                    "reply_user": "Ngo Gia Han",
                    "reply_content": " "
                }
            ]
        }
    ]
}