{
    "post": "1162017340925386",
    "link": "https://facebook.com/groups/chuyencuato/permalink/1162017340925386",
    "post_comments": [
        {
            "parent_comment": {
                "parent_user": "Ngọc Hân",
                "parent_content": "Happy birthdayyyy cậuu nhaaaa"
            },
            "replies": [
                {
                    "reply_user": "Nhi Hong",
                    "reply_content": " cảm ơn cậu nhé "
                }
            ]
        },
        {
            "parent_comment": {
                "parent_user": "Huỳnh Thị Cẩm Ly",
                "parent_content": "Chúc sis sinh nhật vui vẻ "
            },
            "replies": [
                {
                    "reply_user": "Nhi Hong",
                    "reply_content": " cảm ơn cậu nhe"
                }
            ]
        },
        {
            "parent_comment": {
                "parent_user": "Nguyễn Ngọc Phương Nhi",
                "parent_content": "chuc mung sinh nhat , luon cuoi that tuoi ban nhe "
            },
            "replies": [
                {
                    "reply_user": "Nhi Hong",
                    "reply_content": " cảm ơn hi"
                }
            ]
        },
        {
            "parent_comment": {
                "parent_user": "Nhật Thư",
                "parent_content": "sinh nhật an nhiên, mong cậu sẽ vui vẻ nhiều hơn nữa"
            },
            "replies": [
                {
                    "reply_user": "Nhi Hong",
                    "reply_content": " "
                }
            ]
        },
        {
            "parent_comment": {
                "parent_user": "Phan Thục Quyên",
                "parent_content": "Sinh nhật vui vẻ nhé,  mong cậu mãi an nhiên"
            },
            "replies": [
                {
                    "reply_user": "Nhi Hong",
                    "reply_content": " cảm ơn cậu nhe"
                }
            ]
        },
        {
            "parent_comment": {
                "parent_user": "Phan Thị Chúc Ly",
                "parent_content": "Sinh nhật vui vẻ nhé"
            },
            "replies": [
                {
                    "reply_user": "Nhi Hong",
                    "reply_content": " "
                }
            ]
        },
        {
            "parent_comment": {
                "parent_user": "Kim Ngân",
                "parent_content": "Sinh nhật vui vẻ nha bà "
            },
            "replies": [
                {
                    "reply_user": "Nhi Hong",
                    "reply_content": " "
                }
            ]
        },
        {
            "parent_comment": {
                "parent_user": "Pham Ngoc Linhh",
                "parent_content": "Hpbd Chúc cậu thêm một tuổi vui vẻ , an nhiên luôn thành công ^^"
            },
            "replies": [
                {
                    "reply_user": "Nhi Hong",
                    "reply_content": "Hoàng Linhh "
                }
            ]
        },
        {
            "parent_comment": {
                "parent_user": "Phương Thảo",
                "parent_content": "Chúc bạn sinh nhật hạnh phúc tôi cũng tự chúc tôi hạnh phúc "
            },
            "replies": [
                {
                    "reply_user": "Nhi Hong",
                    "reply_content": " chúc bạn thật hạnh phúc "
                }
            ]
        },
        {
            "parent_comment": {
                "parent_user": "Hương Giangg",
                "parent_content": "Chúc chị Sinh nhật vui vẻ và đậu vào trường mình mong muốn nhé bae"
            },
            "replies": [
                {
                    "reply_user": "Nhi Hong",
                    "reply_content": "Hưn Dangg cảm ơn em "
                }
            ]
        },
        {
            "parent_comment": {
                "parent_user": "Xuân Đào",
                "parent_content": "Chúc em tuổi mới an yên vui vẻ  cố gắng nhiều rồi"
            },
            "replies": [
                {
                    "reply_user": "Nhi Hong",
                    "reply_content": " em cảm ơn ạ"
                }
            ]
        },
        {
            "parent_comment": {
                "parent_user": "Nguyễn Huyền",
                "parent_content": "Chúc chị sinh nhật vui vẻ nha  Có tuổi 18 thật đẹp và đỗ vào trường mình mong muốn"
            },
            "replies": [
                {
                    "reply_user": "Nhi Hong",
                    "reply_content": " cảm ơn em nhe"
                }
            ]
        },
        {
            "parent_comment": {
                "parent_user": "Thu Nguyệtt",
                "parent_content": "Happy Birthday, luôn vui vẻ nhé cô gái ^^"
            },
            "replies": [
                {
                    "reply_user": "Nhi Hong",
                    "reply_content": "  cảm ơn cậu nhe"
                }
            ]
        },
        {
            "parent_comment": {
                "parent_user": "Huỳnh Thị Minh Thư",
                "parent_content": "Happy Birthday "
            },
            "replies": [
                {
                    "reply_user": "Nhi Hong",
                    "reply_content": " "
                }
            ]
        },
        {
            "parent_comment": {
                "parent_user": "Mai Thanh Phượng",
                "parent_content": "happy birthday, luôn thành công nhé b"
            },
            "replies": [
                {
                    "reply_user": "Nhi Hong",
                    "reply_content": "  cảm ơn cậu nhe"
                }
            ]
        },
        {
            "parent_comment": {
                "parent_user": "Ngọc Hậu",
                "parent_content": "Chúc mừng sinh nhật , mãi hạnh phúc nhé "
            },
            "replies": [
                {
                    "reply_user": "Nhi Hong",
                    "reply_content": " "
                }
            ]
        },
        {
            "parent_comment": {
                "parent_user": "Như Huỳnh",
                "parent_content": "chúc cậu sinh nhật vui vẻ nè "
            },
            "replies": [
                {
                    "reply_user": "Nhi Hong",
                    "reply_content": " cảm ơn cậu nhe"
                }
            ]
        },
        {
            "parent_comment": {
                "parent_user": "Tâm",
                "parent_content": "Ôi sinh cùng ngày cùng thángg "
            },
            "replies": [
                {
                    "reply_user": "Nhi Hong",
                    "reply_content": "  chúc cậu luôn bình an và vui vẻ"
                },
                {
                    "reply_user": "Tâm",
                    "reply_content": " okey một ngày vui vẻ"
                }
            ]
        },
        {
            "parent_comment": {
                "parent_user": "Thuong",
                "parent_content": "Sinh nhật vui vẻ nha sis oiii"
            },
            "replies": [
                {
                    "reply_user": "Nhi Hong",
                    "reply_content": " cảm ơn c nhiều "
                }
            ]
        },
        {
            "parent_comment": {
                "parent_user": "Hoài Thanh",
                "parent_content": "Chúc em sinh nhật vui vẻ !"
            },
            "replies": [
                {
                    "reply_user": "Nhi Hong",
                    "reply_content": " em cảm ơn chị ạ "
                }
            ]
        },
        {
            "parent_comment": {
                "parent_user": "Bé Bông",
                "parent_content": "Chúc em sinh nhật vui vẻ nhé "
            },
            "replies": [
                {
                    "reply_user": "Nhi Hong",
                    "reply_content": " em cảm ơn ạ"
                }
            ]
        },
        {
            "parent_comment": {
                "parent_user": "Trần Ngọc Lan",
                "parent_content": "18 tuổi mong mọi thứ tới với cậu thật dịu dàng."
            },
            "replies": [
                {
                    "reply_user": "Nhi Hong",
                    "reply_content": " cảm ơn cậu "
                }
            ]
        },
        {
            "parent_comment": {
                "parent_user": "Trà",
                "parent_content": "Chúc b sinh nhật vui vẻ, hạnh phúc nhé"
            },
            "replies": [
                {
                    "reply_user": "Nhi Hong",
                    "reply_content": " cảm ơn c "
                }
            ]
        },
        {
            "parent_comment": {
                "parent_user": "Hồ Thảo Nguyên",
                "parent_content": "Chúc người ae đẻ sau 2 ngày snvv :33"
            },
            "replies": [
                {
                    "reply_user": "Nhi Hong",
                    "reply_content": " cảm ơn b nhé hi"
                }
            ]
        },
        {
            "parent_comment": {
                "parent_user": "Nguyễn Hà Linh",
                "parent_content": "Hnay cũng snhat tớ "
            },
            "replies": [
                {
                    "reply_user": "Nhi Hong",
                    "reply_content": " chúc cậu luôn bình an, vui vẻ và đặc biệt là đỗ nv1 nha cậu "
                }
            ]
        },
        {
            "parent_comment": {
                "parent_user": "VT TrangNhungg",
                "parent_content": "Chúc sis sinh nhật vuive "
            },
            "replies": [
                {
                    "reply_user": "Nhi Hong",
                    "reply_content": " "
                }
            ]
        },
        {
            "parent_comment": {
                "parent_user": "Ngoc Ngoc",
                "parent_content": "Sinh nhật vui vẻ nha  phải luôn cười và hạnh phúc nhé"
            },
            "replies": [
                {
                    "reply_user": "Nhi Hong",
                    "reply_content": " cảm ơn nhe"
                }
            ]
        },
        {
            "parent_comment": {
                "parent_user": "VoThii TrangNhung",
                "parent_content": "Chị sinh nhật vuive mãi hạnh phúc nhé chị"
            },
            "replies": [
                {
                    "reply_user": "Nhi Hong",
                    "reply_content": " cảm ơn em"
                }
            ]
        },
        {
            "parent_comment": {
                "parent_user": "Huỳnh Như",
                "parent_content": "sinh nhật vui vẻ "
            },
            "replies": [
                {
                    "reply_user": "Nhi Hong",
                    "reply_content": " cảm ơn b nhe"
                }
            ]
        },
        {
            "parent_comment": {
                "parent_user": "Nguyễn Phương Liên",
                "parent_content": "chúc mừng sinh nhật em "
            },
            "replies": [
                {
                    "reply_user": "Nhi Hong",
                    "reply_content": " em cảm ơn chị ạ"
                }
            ]
        },
        {
            "parent_comment": {
                "parent_user": "Phan Thị Hiền Trang",
                "parent_content": "HAPPY Birthday "
            },
            "replies": [
                {
                    "reply_user": "Nhi Hong",
                    "reply_content": " "
                }
            ]
        },
        {
            "parent_comment": {
                "parent_user": "Yen Huong",
                "parent_content": "Em cũng chúc chị và bản thân em nhất định phải vui vẻ trong ngày sinh của mình và cả những ngày tháng sau "
            },
            "replies": [
                {
                    "reply_user": "Nhi Hong",
                    "reply_content": " chúc em luôn vui "
                }
            ]
        },
        {
            "parent_comment": {
                "parent_user": "Ngân Giang",
                "parent_content": "Chuc mung sinh nhat"
            },
            "replies": [
                {
                    "reply_user": "Nhi Hong",
                    "reply_content": " "
                }
            ]
        },
        {
            "parent_comment": {
                "parent_user": "Giáp Khánh Ly",
                "parent_content": "Chuc mung sinh nhat"
            },
            "replies": [
                {
                    "reply_user": "Nhi Hong",
                    "reply_content": " tớ cảm ơn"
                }
            ]
        },
        {
            "parent_comment": {
                "parent_user": "Văn Quốc",
                "parent_content": "sinhnhatvuive "
            },
            "replies": [
                {
                    "reply_user": "Nhi Hong",
                    "reply_content": " em cảm ơn ạ"
                }
            ]
        },
        {
            "parent_comment": {
                "parent_user": "Thư",
                "parent_content": "Sau này cũng thế, tôi sẽ chúc bạn trong âm thầm"
            },
            "replies": [
                {
                    "reply_user": "Nhi Hong",
                    "reply_content": " cảm ơn cậu "
                }
            ]
        },
        {
            "parent_comment": {
                "parent_user": "Châu Thị Minh Nguyễn",
                "parent_content": "|17.03.2001| Chúc bạn sinh nhật vui vẻ "
            },
            "replies": [
                {
                    "reply_user": "Nhi Hong",
                    "reply_content": " cảm ơn ạ "
                }
            ]
        },
        {
            "parent_comment": {
                "parent_user": "Cẩm An",
                "parent_content": "sinh nhật vui vẻ nhaa "
            },
            "replies": [
                {
                    "reply_user": "Nhi Hong",
                    "reply_content": " "
                }
            ]
        },
        {
            "parent_comment": {
                "parent_user": "Nguyễn Thu Hằng",
                "parent_content": "Chúc cậu tuổi mới vô ưu "
            },
            "replies": [
                {
                    "reply_user": "Nhi Hong",
                    "reply_content": " cảm ơn cậu"
                }
            ]
        },
        {
            "parent_comment": {
                "parent_user": "Nguyễn Thị Thu Huyền",
                "parent_content": "Sinh nhat vui ve, chuc chi gai luon vui ve va xinh dep "
            },
            "replies": [
                {
                    "reply_user": "Nhi Hong",
                    "reply_content": " cảm ơn em nhe"
                }
            ]
        },
        {
            "parent_comment": {
                "parent_user": "Thảo Nhi",
                "parent_content": "Tuổi mới luôn may mắn bình an nha chị "
            },
            "replies": [
                {
                    "reply_user": "Nhi Hong",
                    "reply_content": " cảm ơn em"
                }
            ]
        },
        {
            "parent_comment": {
                "parent_user": "Nguyễn Phạm Ngọc Mai",
                "parent_content": "Sinh nhật vui vẻ và hạnh phúc em nhéeee "
            },
            "replies": [
                {
                    "reply_user": "Nhi Hong",
                    "reply_content": " em cảm ơn ạ"
                }
            ]
        },
        {
            "parent_comment": {
                "parent_user": "Nguyễn Lan",
                "parent_content": "khong chi hom nay, chuc cau 364 ngay con lai deu vui ve. Chuc mung sinh nhat "
            },
            "replies": [
                {
                    "reply_user": "Nhi Hong",
                    "reply_content": " cảm ơn cậu nhiều "
                }
            ]
        },
        {
            "parent_comment": {
                "parent_user": "Thu Thủy",
                "parent_content": "Sinh nhật vui vẻ"
            },
            "replies": [
                {
                    "reply_user": "Nhi Hong",
                    "reply_content": " "
                }
            ]
        },
        {
            "parent_comment": {
                "parent_user": "Trần Trang",
                "parent_content": "Chúc mừng sinh nhật"
            },
            "replies": [
                {
                    "reply_user": "Nhi Hong",
                    "reply_content": " "
                }
            ]
        },
        {
            "parent_comment": {
                "parent_user": "Như Quỳnh",
                "parent_content": "Sinh nhật vui vẻ ạ "
            },
            "replies": [
                {
                    "reply_user": "Nhi Hong",
                    "reply_content": " "
                }
            ]
        },
        {
            "parent_comment": {
                "parent_user": "Uyên Thảo",
                "parent_content": "Chúc mừng sinh nhật chị nha"
            },
            "replies": [
                {
                    "reply_user": "Nhi Hong",
                    "reply_content": " cảm ơn em"
                }
            ]
        },
        {
            "parent_comment": {
                "parent_user": "Dieu Lam",
                "parent_content": "chuc mung sinh nhat "
            },
            "replies": [
                {
                    "reply_user": "Nhi Hong",
                    "reply_content": " "
                }
            ]
        },
        {
            "parent_comment": {
                "parent_user": "Trung Cuong",
                "parent_content": "Hom nay sinh nhat toi ne.. co ai giong hong:<"
            },
            "replies": [
                {
                    "reply_user": "Nhi Hong",
                    "reply_content": " ừmmm...chúc cậu sinh nhật vui vẻ, bình an và may mắn cậu nhé"
                },
                {
                    "reply_user": "Trung Cuong",
                    "reply_content": " ありがとう"
                }
            ]
        },
        {
            "parent_comment": {
                "parent_user": "Hồng Đào",
                "parent_content": "Chúc em một ngày sinh nhật an lành  Mong em có thể vui vẻ và hạnh phúc, mong mọi thứ sẽ dịu dàng với em  "
            },
            "replies": [
                {
                    "reply_user": "Nhi Hong",
                    "reply_content": " em cảm ơn chị ạ "
                },
                {
                    "reply_user": "Hồng Đào",
                    "reply_content": "ôm em một cái nhéee "
                },
                {
                    "reply_user": "Nhi Hong",
                    "reply_content": "Dạ "
                }
            ]
        },
        {
            "parent_comment": {
                "parent_user": "Gia Hi",
                "parent_content": "Giành cho bạn một cái ôm  mong bạn lúc nào cũng mạnh mẽ để vượt qua mọi thứ"
            },
            "replies": [
                {
                    "reply_user": "Nhi Hong",
                    "reply_content": " cảm ơn bạn"
                }
            ]
        }
    ]
}