{
    "post": "1146099982517122",
    "link": "https://facebook.com/groups/chuyencuato/permalink/1146099982517122",
    "post_comments": [
        {
            "parent_comment": {
                "parent_user": "Trần T.Quỳnh",
                "parent_content": "Sao hiểu nỗi lòng mình thế "
            },
            "replies": [
                {
                    "reply_user": "Thu Quỳnh",
                    "reply_content": ""
                }
            ]
        },
        {
            "parent_comment": {
                "parent_user": "Phạm Hương",
                "parent_content": "Buon qua"
            },
            "replies": [
                {
                    "reply_user": "Thu Quỳnh",
                    "reply_content": ""
                }
            ]
        }
    ]
}