{
    "post": "1154964448297342",
    "link": "https://facebook.com/groups/chuyencuato/permalink/1154964448297342",
    "post_comments": [
        {
            "parent_comment": {
                "parent_user": "Sai Ta Ma",
                "parent_content": "Chán gruo hết chuyện rồi à, bài đéo nào cũng đăng nội dụng ty "
            },
            "replies": [
                {
                    "reply_user": "Qu Nhuu",
                    "reply_content": " rồi sao ?_?"
                },
                {
                    "reply_user": "Sai Ta Ma",
                    "reply_content": "Như Vẫn Ngu  "
                },
                {
                    "reply_user": "Qu Nhuu",
                    "reply_content": " ủa =)) m nghĩ t sẽ để yên cho m đấm à "
                },
                {
                    "reply_user": "Sai Ta Ma",
                    "reply_content": "Như Vẫn Ngu Mi với ai ? "
                },
                {
                    "reply_user": "Qu Nhuu",
                    "reply_content": " gì không, láo trên mạng quen rồi :>>"
                }
            ]
        }
    ]
}