{
    "post": "1151481928645594",
    "link": "https://facebook.com/groups/chuyencuato/permalink/1151481928645594",
    "post_comments": [
        {
            "parent_comment": {
                "parent_user": "Lê Thị Mỹ Hạnh",
                "parent_content": "Hình đó trong film gì v ạ "
            },
            "replies": [
                {
                    "reply_user": "Boo Uchiha",
                    "reply_content": " Kyoukai no katana"
                }
            ]
        }
    ]
}