{
    "post": "1141813862945734",
    "link": "https://facebook.com/groups/chuyencuato/permalink/1141813862945734",
    "post_comments": [
        {
            "parent_comment": {
                "parent_user": "Rin Chan",
                "parent_content": ""
            },
            "replies": [
                {
                    "reply_user": "Ki Ki",
                    "reply_content": ""
                }
            ]
        }
    ]
}