{
    "post": "1110580876069033",
    "link": "https://facebook.com/groups/chuyencuato/permalink/1110580876069033",
    "post_comments": [
        {
            "parent_comment": {
                "parent_user": "Châu Bảo Ngọc",
                "parent_content": "Hầu như ngày nào cũng khóc, người ta bận rộn với mộ thứ mới mẻ. Tớ bận rộn với mớ hỗn độn mà người đó gây ra"
            },
            "replies": [
                {
                    "reply_user": "Mắt Lai",
                    "reply_content": "còn tớ thì lúng túng không biết giải quyết đống bộn bề đó như thế nào và trong thời gian bao lâu"
                },
                {
                    "reply_user": "Châu Bảo Ngọc",
                    "reply_content": " chắc phải mất lâu lắm đó cậu, tớ sắp nửa năm rồi"
                }
            ]
        },
        {
            "parent_comment": {
                "parent_user": "Vũ Văn Lâm",
                "parent_content": "Im me mom di"
            },
            "replies": [
                {
                    "reply_user": "Mắt Lai",
                    "reply_content": "*nyc said"
                }
            ]
        },
        {
            "parent_comment": {
                "parent_user": "Hoàng Thuỳ Dương",
                "parent_content": "Cố lên.. cả cậu và tớ"
            },
            "replies": [
                {
                    "reply_user": "Mắt Lai",
                    "reply_content": "cố lên"
                }
            ]
        },
        {
            "parent_comment": {
                "parent_user": "Mạc Phương Thảo",
                "parent_content": "Có một khoảng thời gian trước kia,tớ quả thực y chang như cậu vậy.Giờ nhìn lại lúc ấy,không hiểu sao mình nghị lực được đến như vậy nữa.Phải công nhận,cái đau đấy phải thử mới hiểu được.Thôi thì đau đi để rồi nguôi ngoai .... cố lên nhé !!"
            },
            "replies": [
                {
                    "reply_user": "Mắt Lai",
                    "reply_content": "cảm ơn cậu nhiều nhé cảm ơn rất nhiều, chúc cậu sẽ vui vẻ hơn trong cuộc sống sau này"
                }
            ]
        },
        {
            "parent_comment": {
                "parent_user": "Nguyễn Đức Hậu",
                "parent_content": "Tui dang doi vl ;( "
            },
            "replies": [
                {
                    "reply_user": "Mắt Lai",
                    "reply_content": ":)) dỗi hay đói zọ"
                },
                {
                    "reply_user": "Nguyễn Đức Hậu",
                    "reply_content": " dạ tớ đói ;( "
                }
            ]
        },
        {
            "parent_comment": {
                "parent_user": "Nguyễn Hà Ni",
                "parent_content": "Doi bung wa"
            },
            "replies": [
                {
                    "reply_user": "Mắt Lai",
                    "reply_content": ":)) ngủ đuy sis"
                },
                {
                    "reply_user": "Nguyễn Hà Ni",
                    "reply_content": " doi bung khong ngu duoc doa huhuuu"
                }
            ]
        },
        {
            "parent_comment": {
                "parent_user": "Minh Anh",
                "parent_content": "Tui còn k dám gọi "
            },
            "replies": [
                {
                    "reply_user": "Mắt Lai",
                    "reply_content": "vô thức nhấn nhầm huhu "
                }
            ]
        },
        {
            "parent_comment": {
                "parent_user": "Hoàng Thanh Nhi",
                "parent_content": "Tam Nhu"
            },
            "replies": [
                {
                    "reply_user": "Tran Tam Nhu",
                    "reply_content": "m giết t à"
                }
            ]
        },
        {
            "parent_comment": {
                "parent_user": "Dang Duong Cam Thuy",
                "parent_content": "Nguyễn Yến Nhi "
            },
            "replies": [
                {
                    "reply_user": "Nguyễn Yến Nhi",
                    "reply_content": " ba giet tui di :)) "
                },
                {
                    "reply_user": "Dang Duong Cam Thuy",
                    "reply_content": " hiccc buon  qua"
                }
            ]
        },
        {
            "parent_comment": {
                "parent_user": "Dat Tuan",
                "parent_content": "17/10 chung toi yeu xong roi !"
            },
            "replies": [
                {
                    "reply_user": "Luong Gia Minh",
                    "reply_content": " ..."
                },
                {
                    "reply_user": "Dat Tuan",
                    "reply_content": " dolce k duoc khoc"
                },
                {
                    "reply_user": "Luong Gia Minh",
                    "reply_content": "oke"
                }
            ]
        },
        {
            "parent_comment": {
                "parent_user": "Thúy Ngọc",
                "parent_content": "Không liên quan lắm nhưng mà 28/12 sinh nhật tui"
            },
            "replies": [
                {
                    "reply_user": "Phương Thảo",
                    "reply_content": " cku'c pạng sink nkat zui zẻ nka"
                }
            ]
        },
        {
            "parent_comment": {
                "parent_user": "Phương Lê",
                "parent_content": "Chi má . Quệt nước mũi hay gì mà ôm"
            },
            "replies": [
                {
                    "reply_user": "Mắt Lai",
                    "reply_content": "quệt tấm thảm như tâm trạng để cho anh ấy biết tôi trải sự đời lần đầu tiên vì anh ta"
                }
            ]
        }
    ]
}