{
    "post": "1148978502229270",
    "link": "https://facebook.com/groups/chuyencuato/permalink/1148978502229270",
    "post_comments": [
        {
            "parent_comment": {
                "parent_user": "Bụi Bụi",
                "parent_content": "𝙲𝚊̉ 𝟸 đ𝚎̂̀𝚞 đ𝚎̣𝚙 𝚗𝚑𝚞̛𝚗𝚐 𝚋𝚒̀𝚗𝚑 𝚖𝚒𝚗𝚑 𝚕𝚊̀ 𝚔𝚑𝚘̛̉𝚒 đ𝚊̂̀𝚞 𝚟𝚊̀ 𝚑𝚘𝚊̀𝚗𝚐 𝚑𝚘̂𝚗 𝚕𝚊̀ 𝚔𝚎̂́𝚝 𝚝𝚑𝚞́𝚌. 𝚃𝚑𝚊𝚢 𝚟𝚒̀ 𝚌𝚑𝚘̣𝚗 𝟷 𝚔𝚑𝚘̛̉𝚒 đ𝚊̂̀𝚞 𝚜𝚞𝚘̂𝚗 𝚜𝚎̉ 𝚝𝚑𝚒̀ 𝚝𝚘̂𝚒 𝚌𝚑𝚘̣𝚗 𝟷 𝚔𝚎̂́𝚝 𝚝𝚑𝚞́𝚌 đ𝚎̣𝚙 "
            },
            "replies": [
                {
                    "reply_user": "Hoài Phương",
                    "reply_content": "  chúc cho a có 1 cái kết đẹp "
                }
            ]
        },
        {
            "parent_comment": {
                "parent_user": "Phan Thành",
                "parent_content": "Nhớ bình minh rồi h sao đây ( nhưng là bình  minh của ngày hôm nay ) h quay lại còn được không?"
            },
            "replies": [
                {
                    "reply_user": "Hoài Phương",
                    "reply_content": "  cửa sổ cũng k có nha bn "
                },
                {
                    "reply_user": "Phan Thành",
                    "reply_content": " à ra là vậy"
                }
            ]
        }
    ]
}