{
    "post": "1097390850721369",
    "link": "https://facebook.com/groups/chuyencuato/permalink/1097390850721369",
    "post_comments": [
        {
            "parent_comment": {
                "parent_user": "Huỳnh Văn Phước Hậu",
                "parent_content": "Khok "
            },
            "replies": [
                {
                    "reply_user": "Nguyễn Thị Mỹ Huyền",
                    "reply_content": ""
                }
            ]
        },
        {
            "parent_comment": {
                "parent_user": "Thùy Phương",
                "parent_content": "kh có tư cách gì để ghen=)))"
            },
            "replies": [
                {
                    "reply_user": "Nguyễn Thị Mỹ Huyền",
                    "reply_content": "Thuy Phuongg họ còn thương người cũ và bỏ tôi"
                }
            ]
        },
        {
            "parent_comment": {
                "parent_user": "Qu Nhuu",
                "parent_content": ":(("
            },
            "replies": [
                {
                    "reply_user": "Nguyễn Thị Mỹ Huyền",
                    "reply_content": "Như Vẫn Ngu buồn"
                },
                {
                    "reply_user": "Qu Nhuu",
                    "reply_content": " "
                }
            ]
        },
        {
            "parent_comment": {
                "parent_user": "Cô Bé Bóng Đêm",
                "parent_content": "Chào"
            },
            "replies": [
                {
                    "reply_user": "Nguyễn Thị Mỹ Huyền",
                    "reply_content": "Đào lại cc"
                },
                {
                    "reply_user": "Cô Bé Bóng Đêm",
                    "reply_content": " só ry được chưa  "
                }
            ]
        },
        {
            "parent_comment": {
                "parent_user": "Qu Nhuu",
                "parent_content": "Xin chàooooo"
            },
            "replies": [
                {
                    "reply_user": "Nguyễn Thị Mỹ Huyền",
                    "reply_content": "Tha tôi "
                },
                {
                    "reply_user": "Qu Nhuu",
                    "reply_content": " dạ hong :(( "
                }
            ]
        },
        {
            "parent_comment": {
                "parent_user": "Huỳnh Văn Phước Hậu",
                "parent_content": "Không khok "
            },
            "replies": [
                {
                    "reply_user": "Nguyễn Thị Mỹ Huyền",
                    "reply_content": "Cc"
                }
            ]
        }
    ]
}