{
    "post": "1125093371284450",
    "link": "https://facebook.com/groups/chuyencuato/permalink/1125093371284450",
    "post_comments": [
        {
            "parent_comment": {
                "parent_user": "Hoài Nam",
                "parent_content": "Đau..."
            },
            "replies": [
                {
                    "reply_user": "Lại Tiến Mạnh",
                    "reply_content": " không thể đau hơn"
                },
                {
                    "reply_user": "Hoài Nam",
                    "reply_content": " Em bây giờ không như xưa nữa Em có người khác rồi,người ta đợi trước cửa"
                }
            ]
        },
        {
            "parent_comment": {
                "parent_user": "Ngọc Thiện",
                "parent_content": "peace "
            },
            "replies": [
                {
                    "reply_user": "Lại Tiến Mạnh",
                    "reply_content": " buồn ghe"
                }
            ]
        },
        {
            "parent_comment": {
                "parent_user": "Thư",
                "parent_content": "Đừng buồn nha"
            },
            "replies": [
                {
                    "reply_user": "Lại Tiến Mạnh",
                    "reply_content": " cảm ơn cậuu"
                }
            ]
        },
        {
            "parent_comment": {
                "parent_user": "Ánh Dương",
                "parent_content": "Thôi , chuyện gì rồi cũng qua. Đừng buồn !"
            },
            "replies": [
                {
                    "reply_user": "Lại Tiến Mạnh",
                    "reply_content": " theng kiuu"
                }
            ]
        },
        {
            "parent_comment": {
                "parent_user": "Nguyễn Ngọc Quỳnh Lam",
                "parent_content": "Vui lên ông"
            },
            "replies": [
                {
                    "reply_user": "Lại Tiến Mạnh",
                    "reply_content": "QuỳnhLamprovjp Chấtchơingườidơingườinhện Ngườisắt oke người anh em pro vjp luxury"
                }
            ]
        },
        {
            "parent_comment": {
                "parent_user": "Mai Phuongg",
                "parent_content": "thui khum buon=("
            },
            "replies": [
                {
                    "reply_user": "Lại Tiến Mạnh",
                    "reply_content": " đã ko có ny lại còn ko có tiền"
                }
            ]
        },
        {
            "parent_comment": {
                "parent_user": "Linh",
                "parent_content": "Chịu hoi"
            },
            "replies": [
                {
                    "reply_user": "Lại Tiến Mạnh",
                    "reply_content": " dan ba la nhung niem dau"
                },
                {
                    "reply_user": "Linh",
                    "reply_content": " tại ông thích người ta nhiều quá thôi ông ơi"
                }
            ]
        },
        {
            "parent_comment": {
                "parent_user": "Ngọc Ngân",
                "parent_content": "HjcVui lên ông :<"
            },
            "replies": [
                {
                    "reply_user": "Lại Tiến Mạnh",
                    "reply_content": " zui sao dey"
                }
            ]
        },
        {
            "parent_comment": {
                "parent_user": "Lâm Hiếu",
                "parent_content": "j buo`n va.y"
            },
            "replies": [
                {
                    "reply_user": "Lại Tiến Mạnh",
                    "reply_content": " zui sao đc"
                }
            ]
        },
        {
            "parent_comment": {
                "parent_user": "Minh Hang",
                "parent_content": "buon nhi"
            },
            "replies": [
                {
                    "reply_user": "Phạm Hà",
                    "reply_content": " buon ma troi oi"
                }
            ]
        },
        {
            "parent_comment": {
                "parent_user": "Khánh Ly",
                "parent_content": "Vjppp"
            },
            "replies": [
                {
                    "reply_user": "Lại Tiến Mạnh",
                    "reply_content": " khồng hề vjp "
                }
            ]
        },
        {
            "parent_comment": {
                "parent_user": "Trần Hải Ly",
                "parent_content": "Bùn qué nhưng kệ gã, cô vui là duoc"
            },
            "replies": [
                {
                    "reply_user": "Lại Tiến Mạnh",
                    "reply_content": "Hải Ly chúk cô hạnh phúk"
                }
            ]
        },
        {
            "parent_comment": {
                "parent_user": "Huỳnh Lê Thanh Tú",
                "parent_content": "Xong \"gã\" thấy họ chia tay, \"gã\" còn buồn hơn, buồn cho \"cô\" và vì \"gã\""
            },
            "replies": [
                {
                    "reply_user": "Lại Tiến Mạnh",
                    "reply_content": " đoán xem gã có muốn cô chia tay hong"
                },
                {
                    "reply_user": "Huỳnh Lê Thanh Tú",
                    "reply_content": "  tất nhiên là không, không muốn \"cô\" có người yêu, nhưng khi họ yêu nhau rồi thì gã lại không muốn họ đổ vỡ"
                }
            ]
        },
        {
            "parent_comment": {
                "parent_user": "Tong Yen Nhi",
                "parent_content": "Cay :<"
            },
            "replies": [
                {
                    "reply_user": "Lại Tiến Mạnh",
                    "reply_content": " ko ăn ớt mà vẫn cayy"
                }
            ]
        },
        {
            "parent_comment": {
                "parent_user": "Kim Chi",
                "parent_content": ""
            },
            "replies": [
                {
                    "reply_user": "Lại Tiến Mạnh",
                    "reply_content": " o day chung toi noi khong voi thuoc la"
                }
            ]
        },
        {
            "parent_comment": {
                "parent_user": "Trần Kiều My",
                "parent_content": "Cao  Chánh Huy  co gi dau ma puon"
            },
            "replies": [
                {
                    "reply_user": "Cao  Chánh Huy",
                    "reply_content": " het r"
                },
                {
                    "reply_user": "Trần Kiều My",
                    "reply_content": " xao loz hok co j zui ckung ta hok nen xao loz"
                }
            ]
        },
        {
            "parent_comment": {
                "parent_user": "Khánh Huy",
                "parent_content": "Ninh Nguyen oh no "
            },
            "replies": [
                {
                    "reply_user": "Ninh Nguyen",
                    "reply_content": " nít noii"
                }
            ]
        },
        {
            "parent_comment": {
                "parent_user": "Minh Thành",
                "parent_content": "cũng tốt mà ~~ "
            },
            "replies": [
                {
                    "reply_user": "Lại Tiến Mạnh",
                    "reply_content": " maybe .."
                }
            ]
        },
        {
            "parent_comment": {
                "parent_user": "Huỳnh Đức Anh Tuấn",
                "parent_content": ""
            },
            "replies": [
                {
                    "reply_user": "Nguyễn Ngọc Quỳnh Lam",
                    "reply_content": "  xin vd ông ơi"
                },
                {
                    "reply_user": "Huỳnh Đức Anh Tuấn",
                    "reply_content": "QuỳnhLamprovjp Chấtchơingườidơingườinhện Ngườisắt ib"
                }
            ]
        },
        {
            "parent_comment": {
                "parent_user": "Quốc Toàn",
                "parent_content": "Gã cũng có thử nói với cô ấy nhưng cô ấy luôn tìm chuyện khác để nói"
            },
            "replies": [
                {
                    "reply_user": "Lại Tiến Mạnh",
                    "reply_content": " cô ấy ko rep nha"
                },
                {
                    "reply_user": "Quốc Toàn",
                    "reply_content": " chuyện của tớ"
                },
                {
                    "reply_user": "Lại Tiến Mạnh",
                    "reply_content": " ý tớ là, may cô ý còn rep cậu "
                }
            ]
        },
        {
            "parent_comment": {
                "parent_user": "Tuấn Dương",
                "parent_content": "Cột sống mà =(("
            },
            "replies": [
                {
                    "reply_user": "Vu Thuy Linh",
                    "reply_content": "  cột sống đau quá "
                }
            ]
        },
        {
            "parent_comment": {
                "parent_user": "Nguyễn Thị Minh Anhh",
                "parent_content": "Cột sống mà :(("
            },
            "replies": [
                {
                    "reply_user": "Trần Nhật Hoàng",
                    "reply_content": " oke cột sống :)))"
                }
            ]
        },
        {
            "parent_comment": {
                "parent_user": "Hồ Hoàng Phương",
                "parent_content": "Trần Anh Minh Duy mắt nhoè như bức ảnh :))"
            },
            "replies": [
                {
                    "reply_user": "Trần Anh Minh Duy",
                    "reply_content": "Hoàng Phương chán"
                }
            ]
        },
        {
            "parent_comment": {
                "parent_user": "Thảo Đinh",
                "parent_content": "Đau thật nhưng hãy vì bản thân mà vượt qua cậu nhé, ai cũng sẽ từng như vậy, nhưng hãy mở lòng để đón nhận người mới, người xứng đáng với mình, vì bản thân chúng ta xứng đáng nhận đc những đều tốt đẹp. Rồi mọi thứ sẽ ổn thôi, sẽ quay về vĩ đạo của nó, cậu sẽ vượt qua đc thôi"
            },
            "replies": [
                {
                    "reply_user": "Lại Tiến Mạnh",
                    "reply_content": " cảm ơn cậu rấc nhìuu"
                },
                {
                    "reply_user": "Thảo Đinh",
                    "reply_content": " k có gì nè, đều đã trải qua nên mình rất hiểu, 1 khoảng tgian nữa rồi sẽ ổn thôi nè, cuộc sống còn dài còn nhiều thứ phải làm lắm "
                },
                {
                    "reply_user": "Lại Tiến Mạnh",
                    "reply_content": " đúng mà, còn nhìu thứ đáng để lo lắngg"
                },
                {
                    "reply_user": "Thảo Đinh",
                    "reply_content": " cố lên cậu nhé "
                },
                {
                    "reply_user": "Lại Tiến Mạnh",
                    "reply_content": " 10đ"
                }
            ]
        },
        {
            "parent_comment": {
                "parent_user": "Hattie Pew",
                "parent_content": "Gã ta thích ngắm bầu trời , gã ta là kẻ mộng mơ cứ nghĩ cô ấy yêu mình :33"
            },
            "replies": [
                {
                    "reply_user": "Lại Tiến Mạnh",
                    "reply_content": " thậc ngu ngok "
                }
            ]
        }
    ]
}