{
    "post": "1164153980711722",
    "link": "https://facebook.com/groups/chuyencuato/permalink/1164153980711722",
    "post_comments": [
        {
            "parent_comment": {
                "parent_user": "Trần Duy",
                "parent_content": "Mình lại khóc rồi"
            },
            "replies": [
                {
                    "reply_user": "Nguyên",
                    "reply_content": " nín"
                },
                {
                    "reply_user": "Trần Duy",
                    "reply_content": " đíu kkk"
                },
                {
                    "reply_user": "Nguyên",
                    "reply_content": " hỗn láo dọng phọc máu cam giờ"
                }
            ]
        }
    ]
}