{
    "post": "1149714095489044",
    "link": "https://facebook.com/groups/chuyencuato/permalink/1149714095489044",
    "post_comments": [
        {
            "parent_comment": {
                "parent_user": "Trần Hải Yến",
                "parent_content": "mình cop đc không bạn?"
            },
            "replies": [
                {
                    "reply_user": "Bạc Xỉu",
                    "reply_content": " Cứ tự nhiên ạ, nếu chị có reup thì cre giúp em ạ"
                }
            ]
        }
    ]
}