{
    "post": "1144269432700177",
    "link": "https://facebook.com/groups/chuyencuato/permalink/1144269432700177",
    "post_comments": [
        {
            "parent_comment": {
                "parent_user": "Nguyễn Khánh",
                "parent_content": "Tâm lý của người làm cha mẹ trong phút giây nào đó họ sẽ như vậy không phải bạn sai cũng không phải bạn đúng hẳn. Chỉ là hai người chưa hiểu cho nhau thôi"
            },
            "replies": [
                {
                    "reply_user": "Kim Xuân",
                    "reply_content": " mình cũng thấy vậy, cảm ơn bạn"
                }
            ]
        },
        {
            "parent_comment": {
                "parent_user": "Towanmei Tms",
                "parent_content": "Em hiểu suy nghĩ của mẹ chị, tuy mẹ em rất thoáng và ủng hộ em trong mọi việc....nhưng bà ngoại e thì khác. Em cũng chỉ sống với mẹ và ông bà ngoại nên mọi việc trong nhà đều do ông bà tự quyết, bà em cũng có suy nghĩ giống mẹ chị là sau khi học xong c3 sẽ chỉ đi làm công nhân để nuôi gđ chứ không muốn e học cao hơn. Em hiểu vì bà biết rằng gđ em điều kiện không quá lớn để mỗi tháng có thể lo cho em tiền học rồi sau này ra trường lại phải tốn tiền để kiếm việc làm... Nhưng mà e nghĩ rằng cuộc đời mỗi người chỉ có một, và chính bản thân mình là người tự quyết định nó, hãy làm theo những gì mà bản thân mình muốn và mong đợi. Và đạt được thành công, kết quả từ những việc mình làm sẽ vượt qua được sự không ủng hộ của gđ."
            },
            "replies": [
                {
                    "reply_user": "Kim Xuân",
                    "reply_content": " yeah cố lên, gáng đạt hsg, đứng top để cho ông bà em thấy rằng em làm được"
                }
            ]
        }
    ]
}