{
    "post": "449530356279849",
    "link": "https://facebook.com/groups/nhungconnguoithattinh/permalink/449530356279849",
    "post_comments": [
        {
            "parent_comment": {
                "parent_user": "Tuệ",
                "parent_content": "Tat ca se on nhung khong phai bay gio!"
            },
            "replies": [
                {
                    "reply_user": "Ngân",
                    "reply_content": " kó tjn dzui"
                },
                {
                    "reply_user": "Tuệ",
                    "reply_content": " ib liền"
                }
            ]
        }
    ]
}