{
    "post": "450781486154736",
    "link": "https://facebook.com/groups/nhungconnguoithattinh/permalink/450781486154736",
    "post_comments": [
        {
            "parent_comment": {
                "parent_user": "Huyenn Huyenn",
                "parent_content": "Z ha"
            },
            "replies": [
                {
                    "reply_user": "Nguyễn Diệu Thảo",
                    "reply_content": " họ chỉ chung thuỷ khi chưa tìm được người tốt hơn "
                },
                {
                    "reply_user": "Huyenn Huyenn",
                    "reply_content": " sầu"
                },
                {
                    "reply_user": "Nguyễn Diệu Thảo",
                    "reply_content": "Điều đáng buồn nhất là con kia kh hề tốt hơn mà như concac vậy "
                },
                {
                    "reply_user": "Huyenn Huyenn",
                    "reply_content": " huhu amen"
                }
            ]
        },
        {
            "parent_comment": {
                "parent_user": "Trangg Thu",
                "parent_content": "chu con gi"
            },
            "replies": [
                {
                    "reply_user": "Anh Pham",
                    "reply_content": " chịu ^^"
                },
                {
                    "reply_user": "Trangg Thu",
                    "reply_content": "  "
                }
            ]
        }
    ]
}