{
    "post": "446867179879500",
    "link": "https://facebook.com/groups/nhungconnguoithattinh/permalink/446867179879500",
    "post_comments": [
        {
            "parent_comment": {
                "parent_user": "Ngọc Hảoo",
                "parent_content": "Nguyễn Hiệp"
            },
            "replies": [
                {
                    "reply_user": "Nguyễn Hiệp",
                    "reply_content": " hở"
                },
                {
                    "reply_user": "Ngọc Hảoo",
                    "reply_content": " ko t chỉ muốn nói đôi giày đẹp qá ha"
                }
            ]
        },
        {
            "parent_comment": {
                "parent_user": "PhạmThị NgọcThi",
                "parent_content": "vo ly"
            },
            "replies": [
                {
                    "reply_user": "Phann Thịi Thanhh Trúcc",
                    "reply_content": " thích vậy đó chịu không chịu buộc chịu.:<"
                },
                {
                    "reply_user": "PhạmThị NgọcThi",
                    "reply_content": " khong chiu nha"
                }
            ]
        },
        {
            "parent_comment": {
                "parent_user": "Ngọc Liên",
                "parent_content": "tốt cho toi à kk ?"
            },
            "replies": [
                {
                    "reply_user": "Thúyy Quyênn",
                    "reply_content": " dung zay "
                },
                {
                    "reply_user": "Ngọc Liên",
                    "reply_content": " thấy tốt hay tệ hơn ? "
                },
                {
                    "reply_user": "Thúyy Quyênn",
                    "reply_content": " xin lỗi"
                },
                {
                    "reply_user": "Ngọc Liên",
                    "reply_content": " kkk bỏ đi ^^"
                }
            ]
        }
    ]
}