{
    "post": "450764012823150",
    "link": "https://facebook.com/groups/nhungconnguoithattinh/permalink/450764012823150",
    "post_comments": [
        {
            "parent_comment": {
                "parent_user": "Phạm Thị Hải Yến",
                "parent_content": "Vâng ạ "
            },
            "replies": [
                {
                    "reply_user": "Đồng Ken",
                    "reply_content": " chụt"
                },
                {
                    "reply_user": "Phạm Thị Hải Yến",
                    "reply_content": " chi chi dồ  có khum mà nói"
                }
            ]
        }
    ]
}