{
    "post": "449842946248590",
    "link": "https://facebook.com/groups/nhungconnguoithattinh/permalink/449842946248590",
    "post_comments": [
        {
            "parent_comment": {
                "parent_user": "Quốc Bảo Nguyễn",
                "parent_content": "Đây Mèoo tinnn e nên hông cần gt nhá "
            },
            "replies": [
                {
                    "reply_user": "Đây Mèoo",
                    "reply_content": " Hong gt sợ anh hiểu nhầm là chớt tui"
                },
                {
                    "reply_user": "Quốc Bảo Nguyễn",
                    "reply_content": "  hahah tinnn mà"
                }
            ]
        }
    ]
}