{
    "post": "2852307995055079",
    "link": "https://facebook.com/groups/cauchuyencuatoi/permalink/2852307995055079",
    "post_comments": [
        {
            "parent_comment": {
                "parent_user": "Lê Trung Hiếu",
                "parent_content": "vậy thôi nghỉ đi, muôn học thì kiếm trường trung cấp y dược thi vào học"
            },
            "replies": [
                {
                    "reply_user": "Thuy Linh Nguyen",
                    "reply_content": " mình tốt nghiệp CĐ r b"
                },
                {
                    "reply_user": "Lê Trung Hiếu",
                    "reply_content": " vậy học chi nưaz ta, ng ta đã khó chịu voi minh thi minh xin cho khac lam, con muon chữa benh thi cô gang học lên tie"
                },
                {
                    "reply_user": "Thuy Linh Nguyen",
                    "reply_content": " mình học kinh nghiệm cắt thuốc"
                }
            ]
        },
        {
            "parent_comment": {
                "parent_user": "Nguyễn Gigi",
                "parent_content": "Cố lên nhe b ơi. Theo mình xem thì c đó tính ít kỉ rồi. Dù b có tốt đến mấy c đó cũng k xem b ra gì đâu dù b có cố gắng tốt thì đối c đó cũng bằng k! Thay vì b bỏ thời gian cho chủ như vậy. Thì b nên xin nghỉ tìm chổ tốt hơn b nha để k mất thời gian của b. Để khi b học hay làm ra rồi khi chủ như vậy. B cũng k biết hay học hỏi đc gì nhiều . Chúc b thành công mọi điều may mắn đến với b. Chúc b luôn Bình An"
            },
            "replies": [
                {
                    "reply_user": "Thuy Linh Nguyen",
                    "reply_content": " ai cũng bảo mình nên nghỉ. Nh khj mình stress vô cùng"
                }
            ]
        },
        {
            "parent_comment": {
                "parent_user": "Thai Thanh Truc",
                "parent_content": "Đã học dược ra là phải biết co ban công thuốc rồi . chỉ thiếu kinh nghiệm . mà kinh nghiệm mỗi người một khác . cái đó mình phải chú ý tu học hỏi . vì e đang làm ở nhà thuốc ăn lương .chu ko phai học. Gặp chủ khó phải cố gắng từ từ mới có kinh nghiệm"
            },
            "replies": [
                {
                    "reply_user": "Thuy Linh Nguyen",
                    "reply_content": " dạ cảm ơn c"
                }
            ]
        },
        {
            "parent_comment": {
                "parent_user": "Danh Nghĩa",
                "parent_content": "Thử 1 lần bất cần di trường hợp xấu dã luôn"
            },
            "replies": [
                {
                    "reply_user": "Thuy Linh Nguyen",
                    "reply_content": " là sao b"
                }
            ]
        },
        {
            "parent_comment": {
                "parent_user": "LinhPro Hoang",
                "parent_content": "Nhảy chỗ đi, chỗ làm vài tháng lấy kinh nghiệm của từng người, đã stress làm hồi coi chừng bị điên à"
            },
            "replies": [
                {
                    "reply_user": "Thuy Linh Nguyen",
                    "reply_content": " hì.nh khj mình muốn điên thật."
                }
            ]
        },
        {
            "parent_comment": {
                "parent_user": "Huy Vườn Lài",
                "parent_content": "Chủ hay đi ra ngoài. Bạn được chỉ cắt thuốc thì nên ghi lại công thức và ghi nhớ tình trạng bệnh xem. Thử nghĩ xem,nếu chị ấy ở tiệm miết và chị cắt thuốc chứ bạn bạn k có cơ hội đc cắt thuốc thì khi nào bạn mới biết nghề? Cái rủi có cái may,thầy khó trò giỏi. Vấn đề là bạn cố ghi nhớ và học thế nào thôi."
            },
            "replies": [
                {
                    "reply_user": "Thuy Linh Nguyen",
                    "reply_content": " cảm ơn lời góp ý của bạn. C ấy đi nh mình cắt mau lên tay. Nhưng có những bệnh mình k bk bán.minh học hỏi. "
                },
                {
                    "reply_user": "Huy Vườn Lài",
                    "reply_content": " hãy tra thêm những dấu hiệu bệnh và  cách sử dụng thuốc trên mạng. Sẽ có ích cho bạn. "
                },
                {
                    "reply_user": "Thuy Linh Nguyen",
                    "reply_content": " cảm ơn b"
                }
            ]
        },
        {
            "parent_comment": {
                "parent_user": "Hoang Nguyen Van",
                "parent_content": "Nghi di e tim trường moi học lai tu dau"
            },
            "replies": [
                {
                    "reply_user": "Thuy Linh Nguyen",
                    "reply_content": " dạ e đang k bk sao nữa"
                }
            ]
        },
        {
            "parent_comment": {
                "parent_user": "Tran Cao Ngoc",
                "parent_content": "Có thể ko hợp nghề"
            },
            "replies": [
                {
                    "reply_user": "Thuy Linh Nguyen",
                    "reply_content": " bất đắc dĩ mà bạn"
                }
            ]
        },
        {
            "parent_comment": {
                "parent_user": "Nguyễn Sơn",
                "parent_content": "Mua cho chị ấy vài cóc trà sữa và một số đồ ăn vặt nhé biết đâu sẽ tốt hơn. Còn cảm thấy hk dc nữa thì đi xin học chỗ khác ."
            },
            "replies": [
                {
                    "reply_user": "Thuy Linh Nguyen",
                    "reply_content": " "
                }
            ]
        }
    ]
}