{
    "post": "2818330288452850",
    "link": "https://facebook.com/groups/cauchuyencuatoi/permalink/2818330288452850",
    "post_comments": [
        {
            "parent_comment": {
                "parent_user": "Hoàng Mạnh Tùng",
                "parent_content": "mình cũng không thấy từ \"ừm\" ấm áp dễ thương mấy, nghe bạn nói vậy cũng hơi giật mình"
            },
            "replies": [
                {
                    "reply_user": "An My",
                    "reply_content": " ừm ban đầu mình cũng có nghĩ vậy thiệt nhưng về sau mình thấy bth, nếu bạn tiếp xúc với mình rồi thì sẽ biết tính mình thế nào í"
                }
            ]
        },
        {
            "parent_comment": {
                "parent_user": "Huy Lee",
                "parent_content": "Ừ , Ừm .... vẫn hơn là Đã xem và kh rep "
            },
            "replies": [
                {
                    "reply_user": "Huyen Le Khanh",
                    "reply_content": " thôi thôi ông đừg có mà xàm"
                }
            ]
        },
        {
            "parent_comment": {
                "parent_user": "Ai Em Ai Ta",
                "parent_content": "t thích mấy bạn ừm vì nghe cute thiệt, chứ có đợt mấy bạn nhắn \"nói, j, ?, ừ\" làm mik sợ vl, quen thân k sao đằng này mới quen chưa 2 tháng, đã vậy khi đi chơi ăn uống có tội j cx đổ lên 1 mik mình  kiểu t hiền quá hay j"
            },
            "replies": [
                {
                    "reply_user": "An My",
                    "reply_content": " thôi bà dọn qua ở với tui này cho đẹp trời"
                }
            ]
        }
    ]
}