{
    "post": "2610505689235312",
    "link": "https://facebook.com/groups/cauchuyencuatoi/permalink/2610505689235312",
    "post_comments": [
        {
            "parent_comment": {
                "parent_user": "Nguyen Thanh Nghiem",
                "parent_content": "Quan tâm làm j mấy loại người đó hả bạn, mình sống tốt cho gia đình và xã hội ko hổ thẹn với bản thân với mình, tôi luôn khâm phục những người như bạn dám sống thật với bản thân mình còn hơn những kẻ ngoài thì đẹp trong thì đen hơn mực tàu, chúc bạn luôn vui và hạnh phúc những gì mình đang có."
            },
            "replies": [
                {
                    "reply_user": "Chung Ny Thảo",
                    "reply_content": " dạ, mơn bạn nhiều ạ"
                },
                {
                    "reply_user": "Nguyen Thanh Nghiem",
                    "reply_content": "Nguyễn Ny Thảo hnay để tóc dài xinh phết nhỉ, nhìn ko ra"
                }
            ]
        },
        {
            "parent_comment": {
                "parent_user": "Lê Gia Hân",
                "parent_content": "Chị ơi, ngưỡng mộ sự dũng cảm của chị ^^ đó không phải là khuyết điểm của chị đâu, đó là 1 lựa chọn đáng được công nhận thôi chị. Chúc cho chị mãi luôn xinh đẹp và tìm thấy thiệt nhiều người trân trọng sự lựa chọn của chị nhenn"
            },
            "replies": [
                {
                    "reply_user": "Chung Ny Thảo",
                    "reply_content": "Lê Gia  da"
                }
            ]
        }
    ]
}