{
    "post": "2890255401210514",
    "link": "https://facebook.com/groups/dongdangtramcam/permalink/2890255401210514",
    "post_comments": [
        {
            "parent_comment": {
                "parent_content": "Tôi có 1 gia đình mà khi tôi có tiền hay có ích họ cười với tôi coi tôi là thành viên trong nhà"
            },
            "replies": [
                {
                    "reply_content": "thương chị "
                }
            ]
        },
        {
            "parent_comment": {
                "parent_content": "Và khi tôi bị 1 vấn đề gì đó họ mặc kệ tôi, thà đi bênh người ngoài còn hơn tin tôi"
            },
            "replies": [
                {
                    "reply_content": "thương chị "
                }
            ]
        },
        {
            "parent_comment": {
                "parent_content": "Là cha là mẹ tôi mà mở miệng nói câu “ m chịu không được ở nhà này nữa thì cút đi không thì chết đi “"
            },
            "replies": [
                {
                    "reply_content": "thương chị "
                }
            ]
        },
        {
            "parent_comment": {
                "parent_content": "Tôi vì chịu đựng cái nhà này mà stress rồi trầm cảm"
            },
            "replies": [
                {
                    "reply_content": "thương chị "
                }
            ]
        },
        {
            "parent_comment": {
                "parent_content": "Tôi có 1 gia đình mà khi tôi có tiền hay có ích họ cười với tôi coi tôi là thành viên trong nhà"
            },
            "replies": [
                {
                    "reply_content": "Nếu b trầm cảm mà do gia đình thì theo mình bạn hãy ra ngoài tự lập , kiếm cho m 1 vùng đất mới, xa gia đình nhé, lâu lâu nhớ thì về 1 lần, không thì đt hỏi thăm.Nhiều lúc xa cách lại quý trọng nhau đấy"
                }
            ]
        },
        {
            "parent_comment": {
                "parent_content": "Và khi tôi bị 1 vấn đề gì đó họ mặc kệ tôi, thà đi bênh người ngoài còn hơn tin tôi"
            },
            "replies": [
                {
                    "reply_content": "Nếu b trầm cảm mà do gia đình thì theo mình bạn hãy ra ngoài tự lập , kiếm cho m 1 vùng đất mới, xa gia đình nhé, lâu lâu nhớ thì về 1 lần, không thì đt hỏi thăm.Nhiều lúc xa cách lại quý trọng nhau đấy"
                }
            ]
        },
        {
            "parent_comment": {
                "parent_content": "Là cha là mẹ tôi mà mở miệng nói câu “ m chịu không được ở nhà này nữa thì cút đi không thì chết đi “"
            },
            "replies": [
                {
                    "reply_content": "Nếu b trầm cảm mà do gia đình thì theo mình bạn hãy ra ngoài tự lập , kiếm cho m 1 vùng đất mới, xa gia đình nhé, lâu lâu nhớ thì về 1 lần, không thì đt hỏi thăm.Nhiều lúc xa cách lại quý trọng nhau đấy"
                }
            ]
        },
        {
            "parent_comment": {
                "parent_content": "Tôi vì chịu đựng cái nhà này mà stress rồi trầm cảm"
            },
            "replies": [
                {
                    "reply_content": "Nếu b trầm cảm mà do gia đình thì theo mình bạn hãy ra ngoài tự lập , kiếm cho m 1 vùng đất mới, xa gia đình nhé, lâu lâu nhớ thì về 1 lần, không thì đt hỏi thăm.Nhiều lúc xa cách lại quý trọng nhau đấy"
                }
            ]
        },
        {
            "parent_comment": {
                "parent_content": "Tôi có 1 gia đình mà khi tôi có tiền hay có ích họ cười với tôi coi tôi là thành viên trong nhà"
            },
            "replies": [
                {
                    "reply_content": "Nguyên nhân trầm cảm là do tâm bệnh, Bạn nghe kỹ bài dưới đây và nhắn tin mình chỉ cách vượt qua.Chúc bạn đủ duyên.https://m.youtube.com/watch?v=1OGD9Q8fdmQ&feature=youtu.be"
                }
            ]
        },
        {
            "parent_comment": {
                "parent_content": "Và khi tôi bị 1 vấn đề gì đó họ mặc kệ tôi, thà đi bênh người ngoài còn hơn tin tôi"
            },
            "replies": [
                {
                    "reply_content": "Nguyên nhân trầm cảm là do tâm bệnh, Bạn nghe kỹ bài dưới đây và nhắn tin mình chỉ cách vượt qua.Chúc bạn đủ duyên.https://m.youtube.com/watch?v=1OGD9Q8fdmQ&feature=youtu.be"
                }
            ]
        },
        {
            "parent_comment": {
                "parent_content": "Là cha là mẹ tôi mà mở miệng nói câu “ m chịu không được ở nhà này nữa thì cút đi không thì chết đi “"
            },
            "replies": [
                {
                    "reply_content": "Nguyên nhân trầm cảm là do tâm bệnh, Bạn nghe kỹ bài dưới đây và nhắn tin mình chỉ cách vượt qua.Chúc bạn đủ duyên.https://m.youtube.com/watch?v=1OGD9Q8fdmQ&feature=youtu.be"
                }
            ]
        },
        {
            "parent_comment": {
                "parent_content": "Tôi vì chịu đựng cái nhà này mà stress rồi trầm cảm"
            },
            "replies": [
                {
                    "reply_content": "Nguyên nhân trầm cảm là do tâm bệnh, Bạn nghe kỹ bài dưới đây và nhắn tin mình chỉ cách vượt qua.Chúc bạn đủ duyên.https://m.youtube.com/watch?v=1OGD9Q8fdmQ&feature=youtu.be"
                }
            ]
        },
        {
            "parent_comment": {
                "parent_content": "Tôi có 1 gia đình mà khi tôi có tiền hay có ích họ cười với tôi coi tôi là thành viên trong nhà"
            },
            "replies": [
                {
                    "reply_content": "Để tâm làm gì? Họ muốn gì thì mình làm theo họ thế là xong."
                }
            ]
        },
        {
            "parent_comment": {
                "parent_content": "Và khi tôi bị 1 vấn đề gì đó họ mặc kệ tôi, thà đi bênh người ngoài còn hơn tin tôi"
            },
            "replies": [
                {
                    "reply_content": "Để tâm làm gì? Họ muốn gì thì mình làm theo họ thế là xong."
                }
            ]
        },
        {
            "parent_comment": {
                "parent_content": "Là cha là mẹ tôi mà mở miệng nói câu “ m chịu không được ở nhà này nữa thì cút đi không thì chết đi “"
            },
            "replies": [
                {
                    "reply_content": "Để tâm làm gì? Họ muốn gì thì mình làm theo họ thế là xong."
                }
            ]
        },
        {
            "parent_comment": {
                "parent_content": "Tôi vì chịu đựng cái nhà này mà stress rồi trầm cảm"
            },
            "replies": [
                {
                    "reply_content": "Để tâm làm gì? Họ muốn gì thì mình làm theo họ thế là xong."
                }
            ]
        },
        {
            "parent_comment": {
                "parent_content": "Tôi có 1 gia đình mà khi tôi có tiền hay có ích họ cười với tôi coi tôi là thành viên trong nhà"
            },
            "replies": [
                {
                    "reply_content": "Nhiều chuyện nó thuộc về phần số, bạn hãy chấp nhận và tập sống với nó. Người yêu, vợ, chồng không người này thì cũng có thể người kia, chứ cha mẹ thì mình chỉ có một mà thôi! Một giọt máu đào hơn ao nước lã."
                }
            ]
        },
        {
            "parent_comment": {
                "parent_content": "Và khi tôi bị 1 vấn đề gì đó họ mặc kệ tôi, thà đi bênh người ngoài còn hơn tin tôi"
            },
            "replies": [
                {
                    "reply_content": "Nhiều chuyện nó thuộc về phần số, bạn hãy chấp nhận và tập sống với nó. Người yêu, vợ, chồng không người này thì cũng có thể người kia, chứ cha mẹ thì mình chỉ có một mà thôi! Một giọt máu đào hơn ao nước lã."
                }
            ]
        },
        {
            "parent_comment": {
                "parent_content": "Là cha là mẹ tôi mà mở miệng nói câu “ m chịu không được ở nhà này nữa thì cút đi không thì chết đi “"
            },
            "replies": [
                {
                    "reply_content": "Nhiều chuyện nó thuộc về phần số, bạn hãy chấp nhận và tập sống với nó. Người yêu, vợ, chồng không người này thì cũng có thể người kia, chứ cha mẹ thì mình chỉ có một mà thôi! Một giọt máu đào hơn ao nước lã."
                }
            ]
        },
        {
            "parent_comment": {
                "parent_content": "Tôi vì chịu đựng cái nhà này mà stress rồi trầm cảm"
            },
            "replies": [
                {
                    "reply_content": "Nhiều chuyện nó thuộc về phần số, bạn hãy chấp nhận và tập sống với nó. Người yêu, vợ, chồng không người này thì cũng có thể người kia, chứ cha mẹ thì mình chỉ có một mà thôi! Một giọt máu đào hơn ao nước lã."
                }
            ]
        },
        {
            "parent_comment": {
                "parent_content": "Tôi có 1 gia đình mà khi tôi có tiền hay có ích họ cười với tôi coi tôi là thành viên trong nhà"
            },
            "replies": [
                {
                    "reply_content": "Bạn thử dọn ra ở trọ 1 thời gian xem tình trạng bệnh có cải thiện hơn không nhé. Những năng lượng tiêu cực từ mọi thành viên trong gia đình sẽ khiến tình trạng trầm cảm tệ hơn khi ta không nhận được sự động viên từ chính những người trong nhà, cách tốt nhất hiện tại có lẽ là nên xa mọi người 1 thời gian để quân bình lại tâm lý, nếu ở gần nhà bạn bè, thân thiết thì càng tốt."
                }
            ]
        },
        {
            "parent_comment": {
                "parent_content": "Và khi tôi bị 1 vấn đề gì đó họ mặc kệ tôi, thà đi bênh người ngoài còn hơn tin tôi"
            },
            "replies": [
                {
                    "reply_content": "Bạn thử dọn ra ở trọ 1 thời gian xem tình trạng bệnh có cải thiện hơn không nhé. Những năng lượng tiêu cực từ mọi thành viên trong gia đình sẽ khiến tình trạng trầm cảm tệ hơn khi ta không nhận được sự động viên từ chính những người trong nhà, cách tốt nhất hiện tại có lẽ là nên xa mọi người 1 thời gian để quân bình lại tâm lý, nếu ở gần nhà bạn bè, thân thiết thì càng tốt."
                }
            ]
        },
        {
            "parent_comment": {
                "parent_content": "Là cha là mẹ tôi mà mở miệng nói câu “ m chịu không được ở nhà này nữa thì cút đi không thì chết đi “"
            },
            "replies": [
                {
                    "reply_content": "Bạn thử dọn ra ở trọ 1 thời gian xem tình trạng bệnh có cải thiện hơn không nhé. Những năng lượng tiêu cực từ mọi thành viên trong gia đình sẽ khiến tình trạng trầm cảm tệ hơn khi ta không nhận được sự động viên từ chính những người trong nhà, cách tốt nhất hiện tại có lẽ là nên xa mọi người 1 thời gian để quân bình lại tâm lý, nếu ở gần nhà bạn bè, thân thiết thì càng tốt."
                }
            ]
        },
        {
            "parent_comment": {
                "parent_content": "Tôi vì chịu đựng cái nhà này mà stress rồi trầm cảm"
            },
            "replies": [
                {
                    "reply_content": "Bạn thử dọn ra ở trọ 1 thời gian xem tình trạng bệnh có cải thiện hơn không nhé. Những năng lượng tiêu cực từ mọi thành viên trong gia đình sẽ khiến tình trạng trầm cảm tệ hơn khi ta không nhận được sự động viên từ chính những người trong nhà, cách tốt nhất hiện tại có lẽ là nên xa mọi người 1 thời gian để quân bình lại tâm lý, nếu ở gần nhà bạn bè, thân thiết thì càng tốt."
                }
            ]
        },
        {
            "parent_comment": {
                "parent_content": "Tôi có 1 gia đình mà khi tôi có tiền hay có ích họ cười với tôi coi tôi là thành viên trong nhà"
            },
            "replies": [
                {
                    "reply_content": "Khi bạn ko thích ứng đc môi trường thì để tồn tại bạn nên thay đổi môi trường"
                }
            ]
        },
        {
            "parent_comment": {
                "parent_content": "Và khi tôi bị 1 vấn đề gì đó họ mặc kệ tôi, thà đi bênh người ngoài còn hơn tin tôi"
            },
            "replies": [
                {
                    "reply_content": "Khi bạn ko thích ứng đc môi trường thì để tồn tại bạn nên thay đổi môi trường"
                }
            ]
        },
        {
            "parent_comment": {
                "parent_content": "Là cha là mẹ tôi mà mở miệng nói câu “ m chịu không được ở nhà này nữa thì cút đi không thì chết đi “"
            },
            "replies": [
                {
                    "reply_content": "Khi bạn ko thích ứng đc môi trường thì để tồn tại bạn nên thay đổi môi trường"
                }
            ]
        },
        {
            "parent_comment": {
                "parent_content": "Tôi vì chịu đựng cái nhà này mà stress rồi trầm cảm"
            },
            "replies": [
                {
                    "reply_content": "Khi bạn ko thích ứng đc môi trường thì để tồn tại bạn nên thay đổi môi trường"
                }
            ]
        },
        {
            "parent_comment": {
                "parent_content": "Tôi có 1 gia đình mà khi tôi có tiền hay có ích họ cười với tôi coi tôi là thành viên trong nhà"
            },
            "replies": [
                {
                    "reply_content": "Lại chung team. Mỗi lần ở nhà nói vậy thì lại xách xe chạy khắp SG đến tối thì về ngủ :))"
                }
            ]
        },
        {
            "parent_comment": {
                "parent_content": "Và khi tôi bị 1 vấn đề gì đó họ mặc kệ tôi, thà đi bênh người ngoài còn hơn tin tôi"
            },
            "replies": [
                {
                    "reply_content": "Lại chung team. Mỗi lần ở nhà nói vậy thì lại xách xe chạy khắp SG đến tối thì về ngủ :))"
                }
            ]
        },
        {
            "parent_comment": {
                "parent_content": "Là cha là mẹ tôi mà mở miệng nói câu “ m chịu không được ở nhà này nữa thì cút đi không thì chết đi “"
            },
            "replies": [
                {
                    "reply_content": "Lại chung team. Mỗi lần ở nhà nói vậy thì lại xách xe chạy khắp SG đến tối thì về ngủ :))"
                }
            ]
        },
        {
            "parent_comment": {
                "parent_content": "Tôi vì chịu đựng cái nhà này mà stress rồi trầm cảm"
            },
            "replies": [
                {
                    "reply_content": "Lại chung team. Mỗi lần ở nhà nói vậy thì lại xách xe chạy khắp SG đến tối thì về ngủ :))"
                }
            ]
        },
        {
            "parent_comment": {
                "parent_content": "Tôi có 1 gia đình mà khi tôi có tiền hay có ích họ cười với tôi coi tôi là thành viên trong nhà"
            },
            "replies": [
                {
                    "reply_content": "Mình nghĩ trong hoàn cảnh này nếu công việc của bạn ổn và kinh tế cũng được thì chuyển ra ngoài, tách hẳn gđ, tận hưởng nhiều thứ tuyệt vời trong cuộc sống và bản thân. Nếu chưa có điều kiện ở riêng thì luyện tinh thần thép bạn à, ko quan tâm để ý người trong nhà nói gì. Sẽ hơi khó một chút nhưng tạm thời chịu đựng trước khi dọn ra ngoài  bạn sẽ cứng cỏi hơn nhiều đó"
                }
            ]
        },
        {
            "parent_comment": {
                "parent_content": "Và khi tôi bị 1 vấn đề gì đó họ mặc kệ tôi, thà đi bênh người ngoài còn hơn tin tôi"
            },
            "replies": [
                {
                    "reply_content": "Mình nghĩ trong hoàn cảnh này nếu công việc của bạn ổn và kinh tế cũng được thì chuyển ra ngoài, tách hẳn gđ, tận hưởng nhiều thứ tuyệt vời trong cuộc sống và bản thân. Nếu chưa có điều kiện ở riêng thì luyện tinh thần thép bạn à, ko quan tâm để ý người trong nhà nói gì. Sẽ hơi khó một chút nhưng tạm thời chịu đựng trước khi dọn ra ngoài  bạn sẽ cứng cỏi hơn nhiều đó"
                }
            ]
        },
        {
            "parent_comment": {
                "parent_content": "Là cha là mẹ tôi mà mở miệng nói câu “ m chịu không được ở nhà này nữa thì cút đi không thì chết đi “"
            },
            "replies": [
                {
                    "reply_content": "Mình nghĩ trong hoàn cảnh này nếu công việc của bạn ổn và kinh tế cũng được thì chuyển ra ngoài, tách hẳn gđ, tận hưởng nhiều thứ tuyệt vời trong cuộc sống và bản thân. Nếu chưa có điều kiện ở riêng thì luyện tinh thần thép bạn à, ko quan tâm để ý người trong nhà nói gì. Sẽ hơi khó một chút nhưng tạm thời chịu đựng trước khi dọn ra ngoài  bạn sẽ cứng cỏi hơn nhiều đó"
                }
            ]
        },
        {
            "parent_comment": {
                "parent_content": "Tôi vì chịu đựng cái nhà này mà stress rồi trầm cảm"
            },
            "replies": [
                {
                    "reply_content": "Mình nghĩ trong hoàn cảnh này nếu công việc của bạn ổn và kinh tế cũng được thì chuyển ra ngoài, tách hẳn gđ, tận hưởng nhiều thứ tuyệt vời trong cuộc sống và bản thân. Nếu chưa có điều kiện ở riêng thì luyện tinh thần thép bạn à, ko quan tâm để ý người trong nhà nói gì. Sẽ hơi khó một chút nhưng tạm thời chịu đựng trước khi dọn ra ngoài  bạn sẽ cứng cỏi hơn nhiều đó"
                }
            ]
        },
        {
            "parent_comment": {
                "parent_content": "Tôi có 1 gia đình mà khi tôi có tiền hay có ích họ cười với tôi coi tôi là thành viên trong nhà"
            },
            "replies": [
                {
                    "reply_content": "Mình rất hiểu cảm giác này của bạn vì mình đã trải qua. Đi làm kiếm tiền ngoài xã hội ức chế và stress, chỉ mong về nhà đc bình yên mà cũng bị chửi lên xuống. Nơi bình yên cuối cùng để về cũng trở thành địa ngục. Thử hỏi còn chỗ nào cho ta làm chỗ dựa tinh thần nữa. Thật sự chán kinh khủng luôn"
                }
            ]
        },
        {
            "parent_comment": {
                "parent_content": "Và khi tôi bị 1 vấn đề gì đó họ mặc kệ tôi, thà đi bênh người ngoài còn hơn tin tôi"
            },
            "replies": [
                {
                    "reply_content": "Mình rất hiểu cảm giác này của bạn vì mình đã trải qua. Đi làm kiếm tiền ngoài xã hội ức chế và stress, chỉ mong về nhà đc bình yên mà cũng bị chửi lên xuống. Nơi bình yên cuối cùng để về cũng trở thành địa ngục. Thử hỏi còn chỗ nào cho ta làm chỗ dựa tinh thần nữa. Thật sự chán kinh khủng luôn"
                }
            ]
        },
        {
            "parent_comment": {
                "parent_content": "Là cha là mẹ tôi mà mở miệng nói câu “ m chịu không được ở nhà này nữa thì cút đi không thì chết đi “"
            },
            "replies": [
                {
                    "reply_content": "Mình rất hiểu cảm giác này của bạn vì mình đã trải qua. Đi làm kiếm tiền ngoài xã hội ức chế và stress, chỉ mong về nhà đc bình yên mà cũng bị chửi lên xuống. Nơi bình yên cuối cùng để về cũng trở thành địa ngục. Thử hỏi còn chỗ nào cho ta làm chỗ dựa tinh thần nữa. Thật sự chán kinh khủng luôn"
                }
            ]
        },
        {
            "parent_comment": {
                "parent_content": "Tôi vì chịu đựng cái nhà này mà stress rồi trầm cảm"
            },
            "replies": [
                {
                    "reply_content": "Mình rất hiểu cảm giác này của bạn vì mình đã trải qua. Đi làm kiếm tiền ngoài xã hội ức chế và stress, chỉ mong về nhà đc bình yên mà cũng bị chửi lên xuống. Nơi bình yên cuối cùng để về cũng trở thành địa ngục. Thử hỏi còn chỗ nào cho ta làm chỗ dựa tinh thần nữa. Thật sự chán kinh khủng luôn"
                }
            ]
        },
        {
            "parent_comment": {
                "parent_content": "Tôi có 1 gia đình mà khi tôi có tiền hay có ích họ cười với tôi coi tôi là thành viên trong nhà"
            },
            "replies": [
                {
                    "reply_content": "Ko có bố mẹ thì cũng sẽ k có bạn. Đc sinh ra đã là quá may mắn rồi, đừng suy nghĩ quá tiêu cực , nếu k bệnh tình sẽ càng ngày càng nặng. Ib t chia sẻ"
                }
            ]
        },
        {
            "parent_comment": {
                "parent_content": "Và khi tôi bị 1 vấn đề gì đó họ mặc kệ tôi, thà đi bênh người ngoài còn hơn tin tôi"
            },
            "replies": [
                {
                    "reply_content": "Ko có bố mẹ thì cũng sẽ k có bạn. Đc sinh ra đã là quá may mắn rồi, đừng suy nghĩ quá tiêu cực , nếu k bệnh tình sẽ càng ngày càng nặng. Ib t chia sẻ"
                }
            ]
        },
        {
            "parent_comment": {
                "parent_content": "Là cha là mẹ tôi mà mở miệng nói câu “ m chịu không được ở nhà này nữa thì cút đi không thì chết đi “"
            },
            "replies": [
                {
                    "reply_content": "Ko có bố mẹ thì cũng sẽ k có bạn. Đc sinh ra đã là quá may mắn rồi, đừng suy nghĩ quá tiêu cực , nếu k bệnh tình sẽ càng ngày càng nặng. Ib t chia sẻ"
                }
            ]
        },
        {
            "parent_comment": {
                "parent_content": "Tôi vì chịu đựng cái nhà này mà stress rồi trầm cảm"
            },
            "replies": [
                {
                    "reply_content": "Ko có bố mẹ thì cũng sẽ k có bạn. Đc sinh ra đã là quá may mắn rồi, đừng suy nghĩ quá tiêu cực , nếu k bệnh tình sẽ càng ngày càng nặng. Ib t chia sẻ"
                }
            ]
        }
    ]
}