{
    "post": "2892047981031256",
    "link": "https://facebook.com/groups/dongdangtramcam/permalink/2892047981031256",
    "post_comments": [
        {
            "parent_comment": {
                "parent_content": "Người yêu em bị trầm cảm theo mùa, chỉ cần thời tiết chuyển lạnh 1 chút (tháng 9 - tháng 3) là bệnh lại xuất hiện"
            },
            "replies": [
                {
                    "reply_content": "Ko biết ny bạn bị trầm cảm có do nguyên nhân gì đặc biệt ko, nếu trầm cảm theo mùa thì mình cũng bị đây. Giai đoạn này bạn ấy tập những thói quen để vượt qua được là quan trọng nhất. Phía mình thì cứ đến cuối mùa thu, trong mùa đông sẽ bị xuống tinh thần, ít giao tiếp, ít ra ngoài, người hay uể oải, chóng mặt, sức khỏe yếu và dễ bệnh. Mình có tạo thói quen tập thể dục hàng ngày 15-30 phút. Nếu trời lạnh tập trong nhà cũng được, có nhiều động tác và bài tập đơn giản, lâu dài khiến ta khỏe và nhanh nhẹn hơn. Về ăn uống mình cũng cải thiện. Đồ dầu mỡ, đồ ăn cay nóng hay chế biến sẵn lam cơ thể yếu đi và có thể tích tụ độc tố. Trong khi rau củ trái cây rất nhiều vitamin làm đầu óc tỉnh táo hẳn. Uống nhiều nước và hít thở ko khí nhiều oxi, những nơi có cây xanh cũng quan trọng, giúp giảm căng thẳng tâm trí. Nếu bạn có thể đồng hành cùng ny trong giai đoạn này sẽ rất tốt, vì lúc này anh ấy sẽ ít động lực để làm những việc đó 1 mình. Mình ko ở tp.hcm nên mình ko rành các bác sĩ trong đó, mong các bạn khác sẽ cho bạn một số địa chỉ uy tín. Trên hết mong bạn trai bạn rèn luyện để vượt qua trầm cảm "
                }
            ]
        },
        {
            "parent_comment": {
                "parent_content": " Em là 1 người rất tích cực, lạc quan yêu đời mà từ ngày biết ny mắc bệnh em cũng lo lắng bồn chồn theo ổng luôn"
            },
            "replies": [
                {
                    "reply_content": "Ko biết ny bạn bị trầm cảm có do nguyên nhân gì đặc biệt ko, nếu trầm cảm theo mùa thì mình cũng bị đây. Giai đoạn này bạn ấy tập những thói quen để vượt qua được là quan trọng nhất. Phía mình thì cứ đến cuối mùa thu, trong mùa đông sẽ bị xuống tinh thần, ít giao tiếp, ít ra ngoài, người hay uể oải, chóng mặt, sức khỏe yếu và dễ bệnh. Mình có tạo thói quen tập thể dục hàng ngày 15-30 phút. Nếu trời lạnh tập trong nhà cũng được, có nhiều động tác và bài tập đơn giản, lâu dài khiến ta khỏe và nhanh nhẹn hơn. Về ăn uống mình cũng cải thiện. Đồ dầu mỡ, đồ ăn cay nóng hay chế biến sẵn lam cơ thể yếu đi và có thể tích tụ độc tố. Trong khi rau củ trái cây rất nhiều vitamin làm đầu óc tỉnh táo hẳn. Uống nhiều nước và hít thở ko khí nhiều oxi, những nơi có cây xanh cũng quan trọng, giúp giảm căng thẳng tâm trí. Nếu bạn có thể đồng hành cùng ny trong giai đoạn này sẽ rất tốt, vì lúc này anh ấy sẽ ít động lực để làm những việc đó 1 mình. Mình ko ở tp.hcm nên mình ko rành các bác sĩ trong đó, mong các bạn khác sẽ cho bạn một số địa chỉ uy tín. Trên hết mong bạn trai bạn rèn luyện để vượt qua trầm cảm "
                }
            ]
        },
        {
            "parent_comment": {
                "parent_content": "Hôm qua em hỏi là thang 1-10 thì tự chấm là đang ở mức 7, em lo quá nên muốn hỏi mọi người là ở Sài Gòn có bác sĩ tâm lý nào giỏi hoặc bất cứ chỗ nào chữa khỏi bệnh k ạ"
            },
            "replies": [
                {
                    "reply_content": "Ko biết ny bạn bị trầm cảm có do nguyên nhân gì đặc biệt ko, nếu trầm cảm theo mùa thì mình cũng bị đây. Giai đoạn này bạn ấy tập những thói quen để vượt qua được là quan trọng nhất. Phía mình thì cứ đến cuối mùa thu, trong mùa đông sẽ bị xuống tinh thần, ít giao tiếp, ít ra ngoài, người hay uể oải, chóng mặt, sức khỏe yếu và dễ bệnh. Mình có tạo thói quen tập thể dục hàng ngày 15-30 phút. Nếu trời lạnh tập trong nhà cũng được, có nhiều động tác và bài tập đơn giản, lâu dài khiến ta khỏe và nhanh nhẹn hơn. Về ăn uống mình cũng cải thiện. Đồ dầu mỡ, đồ ăn cay nóng hay chế biến sẵn lam cơ thể yếu đi và có thể tích tụ độc tố. Trong khi rau củ trái cây rất nhiều vitamin làm đầu óc tỉnh táo hẳn. Uống nhiều nước và hít thở ko khí nhiều oxi, những nơi có cây xanh cũng quan trọng, giúp giảm căng thẳng tâm trí. Nếu bạn có thể đồng hành cùng ny trong giai đoạn này sẽ rất tốt, vì lúc này anh ấy sẽ ít động lực để làm những việc đó 1 mình. Mình ko ở tp.hcm nên mình ko rành các bác sĩ trong đó, mong các bạn khác sẽ cho bạn một số địa chỉ uy tín. Trên hết mong bạn trai bạn rèn luyện để vượt qua trầm cảm "
                }
            ]
        },
        {
            "parent_comment": {
                "parent_content": " Chỉ cần chữa khỏi, tiền ko phải là vấn đề ạ"
            },
            "replies": [
                {
                    "reply_content": "Ko biết ny bạn bị trầm cảm có do nguyên nhân gì đặc biệt ko, nếu trầm cảm theo mùa thì mình cũng bị đây. Giai đoạn này bạn ấy tập những thói quen để vượt qua được là quan trọng nhất. Phía mình thì cứ đến cuối mùa thu, trong mùa đông sẽ bị xuống tinh thần, ít giao tiếp, ít ra ngoài, người hay uể oải, chóng mặt, sức khỏe yếu và dễ bệnh. Mình có tạo thói quen tập thể dục hàng ngày 15-30 phút. Nếu trời lạnh tập trong nhà cũng được, có nhiều động tác và bài tập đơn giản, lâu dài khiến ta khỏe và nhanh nhẹn hơn. Về ăn uống mình cũng cải thiện. Đồ dầu mỡ, đồ ăn cay nóng hay chế biến sẵn lam cơ thể yếu đi và có thể tích tụ độc tố. Trong khi rau củ trái cây rất nhiều vitamin làm đầu óc tỉnh táo hẳn. Uống nhiều nước và hít thở ko khí nhiều oxi, những nơi có cây xanh cũng quan trọng, giúp giảm căng thẳng tâm trí. Nếu bạn có thể đồng hành cùng ny trong giai đoạn này sẽ rất tốt, vì lúc này anh ấy sẽ ít động lực để làm những việc đó 1 mình. Mình ko ở tp.hcm nên mình ko rành các bác sĩ trong đó, mong các bạn khác sẽ cho bạn một số địa chỉ uy tín. Trên hết mong bạn trai bạn rèn luyện để vượt qua trầm cảm "
                }
            ]
        }
    ]
}