{
    "post": "2869670733268981",
    "link": "https://facebook.com/groups/dongdangtramcam/permalink/2869670733268981",
    "post_comments": [
        {
            "parent_comment": {
                "parent_user": "Vinh Pham",
                "parent_content": "B vẫn còn hơn mk nhiều đấy. B chỉ mỗi gia đình. Mk thì lĩnh cả combo đây b. Gia đình, tình yêu, tình bạn , sự nghiệp , tuổi thơ đẹp đẽ cái gì cũng ko. Đã v còn bị ám ảnh bởi bạo lực gia đình , học đường. Bị xâm hại tình dục nữa. Tương lai sau này mù mịt ko biết đi đâu về đâu. Mk kể như v b đã tháy đc an ủi chút nào ko "
            },
            "replies": [
                {
                    "reply_user": "Nguyễn Thị Hồng Châu",
                    "reply_content": "  dạ thật cảm ơn chị, chị rất là mạnh mẽ. Em sợ bản thân em k được như chị. Em rất tự ti về bản thân, k biết nói chuyện buồn của mình ra cho gia đình, bạn bè sao để họ hiểu cảm xúc của em nữa. Bởi vậy em mới tìm đến group này, mong tìm được những lời tâm sự, chia sẽ "
                }
            ]
        },
        {
            "parent_comment": {
                "parent_content": "Anh/ chị ở đây tư vấn giúp em với ạ"
            },
            "replies": [
                {
                    "reply_content": "B vẫn còn hơn mk nhiều đấy. B chỉ mỗi gia đình. Mk thì lĩnh cả combo đây b. Gia đình, tình yêu, tình bạn , sự nghiệp , tuổi thơ đẹp đẽ cái gì cũng ko. Đã v còn bị ám ảnh bởi bạo lực gia đình , học đường. Bị xâm hại tình dục nữa. Tương lai sau này mù mịt ko biết đi đâu về đâu. Mk kể như v b đã tháy đc an ủi chút nào ko "
                }
            ]
        },
        {
            "parent_comment": {
                "parent_content": " Em đang là sinh viên năm 3, chuyện học hành thì cũng bình thường không áp lực gì mấy"
            },
            "replies": [
                {
                    "reply_content": "B vẫn còn hơn mk nhiều đấy. B chỉ mỗi gia đình. Mk thì lĩnh cả combo đây b. Gia đình, tình yêu, tình bạn , sự nghiệp , tuổi thơ đẹp đẽ cái gì cũng ko. Đã v còn bị ám ảnh bởi bạo lực gia đình , học đường. Bị xâm hại tình dục nữa. Tương lai sau này mù mịt ko biết đi đâu về đâu. Mk kể như v b đã tháy đc an ủi chút nào ko "
                }
            ]
        },
        {
            "parent_comment": {
                "parent_content": " Riêng mỗi chuyện gia đình luôn làm em buồn( rất nhiều chuyện nhỏ gộp lại như cha mẹ cãi nhau thường xuyên, gđ không đủ tiền học phí, áp lực họ hàng"
            },
            "replies": [
                {
                    "reply_content": "B vẫn còn hơn mk nhiều đấy. B chỉ mỗi gia đình. Mk thì lĩnh cả combo đây b. Gia đình, tình yêu, tình bạn , sự nghiệp , tuổi thơ đẹp đẽ cái gì cũng ko. Đã v còn bị ám ảnh bởi bạo lực gia đình , học đường. Bị xâm hại tình dục nữa. Tương lai sau này mù mịt ko biết đi đâu về đâu. Mk kể như v b đã tháy đc an ủi chút nào ko "
                }
            ]
        },
        {
            "parent_comment": {
                "parent_content": "), bình thường thì em vẫn nói chuyện vui vẻ với bạn bè nhưng mỗi khi nghĩ tới gia đình thì em lại khóc, khóc rất nhiều luôn, em k có tâm sự được với ai vì mỗi lần định nói điều gì thì nước mắt tuôn như mưa, nói k ra lời và nhiều lần em có ý đến tự tử bằng thuốc ngủ nhưng lại nghĩ cho tương lai nên chưa dám"
            },
            "replies": [
                {
                    "reply_content": "B vẫn còn hơn mk nhiều đấy. B chỉ mỗi gia đình. Mk thì lĩnh cả combo đây b. Gia đình, tình yêu, tình bạn , sự nghiệp , tuổi thơ đẹp đẽ cái gì cũng ko. Đã v còn bị ám ảnh bởi bạo lực gia đình , học đường. Bị xâm hại tình dục nữa. Tương lai sau này mù mịt ko biết đi đâu về đâu. Mk kể như v b đã tháy đc an ủi chút nào ko "
                }
            ]
        },
        {
            "parent_comment": {
                "parent_content": " Vậy em có phải mắc bệnh trầm cảm k ạ? Nếu mà đúng là bệnh thì nên chữa trị như thế nào ạ"
            },
            "replies": [
                {
                    "reply_content": "B vẫn còn hơn mk nhiều đấy. B chỉ mỗi gia đình. Mk thì lĩnh cả combo đây b. Gia đình, tình yêu, tình bạn , sự nghiệp , tuổi thơ đẹp đẽ cái gì cũng ko. Đã v còn bị ám ảnh bởi bạo lực gia đình , học đường. Bị xâm hại tình dục nữa. Tương lai sau này mù mịt ko biết đi đâu về đâu. Mk kể như v b đã tháy đc an ủi chút nào ko "
                }
            ]
        },
        {
            "parent_comment": {
                "parent_content": " Em sợ mình để trong lòng quài có ngày làm chuyện dại dột"
            },
            "replies": [
                {
                    "reply_content": "B vẫn còn hơn mk nhiều đấy. B chỉ mỗi gia đình. Mk thì lĩnh cả combo đây b. Gia đình, tình yêu, tình bạn , sự nghiệp , tuổi thơ đẹp đẽ cái gì cũng ko. Đã v còn bị ám ảnh bởi bạo lực gia đình , học đường. Bị xâm hại tình dục nữa. Tương lai sau này mù mịt ko biết đi đâu về đâu. Mk kể như v b đã tháy đc an ủi chút nào ko "
                }
            ]
        },
        {
            "parent_comment": {
                "parent_content": " Mong mng để lại lời khuyên giúp em"
            },
            "replies": [
                {
                    "reply_content": "B vẫn còn hơn mk nhiều đấy. B chỉ mỗi gia đình. Mk thì lĩnh cả combo đây b. Gia đình, tình yêu, tình bạn , sự nghiệp , tuổi thơ đẹp đẽ cái gì cũng ko. Đã v còn bị ám ảnh bởi bạo lực gia đình , học đường. Bị xâm hại tình dục nữa. Tương lai sau này mù mịt ko biết đi đâu về đâu. Mk kể như v b đã tháy đc an ủi chút nào ko "
                }
            ]
        },
        {
            "parent_comment": {
                "parent_content": "Anh/ chị ở đây tư vấn giúp em với ạ"
            },
            "replies": [
                {
                    "reply_content": "Chọn niềm vui, đừng chọn đau khổ.Hãy vui vẻ, hãy véo von mỗi ngày!Bạn hoàn toàn có thể Sống Sung Sướng nếu bạn muốn. Lựa chọn nằm trong tay bạn.https://youtu.be/XaAzyoo0OYI"
                }
            ]
        },
        {
            "parent_comment": {
                "parent_content": " Em đang là sinh viên năm 3, chuyện học hành thì cũng bình thường không áp lực gì mấy"
            },
            "replies": [
                {
                    "reply_content": "Chọn niềm vui, đừng chọn đau khổ.Hãy vui vẻ, hãy véo von mỗi ngày!Bạn hoàn toàn có thể Sống Sung Sướng nếu bạn muốn. Lựa chọn nằm trong tay bạn.https://youtu.be/XaAzyoo0OYI"
                }
            ]
        },
        {
            "parent_comment": {
                "parent_content": " Riêng mỗi chuyện gia đình luôn làm em buồn( rất nhiều chuyện nhỏ gộp lại như cha mẹ cãi nhau thường xuyên, gđ không đủ tiền học phí, áp lực họ hàng"
            },
            "replies": [
                {
                    "reply_content": "Chọn niềm vui, đừng chọn đau khổ.Hãy vui vẻ, hãy véo von mỗi ngày!Bạn hoàn toàn có thể Sống Sung Sướng nếu bạn muốn. Lựa chọn nằm trong tay bạn.https://youtu.be/XaAzyoo0OYI"
                }
            ]
        },
        {
            "parent_comment": {
                "parent_content": "), bình thường thì em vẫn nói chuyện vui vẻ với bạn bè nhưng mỗi khi nghĩ tới gia đình thì em lại khóc, khóc rất nhiều luôn, em k có tâm sự được với ai vì mỗi lần định nói điều gì thì nước mắt tuôn như mưa, nói k ra lời và nhiều lần em có ý đến tự tử bằng thuốc ngủ nhưng lại nghĩ cho tương lai nên chưa dám"
            },
            "replies": [
                {
                    "reply_content": "Chọn niềm vui, đừng chọn đau khổ.Hãy vui vẻ, hãy véo von mỗi ngày!Bạn hoàn toàn có thể Sống Sung Sướng nếu bạn muốn. Lựa chọn nằm trong tay bạn.https://youtu.be/XaAzyoo0OYI"
                }
            ]
        },
        {
            "parent_comment": {
                "parent_content": " Vậy em có phải mắc bệnh trầm cảm k ạ? Nếu mà đúng là bệnh thì nên chữa trị như thế nào ạ"
            },
            "replies": [
                {
                    "reply_content": "Chọn niềm vui, đừng chọn đau khổ.Hãy vui vẻ, hãy véo von mỗi ngày!Bạn hoàn toàn có thể Sống Sung Sướng nếu bạn muốn. Lựa chọn nằm trong tay bạn.https://youtu.be/XaAzyoo0OYI"
                }
            ]
        },
        {
            "parent_comment": {
                "parent_content": " Em sợ mình để trong lòng quài có ngày làm chuyện dại dột"
            },
            "replies": [
                {
                    "reply_content": "Chọn niềm vui, đừng chọn đau khổ.Hãy vui vẻ, hãy véo von mỗi ngày!Bạn hoàn toàn có thể Sống Sung Sướng nếu bạn muốn. Lựa chọn nằm trong tay bạn.https://youtu.be/XaAzyoo0OYI"
                }
            ]
        },
        {
            "parent_comment": {
                "parent_content": " Mong mng để lại lời khuyên giúp em"
            },
            "replies": [
                {
                    "reply_content": "Chọn niềm vui, đừng chọn đau khổ.Hãy vui vẻ, hãy véo von mỗi ngày!Bạn hoàn toàn có thể Sống Sung Sướng nếu bạn muốn. Lựa chọn nằm trong tay bạn.https://youtu.be/XaAzyoo0OYI"
                }
            ]
        },
        {
            "parent_comment": {
                "parent_content": "Anh/ chị ở đây tư vấn giúp em với ạ"
            },
            "replies": [
                {
                    "reply_content": "Nếu e đang ở riêng khỏi gia đình thì tốt nhất hãy tập trung chăm sóc, yêu thương bản thân em. Ăn uống đầy đủ, kiếm việc làm thêm và tham gia các clb, cộng đồng để gặp gỡ những bạn bè chung sở thích. Vì nặng lòng chuyện gia đình em càng không nên ở một mình. Em hãy tốt trước đã thì mới giúp đc gia đình tốt lên em nhé, nếu mình còn đang bỏ bê bản thân thì nghĩ nhiều ko giải quyết được gì cả."
                }
            ]
        },
        {
            "parent_comment": {
                "parent_content": " Em đang là sinh viên năm 3, chuyện học hành thì cũng bình thường không áp lực gì mấy"
            },
            "replies": [
                {
                    "reply_content": "Nếu e đang ở riêng khỏi gia đình thì tốt nhất hãy tập trung chăm sóc, yêu thương bản thân em. Ăn uống đầy đủ, kiếm việc làm thêm và tham gia các clb, cộng đồng để gặp gỡ những bạn bè chung sở thích. Vì nặng lòng chuyện gia đình em càng không nên ở một mình. Em hãy tốt trước đã thì mới giúp đc gia đình tốt lên em nhé, nếu mình còn đang bỏ bê bản thân thì nghĩ nhiều ko giải quyết được gì cả."
                }
            ]
        },
        {
            "parent_comment": {
                "parent_content": " Riêng mỗi chuyện gia đình luôn làm em buồn( rất nhiều chuyện nhỏ gộp lại như cha mẹ cãi nhau thường xuyên, gđ không đủ tiền học phí, áp lực họ hàng"
            },
            "replies": [
                {
                    "reply_content": "Nếu e đang ở riêng khỏi gia đình thì tốt nhất hãy tập trung chăm sóc, yêu thương bản thân em. Ăn uống đầy đủ, kiếm việc làm thêm và tham gia các clb, cộng đồng để gặp gỡ những bạn bè chung sở thích. Vì nặng lòng chuyện gia đình em càng không nên ở một mình. Em hãy tốt trước đã thì mới giúp đc gia đình tốt lên em nhé, nếu mình còn đang bỏ bê bản thân thì nghĩ nhiều ko giải quyết được gì cả."
                }
            ]
        },
        {
            "parent_comment": {
                "parent_content": "), bình thường thì em vẫn nói chuyện vui vẻ với bạn bè nhưng mỗi khi nghĩ tới gia đình thì em lại khóc, khóc rất nhiều luôn, em k có tâm sự được với ai vì mỗi lần định nói điều gì thì nước mắt tuôn như mưa, nói k ra lời và nhiều lần em có ý đến tự tử bằng thuốc ngủ nhưng lại nghĩ cho tương lai nên chưa dám"
            },
            "replies": [
                {
                    "reply_content": "Nếu e đang ở riêng khỏi gia đình thì tốt nhất hãy tập trung chăm sóc, yêu thương bản thân em. Ăn uống đầy đủ, kiếm việc làm thêm và tham gia các clb, cộng đồng để gặp gỡ những bạn bè chung sở thích. Vì nặng lòng chuyện gia đình em càng không nên ở một mình. Em hãy tốt trước đã thì mới giúp đc gia đình tốt lên em nhé, nếu mình còn đang bỏ bê bản thân thì nghĩ nhiều ko giải quyết được gì cả."
                }
            ]
        },
        {
            "parent_comment": {
                "parent_content": " Vậy em có phải mắc bệnh trầm cảm k ạ? Nếu mà đúng là bệnh thì nên chữa trị như thế nào ạ"
            },
            "replies": [
                {
                    "reply_content": "Nếu e đang ở riêng khỏi gia đình thì tốt nhất hãy tập trung chăm sóc, yêu thương bản thân em. Ăn uống đầy đủ, kiếm việc làm thêm và tham gia các clb, cộng đồng để gặp gỡ những bạn bè chung sở thích. Vì nặng lòng chuyện gia đình em càng không nên ở một mình. Em hãy tốt trước đã thì mới giúp đc gia đình tốt lên em nhé, nếu mình còn đang bỏ bê bản thân thì nghĩ nhiều ko giải quyết được gì cả."
                }
            ]
        },
        {
            "parent_comment": {
                "parent_content": " Em sợ mình để trong lòng quài có ngày làm chuyện dại dột"
            },
            "replies": [
                {
                    "reply_content": "Nếu e đang ở riêng khỏi gia đình thì tốt nhất hãy tập trung chăm sóc, yêu thương bản thân em. Ăn uống đầy đủ, kiếm việc làm thêm và tham gia các clb, cộng đồng để gặp gỡ những bạn bè chung sở thích. Vì nặng lòng chuyện gia đình em càng không nên ở một mình. Em hãy tốt trước đã thì mới giúp đc gia đình tốt lên em nhé, nếu mình còn đang bỏ bê bản thân thì nghĩ nhiều ko giải quyết được gì cả."
                }
            ]
        },
        {
            "parent_comment": {
                "parent_content": " Mong mng để lại lời khuyên giúp em"
            },
            "replies": [
                {
                    "reply_content": "Nếu e đang ở riêng khỏi gia đình thì tốt nhất hãy tập trung chăm sóc, yêu thương bản thân em. Ăn uống đầy đủ, kiếm việc làm thêm và tham gia các clb, cộng đồng để gặp gỡ những bạn bè chung sở thích. Vì nặng lòng chuyện gia đình em càng không nên ở một mình. Em hãy tốt trước đã thì mới giúp đc gia đình tốt lên em nhé, nếu mình còn đang bỏ bê bản thân thì nghĩ nhiều ko giải quyết được gì cả."
                }
            ]
        },
        {
            "parent_comment": {
                "parent_content": "Anh/ chị ở đây tư vấn giúp em với ạ"
            },
            "replies": [
                {
                    "reply_content": "Nếu tâm không đổi, thuốc có uống đến già cũng không thể khỏi, để chữa bệnh này phải dùng tâm trị tâm, đánh dẹp hết rác rưởi trong tâm"
                }
            ]
        },
        {
            "parent_comment": {
                "parent_content": " Em đang là sinh viên năm 3, chuyện học hành thì cũng bình thường không áp lực gì mấy"
            },
            "replies": [
                {
                    "reply_content": "Nếu tâm không đổi, thuốc có uống đến già cũng không thể khỏi, để chữa bệnh này phải dùng tâm trị tâm, đánh dẹp hết rác rưởi trong tâm"
                }
            ]
        },
        {
            "parent_comment": {
                "parent_content": " Riêng mỗi chuyện gia đình luôn làm em buồn( rất nhiều chuyện nhỏ gộp lại như cha mẹ cãi nhau thường xuyên, gđ không đủ tiền học phí, áp lực họ hàng"
            },
            "replies": [
                {
                    "reply_content": "Nếu tâm không đổi, thuốc có uống đến già cũng không thể khỏi, để chữa bệnh này phải dùng tâm trị tâm, đánh dẹp hết rác rưởi trong tâm"
                }
            ]
        },
        {
            "parent_comment": {
                "parent_content": "), bình thường thì em vẫn nói chuyện vui vẻ với bạn bè nhưng mỗi khi nghĩ tới gia đình thì em lại khóc, khóc rất nhiều luôn, em k có tâm sự được với ai vì mỗi lần định nói điều gì thì nước mắt tuôn như mưa, nói k ra lời và nhiều lần em có ý đến tự tử bằng thuốc ngủ nhưng lại nghĩ cho tương lai nên chưa dám"
            },
            "replies": [
                {
                    "reply_content": "Nếu tâm không đổi, thuốc có uống đến già cũng không thể khỏi, để chữa bệnh này phải dùng tâm trị tâm, đánh dẹp hết rác rưởi trong tâm"
                }
            ]
        },
        {
            "parent_comment": {
                "parent_content": " Vậy em có phải mắc bệnh trầm cảm k ạ? Nếu mà đúng là bệnh thì nên chữa trị như thế nào ạ"
            },
            "replies": [
                {
                    "reply_content": "Nếu tâm không đổi, thuốc có uống đến già cũng không thể khỏi, để chữa bệnh này phải dùng tâm trị tâm, đánh dẹp hết rác rưởi trong tâm"
                }
            ]
        },
        {
            "parent_comment": {
                "parent_content": " Em sợ mình để trong lòng quài có ngày làm chuyện dại dột"
            },
            "replies": [
                {
                    "reply_content": "Nếu tâm không đổi, thuốc có uống đến già cũng không thể khỏi, để chữa bệnh này phải dùng tâm trị tâm, đánh dẹp hết rác rưởi trong tâm"
                }
            ]
        },
        {
            "parent_comment": {
                "parent_content": " Mong mng để lại lời khuyên giúp em"
            },
            "replies": [
                {
                    "reply_content": "Nếu tâm không đổi, thuốc có uống đến già cũng không thể khỏi, để chữa bệnh này phải dùng tâm trị tâm, đánh dẹp hết rác rưởi trong tâm"
                }
            ]
        }
    ]
}