{
    "post": "2792746117628110",
    "link": "https://facebook.com/groups/dongdangtramcam/permalink/2792746117628110",
    "post_comments": [
        {
            "parent_comment": {
                "parent_content": "Em năm nay 20 tuổi, ngay từ nhỏ em đã có dấu hiệu của một người bị bệnh trầm cảm, em không được học hành đến nơi đến chốn, do bản thân em khi còn đi học không có ý định học tiếp do chán nản, đã 4 năm trôi qua, em đã đi làm cũng được nhiều nơi, nhưng những chỗ làm mà em đi qua điều không mấy tốt đẹp, em luôn luôn để ý đến lời nói của người khác rồi lúc nào cũng suy nghĩ theo hướng tiêu cực, em cực kì ít nói, không biết từ đâu mà ra, em thấy bản thân mình bị bạn bè và mọi người bỏ lại quá xa, do ngại giao tiếp nên em không thể nói chuyện với một người quá lâu, thị lực giảm nhiều, cơ thể mệt mỏi chẳng muốn làm gì cả, không ăn uống điều độ nữa, mọi thứ càng ngày càng tệ, mong được mọi người chia sẻ và giúp đỡ em ạ"
            },
            "replies": [
                {
                    "reply_content": "Đến gặp bsi đi e"
                }
            ]
        },
        {
            "parent_comment": {
                "parent_content": "Em năm nay 20 tuổi, ngay từ nhỏ em đã có dấu hiệu của một người bị bệnh trầm cảm, em không được học hành đến nơi đến chốn, do bản thân em khi còn đi học không có ý định học tiếp do chán nản, đã 4 năm trôi qua, em đã đi làm cũng được nhiều nơi, nhưng những chỗ làm mà em đi qua điều không mấy tốt đẹp, em luôn luôn để ý đến lời nói của người khác rồi lúc nào cũng suy nghĩ theo hướng tiêu cực, em cực kì ít nói, không biết từ đâu mà ra, em thấy bản thân mình bị bạn bè và mọi người bỏ lại quá xa, do ngại giao tiếp nên em không thể nói chuyện với một người quá lâu, thị lực giảm nhiều, cơ thể mệt mỏi chẳng muốn làm gì cả, không ăn uống điều độ nữa, mọi thứ càng ngày càng tệ, mong được mọi người chia sẻ và giúp đỡ em ạ"
            },
            "replies": [
                {
                    "reply_content": "Youtube bấm dung88"
                }
            ]
        },
        {
            "parent_comment": {
                "parent_content": "Em năm nay 20 tuổi, ngay từ nhỏ em đã có dấu hiệu của một người bị bệnh trầm cảm, em không được học hành đến nơi đến chốn, do bản thân em khi còn đi học không có ý định học tiếp do chán nản, đã 4 năm trôi qua, em đã đi làm cũng được nhiều nơi, nhưng những chỗ làm mà em đi qua điều không mấy tốt đẹp, em luôn luôn để ý đến lời nói của người khác rồi lúc nào cũng suy nghĩ theo hướng tiêu cực, em cực kì ít nói, không biết từ đâu mà ra, em thấy bản thân mình bị bạn bè và mọi người bỏ lại quá xa, do ngại giao tiếp nên em không thể nói chuyện với một người quá lâu, thị lực giảm nhiều, cơ thể mệt mỏi chẳng muốn làm gì cả, không ăn uống điều độ nữa, mọi thứ càng ngày càng tệ, mong được mọi người chia sẻ và giúp đỡ em ạ"
            },
            "replies": [
                {
                    "reply_content": "Đây là số điện thoại của Tiến sĩ Bác sĩ ĐINH ĐĂNG HÒE - làm việc tại bệnh viện tư HỒNG NGỌC đã có kinh nghiệm 40 năm khám và điều trị thành công cho rất nhiều các bệnh nhân bị trầm cảm,đau đầu,mất ngủ cũng như các bệnh lí về hệ thần kinh.Bác là thầy của nhiều bác sĩ ở bệnh viện Bạch Mai bệnh viện 108 và 1 số bệnh viện khác trên toàn quốc.Vậy ai đang bị những bệnh như mình nói trên hãy liên lạc đến sdt trên cap hoặc đến ngay bệnh viện HỒNG NGỌC để chữa bệnh. Và rất mong mọi người khỏi bệnh chia sẻ rộng rãi để nhiều người biết đến thông tin này"
                }
            ]
        },
        {
            "parent_comment": {
                "parent_content": "Em năm nay 20 tuổi, ngay từ nhỏ em đã có dấu hiệu của một người bị bệnh trầm cảm, em không được học hành đến nơi đến chốn, do bản thân em khi còn đi học không có ý định học tiếp do chán nản, đã 4 năm trôi qua, em đã đi làm cũng được nhiều nơi, nhưng những chỗ làm mà em đi qua điều không mấy tốt đẹp, em luôn luôn để ý đến lời nói của người khác rồi lúc nào cũng suy nghĩ theo hướng tiêu cực, em cực kì ít nói, không biết từ đâu mà ra, em thấy bản thân mình bị bạn bè và mọi người bỏ lại quá xa, do ngại giao tiếp nên em không thể nói chuyện với một người quá lâu, thị lực giảm nhiều, cơ thể mệt mỏi chẳng muốn làm gì cả, không ăn uống điều độ nữa, mọi thứ càng ngày càng tệ, mong được mọi người chia sẻ và giúp đỡ em ạ"
            },
            "replies": [
                {
                    "reply_content": "Người ta cũng k rảnh để ý đến mình đâu. Tự làm những điều nhỏ nhặt cho mình vui nhé. Nhìn từ góc khác chắc cũng k tệ lắm"
                }
            ]
        },
        {
            "parent_comment": {
                "parent_content": "Em năm nay 20 tuổi, ngay từ nhỏ em đã có dấu hiệu của một người bị bệnh trầm cảm, em không được học hành đến nơi đến chốn, do bản thân em khi còn đi học không có ý định học tiếp do chán nản, đã 4 năm trôi qua, em đã đi làm cũng được nhiều nơi, nhưng những chỗ làm mà em đi qua điều không mấy tốt đẹp, em luôn luôn để ý đến lời nói của người khác rồi lúc nào cũng suy nghĩ theo hướng tiêu cực, em cực kì ít nói, không biết từ đâu mà ra, em thấy bản thân mình bị bạn bè và mọi người bỏ lại quá xa, do ngại giao tiếp nên em không thể nói chuyện với một người quá lâu, thị lực giảm nhiều, cơ thể mệt mỏi chẳng muốn làm gì cả, không ăn uống điều độ nữa, mọi thứ càng ngày càng tệ, mong được mọi người chia sẻ và giúp đỡ em ạ"
            },
            "replies": [
                {
                    "reply_content": "Mình cũng bị giống như b vậy"
                }
            ]
        }
    ]
}