{
    "post": "2901244873444900",
    "link": "https://facebook.com/groups/dongdangtramcam/permalink/2901244873444900",
    "post_comments": [
        {
            "parent_comment": {
                "parent_content": "17 PHƯƠNG PHÁP CHỮA LÀNH MỆT MỎI, BẾ TẮC "
            },
            "replies": [
                {
                    "reply_content": "Mình viết 17 điều này vào nhật ký khi nào buồn hay chán thì lấy ra làm"
                }
            ]
        },
        {
            "parent_comment": {
                "parent_content": " Tập trung vào cuộc sống của mình, bớt nhiều chuyện"
            },
            "replies": [
                {
                    "reply_content": "Mình viết 17 điều này vào nhật ký khi nào buồn hay chán thì lấy ra làm"
                }
            ]
        },
        {
            "parent_comment": {
                "parent_content": " Không ai có quyền làm tổn thương bạn, nếu bạn ko cho phép"
            },
            "replies": [
                {
                    "reply_content": "Mình viết 17 điều này vào nhật ký khi nào buồn hay chán thì lấy ra làm"
                }
            ]
        },
        {
            "parent_comment": {
                "parent_content": " Đừng cho ai có cơ hội làm tổn thương mình thêm lần nữa"
            },
            "replies": [
                {
                    "reply_content": "Mình viết 17 điều này vào nhật ký khi nào buồn hay chán thì lấy ra làm"
                }
            ]
        },
        {
            "parent_comment": {
                "parent_content": " Hãy ăn thật ngon, thật sạch, gì thì gì bạn phải yêu chân thành cái bao tử của mình trước đã"
            },
            "replies": [
                {
                    "reply_content": "Mình viết 17 điều này vào nhật ký khi nào buồn hay chán thì lấy ra làm"
                }
            ]
        },
        {
            "parent_comment": {
                "parent_content": " Tâm trạng không vui, đừng làm điều gì điên rồ, những trang sách sẽ khiến bạn bình tâm lại và sáng suốt hơn"
            },
            "replies": [
                {
                    "reply_content": "Mình viết 17 điều này vào nhật ký khi nào buồn hay chán thì lấy ra làm"
                }
            ]
        },
        {
            "parent_comment": {
                "parent_content": " Nếu như cảm thấy đau đớn trong lòng, hãy tìm một góc riêng tư mà khóc"
            },
            "replies": [
                {
                    "reply_content": "Mình viết 17 điều này vào nhật ký khi nào buồn hay chán thì lấy ra làm"
                }
            ]
        },
        {
            "parent_comment": {
                "parent_content": " Khóc rồi ngày mai lại vui vẻ tiếp tục sống cuộc sống của mình"
            },
            "replies": [
                {
                    "reply_content": "Mình viết 17 điều này vào nhật ký khi nào buồn hay chán thì lấy ra làm"
                }
            ]
        },
        {
            "parent_comment": {
                "parent_content": " Duỗi người thật thoải mái cũng là cách để bản thân hạnh phúc"
            },
            "replies": [
                {
                    "reply_content": "Mình viết 17 điều này vào nhật ký khi nào buồn hay chán thì lấy ra làm"
                }
            ]
        },
        {
            "parent_comment": {
                "parent_content": " Đừng có cười nhé! Những lần mệt mỏi, hãy cứ duỗi người hết cỡ, duỗi cả những đầu ngón tay và ngón chân nữa"
            },
            "replies": [
                {
                    "reply_content": "Mình viết 17 điều này vào nhật ký khi nào buồn hay chán thì lấy ra làm"
                }
            ]
        },
        {
            "parent_comment": {
                "parent_content": " Dọn giường đi, dọn phòng luôn đi, rồi bạn sẽ cảm nhận được điều gì đó rất lạ, rất mới và rất thích"
            },
            "replies": [
                {
                    "reply_content": "Mình viết 17 điều này vào nhật ký khi nào buồn hay chán thì lấy ra làm"
                }
            ]
        },
        {
            "parent_comment": {
                "parent_content": " Hãy trút hết ga trải giường vào máy giặt, thêm một muỗng nước xả thơm tho và cho quay đều tất cả"
            },
            "replies": [
                {
                    "reply_content": "Mình viết 17 điều này vào nhật ký khi nào buồn hay chán thì lấy ra làm"
                }
            ]
        },
        {
            "parent_comment": {
                "parent_content": " Vứt hết những thứ không dùng nữa, lau chùi lại những cánh cửa và những tấm gương, rồi đốt thêm một ngọn nến thơm"
            },
            "replies": [
                {
                    "reply_content": "Mình viết 17 điều này vào nhật ký khi nào buồn hay chán thì lấy ra làm"
                }
            ]
        },
        {
            "parent_comment": {
                "parent_content": " Bình thường tắm nửa tiếng thì hôm nay hãy tắm thật xa hoa, thật sạch sẽ"
            },
            "replies": [
                {
                    "reply_content": "Mình viết 17 điều này vào nhật ký khi nào buồn hay chán thì lấy ra làm"
                }
            ]
        },
        {
            "parent_comment": {
                "parent_content": " Lâu lâu, hãy tự thưởng cho bản thân được thư giãn như thế nhé! Mở một bài hát bạn yêu thích,"
            },
            "replies": [
                {
                    "reply_content": "Mình viết 17 điều này vào nhật ký khi nào buồn hay chán thì lấy ra làm"
                }
            ]
        },
        {
            "parent_comment": {
                "parent_content": " Mặc đồ thật thoải mái, đeo tai nghe và đi bộ"
            },
            "replies": [
                {
                    "reply_content": "Mình viết 17 điều này vào nhật ký khi nào buồn hay chán thì lấy ra làm"
                }
            ]
        },
        {
            "parent_comment": {
                "parent_content": " Sẵn sàng mỉm cười với những người lạ ngược chiều và chờ xem có bao nhiêu người sẽ cười đáp trả bạn"
            },
            "replies": [
                {
                    "reply_content": "Mình viết 17 điều này vào nhật ký khi nào buồn hay chán thì lấy ra làm"
                }
            ]
        },
        {
            "parent_comment": {
                "parent_content": " Nếu có cún, hãy dắt chúng theo nhé, ngồi quan sát chúng hoạt động sẽ giúp bạn học được cũng kha khá điều đấy"
            },
            "replies": [
                {
                    "reply_content": "Mình viết 17 điều này vào nhật ký khi nào buồn hay chán thì lấy ra làm"
                }
            ]
        },
        {
            "parent_comment": {
                "parent_content": " Nếu không có ai bên cạnh, hãy thử một mình đọc sách, nghe nhạc, xem phim, chơi game, viết blog"
            },
            "replies": [
                {
                    "reply_content": "Mình viết 17 điều này vào nhật ký khi nào buồn hay chán thì lấy ra làm"
                }
            ]
        },
        {
            "parent_comment": {
                "parent_content": " Hãy tập quen dần với chính bản thân mình"
            },
            "replies": [
                {
                    "reply_content": "Mình viết 17 điều này vào nhật ký khi nào buồn hay chán thì lấy ra làm"
                }
            ]
        },
        {
            "parent_comment": {
                "parent_content": " Tìm một người bạn mà mình tin tưởng để trút tâm sự, không nên chịu đựng một mình"
            },
            "replies": [
                {
                    "reply_content": "Mình viết 17 điều này vào nhật ký khi nào buồn hay chán thì lấy ra làm"
                }
            ]
        },
        {
            "parent_comment": {
                "parent_content": " Đừng để nỗi buồn phải chứa cả nỗi cô đơn"
            },
            "replies": [
                {
                    "reply_content": "Mình viết 17 điều này vào nhật ký khi nào buồn hay chán thì lấy ra làm"
                }
            ]
        },
        {
            "parent_comment": {
                "parent_content": "𝗧𝗮̂𝗺 𝗹𝘆́ 𝗵𝗼̣𝗰 𝗵𝗮̀𝗻𝗵 𝘃𝗶 - Cuốn sách giúp bạn thấu hiểu tâm lý chính mình và những người xung quanh "
            },
            "replies": [
                {
                    "reply_content": "Mình viết 17 điều này vào nhật ký khi nào buồn hay chán thì lấy ra làm"
                }
            ]
        },
        {
            "parent_comment": {
                "parent_content": " Tìm hiểu những hành vi tâm lý thú vị khác tại:"
            },
            "replies": [
                {
                    "reply_content": "Mình viết 17 điều này vào nhật ký khi nào buồn hay chán thì lấy ra làm"
                }
            ]
        },
        {
            "parent_comment": {
                "parent_content": "17 PHƯƠNG PHÁP CHỮA LÀNH MỆT MỎI, BẾ TẮC "
            },
            "replies": [
                {
                    "reply_content": "Ko còn thấy cuộc sống này tốt đẹp mà đầy rẫy những bất hạnh thì phải ls đây"
                }
            ]
        },
        {
            "parent_comment": {
                "parent_content": " Tập trung vào cuộc sống của mình, bớt nhiều chuyện"
            },
            "replies": [
                {
                    "reply_content": "Ko còn thấy cuộc sống này tốt đẹp mà đầy rẫy những bất hạnh thì phải ls đây"
                }
            ]
        },
        {
            "parent_comment": {
                "parent_content": " Không ai có quyền làm tổn thương bạn, nếu bạn ko cho phép"
            },
            "replies": [
                {
                    "reply_content": "Ko còn thấy cuộc sống này tốt đẹp mà đầy rẫy những bất hạnh thì phải ls đây"
                }
            ]
        },
        {
            "parent_comment": {
                "parent_content": " Đừng cho ai có cơ hội làm tổn thương mình thêm lần nữa"
            },
            "replies": [
                {
                    "reply_content": "Ko còn thấy cuộc sống này tốt đẹp mà đầy rẫy những bất hạnh thì phải ls đây"
                }
            ]
        },
        {
            "parent_comment": {
                "parent_content": " Hãy ăn thật ngon, thật sạch, gì thì gì bạn phải yêu chân thành cái bao tử của mình trước đã"
            },
            "replies": [
                {
                    "reply_content": "Ko còn thấy cuộc sống này tốt đẹp mà đầy rẫy những bất hạnh thì phải ls đây"
                }
            ]
        },
        {
            "parent_comment": {
                "parent_content": " Tâm trạng không vui, đừng làm điều gì điên rồ, những trang sách sẽ khiến bạn bình tâm lại và sáng suốt hơn"
            },
            "replies": [
                {
                    "reply_content": "Ko còn thấy cuộc sống này tốt đẹp mà đầy rẫy những bất hạnh thì phải ls đây"
                }
            ]
        },
        {
            "parent_comment": {
                "parent_content": " Nếu như cảm thấy đau đớn trong lòng, hãy tìm một góc riêng tư mà khóc"
            },
            "replies": [
                {
                    "reply_content": "Ko còn thấy cuộc sống này tốt đẹp mà đầy rẫy những bất hạnh thì phải ls đây"
                }
            ]
        },
        {
            "parent_comment": {
                "parent_content": " Khóc rồi ngày mai lại vui vẻ tiếp tục sống cuộc sống của mình"
            },
            "replies": [
                {
                    "reply_content": "Ko còn thấy cuộc sống này tốt đẹp mà đầy rẫy những bất hạnh thì phải ls đây"
                }
            ]
        },
        {
            "parent_comment": {
                "parent_content": " Duỗi người thật thoải mái cũng là cách để bản thân hạnh phúc"
            },
            "replies": [
                {
                    "reply_content": "Ko còn thấy cuộc sống này tốt đẹp mà đầy rẫy những bất hạnh thì phải ls đây"
                }
            ]
        },
        {
            "parent_comment": {
                "parent_content": " Đừng có cười nhé! Những lần mệt mỏi, hãy cứ duỗi người hết cỡ, duỗi cả những đầu ngón tay và ngón chân nữa"
            },
            "replies": [
                {
                    "reply_content": "Ko còn thấy cuộc sống này tốt đẹp mà đầy rẫy những bất hạnh thì phải ls đây"
                }
            ]
        },
        {
            "parent_comment": {
                "parent_content": " Dọn giường đi, dọn phòng luôn đi, rồi bạn sẽ cảm nhận được điều gì đó rất lạ, rất mới và rất thích"
            },
            "replies": [
                {
                    "reply_content": "Ko còn thấy cuộc sống này tốt đẹp mà đầy rẫy những bất hạnh thì phải ls đây"
                }
            ]
        },
        {
            "parent_comment": {
                "parent_content": " Hãy trút hết ga trải giường vào máy giặt, thêm một muỗng nước xả thơm tho và cho quay đều tất cả"
            },
            "replies": [
                {
                    "reply_content": "Ko còn thấy cuộc sống này tốt đẹp mà đầy rẫy những bất hạnh thì phải ls đây"
                }
            ]
        },
        {
            "parent_comment": {
                "parent_content": " Vứt hết những thứ không dùng nữa, lau chùi lại những cánh cửa và những tấm gương, rồi đốt thêm một ngọn nến thơm"
            },
            "replies": [
                {
                    "reply_content": "Ko còn thấy cuộc sống này tốt đẹp mà đầy rẫy những bất hạnh thì phải ls đây"
                }
            ]
        },
        {
            "parent_comment": {
                "parent_content": " Bình thường tắm nửa tiếng thì hôm nay hãy tắm thật xa hoa, thật sạch sẽ"
            },
            "replies": [
                {
                    "reply_content": "Ko còn thấy cuộc sống này tốt đẹp mà đầy rẫy những bất hạnh thì phải ls đây"
                }
            ]
        },
        {
            "parent_comment": {
                "parent_content": " Lâu lâu, hãy tự thưởng cho bản thân được thư giãn như thế nhé! Mở một bài hát bạn yêu thích,"
            },
            "replies": [
                {
                    "reply_content": "Ko còn thấy cuộc sống này tốt đẹp mà đầy rẫy những bất hạnh thì phải ls đây"
                }
            ]
        },
        {
            "parent_comment": {
                "parent_content": " Mặc đồ thật thoải mái, đeo tai nghe và đi bộ"
            },
            "replies": [
                {
                    "reply_content": "Ko còn thấy cuộc sống này tốt đẹp mà đầy rẫy những bất hạnh thì phải ls đây"
                }
            ]
        },
        {
            "parent_comment": {
                "parent_content": " Sẵn sàng mỉm cười với những người lạ ngược chiều và chờ xem có bao nhiêu người sẽ cười đáp trả bạn"
            },
            "replies": [
                {
                    "reply_content": "Ko còn thấy cuộc sống này tốt đẹp mà đầy rẫy những bất hạnh thì phải ls đây"
                }
            ]
        },
        {
            "parent_comment": {
                "parent_content": " Nếu có cún, hãy dắt chúng theo nhé, ngồi quan sát chúng hoạt động sẽ giúp bạn học được cũng kha khá điều đấy"
            },
            "replies": [
                {
                    "reply_content": "Ko còn thấy cuộc sống này tốt đẹp mà đầy rẫy những bất hạnh thì phải ls đây"
                }
            ]
        },
        {
            "parent_comment": {
                "parent_content": " Nếu không có ai bên cạnh, hãy thử một mình đọc sách, nghe nhạc, xem phim, chơi game, viết blog"
            },
            "replies": [
                {
                    "reply_content": "Ko còn thấy cuộc sống này tốt đẹp mà đầy rẫy những bất hạnh thì phải ls đây"
                }
            ]
        },
        {
            "parent_comment": {
                "parent_content": " Hãy tập quen dần với chính bản thân mình"
            },
            "replies": [
                {
                    "reply_content": "Ko còn thấy cuộc sống này tốt đẹp mà đầy rẫy những bất hạnh thì phải ls đây"
                }
            ]
        },
        {
            "parent_comment": {
                "parent_content": " Tìm một người bạn mà mình tin tưởng để trút tâm sự, không nên chịu đựng một mình"
            },
            "replies": [
                {
                    "reply_content": "Ko còn thấy cuộc sống này tốt đẹp mà đầy rẫy những bất hạnh thì phải ls đây"
                }
            ]
        },
        {
            "parent_comment": {
                "parent_content": " Đừng để nỗi buồn phải chứa cả nỗi cô đơn"
            },
            "replies": [
                {
                    "reply_content": "Ko còn thấy cuộc sống này tốt đẹp mà đầy rẫy những bất hạnh thì phải ls đây"
                }
            ]
        },
        {
            "parent_comment": {
                "parent_content": "𝗧𝗮̂𝗺 𝗹𝘆́ 𝗵𝗼̣𝗰 𝗵𝗮̀𝗻𝗵 𝘃𝗶 - Cuốn sách giúp bạn thấu hiểu tâm lý chính mình và những người xung quanh "
            },
            "replies": [
                {
                    "reply_content": "Ko còn thấy cuộc sống này tốt đẹp mà đầy rẫy những bất hạnh thì phải ls đây"
                }
            ]
        },
        {
            "parent_comment": {
                "parent_content": " Tìm hiểu những hành vi tâm lý thú vị khác tại:"
            },
            "replies": [
                {
                    "reply_content": "Ko còn thấy cuộc sống này tốt đẹp mà đầy rẫy những bất hạnh thì phải ls đây"
                }
            ]
        },
        {
            "parent_comment": {
                "parent_content": "17 PHƯƠNG PHÁP CHỮA LÀNH MỆT MỎI, BẾ TẮC "
            },
            "replies": [
                {
                    "reply_content": "Chết cho nhanh"
                }
            ]
        },
        {
            "parent_comment": {
                "parent_content": " Tập trung vào cuộc sống của mình, bớt nhiều chuyện"
            },
            "replies": [
                {
                    "reply_content": "Chết cho nhanh"
                }
            ]
        },
        {
            "parent_comment": {
                "parent_content": " Không ai có quyền làm tổn thương bạn, nếu bạn ko cho phép"
            },
            "replies": [
                {
                    "reply_content": "Chết cho nhanh"
                }
            ]
        },
        {
            "parent_comment": {
                "parent_content": " Đừng cho ai có cơ hội làm tổn thương mình thêm lần nữa"
            },
            "replies": [
                {
                    "reply_content": "Chết cho nhanh"
                }
            ]
        },
        {
            "parent_comment": {
                "parent_content": " Hãy ăn thật ngon, thật sạch, gì thì gì bạn phải yêu chân thành cái bao tử của mình trước đã"
            },
            "replies": [
                {
                    "reply_content": "Chết cho nhanh"
                }
            ]
        },
        {
            "parent_comment": {
                "parent_content": " Tâm trạng không vui, đừng làm điều gì điên rồ, những trang sách sẽ khiến bạn bình tâm lại và sáng suốt hơn"
            },
            "replies": [
                {
                    "reply_content": "Chết cho nhanh"
                }
            ]
        },
        {
            "parent_comment": {
                "parent_content": " Nếu như cảm thấy đau đớn trong lòng, hãy tìm một góc riêng tư mà khóc"
            },
            "replies": [
                {
                    "reply_content": "Chết cho nhanh"
                }
            ]
        },
        {
            "parent_comment": {
                "parent_content": " Khóc rồi ngày mai lại vui vẻ tiếp tục sống cuộc sống của mình"
            },
            "replies": [
                {
                    "reply_content": "Chết cho nhanh"
                }
            ]
        },
        {
            "parent_comment": {
                "parent_content": " Duỗi người thật thoải mái cũng là cách để bản thân hạnh phúc"
            },
            "replies": [
                {
                    "reply_content": "Chết cho nhanh"
                }
            ]
        },
        {
            "parent_comment": {
                "parent_content": " Đừng có cười nhé! Những lần mệt mỏi, hãy cứ duỗi người hết cỡ, duỗi cả những đầu ngón tay và ngón chân nữa"
            },
            "replies": [
                {
                    "reply_content": "Chết cho nhanh"
                }
            ]
        },
        {
            "parent_comment": {
                "parent_content": " Dọn giường đi, dọn phòng luôn đi, rồi bạn sẽ cảm nhận được điều gì đó rất lạ, rất mới và rất thích"
            },
            "replies": [
                {
                    "reply_content": "Chết cho nhanh"
                }
            ]
        },
        {
            "parent_comment": {
                "parent_content": " Hãy trút hết ga trải giường vào máy giặt, thêm một muỗng nước xả thơm tho và cho quay đều tất cả"
            },
            "replies": [
                {
                    "reply_content": "Chết cho nhanh"
                }
            ]
        },
        {
            "parent_comment": {
                "parent_content": " Vứt hết những thứ không dùng nữa, lau chùi lại những cánh cửa và những tấm gương, rồi đốt thêm một ngọn nến thơm"
            },
            "replies": [
                {
                    "reply_content": "Chết cho nhanh"
                }
            ]
        },
        {
            "parent_comment": {
                "parent_content": " Bình thường tắm nửa tiếng thì hôm nay hãy tắm thật xa hoa, thật sạch sẽ"
            },
            "replies": [
                {
                    "reply_content": "Chết cho nhanh"
                }
            ]
        },
        {
            "parent_comment": {
                "parent_content": " Lâu lâu, hãy tự thưởng cho bản thân được thư giãn như thế nhé! Mở một bài hát bạn yêu thích,"
            },
            "replies": [
                {
                    "reply_content": "Chết cho nhanh"
                }
            ]
        },
        {
            "parent_comment": {
                "parent_content": " Mặc đồ thật thoải mái, đeo tai nghe và đi bộ"
            },
            "replies": [
                {
                    "reply_content": "Chết cho nhanh"
                }
            ]
        },
        {
            "parent_comment": {
                "parent_content": " Sẵn sàng mỉm cười với những người lạ ngược chiều và chờ xem có bao nhiêu người sẽ cười đáp trả bạn"
            },
            "replies": [
                {
                    "reply_content": "Chết cho nhanh"
                }
            ]
        },
        {
            "parent_comment": {
                "parent_content": " Nếu có cún, hãy dắt chúng theo nhé, ngồi quan sát chúng hoạt động sẽ giúp bạn học được cũng kha khá điều đấy"
            },
            "replies": [
                {
                    "reply_content": "Chết cho nhanh"
                }
            ]
        },
        {
            "parent_comment": {
                "parent_content": " Nếu không có ai bên cạnh, hãy thử một mình đọc sách, nghe nhạc, xem phim, chơi game, viết blog"
            },
            "replies": [
                {
                    "reply_content": "Chết cho nhanh"
                }
            ]
        },
        {
            "parent_comment": {
                "parent_content": " Hãy tập quen dần với chính bản thân mình"
            },
            "replies": [
                {
                    "reply_content": "Chết cho nhanh"
                }
            ]
        },
        {
            "parent_comment": {
                "parent_content": " Tìm một người bạn mà mình tin tưởng để trút tâm sự, không nên chịu đựng một mình"
            },
            "replies": [
                {
                    "reply_content": "Chết cho nhanh"
                }
            ]
        },
        {
            "parent_comment": {
                "parent_content": " Đừng để nỗi buồn phải chứa cả nỗi cô đơn"
            },
            "replies": [
                {
                    "reply_content": "Chết cho nhanh"
                }
            ]
        },
        {
            "parent_comment": {
                "parent_content": "𝗧𝗮̂𝗺 𝗹𝘆́ 𝗵𝗼̣𝗰 𝗵𝗮̀𝗻𝗵 𝘃𝗶 - Cuốn sách giúp bạn thấu hiểu tâm lý chính mình và những người xung quanh "
            },
            "replies": [
                {
                    "reply_content": "Chết cho nhanh"
                }
            ]
        },
        {
            "parent_comment": {
                "parent_content": " Tìm hiểu những hành vi tâm lý thú vị khác tại:"
            },
            "replies": [
                {
                    "reply_content": "Chết cho nhanh"
                }
            ]
        },
        {
            "parent_comment": {
                "parent_content": "17 PHƯƠNG PHÁP CHỮA LÀNH MỆT MỎI, BẾ TẮC "
            },
            "replies": [
                {
                    "reply_content": "đôi khi nói đọc sách để quên đi mệt mỏi nhưng khó lắm"
                }
            ]
        },
        {
            "parent_comment": {
                "parent_content": " Tập trung vào cuộc sống của mình, bớt nhiều chuyện"
            },
            "replies": [
                {
                    "reply_content": "đôi khi nói đọc sách để quên đi mệt mỏi nhưng khó lắm"
                }
            ]
        },
        {
            "parent_comment": {
                "parent_content": " Không ai có quyền làm tổn thương bạn, nếu bạn ko cho phép"
            },
            "replies": [
                {
                    "reply_content": "đôi khi nói đọc sách để quên đi mệt mỏi nhưng khó lắm"
                }
            ]
        },
        {
            "parent_comment": {
                "parent_content": " Đừng cho ai có cơ hội làm tổn thương mình thêm lần nữa"
            },
            "replies": [
                {
                    "reply_content": "đôi khi nói đọc sách để quên đi mệt mỏi nhưng khó lắm"
                }
            ]
        },
        {
            "parent_comment": {
                "parent_content": " Hãy ăn thật ngon, thật sạch, gì thì gì bạn phải yêu chân thành cái bao tử của mình trước đã"
            },
            "replies": [
                {
                    "reply_content": "đôi khi nói đọc sách để quên đi mệt mỏi nhưng khó lắm"
                }
            ]
        },
        {
            "parent_comment": {
                "parent_content": " Tâm trạng không vui, đừng làm điều gì điên rồ, những trang sách sẽ khiến bạn bình tâm lại và sáng suốt hơn"
            },
            "replies": [
                {
                    "reply_content": "đôi khi nói đọc sách để quên đi mệt mỏi nhưng khó lắm"
                }
            ]
        },
        {
            "parent_comment": {
                "parent_content": " Nếu như cảm thấy đau đớn trong lòng, hãy tìm một góc riêng tư mà khóc"
            },
            "replies": [
                {
                    "reply_content": "đôi khi nói đọc sách để quên đi mệt mỏi nhưng khó lắm"
                }
            ]
        },
        {
            "parent_comment": {
                "parent_content": " Khóc rồi ngày mai lại vui vẻ tiếp tục sống cuộc sống của mình"
            },
            "replies": [
                {
                    "reply_content": "đôi khi nói đọc sách để quên đi mệt mỏi nhưng khó lắm"
                }
            ]
        },
        {
            "parent_comment": {
                "parent_content": " Duỗi người thật thoải mái cũng là cách để bản thân hạnh phúc"
            },
            "replies": [
                {
                    "reply_content": "đôi khi nói đọc sách để quên đi mệt mỏi nhưng khó lắm"
                }
            ]
        },
        {
            "parent_comment": {
                "parent_content": " Đừng có cười nhé! Những lần mệt mỏi, hãy cứ duỗi người hết cỡ, duỗi cả những đầu ngón tay và ngón chân nữa"
            },
            "replies": [
                {
                    "reply_content": "đôi khi nói đọc sách để quên đi mệt mỏi nhưng khó lắm"
                }
            ]
        },
        {
            "parent_comment": {
                "parent_content": " Dọn giường đi, dọn phòng luôn đi, rồi bạn sẽ cảm nhận được điều gì đó rất lạ, rất mới và rất thích"
            },
            "replies": [
                {
                    "reply_content": "đôi khi nói đọc sách để quên đi mệt mỏi nhưng khó lắm"
                }
            ]
        },
        {
            "parent_comment": {
                "parent_content": " Hãy trút hết ga trải giường vào máy giặt, thêm một muỗng nước xả thơm tho và cho quay đều tất cả"
            },
            "replies": [
                {
                    "reply_content": "đôi khi nói đọc sách để quên đi mệt mỏi nhưng khó lắm"
                }
            ]
        },
        {
            "parent_comment": {
                "parent_content": " Vứt hết những thứ không dùng nữa, lau chùi lại những cánh cửa và những tấm gương, rồi đốt thêm một ngọn nến thơm"
            },
            "replies": [
                {
                    "reply_content": "đôi khi nói đọc sách để quên đi mệt mỏi nhưng khó lắm"
                }
            ]
        },
        {
            "parent_comment": {
                "parent_content": " Bình thường tắm nửa tiếng thì hôm nay hãy tắm thật xa hoa, thật sạch sẽ"
            },
            "replies": [
                {
                    "reply_content": "đôi khi nói đọc sách để quên đi mệt mỏi nhưng khó lắm"
                }
            ]
        },
        {
            "parent_comment": {
                "parent_content": " Lâu lâu, hãy tự thưởng cho bản thân được thư giãn như thế nhé! Mở một bài hát bạn yêu thích,"
            },
            "replies": [
                {
                    "reply_content": "đôi khi nói đọc sách để quên đi mệt mỏi nhưng khó lắm"
                }
            ]
        },
        {
            "parent_comment": {
                "parent_content": " Mặc đồ thật thoải mái, đeo tai nghe và đi bộ"
            },
            "replies": [
                {
                    "reply_content": "đôi khi nói đọc sách để quên đi mệt mỏi nhưng khó lắm"
                }
            ]
        },
        {
            "parent_comment": {
                "parent_content": " Sẵn sàng mỉm cười với những người lạ ngược chiều và chờ xem có bao nhiêu người sẽ cười đáp trả bạn"
            },
            "replies": [
                {
                    "reply_content": "đôi khi nói đọc sách để quên đi mệt mỏi nhưng khó lắm"
                }
            ]
        },
        {
            "parent_comment": {
                "parent_content": " Nếu có cún, hãy dắt chúng theo nhé, ngồi quan sát chúng hoạt động sẽ giúp bạn học được cũng kha khá điều đấy"
            },
            "replies": [
                {
                    "reply_content": "đôi khi nói đọc sách để quên đi mệt mỏi nhưng khó lắm"
                }
            ]
        },
        {
            "parent_comment": {
                "parent_content": " Nếu không có ai bên cạnh, hãy thử một mình đọc sách, nghe nhạc, xem phim, chơi game, viết blog"
            },
            "replies": [
                {
                    "reply_content": "đôi khi nói đọc sách để quên đi mệt mỏi nhưng khó lắm"
                }
            ]
        },
        {
            "parent_comment": {
                "parent_content": " Hãy tập quen dần với chính bản thân mình"
            },
            "replies": [
                {
                    "reply_content": "đôi khi nói đọc sách để quên đi mệt mỏi nhưng khó lắm"
                }
            ]
        },
        {
            "parent_comment": {
                "parent_content": " Tìm một người bạn mà mình tin tưởng để trút tâm sự, không nên chịu đựng một mình"
            },
            "replies": [
                {
                    "reply_content": "đôi khi nói đọc sách để quên đi mệt mỏi nhưng khó lắm"
                }
            ]
        },
        {
            "parent_comment": {
                "parent_content": " Đừng để nỗi buồn phải chứa cả nỗi cô đơn"
            },
            "replies": [
                {
                    "reply_content": "đôi khi nói đọc sách để quên đi mệt mỏi nhưng khó lắm"
                }
            ]
        },
        {
            "parent_comment": {
                "parent_content": "𝗧𝗮̂𝗺 𝗹𝘆́ 𝗵𝗼̣𝗰 𝗵𝗮̀𝗻𝗵 𝘃𝗶 - Cuốn sách giúp bạn thấu hiểu tâm lý chính mình và những người xung quanh "
            },
            "replies": [
                {
                    "reply_content": "đôi khi nói đọc sách để quên đi mệt mỏi nhưng khó lắm"
                }
            ]
        },
        {
            "parent_comment": {
                "parent_content": " Tìm hiểu những hành vi tâm lý thú vị khác tại:"
            },
            "replies": [
                {
                    "reply_content": "đôi khi nói đọc sách để quên đi mệt mỏi nhưng khó lắm"
                }
            ]
        }
    ]
}