{
    "post": "2772405279662194",
    "link": "https://facebook.com/groups/dongdangtramcam/permalink/2772405279662194",
    "post_comments": [
        {
            "parent_comment": {
                "parent_content": "Có ai lâm vào hoàn cảnh như mình không! "
            },
            "replies": [
                {
                    "reply_content": "Cái này bạn phải tự hỏi bản thân bạn. Người ngoài không trả lời được đâu. Nếu bạn cảm thấy không còn lý do để tiếp tục tồn tại thì thôi dừng lại, còn nếu bạn vẫn muốn được sống và thay đổi tốt hơn thì phải tự vực dậy bản thân mình. "
                }
            ]
        },
        {
            "parent_comment": {
                "parent_content": "Bệnh: mà không được người nhà cảm thông, mà họ còn nói mình giở trò- cho là mình làm bộ hù dọa"
            },
            "replies": [
                {
                    "reply_content": "Cái này bạn phải tự hỏi bản thân bạn. Người ngoài không trả lời được đâu. Nếu bạn cảm thấy không còn lý do để tiếp tục tồn tại thì thôi dừng lại, còn nếu bạn vẫn muốn được sống và thay đổi tốt hơn thì phải tự vực dậy bản thân mình. "
                }
            ]
        },
        {
            "parent_comment": {
                "parent_content": " Mình đã bỏ nhà đi hôm qua nhưng"
            },
            "replies": [
                {
                    "reply_content": "Cái này bạn phải tự hỏi bản thân bạn. Người ngoài không trả lời được đâu. Nếu bạn cảm thấy không còn lý do để tiếp tục tồn tại thì thôi dừng lại, còn nếu bạn vẫn muốn được sống và thay đổi tốt hơn thì phải tự vực dậy bản thân mình. "
                }
            ]
        },
        {
            "parent_comment": {
                "parent_content": "Còn cố gắng nổi không, gắn gượng nổi không khi người thương yêu nhất mà đối xử vời minh như thế!"
            },
            "replies": [
                {
                    "reply_content": "Cái này bạn phải tự hỏi bản thân bạn. Người ngoài không trả lời được đâu. Nếu bạn cảm thấy không còn lý do để tiếp tục tồn tại thì thôi dừng lại, còn nếu bạn vẫn muốn được sống và thay đổi tốt hơn thì phải tự vực dậy bản thân mình. "
                }
            ]
        },
        {
            "parent_comment": {
                "parent_content": "Có ai lâm vào hoàn cảnh như mình không! "
            },
            "replies": [
                {
                    "reply_content": "Ai rồi cũng trải qua cái giai đoạn đen tối đấy, cố lên nhé! "
                }
            ]
        },
        {
            "parent_comment": {
                "parent_content": "Bệnh: mà không được người nhà cảm thông, mà họ còn nói mình giở trò- cho là mình làm bộ hù dọa"
            },
            "replies": [
                {
                    "reply_content": "Ai rồi cũng trải qua cái giai đoạn đen tối đấy, cố lên nhé! "
                }
            ]
        },
        {
            "parent_comment": {
                "parent_content": " Mình đã bỏ nhà đi hôm qua nhưng"
            },
            "replies": [
                {
                    "reply_content": "Ai rồi cũng trải qua cái giai đoạn đen tối đấy, cố lên nhé! "
                }
            ]
        },
        {
            "parent_comment": {
                "parent_content": "Còn cố gắng nổi không, gắn gượng nổi không khi người thương yêu nhất mà đối xử vời minh như thế!"
            },
            "replies": [
                {
                    "reply_content": "Ai rồi cũng trải qua cái giai đoạn đen tối đấy, cố lên nhé! "
                }
            ]
        },
        {
            "parent_comment": {
                "parent_content": "Có ai lâm vào hoàn cảnh như mình không! "
            },
            "replies": [
                {
                    "reply_content": "Cố lên bạn à. Tôi còn ở hòn cảnh tồi tệ hơn bạn nhưng vẫn phải cố gắng tiếp tục sống này"
                }
            ]
        },
        {
            "parent_comment": {
                "parent_content": "Bệnh: mà không được người nhà cảm thông, mà họ còn nói mình giở trò- cho là mình làm bộ hù dọa"
            },
            "replies": [
                {
                    "reply_content": "Cố lên bạn à. Tôi còn ở hòn cảnh tồi tệ hơn bạn nhưng vẫn phải cố gắng tiếp tục sống này"
                }
            ]
        },
        {
            "parent_comment": {
                "parent_content": " Mình đã bỏ nhà đi hôm qua nhưng"
            },
            "replies": [
                {
                    "reply_content": "Cố lên bạn à. Tôi còn ở hòn cảnh tồi tệ hơn bạn nhưng vẫn phải cố gắng tiếp tục sống này"
                }
            ]
        },
        {
            "parent_comment": {
                "parent_content": "Còn cố gắng nổi không, gắn gượng nổi không khi người thương yêu nhất mà đối xử vời minh như thế!"
            },
            "replies": [
                {
                    "reply_content": "Cố lên bạn à. Tôi còn ở hòn cảnh tồi tệ hơn bạn nhưng vẫn phải cố gắng tiếp tục sống này"
                }
            ]
        },
        {
            "parent_comment": {
                "parent_content": "Có ai lâm vào hoàn cảnh như mình không! "
            },
            "replies": [
                {
                    "reply_content": "thông cảm gì  mình  bệnh  Minh  tự  biết  họ  sống  cho mình  đâu  kệ"
                }
            ]
        },
        {
            "parent_comment": {
                "parent_content": "Bệnh: mà không được người nhà cảm thông, mà họ còn nói mình giở trò- cho là mình làm bộ hù dọa"
            },
            "replies": [
                {
                    "reply_content": "thông cảm gì  mình  bệnh  Minh  tự  biết  họ  sống  cho mình  đâu  kệ"
                }
            ]
        },
        {
            "parent_comment": {
                "parent_content": " Mình đã bỏ nhà đi hôm qua nhưng"
            },
            "replies": [
                {
                    "reply_content": "thông cảm gì  mình  bệnh  Minh  tự  biết  họ  sống  cho mình  đâu  kệ"
                }
            ]
        },
        {
            "parent_comment": {
                "parent_content": "Còn cố gắng nổi không, gắn gượng nổi không khi người thương yêu nhất mà đối xử vời minh như thế!"
            },
            "replies": [
                {
                    "reply_content": "thông cảm gì  mình  bệnh  Minh  tự  biết  họ  sống  cho mình  đâu  kệ"
                }
            ]
        },
        {
            "parent_comment": {
                "parent_content": "Có ai lâm vào hoàn cảnh như mình không! "
            },
            "replies": [
                {
                    "reply_content": "Co len chi nhe, e cung nhu chi ne, co gag vuot qua nha c"
                }
            ]
        },
        {
            "parent_comment": {
                "parent_content": "Bệnh: mà không được người nhà cảm thông, mà họ còn nói mình giở trò- cho là mình làm bộ hù dọa"
            },
            "replies": [
                {
                    "reply_content": "Co len chi nhe, e cung nhu chi ne, co gag vuot qua nha c"
                }
            ]
        },
        {
            "parent_comment": {
                "parent_content": " Mình đã bỏ nhà đi hôm qua nhưng"
            },
            "replies": [
                {
                    "reply_content": "Co len chi nhe, e cung nhu chi ne, co gag vuot qua nha c"
                }
            ]
        },
        {
            "parent_comment": {
                "parent_content": "Còn cố gắng nổi không, gắn gượng nổi không khi người thương yêu nhất mà đối xử vời minh như thế!"
            },
            "replies": [
                {
                    "reply_content": "Co len chi nhe, e cung nhu chi ne, co gag vuot qua nha c"
                }
            ]
        },
        {
            "parent_comment": {
                "parent_content": "Có ai lâm vào hoàn cảnh như mình không! "
            },
            "replies": [
                {
                    "reply_content": "Đa số mn đều bị đối xử vậy thôi bạn ơi, đừng buồn nếu gd như thế thì cứ bơ đi mà sống"
                }
            ]
        },
        {
            "parent_comment": {
                "parent_content": "Bệnh: mà không được người nhà cảm thông, mà họ còn nói mình giở trò- cho là mình làm bộ hù dọa"
            },
            "replies": [
                {
                    "reply_content": "Đa số mn đều bị đối xử vậy thôi bạn ơi, đừng buồn nếu gd như thế thì cứ bơ đi mà sống"
                }
            ]
        },
        {
            "parent_comment": {
                "parent_content": " Mình đã bỏ nhà đi hôm qua nhưng"
            },
            "replies": [
                {
                    "reply_content": "Đa số mn đều bị đối xử vậy thôi bạn ơi, đừng buồn nếu gd như thế thì cứ bơ đi mà sống"
                }
            ]
        },
        {
            "parent_comment": {
                "parent_content": "Còn cố gắng nổi không, gắn gượng nổi không khi người thương yêu nhất mà đối xử vời minh như thế!"
            },
            "replies": [
                {
                    "reply_content": "Đa số mn đều bị đối xử vậy thôi bạn ơi, đừng buồn nếu gd như thế thì cứ bơ đi mà sống"
                }
            ]
        },
        {
            "parent_comment": {
                "parent_content": "Có ai lâm vào hoàn cảnh như mình không! "
            },
            "replies": [
                {
                    "reply_content": "mình cũng như bạn ,mình bắt xe vào sài gòn rồi lại từ sài gòn bắt xe về ,sau đó đi bộ một vòng quanh thành phố rồi đi về nhà bạn ạ"
                }
            ]
        },
        {
            "parent_comment": {
                "parent_content": "Bệnh: mà không được người nhà cảm thông, mà họ còn nói mình giở trò- cho là mình làm bộ hù dọa"
            },
            "replies": [
                {
                    "reply_content": "mình cũng như bạn ,mình bắt xe vào sài gòn rồi lại từ sài gòn bắt xe về ,sau đó đi bộ một vòng quanh thành phố rồi đi về nhà bạn ạ"
                }
            ]
        },
        {
            "parent_comment": {
                "parent_content": " Mình đã bỏ nhà đi hôm qua nhưng"
            },
            "replies": [
                {
                    "reply_content": "mình cũng như bạn ,mình bắt xe vào sài gòn rồi lại từ sài gòn bắt xe về ,sau đó đi bộ một vòng quanh thành phố rồi đi về nhà bạn ạ"
                }
            ]
        },
        {
            "parent_comment": {
                "parent_content": "Còn cố gắng nổi không, gắn gượng nổi không khi người thương yêu nhất mà đối xử vời minh như thế!"
            },
            "replies": [
                {
                    "reply_content": "mình cũng như bạn ,mình bắt xe vào sài gòn rồi lại từ sài gòn bắt xe về ,sau đó đi bộ một vòng quanh thành phố rồi đi về nhà bạn ạ"
                }
            ]
        },
        {
            "parent_comment": {
                "parent_content": "Có ai lâm vào hoàn cảnh như mình không! "
            },
            "replies": [
                {
                    "reply_content": "https://youtu.be/DQ_f2CuI_zg bạn vào nghe video này nhé"
                }
            ]
        },
        {
            "parent_comment": {
                "parent_content": "Bệnh: mà không được người nhà cảm thông, mà họ còn nói mình giở trò- cho là mình làm bộ hù dọa"
            },
            "replies": [
                {
                    "reply_content": "https://youtu.be/DQ_f2CuI_zg bạn vào nghe video này nhé"
                }
            ]
        },
        {
            "parent_comment": {
                "parent_content": " Mình đã bỏ nhà đi hôm qua nhưng"
            },
            "replies": [
                {
                    "reply_content": "https://youtu.be/DQ_f2CuI_zg bạn vào nghe video này nhé"
                }
            ]
        },
        {
            "parent_comment": {
                "parent_content": "Còn cố gắng nổi không, gắn gượng nổi không khi người thương yêu nhất mà đối xử vời minh như thế!"
            },
            "replies": [
                {
                    "reply_content": "https://youtu.be/DQ_f2CuI_zg bạn vào nghe video này nhé"
                }
            ]
        },
        {
            "parent_comment": {
                "parent_content": "Có ai lâm vào hoàn cảnh như mình không! "
            },
            "replies": [
                {
                    "reply_content": "Bỏ đi dù sao cũng kh ai hỉu nổi tôi từng như vậy nhiều người khác vẫn vậy .  Hãy sống mạnh mẽ tự lập tự vươn lên sau này sẽ khác"
                }
            ]
        },
        {
            "parent_comment": {
                "parent_content": "Bệnh: mà không được người nhà cảm thông, mà họ còn nói mình giở trò- cho là mình làm bộ hù dọa"
            },
            "replies": [
                {
                    "reply_content": "Bỏ đi dù sao cũng kh ai hỉu nổi tôi từng như vậy nhiều người khác vẫn vậy .  Hãy sống mạnh mẽ tự lập tự vươn lên sau này sẽ khác"
                }
            ]
        },
        {
            "parent_comment": {
                "parent_content": " Mình đã bỏ nhà đi hôm qua nhưng"
            },
            "replies": [
                {
                    "reply_content": "Bỏ đi dù sao cũng kh ai hỉu nổi tôi từng như vậy nhiều người khác vẫn vậy .  Hãy sống mạnh mẽ tự lập tự vươn lên sau này sẽ khác"
                }
            ]
        },
        {
            "parent_comment": {
                "parent_content": "Còn cố gắng nổi không, gắn gượng nổi không khi người thương yêu nhất mà đối xử vời minh như thế!"
            },
            "replies": [
                {
                    "reply_content": "Bỏ đi dù sao cũng kh ai hỉu nổi tôi từng như vậy nhiều người khác vẫn vậy .  Hãy sống mạnh mẽ tự lập tự vươn lên sau này sẽ khác"
                }
            ]
        },
        {
            "parent_comment": {
                "parent_content": "Có ai lâm vào hoàn cảnh như mình không! "
            },
            "replies": [
                {
                    "reply_content": "Em bị cũng người nhà nói như v "
                }
            ]
        },
        {
            "parent_comment": {
                "parent_content": "Bệnh: mà không được người nhà cảm thông, mà họ còn nói mình giở trò- cho là mình làm bộ hù dọa"
            },
            "replies": [
                {
                    "reply_content": "Em bị cũng người nhà nói như v "
                }
            ]
        },
        {
            "parent_comment": {
                "parent_content": " Mình đã bỏ nhà đi hôm qua nhưng"
            },
            "replies": [
                {
                    "reply_content": "Em bị cũng người nhà nói như v "
                }
            ]
        },
        {
            "parent_comment": {
                "parent_content": "Còn cố gắng nổi không, gắn gượng nổi không khi người thương yêu nhất mà đối xử vời minh như thế!"
            },
            "replies": [
                {
                    "reply_content": "Em bị cũng người nhà nói như v "
                }
            ]
        },
        {
            "parent_comment": {
                "parent_content": "Có ai lâm vào hoàn cảnh như mình không! "
            },
            "replies": [
                {
                    "reply_content": "Mình cũng vậy"
                }
            ]
        },
        {
            "parent_comment": {
                "parent_content": "Bệnh: mà không được người nhà cảm thông, mà họ còn nói mình giở trò- cho là mình làm bộ hù dọa"
            },
            "replies": [
                {
                    "reply_content": "Mình cũng vậy"
                }
            ]
        },
        {
            "parent_comment": {
                "parent_content": " Mình đã bỏ nhà đi hôm qua nhưng"
            },
            "replies": [
                {
                    "reply_content": "Mình cũng vậy"
                }
            ]
        },
        {
            "parent_comment": {
                "parent_content": "Còn cố gắng nổi không, gắn gượng nổi không khi người thương yêu nhất mà đối xử vời minh như thế!"
            },
            "replies": [
                {
                    "reply_content": "Mình cũng vậy"
                }
            ]
        }
    ]
}