{
    "post": "2909542792615108",
    "link": "https://facebook.com/groups/dongdangtramcam/permalink/2909542792615108",
    "post_comments": [
        {
            "parent_comment": {
                "parent_content": "  Mình đang rơi vào khủng hoảng trầm trọng lắm rồi"
            },
            "replies": [
                {
                    "reply_content": "V cũng áp lực hả"
                }
            ]
        },
        {
            "parent_comment": {
                "parent_content": " Một người yêu mình rồi ngộ nhận là mình cũng yêu họ, ngày nào cũng kè kè đi theo mình, đứng trước cửa nhà mình,  khóc lóc van xin mình, xong bg ép buộc mình phải yêu người  đó"
            },
            "replies": [
                {
                    "reply_content": "V cũng áp lực hả"
                }
            ]
        },
        {
            "parent_comment": {
                "parent_content": "Mà mình lại  ko có một chút cảm xúc này với người đó"
            },
            "replies": [
                {
                    "reply_content": "V cũng áp lực hả"
                }
            ]
        },
        {
            "parent_comment": {
                "parent_content": "T và bạn ấy chưa có gì quá giới hạn cả"
            },
            "replies": [
                {
                    "reply_content": "V cũng áp lực hả"
                }
            ]
        },
        {
            "parent_comment": {
                "parent_content": "  Mình đang rơi vào khủng hoảng trầm trọng lắm rồi"
            },
            "replies": [
                {
                    "reply_content": "Vậy bạn từng thẳng thắng với ng ta chưa???"
                }
            ]
        },
        {
            "parent_comment": {
                "parent_content": " Một người yêu mình rồi ngộ nhận là mình cũng yêu họ, ngày nào cũng kè kè đi theo mình, đứng trước cửa nhà mình,  khóc lóc van xin mình, xong bg ép buộc mình phải yêu người  đó"
            },
            "replies": [
                {
                    "reply_content": "Vậy bạn từng thẳng thắng với ng ta chưa???"
                }
            ]
        },
        {
            "parent_comment": {
                "parent_content": "Mà mình lại  ko có một chút cảm xúc này với người đó"
            },
            "replies": [
                {
                    "reply_content": "Vậy bạn từng thẳng thắng với ng ta chưa???"
                }
            ]
        },
        {
            "parent_comment": {
                "parent_content": "T và bạn ấy chưa có gì quá giới hạn cả"
            },
            "replies": [
                {
                    "reply_content": "Vậy bạn từng thẳng thắng với ng ta chưa???"
                }
            ]
        },
        {
            "parent_comment": {
                "parent_content": "  Mình đang rơi vào khủng hoảng trầm trọng lắm rồi"
            },
            "replies": [
                {
                    "reply_content": "Có thế cũng trầm cảm được ha"
                }
            ]
        },
        {
            "parent_comment": {
                "parent_content": " Một người yêu mình rồi ngộ nhận là mình cũng yêu họ, ngày nào cũng kè kè đi theo mình, đứng trước cửa nhà mình,  khóc lóc van xin mình, xong bg ép buộc mình phải yêu người  đó"
            },
            "replies": [
                {
                    "reply_content": "Có thế cũng trầm cảm được ha"
                }
            ]
        },
        {
            "parent_comment": {
                "parent_content": "Mà mình lại  ko có một chút cảm xúc này với người đó"
            },
            "replies": [
                {
                    "reply_content": "Có thế cũng trầm cảm được ha"
                }
            ]
        },
        {
            "parent_comment": {
                "parent_content": "T và bạn ấy chưa có gì quá giới hạn cả"
            },
            "replies": [
                {
                    "reply_content": "Có thế cũng trầm cảm được ha"
                }
            ]
        },
        {
            "parent_comment": {
                "parent_content": "  Mình đang rơi vào khủng hoảng trầm trọng lắm rồi"
            },
            "replies": [
                {
                    "reply_content": "Con trai ko có cái mồm ak , nói ko nghe chửi lun bạn ạ , mạnh mẽ dứt khoát lên , hơi đâu mà tốn thời gian với mấy người này , sống là để hưởng thụ chứ ko phải chịu đựng "
                }
            ]
        },
        {
            "parent_comment": {
                "parent_content": " Một người yêu mình rồi ngộ nhận là mình cũng yêu họ, ngày nào cũng kè kè đi theo mình, đứng trước cửa nhà mình,  khóc lóc van xin mình, xong bg ép buộc mình phải yêu người  đó"
            },
            "replies": [
                {
                    "reply_content": "Con trai ko có cái mồm ak , nói ko nghe chửi lun bạn ạ , mạnh mẽ dứt khoát lên , hơi đâu mà tốn thời gian với mấy người này , sống là để hưởng thụ chứ ko phải chịu đựng "
                }
            ]
        },
        {
            "parent_comment": {
                "parent_content": "Mà mình lại  ko có một chút cảm xúc này với người đó"
            },
            "replies": [
                {
                    "reply_content": "Con trai ko có cái mồm ak , nói ko nghe chửi lun bạn ạ , mạnh mẽ dứt khoát lên , hơi đâu mà tốn thời gian với mấy người này , sống là để hưởng thụ chứ ko phải chịu đựng "
                }
            ]
        },
        {
            "parent_comment": {
                "parent_content": "T và bạn ấy chưa có gì quá giới hạn cả"
            },
            "replies": [
                {
                    "reply_content": "Con trai ko có cái mồm ak , nói ko nghe chửi lun bạn ạ , mạnh mẽ dứt khoát lên , hơi đâu mà tốn thời gian với mấy người này , sống là để hưởng thụ chứ ko phải chịu đựng "
                }
            ]
        },
        {
            "parent_comment": {
                "parent_content": "  Mình đang rơi vào khủng hoảng trầm trọng lắm rồi"
            },
            "replies": [
                {
                    "reply_content": "Thế chắc rủ bạn ấy đó cùng tham gia group đi bạn. Chắc tình trạng nó lại nặng hơn bạn có khi"
                }
            ]
        },
        {
            "parent_comment": {
                "parent_content": " Một người yêu mình rồi ngộ nhận là mình cũng yêu họ, ngày nào cũng kè kè đi theo mình, đứng trước cửa nhà mình,  khóc lóc van xin mình, xong bg ép buộc mình phải yêu người  đó"
            },
            "replies": [
                {
                    "reply_content": "Thế chắc rủ bạn ấy đó cùng tham gia group đi bạn. Chắc tình trạng nó lại nặng hơn bạn có khi"
                }
            ]
        },
        {
            "parent_comment": {
                "parent_content": "Mà mình lại  ko có một chút cảm xúc này với người đó"
            },
            "replies": [
                {
                    "reply_content": "Thế chắc rủ bạn ấy đó cùng tham gia group đi bạn. Chắc tình trạng nó lại nặng hơn bạn có khi"
                }
            ]
        },
        {
            "parent_comment": {
                "parent_content": "T và bạn ấy chưa có gì quá giới hạn cả"
            },
            "replies": [
                {
                    "reply_content": "Thế chắc rủ bạn ấy đó cùng tham gia group đi bạn. Chắc tình trạng nó lại nặng hơn bạn có khi"
                }
            ]
        },
        {
            "parent_comment": {
                "parent_content": "  Mình đang rơi vào khủng hoảng trầm trọng lắm rồi"
            },
            "replies": [
                {
                    "reply_content": "Ca này hơi khó nhường các đồng chí sau "
                }
            ]
        },
        {
            "parent_comment": {
                "parent_content": " Một người yêu mình rồi ngộ nhận là mình cũng yêu họ, ngày nào cũng kè kè đi theo mình, đứng trước cửa nhà mình,  khóc lóc van xin mình, xong bg ép buộc mình phải yêu người  đó"
            },
            "replies": [
                {
                    "reply_content": "Ca này hơi khó nhường các đồng chí sau "
                }
            ]
        },
        {
            "parent_comment": {
                "parent_content": "Mà mình lại  ko có một chút cảm xúc này với người đó"
            },
            "replies": [
                {
                    "reply_content": "Ca này hơi khó nhường các đồng chí sau "
                }
            ]
        },
        {
            "parent_comment": {
                "parent_content": "T và bạn ấy chưa có gì quá giới hạn cả"
            },
            "replies": [
                {
                    "reply_content": "Ca này hơi khó nhường các đồng chí sau "
                }
            ]
        },
        {
            "parent_comment": {
                "parent_content": "  Mình đang rơi vào khủng hoảng trầm trọng lắm rồi"
            },
            "replies": [
                {
                    "reply_content": "Có gái theo là may lm rồi."
                }
            ]
        },
        {
            "parent_comment": {
                "parent_content": " Một người yêu mình rồi ngộ nhận là mình cũng yêu họ, ngày nào cũng kè kè đi theo mình, đứng trước cửa nhà mình,  khóc lóc van xin mình, xong bg ép buộc mình phải yêu người  đó"
            },
            "replies": [
                {
                    "reply_content": "Có gái theo là may lm rồi."
                }
            ]
        },
        {
            "parent_comment": {
                "parent_content": "Mà mình lại  ko có một chút cảm xúc này với người đó"
            },
            "replies": [
                {
                    "reply_content": "Có gái theo là may lm rồi."
                }
            ]
        },
        {
            "parent_comment": {
                "parent_content": "T và bạn ấy chưa có gì quá giới hạn cả"
            },
            "replies": [
                {
                    "reply_content": "Có gái theo là may lm rồi."
                }
            ]
        },
        {
            "parent_comment": {
                "parent_content": "  Mình đang rơi vào khủng hoảng trầm trọng lắm rồi"
            },
            "replies": [
                {
                    "reply_content": "bạn có ny đi"
                }
            ]
        },
        {
            "parent_comment": {
                "parent_content": " Một người yêu mình rồi ngộ nhận là mình cũng yêu họ, ngày nào cũng kè kè đi theo mình, đứng trước cửa nhà mình,  khóc lóc van xin mình, xong bg ép buộc mình phải yêu người  đó"
            },
            "replies": [
                {
                    "reply_content": "bạn có ny đi"
                }
            ]
        },
        {
            "parent_comment": {
                "parent_content": "Mà mình lại  ko có một chút cảm xúc này với người đó"
            },
            "replies": [
                {
                    "reply_content": "bạn có ny đi"
                }
            ]
        },
        {
            "parent_comment": {
                "parent_content": "T và bạn ấy chưa có gì quá giới hạn cả"
            },
            "replies": [
                {
                    "reply_content": "bạn có ny đi"
                }
            ]
        },
        {
            "parent_comment": {
                "parent_content": "  Mình đang rơi vào khủng hoảng trầm trọng lắm rồi"
            },
            "replies": [
                {
                    "reply_content": "Phải tôi,tôi húp sạch k còn giọt nào Lí do trầm cảm là bị gái theo đuổi,mới thấy lần đầu"
                }
            ]
        },
        {
            "parent_comment": {
                "parent_content": " Một người yêu mình rồi ngộ nhận là mình cũng yêu họ, ngày nào cũng kè kè đi theo mình, đứng trước cửa nhà mình,  khóc lóc van xin mình, xong bg ép buộc mình phải yêu người  đó"
            },
            "replies": [
                {
                    "reply_content": "Phải tôi,tôi húp sạch k còn giọt nào Lí do trầm cảm là bị gái theo đuổi,mới thấy lần đầu"
                }
            ]
        },
        {
            "parent_comment": {
                "parent_content": "Mà mình lại  ko có một chút cảm xúc này với người đó"
            },
            "replies": [
                {
                    "reply_content": "Phải tôi,tôi húp sạch k còn giọt nào Lí do trầm cảm là bị gái theo đuổi,mới thấy lần đầu"
                }
            ]
        },
        {
            "parent_comment": {
                "parent_content": "T và bạn ấy chưa có gì quá giới hạn cả"
            },
            "replies": [
                {
                    "reply_content": "Phải tôi,tôi húp sạch k còn giọt nào Lí do trầm cảm là bị gái theo đuổi,mới thấy lần đầu"
                }
            ]
        },
        {
            "parent_comment": {
                "parent_content": "  Mình đang rơi vào khủng hoảng trầm trọng lắm rồi"
            },
            "replies": [
                {
                    "reply_content": "Đuổi thẳng cổ"
                }
            ]
        },
        {
            "parent_comment": {
                "parent_content": " Một người yêu mình rồi ngộ nhận là mình cũng yêu họ, ngày nào cũng kè kè đi theo mình, đứng trước cửa nhà mình,  khóc lóc van xin mình, xong bg ép buộc mình phải yêu người  đó"
            },
            "replies": [
                {
                    "reply_content": "Đuổi thẳng cổ"
                }
            ]
        },
        {
            "parent_comment": {
                "parent_content": "Mà mình lại  ko có một chút cảm xúc này với người đó"
            },
            "replies": [
                {
                    "reply_content": "Đuổi thẳng cổ"
                }
            ]
        },
        {
            "parent_comment": {
                "parent_content": "T và bạn ấy chưa có gì quá giới hạn cả"
            },
            "replies": [
                {
                    "reply_content": "Đuổi thẳng cổ"
                }
            ]
        },
        {
            "parent_comment": {
                "parent_content": "  Mình đang rơi vào khủng hoảng trầm trọng lắm rồi"
            },
            "replies": [
                {
                    "reply_content": "Bạn quyết ko nhận, tuỳ vào độ vững chắc của bạn thôi "
                }
            ]
        },
        {
            "parent_comment": {
                "parent_content": " Một người yêu mình rồi ngộ nhận là mình cũng yêu họ, ngày nào cũng kè kè đi theo mình, đứng trước cửa nhà mình,  khóc lóc van xin mình, xong bg ép buộc mình phải yêu người  đó"
            },
            "replies": [
                {
                    "reply_content": "Bạn quyết ko nhận, tuỳ vào độ vững chắc của bạn thôi "
                }
            ]
        },
        {
            "parent_comment": {
                "parent_content": "Mà mình lại  ko có một chút cảm xúc này với người đó"
            },
            "replies": [
                {
                    "reply_content": "Bạn quyết ko nhận, tuỳ vào độ vững chắc của bạn thôi "
                }
            ]
        },
        {
            "parent_comment": {
                "parent_content": "T và bạn ấy chưa có gì quá giới hạn cả"
            },
            "replies": [
                {
                    "reply_content": "Bạn quyết ko nhận, tuỳ vào độ vững chắc của bạn thôi "
                }
            ]
        },
        {
            "parent_comment": {
                "parent_content": "  Mình đang rơi vào khủng hoảng trầm trọng lắm rồi"
            },
            "replies": [
                {
                    "reply_content": "trc mình cũng có ông anh bị như vầy, cứ dứt khoát ko đc cho lên phường luôn vì tội cố ý xâm phạm đời sống riêng tư của người khác  trc ông anh mình còn có ngy rồi mà vẫn bị con bé đó đeo bám, còn nhắn tin kêu là ko thích nhìn thấy anh ý đi với ngy =))"
                }
            ]
        },
        {
            "parent_comment": {
                "parent_content": " Một người yêu mình rồi ngộ nhận là mình cũng yêu họ, ngày nào cũng kè kè đi theo mình, đứng trước cửa nhà mình,  khóc lóc van xin mình, xong bg ép buộc mình phải yêu người  đó"
            },
            "replies": [
                {
                    "reply_content": "trc mình cũng có ông anh bị như vầy, cứ dứt khoát ko đc cho lên phường luôn vì tội cố ý xâm phạm đời sống riêng tư của người khác  trc ông anh mình còn có ngy rồi mà vẫn bị con bé đó đeo bám, còn nhắn tin kêu là ko thích nhìn thấy anh ý đi với ngy =))"
                }
            ]
        },
        {
            "parent_comment": {
                "parent_content": "Mà mình lại  ko có một chút cảm xúc này với người đó"
            },
            "replies": [
                {
                    "reply_content": "trc mình cũng có ông anh bị như vầy, cứ dứt khoát ko đc cho lên phường luôn vì tội cố ý xâm phạm đời sống riêng tư của người khác  trc ông anh mình còn có ngy rồi mà vẫn bị con bé đó đeo bám, còn nhắn tin kêu là ko thích nhìn thấy anh ý đi với ngy =))"
                }
            ]
        },
        {
            "parent_comment": {
                "parent_content": "T và bạn ấy chưa có gì quá giới hạn cả"
            },
            "replies": [
                {
                    "reply_content": "trc mình cũng có ông anh bị như vầy, cứ dứt khoát ko đc cho lên phường luôn vì tội cố ý xâm phạm đời sống riêng tư của người khác  trc ông anh mình còn có ngy rồi mà vẫn bị con bé đó đeo bám, còn nhắn tin kêu là ko thích nhìn thấy anh ý đi với ngy =))"
                }
            ]
        },
        {
            "parent_comment": {
                "parent_content": "  Mình đang rơi vào khủng hoảng trầm trọng lắm rồi"
            },
            "replies": [
                {
                    "reply_content": "Chắc bạn có hành vi, lời nói khiến ngta hiểu nhầm nên mới lầm tưởng, vậy bạn phải nói rõ ràng, dứt khoát, ko nhân nhượng nhất định bạn ấy sẽ hiểu ra."
                }
            ]
        },
        {
            "parent_comment": {
                "parent_content": " Một người yêu mình rồi ngộ nhận là mình cũng yêu họ, ngày nào cũng kè kè đi theo mình, đứng trước cửa nhà mình,  khóc lóc van xin mình, xong bg ép buộc mình phải yêu người  đó"
            },
            "replies": [
                {
                    "reply_content": "Chắc bạn có hành vi, lời nói khiến ngta hiểu nhầm nên mới lầm tưởng, vậy bạn phải nói rõ ràng, dứt khoát, ko nhân nhượng nhất định bạn ấy sẽ hiểu ra."
                }
            ]
        },
        {
            "parent_comment": {
                "parent_content": "Mà mình lại  ko có một chút cảm xúc này với người đó"
            },
            "replies": [
                {
                    "reply_content": "Chắc bạn có hành vi, lời nói khiến ngta hiểu nhầm nên mới lầm tưởng, vậy bạn phải nói rõ ràng, dứt khoát, ko nhân nhượng nhất định bạn ấy sẽ hiểu ra."
                }
            ]
        },
        {
            "parent_comment": {
                "parent_content": "T và bạn ấy chưa có gì quá giới hạn cả"
            },
            "replies": [
                {
                    "reply_content": "Chắc bạn có hành vi, lời nói khiến ngta hiểu nhầm nên mới lầm tưởng, vậy bạn phải nói rõ ràng, dứt khoát, ko nhân nhượng nhất định bạn ấy sẽ hiểu ra."
                }
            ]
        },
        {
            "parent_comment": {
                "parent_content": "  Mình đang rơi vào khủng hoảng trầm trọng lắm rồi"
            },
            "replies": [
                {
                    "reply_content": "Vào đây để mỗi ngày trái tim được ấm áp trở lại nhé : https://zalo.me/g/rebliv527"
                }
            ]
        },
        {
            "parent_comment": {
                "parent_content": " Một người yêu mình rồi ngộ nhận là mình cũng yêu họ, ngày nào cũng kè kè đi theo mình, đứng trước cửa nhà mình,  khóc lóc van xin mình, xong bg ép buộc mình phải yêu người  đó"
            },
            "replies": [
                {
                    "reply_content": "Vào đây để mỗi ngày trái tim được ấm áp trở lại nhé : https://zalo.me/g/rebliv527"
                }
            ]
        },
        {
            "parent_comment": {
                "parent_content": "Mà mình lại  ko có một chút cảm xúc này với người đó"
            },
            "replies": [
                {
                    "reply_content": "Vào đây để mỗi ngày trái tim được ấm áp trở lại nhé : https://zalo.me/g/rebliv527"
                }
            ]
        },
        {
            "parent_comment": {
                "parent_content": "T và bạn ấy chưa có gì quá giới hạn cả"
            },
            "replies": [
                {
                    "reply_content": "Vào đây để mỗi ngày trái tim được ấm áp trở lại nhé : https://zalo.me/g/rebliv527"
                }
            ]
        }
    ]
}