{
    "post": "2406127712956621",
    "link": "https://facebook.com/groups/dongdangtramcam/permalink/2406127712956621",
    "post_comments": [
        {
            "parent_comment": {
                "parent_user": "Lê Nhật Tân",
                "parent_content": "giống anh, điều tệ hơn là họ nghĩ rằng mình ngu lắm nên mới áp đặt vâyj"
            },
            "replies": [
                {
                    "reply_user": "Ánh Ng",
                    "reply_content": "  đúng rồi"
                }
            ]
        },
        {
            "parent_comment": {
                "parent_content": "Cuộc sống bị áp đặt từ gia đình sống không phải là chính mình:) thực sự mệt mỏi và chán nản lắm mọi người ạh "
            },
            "replies": [
                {
                    "reply_content": "giống anh, điều tệ hơn là họ nghĩ rằng mình ngu lắm nên mới áp đặt vâyj"
                }
            ]
        },
        {
            "parent_comment": {
                "parent_content": "bây giờ tìm một người chia sẻ cũng khó"
            },
            "replies": [
                {
                    "reply_content": "giống anh, điều tệ hơn là họ nghĩ rằng mình ngu lắm nên mới áp đặt vâyj"
                }
            ]
        },
        {
            "parent_comment": {
                "parent_content": " Ko biết Từ lúc nào mh dần ít chia sẻ vs gia đình và sống khép kính như thế này:((("
            },
            "replies": [
                {
                    "reply_content": "giống anh, điều tệ hơn là họ nghĩ rằng mình ngu lắm nên mới áp đặt vâyj"
                }
            ]
        },
        {
            "parent_comment": {
                "parent_content": "Cuộc sống bị áp đặt từ gia đình sống không phải là chính mình:) thực sự mệt mỏi và chán nản lắm mọi người ạh "
            },
            "replies": [
                {
                    "reply_content": "Bình tĩnh. Mọi thứ đều có lý do. Hãy suy nghĩ kỹ mọi thứ, bạn sẽ thấy nhiều điều đáng quý đó"
                }
            ]
        },
        {
            "parent_comment": {
                "parent_content": "bây giờ tìm một người chia sẻ cũng khó"
            },
            "replies": [
                {
                    "reply_content": "Bình tĩnh. Mọi thứ đều có lý do. Hãy suy nghĩ kỹ mọi thứ, bạn sẽ thấy nhiều điều đáng quý đó"
                }
            ]
        },
        {
            "parent_comment": {
                "parent_content": " Ko biết Từ lúc nào mh dần ít chia sẻ vs gia đình và sống khép kính như thế này:((("
            },
            "replies": [
                {
                    "reply_content": "Bình tĩnh. Mọi thứ đều có lý do. Hãy suy nghĩ kỹ mọi thứ, bạn sẽ thấy nhiều điều đáng quý đó"
                }
            ]
        },
        {
            "parent_comment": {
                "parent_content": "Cuộc sống bị áp đặt từ gia đình sống không phải là chính mình:) thực sự mệt mỏi và chán nản lắm mọi người ạh "
            },
            "replies": [
                {
                    "reply_content": "chia sẽ vs mình nè"
                }
            ]
        },
        {
            "parent_comment": {
                "parent_content": "bây giờ tìm một người chia sẻ cũng khó"
            },
            "replies": [
                {
                    "reply_content": "chia sẽ vs mình nè"
                }
            ]
        },
        {
            "parent_comment": {
                "parent_content": " Ko biết Từ lúc nào mh dần ít chia sẻ vs gia đình và sống khép kính như thế này:((("
            },
            "replies": [
                {
                    "reply_content": "chia sẽ vs mình nè"
                }
            ]
        },
        {
            "parent_comment": {
                "parent_content": "Cuộc sống bị áp đặt từ gia đình sống không phải là chính mình:) thực sự mệt mỏi và chán nản lắm mọi người ạh "
            },
            "replies": [
                {
                    "reply_content": "chia sẽ với m nè...đồng  cảm"
                }
            ]
        },
        {
            "parent_comment": {
                "parent_content": "bây giờ tìm một người chia sẻ cũng khó"
            },
            "replies": [
                {
                    "reply_content": "chia sẽ với m nè...đồng  cảm"
                }
            ]
        },
        {
            "parent_comment": {
                "parent_content": " Ko biết Từ lúc nào mh dần ít chia sẻ vs gia đình và sống khép kính như thế này:((("
            },
            "replies": [
                {
                    "reply_content": "chia sẽ với m nè...đồng  cảm"
                }
            ]
        },
        {
            "parent_comment": {
                "parent_content": "Cuộc sống bị áp đặt từ gia đình sống không phải là chính mình:) thực sự mệt mỏi và chán nản lắm mọi người ạh "
            },
            "replies": [
                {
                    "reply_content": "K ai áp đặt dc ban mãi Cs cua ban ban dc lụa chọn . Do bạn thôi"
                }
            ]
        },
        {
            "parent_comment": {
                "parent_content": "bây giờ tìm một người chia sẻ cũng khó"
            },
            "replies": [
                {
                    "reply_content": "K ai áp đặt dc ban mãi Cs cua ban ban dc lụa chọn . Do bạn thôi"
                }
            ]
        },
        {
            "parent_comment": {
                "parent_content": " Ko biết Từ lúc nào mh dần ít chia sẻ vs gia đình và sống khép kính như thế này:((("
            },
            "replies": [
                {
                    "reply_content": "K ai áp đặt dc ban mãi Cs cua ban ban dc lụa chọn . Do bạn thôi"
                }
            ]
        },
        {
            "parent_comment": {
                "parent_content": "Cuộc sống bị áp đặt từ gia đình sống không phải là chính mình:) thực sự mệt mỏi và chán nản lắm mọi người ạh "
            },
            "replies": [
                {
                    "reply_content": "Mình nè. Nhưng dần dần r quen thành ra kệ đc b ạ"
                }
            ]
        },
        {
            "parent_comment": {
                "parent_content": "bây giờ tìm một người chia sẻ cũng khó"
            },
            "replies": [
                {
                    "reply_content": "Mình nè. Nhưng dần dần r quen thành ra kệ đc b ạ"
                }
            ]
        },
        {
            "parent_comment": {
                "parent_content": " Ko biết Từ lúc nào mh dần ít chia sẻ vs gia đình và sống khép kính như thế này:((("
            },
            "replies": [
                {
                    "reply_content": "Mình nè. Nhưng dần dần r quen thành ra kệ đc b ạ"
                }
            ]
        },
        {
            "parent_comment": {
                "parent_content": "Cuộc sống bị áp đặt từ gia đình sống không phải là chính mình:) thực sự mệt mỏi và chán nản lắm mọi người ạh "
            },
            "replies": [
                {
                    "reply_content": "Vui vẻ lên bạn nhé..."
                }
            ]
        },
        {
            "parent_comment": {
                "parent_content": "bây giờ tìm một người chia sẻ cũng khó"
            },
            "replies": [
                {
                    "reply_content": "Vui vẻ lên bạn nhé..."
                }
            ]
        },
        {
            "parent_comment": {
                "parent_content": " Ko biết Từ lúc nào mh dần ít chia sẻ vs gia đình và sống khép kính như thế này:((("
            },
            "replies": [
                {
                    "reply_content": "Vui vẻ lên bạn nhé..."
                }
            ]
        }
    ]
}