{
    "post": "2343080385928021",
    "link": "https://facebook.com/groups/dongdangtramcam/permalink/2343080385928021",
    "post_comments": [
        {
            "parent_comment": {
                "parent_content": "Trong hội nhiều người thèm tình phát điên à"
            },
            "replies": [
                {
                    "reply_content": "Iu rồi chia tay là lí do bị trầm cảm nhiều hơn á.ham hố gì biết"
                }
            ]
        },
        {
            "parent_comment": {
                "parent_content": " Không có người yêu thì đổ cho trầm cảm :))))"
            },
            "replies": [
                {
                    "reply_content": "Iu rồi chia tay là lí do bị trầm cảm nhiều hơn á.ham hố gì biết"
                }
            ]
        },
        {
            "parent_comment": {
                "parent_content": "Thế không nghĩ bị trầm cảm do có ny à :))))) "
            },
            "replies": [
                {
                    "reply_content": "Iu rồi chia tay là lí do bị trầm cảm nhiều hơn á.ham hố gì biết"
                }
            ]
        },
        {
            "parent_comment": {
                "parent_content": "Muốn có ny thì cố gắng xinh đẹp vs giàu có đi"
            },
            "replies": [
                {
                    "reply_content": "Iu rồi chia tay là lí do bị trầm cảm nhiều hơn á.ham hố gì biết"
                }
            ]
        },
        {
            "parent_comment": {
                "parent_content": "Không có ngoại hình, cũng chẳng có gia thế"
            },
            "replies": [
                {
                    "reply_content": "Iu rồi chia tay là lí do bị trầm cảm nhiều hơn á.ham hố gì biết"
                }
            ]
        },
        {
            "parent_comment": {
                "parent_content": " Đã vậy mà không chịu cố gắng thì còn đợi người khác đến coi thường à ?"
            },
            "replies": [
                {
                    "reply_content": "Iu rồi chia tay là lí do bị trầm cảm nhiều hơn á.ham hố gì biết"
                }
            ]
        },
        {
            "parent_comment": {
                "parent_content": "Hãy sống thực tế đi mấy bạn đang thèm khát có người yêu "
            },
            "replies": [
                {
                    "reply_content": "Iu rồi chia tay là lí do bị trầm cảm nhiều hơn á.ham hố gì biết"
                }
            ]
        },
        {
            "parent_comment": {
                "parent_content": "Trong hội nhiều người thèm tình phát điên à"
            },
            "replies": [
                {
                    "reply_content": "Trầm cảm có gì đâu mà sợ hả các bạn?"
                }
            ]
        },
        {
            "parent_comment": {
                "parent_content": " Không có người yêu thì đổ cho trầm cảm :))))"
            },
            "replies": [
                {
                    "reply_content": "Trầm cảm có gì đâu mà sợ hả các bạn?"
                }
            ]
        },
        {
            "parent_comment": {
                "parent_content": "Thế không nghĩ bị trầm cảm do có ny à :))))) "
            },
            "replies": [
                {
                    "reply_content": "Trầm cảm có gì đâu mà sợ hả các bạn?"
                }
            ]
        },
        {
            "parent_comment": {
                "parent_content": "Muốn có ny thì cố gắng xinh đẹp vs giàu có đi"
            },
            "replies": [
                {
                    "reply_content": "Trầm cảm có gì đâu mà sợ hả các bạn?"
                }
            ]
        },
        {
            "parent_comment": {
                "parent_content": "Không có ngoại hình, cũng chẳng có gia thế"
            },
            "replies": [
                {
                    "reply_content": "Trầm cảm có gì đâu mà sợ hả các bạn?"
                }
            ]
        },
        {
            "parent_comment": {
                "parent_content": " Đã vậy mà không chịu cố gắng thì còn đợi người khác đến coi thường à ?"
            },
            "replies": [
                {
                    "reply_content": "Trầm cảm có gì đâu mà sợ hả các bạn?"
                }
            ]
        },
        {
            "parent_comment": {
                "parent_content": "Hãy sống thực tế đi mấy bạn đang thèm khát có người yêu "
            },
            "replies": [
                {
                    "reply_content": "Trầm cảm có gì đâu mà sợ hả các bạn?"
                }
            ]
        },
        {
            "parent_comment": {
                "parent_content": "Trong hội nhiều người thèm tình phát điên à"
            },
            "replies": [
                {
                    "reply_content": "Chắc lại bị mấy thánh gạ tình à bạn"
                }
            ]
        },
        {
            "parent_comment": {
                "parent_content": " Không có người yêu thì đổ cho trầm cảm :))))"
            },
            "replies": [
                {
                    "reply_content": "Chắc lại bị mấy thánh gạ tình à bạn"
                }
            ]
        },
        {
            "parent_comment": {
                "parent_content": "Thế không nghĩ bị trầm cảm do có ny à :))))) "
            },
            "replies": [
                {
                    "reply_content": "Chắc lại bị mấy thánh gạ tình à bạn"
                }
            ]
        },
        {
            "parent_comment": {
                "parent_content": "Muốn có ny thì cố gắng xinh đẹp vs giàu có đi"
            },
            "replies": [
                {
                    "reply_content": "Chắc lại bị mấy thánh gạ tình à bạn"
                }
            ]
        },
        {
            "parent_comment": {
                "parent_content": "Không có ngoại hình, cũng chẳng có gia thế"
            },
            "replies": [
                {
                    "reply_content": "Chắc lại bị mấy thánh gạ tình à bạn"
                }
            ]
        },
        {
            "parent_comment": {
                "parent_content": " Đã vậy mà không chịu cố gắng thì còn đợi người khác đến coi thường à ?"
            },
            "replies": [
                {
                    "reply_content": "Chắc lại bị mấy thánh gạ tình à bạn"
                }
            ]
        },
        {
            "parent_comment": {
                "parent_content": "Hãy sống thực tế đi mấy bạn đang thèm khát có người yêu "
            },
            "replies": [
                {
                    "reply_content": "Chắc lại bị mấy thánh gạ tình à bạn"
                }
            ]
        },
        {
            "parent_comment": {
                "parent_content": "Trong hội nhiều người thèm tình phát điên à"
            },
            "replies": [
                {
                    "reply_content": "Mình k trầm cảm, và đang ế nhưng k than nhé "
                }
            ]
        },
        {
            "parent_comment": {
                "parent_content": " Không có người yêu thì đổ cho trầm cảm :))))"
            },
            "replies": [
                {
                    "reply_content": "Mình k trầm cảm, và đang ế nhưng k than nhé "
                }
            ]
        },
        {
            "parent_comment": {
                "parent_content": "Thế không nghĩ bị trầm cảm do có ny à :))))) "
            },
            "replies": [
                {
                    "reply_content": "Mình k trầm cảm, và đang ế nhưng k than nhé "
                }
            ]
        },
        {
            "parent_comment": {
                "parent_content": "Muốn có ny thì cố gắng xinh đẹp vs giàu có đi"
            },
            "replies": [
                {
                    "reply_content": "Mình k trầm cảm, và đang ế nhưng k than nhé "
                }
            ]
        },
        {
            "parent_comment": {
                "parent_content": "Không có ngoại hình, cũng chẳng có gia thế"
            },
            "replies": [
                {
                    "reply_content": "Mình k trầm cảm, và đang ế nhưng k than nhé "
                }
            ]
        },
        {
            "parent_comment": {
                "parent_content": " Đã vậy mà không chịu cố gắng thì còn đợi người khác đến coi thường à ?"
            },
            "replies": [
                {
                    "reply_content": "Mình k trầm cảm, và đang ế nhưng k than nhé "
                }
            ]
        },
        {
            "parent_comment": {
                "parent_content": "Hãy sống thực tế đi mấy bạn đang thèm khát có người yêu "
            },
            "replies": [
                {
                    "reply_content": "Mình k trầm cảm, và đang ế nhưng k than nhé "
                }
            ]
        },
        {
            "parent_comment": {
                "parent_content": "Trong hội nhiều người thèm tình phát điên à"
            },
            "replies": [
                {
                    "reply_content": "Mình bị trầm cảm vì thiếu tiền "
                }
            ]
        },
        {
            "parent_comment": {
                "parent_content": " Không có người yêu thì đổ cho trầm cảm :))))"
            },
            "replies": [
                {
                    "reply_content": "Mình bị trầm cảm vì thiếu tiền "
                }
            ]
        },
        {
            "parent_comment": {
                "parent_content": "Thế không nghĩ bị trầm cảm do có ny à :))))) "
            },
            "replies": [
                {
                    "reply_content": "Mình bị trầm cảm vì thiếu tiền "
                }
            ]
        },
        {
            "parent_comment": {
                "parent_content": "Muốn có ny thì cố gắng xinh đẹp vs giàu có đi"
            },
            "replies": [
                {
                    "reply_content": "Mình bị trầm cảm vì thiếu tiền "
                }
            ]
        },
        {
            "parent_comment": {
                "parent_content": "Không có ngoại hình, cũng chẳng có gia thế"
            },
            "replies": [
                {
                    "reply_content": "Mình bị trầm cảm vì thiếu tiền "
                }
            ]
        },
        {
            "parent_comment": {
                "parent_content": " Đã vậy mà không chịu cố gắng thì còn đợi người khác đến coi thường à ?"
            },
            "replies": [
                {
                    "reply_content": "Mình bị trầm cảm vì thiếu tiền "
                }
            ]
        },
        {
            "parent_comment": {
                "parent_content": "Hãy sống thực tế đi mấy bạn đang thèm khát có người yêu "
            },
            "replies": [
                {
                    "reply_content": "Mình bị trầm cảm vì thiếu tiền "
                }
            ]
        },
        {
            "parent_comment": {
                "parent_content": "Trong hội nhiều người thèm tình phát điên à"
            },
            "replies": [
                {
                    "reply_content": "Tiền mới khó kím...tình thì thiếu gì...T còn mong đừng dính vô chữ tình cho bớt khổ nà..."
                }
            ]
        },
        {
            "parent_comment": {
                "parent_content": " Không có người yêu thì đổ cho trầm cảm :))))"
            },
            "replies": [
                {
                    "reply_content": "Tiền mới khó kím...tình thì thiếu gì...T còn mong đừng dính vô chữ tình cho bớt khổ nà..."
                }
            ]
        },
        {
            "parent_comment": {
                "parent_content": "Thế không nghĩ bị trầm cảm do có ny à :))))) "
            },
            "replies": [
                {
                    "reply_content": "Tiền mới khó kím...tình thì thiếu gì...T còn mong đừng dính vô chữ tình cho bớt khổ nà..."
                }
            ]
        },
        {
            "parent_comment": {
                "parent_content": "Muốn có ny thì cố gắng xinh đẹp vs giàu có đi"
            },
            "replies": [
                {
                    "reply_content": "Tiền mới khó kím...tình thì thiếu gì...T còn mong đừng dính vô chữ tình cho bớt khổ nà..."
                }
            ]
        },
        {
            "parent_comment": {
                "parent_content": "Không có ngoại hình, cũng chẳng có gia thế"
            },
            "replies": [
                {
                    "reply_content": "Tiền mới khó kím...tình thì thiếu gì...T còn mong đừng dính vô chữ tình cho bớt khổ nà..."
                }
            ]
        },
        {
            "parent_comment": {
                "parent_content": " Đã vậy mà không chịu cố gắng thì còn đợi người khác đến coi thường à ?"
            },
            "replies": [
                {
                    "reply_content": "Tiền mới khó kím...tình thì thiếu gì...T còn mong đừng dính vô chữ tình cho bớt khổ nà..."
                }
            ]
        },
        {
            "parent_comment": {
                "parent_content": "Hãy sống thực tế đi mấy bạn đang thèm khát có người yêu "
            },
            "replies": [
                {
                    "reply_content": "Tiền mới khó kím...tình thì thiếu gì...T còn mong đừng dính vô chữ tình cho bớt khổ nà..."
                }
            ]
        },
        {
            "parent_comment": {
                "parent_content": "Trong hội nhiều người thèm tình phát điên à"
            },
            "replies": [
                {
                    "reply_content": "Trầm cảm là gần như không có cảm xúc yêu đương luôn ấy chứ...k hiểu sao nhìn thấy bọn yêu nhau là ngán tận cổ."
                }
            ]
        },
        {
            "parent_comment": {
                "parent_content": " Không có người yêu thì đổ cho trầm cảm :))))"
            },
            "replies": [
                {
                    "reply_content": "Trầm cảm là gần như không có cảm xúc yêu đương luôn ấy chứ...k hiểu sao nhìn thấy bọn yêu nhau là ngán tận cổ."
                }
            ]
        },
        {
            "parent_comment": {
                "parent_content": "Thế không nghĩ bị trầm cảm do có ny à :))))) "
            },
            "replies": [
                {
                    "reply_content": "Trầm cảm là gần như không có cảm xúc yêu đương luôn ấy chứ...k hiểu sao nhìn thấy bọn yêu nhau là ngán tận cổ."
                }
            ]
        },
        {
            "parent_comment": {
                "parent_content": "Muốn có ny thì cố gắng xinh đẹp vs giàu có đi"
            },
            "replies": [
                {
                    "reply_content": "Trầm cảm là gần như không có cảm xúc yêu đương luôn ấy chứ...k hiểu sao nhìn thấy bọn yêu nhau là ngán tận cổ."
                }
            ]
        },
        {
            "parent_comment": {
                "parent_content": "Không có ngoại hình, cũng chẳng có gia thế"
            },
            "replies": [
                {
                    "reply_content": "Trầm cảm là gần như không có cảm xúc yêu đương luôn ấy chứ...k hiểu sao nhìn thấy bọn yêu nhau là ngán tận cổ."
                }
            ]
        },
        {
            "parent_comment": {
                "parent_content": " Đã vậy mà không chịu cố gắng thì còn đợi người khác đến coi thường à ?"
            },
            "replies": [
                {
                    "reply_content": "Trầm cảm là gần như không có cảm xúc yêu đương luôn ấy chứ...k hiểu sao nhìn thấy bọn yêu nhau là ngán tận cổ."
                }
            ]
        },
        {
            "parent_comment": {
                "parent_content": "Hãy sống thực tế đi mấy bạn đang thèm khát có người yêu "
            },
            "replies": [
                {
                    "reply_content": "Trầm cảm là gần như không có cảm xúc yêu đương luôn ấy chứ...k hiểu sao nhìn thấy bọn yêu nhau là ngán tận cổ."
                }
            ]
        },
        {
            "parent_comment": {
                "parent_content": "Trong hội nhiều người thèm tình phát điên à"
            },
            "replies": [
                {
                    "reply_content": "Các bạn đang ngộ nhận về trầm cảm hoặc mới chỉ ở giai đoạn nhẹ thôi, khi nặng rồi thì chẳng còn bất kì quan tâm hay mong muốn gì nữa. Lý trí hoàn toàn tỉnh táo nhưng bên trong thì ngập ngụa cảm xúc tiêu cực"
                }
            ]
        },
        {
            "parent_comment": {
                "parent_content": " Không có người yêu thì đổ cho trầm cảm :))))"
            },
            "replies": [
                {
                    "reply_content": "Các bạn đang ngộ nhận về trầm cảm hoặc mới chỉ ở giai đoạn nhẹ thôi, khi nặng rồi thì chẳng còn bất kì quan tâm hay mong muốn gì nữa. Lý trí hoàn toàn tỉnh táo nhưng bên trong thì ngập ngụa cảm xúc tiêu cực"
                }
            ]
        },
        {
            "parent_comment": {
                "parent_content": "Thế không nghĩ bị trầm cảm do có ny à :))))) "
            },
            "replies": [
                {
                    "reply_content": "Các bạn đang ngộ nhận về trầm cảm hoặc mới chỉ ở giai đoạn nhẹ thôi, khi nặng rồi thì chẳng còn bất kì quan tâm hay mong muốn gì nữa. Lý trí hoàn toàn tỉnh táo nhưng bên trong thì ngập ngụa cảm xúc tiêu cực"
                }
            ]
        },
        {
            "parent_comment": {
                "parent_content": "Muốn có ny thì cố gắng xinh đẹp vs giàu có đi"
            },
            "replies": [
                {
                    "reply_content": "Các bạn đang ngộ nhận về trầm cảm hoặc mới chỉ ở giai đoạn nhẹ thôi, khi nặng rồi thì chẳng còn bất kì quan tâm hay mong muốn gì nữa. Lý trí hoàn toàn tỉnh táo nhưng bên trong thì ngập ngụa cảm xúc tiêu cực"
                }
            ]
        },
        {
            "parent_comment": {
                "parent_content": "Không có ngoại hình, cũng chẳng có gia thế"
            },
            "replies": [
                {
                    "reply_content": "Các bạn đang ngộ nhận về trầm cảm hoặc mới chỉ ở giai đoạn nhẹ thôi, khi nặng rồi thì chẳng còn bất kì quan tâm hay mong muốn gì nữa. Lý trí hoàn toàn tỉnh táo nhưng bên trong thì ngập ngụa cảm xúc tiêu cực"
                }
            ]
        },
        {
            "parent_comment": {
                "parent_content": " Đã vậy mà không chịu cố gắng thì còn đợi người khác đến coi thường à ?"
            },
            "replies": [
                {
                    "reply_content": "Các bạn đang ngộ nhận về trầm cảm hoặc mới chỉ ở giai đoạn nhẹ thôi, khi nặng rồi thì chẳng còn bất kì quan tâm hay mong muốn gì nữa. Lý trí hoàn toàn tỉnh táo nhưng bên trong thì ngập ngụa cảm xúc tiêu cực"
                }
            ]
        },
        {
            "parent_comment": {
                "parent_content": "Hãy sống thực tế đi mấy bạn đang thèm khát có người yêu "
            },
            "replies": [
                {
                    "reply_content": "Các bạn đang ngộ nhận về trầm cảm hoặc mới chỉ ở giai đoạn nhẹ thôi, khi nặng rồi thì chẳng còn bất kì quan tâm hay mong muốn gì nữa. Lý trí hoàn toàn tỉnh táo nhưng bên trong thì ngập ngụa cảm xúc tiêu cực"
                }
            ]
        },
        {
            "parent_comment": {
                "parent_content": "Trong hội nhiều người thèm tình phát điên à"
            },
            "replies": [
                {
                    "reply_content": "Nhiều bạn lên đăng bài kiểu \"mình thật sự trầm cảm vì giờ vẫn chưa có ai iu\", \" có ai trong group iu mình để cùng nắm tay nhau vượt qua trầm cảm hok ak\" là tao thấy tao trầm theo bây luôn rồi  trầm cảm giờ hình như là danh từ mà cứ buồn buồn tí là ngta vơ ngay vào được."
                }
            ]
        },
        {
            "parent_comment": {
                "parent_content": " Không có người yêu thì đổ cho trầm cảm :))))"
            },
            "replies": [
                {
                    "reply_content": "Nhiều bạn lên đăng bài kiểu \"mình thật sự trầm cảm vì giờ vẫn chưa có ai iu\", \" có ai trong group iu mình để cùng nắm tay nhau vượt qua trầm cảm hok ak\" là tao thấy tao trầm theo bây luôn rồi  trầm cảm giờ hình như là danh từ mà cứ buồn buồn tí là ngta vơ ngay vào được."
                }
            ]
        },
        {
            "parent_comment": {
                "parent_content": "Thế không nghĩ bị trầm cảm do có ny à :))))) "
            },
            "replies": [
                {
                    "reply_content": "Nhiều bạn lên đăng bài kiểu \"mình thật sự trầm cảm vì giờ vẫn chưa có ai iu\", \" có ai trong group iu mình để cùng nắm tay nhau vượt qua trầm cảm hok ak\" là tao thấy tao trầm theo bây luôn rồi  trầm cảm giờ hình như là danh từ mà cứ buồn buồn tí là ngta vơ ngay vào được."
                }
            ]
        },
        {
            "parent_comment": {
                "parent_content": "Muốn có ny thì cố gắng xinh đẹp vs giàu có đi"
            },
            "replies": [
                {
                    "reply_content": "Nhiều bạn lên đăng bài kiểu \"mình thật sự trầm cảm vì giờ vẫn chưa có ai iu\", \" có ai trong group iu mình để cùng nắm tay nhau vượt qua trầm cảm hok ak\" là tao thấy tao trầm theo bây luôn rồi  trầm cảm giờ hình như là danh từ mà cứ buồn buồn tí là ngta vơ ngay vào được."
                }
            ]
        },
        {
            "parent_comment": {
                "parent_content": "Không có ngoại hình, cũng chẳng có gia thế"
            },
            "replies": [
                {
                    "reply_content": "Nhiều bạn lên đăng bài kiểu \"mình thật sự trầm cảm vì giờ vẫn chưa có ai iu\", \" có ai trong group iu mình để cùng nắm tay nhau vượt qua trầm cảm hok ak\" là tao thấy tao trầm theo bây luôn rồi  trầm cảm giờ hình như là danh từ mà cứ buồn buồn tí là ngta vơ ngay vào được."
                }
            ]
        },
        {
            "parent_comment": {
                "parent_content": " Đã vậy mà không chịu cố gắng thì còn đợi người khác đến coi thường à ?"
            },
            "replies": [
                {
                    "reply_content": "Nhiều bạn lên đăng bài kiểu \"mình thật sự trầm cảm vì giờ vẫn chưa có ai iu\", \" có ai trong group iu mình để cùng nắm tay nhau vượt qua trầm cảm hok ak\" là tao thấy tao trầm theo bây luôn rồi  trầm cảm giờ hình như là danh từ mà cứ buồn buồn tí là ngta vơ ngay vào được."
                }
            ]
        },
        {
            "parent_comment": {
                "parent_content": "Hãy sống thực tế đi mấy bạn đang thèm khát có người yêu "
            },
            "replies": [
                {
                    "reply_content": "Nhiều bạn lên đăng bài kiểu \"mình thật sự trầm cảm vì giờ vẫn chưa có ai iu\", \" có ai trong group iu mình để cùng nắm tay nhau vượt qua trầm cảm hok ak\" là tao thấy tao trầm theo bây luôn rồi  trầm cảm giờ hình như là danh từ mà cứ buồn buồn tí là ngta vơ ngay vào được."
                }
            ]
        },
        {
            "parent_comment": {
                "parent_content": "Trong hội nhiều người thèm tình phát điên à"
            },
            "replies": [
                {
                    "reply_content": "Phũ nhưng thật haha ko có tiền ko xinh đẹp thì khó lắm"
                }
            ]
        },
        {
            "parent_comment": {
                "parent_content": " Không có người yêu thì đổ cho trầm cảm :))))"
            },
            "replies": [
                {
                    "reply_content": "Phũ nhưng thật haha ko có tiền ko xinh đẹp thì khó lắm"
                }
            ]
        },
        {
            "parent_comment": {
                "parent_content": "Thế không nghĩ bị trầm cảm do có ny à :))))) "
            },
            "replies": [
                {
                    "reply_content": "Phũ nhưng thật haha ko có tiền ko xinh đẹp thì khó lắm"
                }
            ]
        },
        {
            "parent_comment": {
                "parent_content": "Muốn có ny thì cố gắng xinh đẹp vs giàu có đi"
            },
            "replies": [
                {
                    "reply_content": "Phũ nhưng thật haha ko có tiền ko xinh đẹp thì khó lắm"
                }
            ]
        },
        {
            "parent_comment": {
                "parent_content": "Không có ngoại hình, cũng chẳng có gia thế"
            },
            "replies": [
                {
                    "reply_content": "Phũ nhưng thật haha ko có tiền ko xinh đẹp thì khó lắm"
                }
            ]
        },
        {
            "parent_comment": {
                "parent_content": " Đã vậy mà không chịu cố gắng thì còn đợi người khác đến coi thường à ?"
            },
            "replies": [
                {
                    "reply_content": "Phũ nhưng thật haha ko có tiền ko xinh đẹp thì khó lắm"
                }
            ]
        },
        {
            "parent_comment": {
                "parent_content": "Hãy sống thực tế đi mấy bạn đang thèm khát có người yêu "
            },
            "replies": [
                {
                    "reply_content": "Phũ nhưng thật haha ko có tiền ko xinh đẹp thì khó lắm"
                }
            ]
        },
        {
            "parent_comment": {
                "parent_content": "Trong hội nhiều người thèm tình phát điên à"
            },
            "replies": [
                {
                    "reply_content": "Yêu với đương.sống có ích cho mình cho người thân trước đã"
                }
            ]
        },
        {
            "parent_comment": {
                "parent_content": " Không có người yêu thì đổ cho trầm cảm :))))"
            },
            "replies": [
                {
                    "reply_content": "Yêu với đương.sống có ích cho mình cho người thân trước đã"
                }
            ]
        },
        {
            "parent_comment": {
                "parent_content": "Thế không nghĩ bị trầm cảm do có ny à :))))) "
            },
            "replies": [
                {
                    "reply_content": "Yêu với đương.sống có ích cho mình cho người thân trước đã"
                }
            ]
        },
        {
            "parent_comment": {
                "parent_content": "Muốn có ny thì cố gắng xinh đẹp vs giàu có đi"
            },
            "replies": [
                {
                    "reply_content": "Yêu với đương.sống có ích cho mình cho người thân trước đã"
                }
            ]
        },
        {
            "parent_comment": {
                "parent_content": "Không có ngoại hình, cũng chẳng có gia thế"
            },
            "replies": [
                {
                    "reply_content": "Yêu với đương.sống có ích cho mình cho người thân trước đã"
                }
            ]
        },
        {
            "parent_comment": {
                "parent_content": " Đã vậy mà không chịu cố gắng thì còn đợi người khác đến coi thường à ?"
            },
            "replies": [
                {
                    "reply_content": "Yêu với đương.sống có ích cho mình cho người thân trước đã"
                }
            ]
        },
        {
            "parent_comment": {
                "parent_content": "Hãy sống thực tế đi mấy bạn đang thèm khát có người yêu "
            },
            "replies": [
                {
                    "reply_content": "Yêu với đương.sống có ích cho mình cho người thân trước đã"
                }
            ]
        },
        {
            "parent_comment": {
                "parent_content": "Trong hội nhiều người thèm tình phát điên à"
            },
            "replies": [
                {
                    "reply_content": "Vừa xinh đẹp vừa kiếm đc tiền mà cũng ko có ai yêu đây bạn :))"
                }
            ]
        },
        {
            "parent_comment": {
                "parent_content": " Không có người yêu thì đổ cho trầm cảm :))))"
            },
            "replies": [
                {
                    "reply_content": "Vừa xinh đẹp vừa kiếm đc tiền mà cũng ko có ai yêu đây bạn :))"
                }
            ]
        },
        {
            "parent_comment": {
                "parent_content": "Thế không nghĩ bị trầm cảm do có ny à :))))) "
            },
            "replies": [
                {
                    "reply_content": "Vừa xinh đẹp vừa kiếm đc tiền mà cũng ko có ai yêu đây bạn :))"
                }
            ]
        },
        {
            "parent_comment": {
                "parent_content": "Muốn có ny thì cố gắng xinh đẹp vs giàu có đi"
            },
            "replies": [
                {
                    "reply_content": "Vừa xinh đẹp vừa kiếm đc tiền mà cũng ko có ai yêu đây bạn :))"
                }
            ]
        },
        {
            "parent_comment": {
                "parent_content": "Không có ngoại hình, cũng chẳng có gia thế"
            },
            "replies": [
                {
                    "reply_content": "Vừa xinh đẹp vừa kiếm đc tiền mà cũng ko có ai yêu đây bạn :))"
                }
            ]
        },
        {
            "parent_comment": {
                "parent_content": " Đã vậy mà không chịu cố gắng thì còn đợi người khác đến coi thường à ?"
            },
            "replies": [
                {
                    "reply_content": "Vừa xinh đẹp vừa kiếm đc tiền mà cũng ko có ai yêu đây bạn :))"
                }
            ]
        },
        {
            "parent_comment": {
                "parent_content": "Hãy sống thực tế đi mấy bạn đang thèm khát có người yêu "
            },
            "replies": [
                {
                    "reply_content": "Vừa xinh đẹp vừa kiếm đc tiền mà cũng ko có ai yêu đây bạn :))"
                }
            ]
        }
    ]
}