{
    "post": "2878736489029072",
    "link": "https://facebook.com/groups/dongdangtramcam/permalink/2878736489029072",
    "post_comments": [
        {
            "parent_comment": {
                "parent_content": "Mình hay đc nghe ng khác khuyên: nên sống vui vẻ cho gia đình, nghĩ cho gia đình bố mẹ ng thân, nếu bạn mất đi, những người còn lại sẽ rất đau khổ"
            },
            "replies": [
                {
                    "reply_content": "Cuộc sống mà sống không có niềm vui thì cuộc sống ấy coi như đã chết từ lâu rồi "
                }
            ]
        },
        {
            "parent_comment": {
                "parent_content": "Nhưng có một điều mình khó chia sẻ, rằng sống không thấy được vui, nhưng phải cố trở thành niềm vui cho người khác, đôi khi lại rất mệt"
            },
            "replies": [
                {
                    "reply_content": "Cuộc sống mà sống không có niềm vui thì cuộc sống ấy coi như đã chết từ lâu rồi "
                }
            ]
        },
        {
            "parent_comment": {
                "parent_content": "Mình hay đc nghe ng khác khuyên: nên sống vui vẻ cho gia đình, nghĩ cho gia đình bố mẹ ng thân, nếu bạn mất đi, những người còn lại sẽ rất đau khổ"
            },
            "replies": [
                {
                    "reply_content": "Đúng vậy bạn"
                }
            ]
        },
        {
            "parent_comment": {
                "parent_content": "Nhưng có một điều mình khó chia sẻ, rằng sống không thấy được vui, nhưng phải cố trở thành niềm vui cho người khác, đôi khi lại rất mệt"
            },
            "replies": [
                {
                    "reply_content": "Đúng vậy bạn"
                }
            ]
        },
        {
            "parent_comment": {
                "parent_content": "Mình hay đc nghe ng khác khuyên: nên sống vui vẻ cho gia đình, nghĩ cho gia đình bố mẹ ng thân, nếu bạn mất đi, những người còn lại sẽ rất đau khổ"
            },
            "replies": [
                {
                    "reply_content": "Mình rất muốn mất đi vì mik ko còn  niềm vui nào trong cs,gđ,bb. Nhưng gánh nặng là mẹ mk"
                }
            ]
        },
        {
            "parent_comment": {
                "parent_content": "Nhưng có một điều mình khó chia sẻ, rằng sống không thấy được vui, nhưng phải cố trở thành niềm vui cho người khác, đôi khi lại rất mệt"
            },
            "replies": [
                {
                    "reply_content": "Mình rất muốn mất đi vì mik ko còn  niềm vui nào trong cs,gđ,bb. Nhưng gánh nặng là mẹ mk"
                }
            ]
        },
        {
            "parent_comment": {
                "parent_content": "Mình hay đc nghe ng khác khuyên: nên sống vui vẻ cho gia đình, nghĩ cho gia đình bố mẹ ng thân, nếu bạn mất đi, những người còn lại sẽ rất đau khổ"
            },
            "replies": [
                {
                    "reply_content": "Chỉ cần có ý chí sẽ có một con đường. Bám vào những giá trị niềm vui từng khiến mình vui,  những giá trị bình an từng khiến mình bình an để cuộc sống ổn định lại. thêm một số sở thích mình từng thích như viết sách, chia sẽ để cứu giúp những mãnh đời ko may giông như mình.  Từ từ rồi niềm vui sẽ trở lại"
                }
            ]
        },
        {
            "parent_comment": {
                "parent_content": "Nhưng có một điều mình khó chia sẻ, rằng sống không thấy được vui, nhưng phải cố trở thành niềm vui cho người khác, đôi khi lại rất mệt"
            },
            "replies": [
                {
                    "reply_content": "Chỉ cần có ý chí sẽ có một con đường. Bám vào những giá trị niềm vui từng khiến mình vui,  những giá trị bình an từng khiến mình bình an để cuộc sống ổn định lại. thêm một số sở thích mình từng thích như viết sách, chia sẽ để cứu giúp những mãnh đời ko may giông như mình.  Từ từ rồi niềm vui sẽ trở lại"
                }
            ]
        },
        {
            "parent_comment": {
                "parent_content": "Mình hay đc nghe ng khác khuyên: nên sống vui vẻ cho gia đình, nghĩ cho gia đình bố mẹ ng thân, nếu bạn mất đi, những người còn lại sẽ rất đau khổ"
            },
            "replies": [
                {
                    "reply_content": "mình cũng giống bạn, vì vậy nên mình vẫn mắc kẹt 1 mình ở đây. Ôm bạn nhiều cái"
                }
            ]
        },
        {
            "parent_comment": {
                "parent_content": "Nhưng có một điều mình khó chia sẻ, rằng sống không thấy được vui, nhưng phải cố trở thành niềm vui cho người khác, đôi khi lại rất mệt"
            },
            "replies": [
                {
                    "reply_content": "mình cũng giống bạn, vì vậy nên mình vẫn mắc kẹt 1 mình ở đây. Ôm bạn nhiều cái"
                }
            ]
        },
        {
            "parent_comment": {
                "parent_content": "Mình hay đc nghe ng khác khuyên: nên sống vui vẻ cho gia đình, nghĩ cho gia đình bố mẹ ng thân, nếu bạn mất đi, những người còn lại sẽ rất đau khổ"
            },
            "replies": [
                {
                    "reply_content": "Trồng cây, đọc sách, nghe nhạc, đọc truyện.... nhìn vào gương cười với bản thân  tìm niềm vui của chính mình"
                }
            ]
        },
        {
            "parent_comment": {
                "parent_content": "Nhưng có một điều mình khó chia sẻ, rằng sống không thấy được vui, nhưng phải cố trở thành niềm vui cho người khác, đôi khi lại rất mệt"
            },
            "replies": [
                {
                    "reply_content": "Trồng cây, đọc sách, nghe nhạc, đọc truyện.... nhìn vào gương cười với bản thân  tìm niềm vui của chính mình"
                }
            ]
        },
        {
            "parent_comment": {
                "parent_content": "Mình hay đc nghe ng khác khuyên: nên sống vui vẻ cho gia đình, nghĩ cho gia đình bố mẹ ng thân, nếu bạn mất đi, những người còn lại sẽ rất đau khổ"
            },
            "replies": [
                {
                    "reply_content": "Rất mệt vì phải lm vui lòng những  người thương yêu. Có khó chịu cũng phải chịu đựng k dc thể hiện ra ngoài"
                }
            ]
        },
        {
            "parent_comment": {
                "parent_content": "Nhưng có một điều mình khó chia sẻ, rằng sống không thấy được vui, nhưng phải cố trở thành niềm vui cho người khác, đôi khi lại rất mệt"
            },
            "replies": [
                {
                    "reply_content": "Rất mệt vì phải lm vui lòng những  người thương yêu. Có khó chịu cũng phải chịu đựng k dc thể hiện ra ngoài"
                }
            ]
        }
    ]
}