{
    "post": "2527620930807298",
    "link": "https://facebook.com/groups/dongdangtramcam/permalink/2527620930807298",
    "post_comments": [
        {
            "parent_comment": {
                "parent_content": "Bài viết của em có thể hơi dài và lủng củng, mong mọi người có thể bỏ qua cho em"
            },
            "replies": [
                {
                    "reply_content": "Em bị cả stress và lo nghĩ nhiều như c ấy..."
                }
            ]
        },
        {
            "parent_comment": {
                "parent_content": " Hiện tại thì em k biết có phải mình bị trầm cảm hay em chỉ đơn thuần là suy nghĩ quá nhiều hay ko"
            },
            "replies": [
                {
                    "reply_content": "Em bị cả stress và lo nghĩ nhiều như c ấy..."
                }
            ]
        },
        {
            "parent_comment": {
                "parent_content": " Khi mà em viết bài này thì tâm lý của em đang ổn định nhưng chỉ cần một lời nói mắng mỏ, trách móc hay chỉ cần một hành động nhỏ nào đó từ người khác đặc biệt là bố mẹ hay người yêu em thì sẽ khiến cho tâm lý của em trở nên xấu đi và khiến em sẽ bắt đầu có những suy nghĩ tiêu cực"
            },
            "replies": [
                {
                    "reply_content": "Em bị cả stress và lo nghĩ nhiều như c ấy..."
                }
            ]
        },
        {
            "parent_comment": {
                "parent_content": " E xin phép được chia sẻ câu chuyện của mình, e mong muốn được các anh chị tư vấn giúp em và có thể cho em biết có phải em đang bị trầm cảm không ạ"
            },
            "replies": [
                {
                    "reply_content": "Em bị cả stress và lo nghĩ nhiều như c ấy..."
                }
            ]
        },
        {
            "parent_comment": {
                "parent_content": "Hiện tại, em đang làm cho công ty của nhà"
            },
            "replies": [
                {
                    "reply_content": "Em bị cả stress và lo nghĩ nhiều như c ấy..."
                }
            ]
        },
        {
            "parent_comment": {
                "parent_content": " E học quản trị kinh doanh nhưng bố em lại sắp xếp cho em công việc CNC ( những ai làm mộc sẽ biết ạ)"
            },
            "replies": [
                {
                    "reply_content": "Em bị cả stress và lo nghĩ nhiều như c ấy..."
                }
            ]
        },
        {
            "parent_comment": {
                "parent_content": " Công việc đó đòi hỏi e phải thật tập trung và không được để ra sai sót chất liệu vì sai sẽ phải chịu bằng tiền"
            },
            "replies": [
                {
                    "reply_content": "Em bị cả stress và lo nghĩ nhiều như c ấy..."
                }
            ]
        },
        {
            "parent_comment": {
                "parent_content": " Giờ là cuối năm nên xưởng có nhiều việc, một lúc 3-5 công trình lớn mà chỉ có 1 mình em làm và quản lý"
            },
            "replies": [
                {
                    "reply_content": "Em bị cả stress và lo nghĩ nhiều như c ấy..."
                }
            ]
        },
        {
            "parent_comment": {
                "parent_content": " Thêm với việc là đầu tháng 12 em thi môn chuyên ngành nữa"
            },
            "replies": [
                {
                    "reply_content": "Em bị cả stress và lo nghĩ nhiều như c ấy..."
                }
            ]
        },
        {
            "parent_comment": {
                "parent_content": " em đi làm từ 6h sáng đến 8h tối, không được nghỉ trưa"
            },
            "replies": [
                {
                    "reply_content": "Em bị cả stress và lo nghĩ nhiều như c ấy..."
                }
            ]
        },
        {
            "parent_comment": {
                "parent_content": " E không có khả năng tập trung cao và làm được nhiều việc một lúc nên em làm sai rất nhiều"
            },
            "replies": [
                {
                    "reply_content": "Em bị cả stress và lo nghĩ nhiều như c ấy..."
                }
            ]
        },
        {
            "parent_comment": {
                "parent_content": " Bố em thì cũng áp lực công nhân, bao nhiêu sự bực tức là dồn hết lên em để mắng"
            },
            "replies": [
                {
                    "reply_content": "Em bị cả stress và lo nghĩ nhiều như c ấy..."
                }
            ]
        },
        {
            "parent_comment": {
                "parent_content": " mỗi ngày đi làm là không ngày nào bố k lớn tiếng với em nên em trở nên sợ công việc và cảm thấy mệt mỏi"
            },
            "replies": [
                {
                    "reply_content": "Em bị cả stress và lo nghĩ nhiều như c ấy..."
                }
            ]
        },
        {
            "parent_comment": {
                "parent_content": " về đến nhà thì lại đến mẹ em, về nhà mà thấy nhà cửa bừa bộn là mắng chửi em"
            },
            "replies": [
                {
                    "reply_content": "Em bị cả stress và lo nghĩ nhiều như c ấy..."
                }
            ]
        },
        {
            "parent_comment": {
                "parent_content": " Về đến nhà thì có mỗi duy nhất bữa cơm buổi tối cả nhà ngồi cùng nhau mà e ăn cũng thấy k ngon miệng nên hay bỏ bữa trốn trên phòng"
            },
            "replies": [
                {
                    "reply_content": "Em bị cả stress và lo nghĩ nhiều như c ấy..."
                }
            ]
        },
        {
            "parent_comment": {
                "parent_content": "Mà không chỉ công việc, những việc đơn giản hay nhỏ nhặt, em chỉ cần sai hay k vừa ý thôi là em sẽ bị mắng luôn"
            },
            "replies": [
                {
                    "reply_content": "Em bị cả stress và lo nghĩ nhiều như c ấy..."
                }
            ]
        },
        {
            "parent_comment": {
                "parent_content": " Em thì hay tự ái, bị mắng thì mặt em sẽ tỏ ra mệt, k hài lòng thì mẹ em ngay lập tức mắng tiếp và phải nói đến khi nào em cố gắng tỏ ra bình thường thì mẹ mới thôi"
            },
            "replies": [
                {
                    "reply_content": "Em bị cả stress và lo nghĩ nhiều như c ấy..."
                }
            ]
        },
        {
            "parent_comment": {
                "parent_content": "Về chuyện tình cảm, em cũng lớn rồi, em cũng cần có sự tôn trọng và tự quyết định cho hạnh phúc của mình, nhưng mẹ em lại muốn mẹ mới là người định hướng và quyết định cho con"
            },
            "replies": [
                {
                    "reply_content": "Em bị cả stress và lo nghĩ nhiều như c ấy..."
                }
            ]
        },
        {
            "parent_comment": {
                "parent_content": " Lúc nào mẹ em cũng nghi ngờ đủ thứ rồi bắt em phải chia tay"
            },
            "replies": [
                {
                    "reply_content": "Em bị cả stress và lo nghĩ nhiều như c ấy..."
                }
            ]
        },
        {
            "parent_comment": {
                "parent_content": "Em có tâm sự với một chị trên văn phòng"
            },
            "replies": [
                {
                    "reply_content": "Em bị cả stress và lo nghĩ nhiều như c ấy..."
                }
            ]
        },
        {
            "parent_comment": {
                "parent_content": " Chị ý đã từng nói chuyện với mẹ em nhưng mẹ e lại coi là chị ý nói đùa nên lại chẳng giúp gì được cho em"
            },
            "replies": [
                {
                    "reply_content": "Em bị cả stress và lo nghĩ nhiều như c ấy..."
                }
            ]
        },
        {
            "parent_comment": {
                "parent_content": "1 tháng trước, em nói với bố mẹ, làm như này con rất mệt, thời gian cho bản thân con còn không có và e xin bố tuyển người để thay e làm công việc đấy"
            },
            "replies": [
                {
                    "reply_content": "Em bị cả stress và lo nghĩ nhiều như c ấy..."
                }
            ]
        },
        {
            "parent_comment": {
                "parent_content": " mọi khi ở nhà thì xưng ba-con nhưng kể từ lúc đó, Bố em lớn tiếng với em và đã xưng mày-tao với em"
            },
            "replies": [
                {
                    "reply_content": "Em bị cả stress và lo nghĩ nhiều như c ấy..."
                }
            ]
        },
        {
            "parent_comment": {
                "parent_content": " Còn mẹ thì nói rằng: “Bố còn mệt hơn m gấp nhiều lần, m đi làm cho bố là để giúp bố cho bố đỡ mệt thì bây giờ phải biết đánh đổi, tự đi mà sắp xếp thời gian cho bản thân, m càng nói bố m càng thấy mệt hơn đấy, m phải cho bố m nghỉ ngơi chứ”"
            },
            "replies": [
                {
                    "reply_content": "Em bị cả stress và lo nghĩ nhiều như c ấy..."
                }
            ]
        },
        {
            "parent_comment": {
                "parent_content": "Kể từ lúc đó em cảm thấy suy sụp thực sự, tâm lý của em luôn luôn bất ổn"
            },
            "replies": [
                {
                    "reply_content": "Em bị cả stress và lo nghĩ nhiều như c ấy..."
                }
            ]
        },
        {
            "parent_comment": {
                "parent_content": " Em trở nên trách móc bố mẹ vì k bao giờ nghĩ cho em nhưng em k hề ghét họ"
            },
            "replies": [
                {
                    "reply_content": "Em bị cả stress và lo nghĩ nhiều như c ấy..."
                }
            ]
        },
        {
            "parent_comment": {
                "parent_content": " em trở nên sợ sệt, lúc nào cũng trong trạng thái mệt mỏi, hay khóc không lý do, không kiểm soát, thích lang thang 1 mình"
            },
            "replies": [
                {
                    "reply_content": "Em bị cả stress và lo nghĩ nhiều như c ấy..."
                }
            ]
        },
        {
            "parent_comment": {
                "parent_content": " Nhiều khi đang đi học hay đi làm mà em cố gắng dấu đi để mọi người k ai biết, và em bắt đầu có suy nghĩ rằng em sẽ tự tử"
            },
            "replies": [
                {
                    "reply_content": "Em bị cả stress và lo nghĩ nhiều như c ấy..."
                }
            ]
        },
        {
            "parent_comment": {
                "parent_content": " e sợ máu, sợ đau nên em chọn cách đốt than hoa trong phòng kín để có một cái chết nhẹ nhàng k ai biết"
            },
            "replies": [
                {
                    "reply_content": "Em bị cả stress và lo nghĩ nhiều như c ấy..."
                }
            ]
        },
        {
            "parent_comment": {
                "parent_content": " em bắt đầu lên kế hoạch chuẩn bị, và điều đầu tiên em làm là em đi đăng ký hiến tạng, điều thứ 2 là em dặn dò 2 người bạn mà em thân nhất rằng hãy yêu thương em thật nhiều khi em vẫn còn ở đây"
            },
            "replies": [
                {
                    "reply_content": "Em bị cả stress và lo nghĩ nhiều như c ấy..."
                }
            ]
        },
        {
            "parent_comment": {
                "parent_content": " Em chỉ chờ đợi 1 ngày em thực sự kiệt sức, k thể tiếp tục cố gắng được nữa, em sẽ đi"
            },
            "replies": [
                {
                    "reply_content": "Em bị cả stress và lo nghĩ nhiều như c ấy..."
                }
            ]
        },
        {
            "parent_comment": {
                "parent_content": "Em có tâm sự với 2 bạn ấy nhưng 1 người thì bận nên cũng chẳng nc với em nhiều nên sau khi e dặn dò bạn ấy xong thì em cũng k tâm sự gì nữa vì sợ sẽ làm phiền người ta"
            },
            "replies": [
                {
                    "reply_content": "Em bị cả stress và lo nghĩ nhiều như c ấy..."
                }
            ]
        },
        {
            "parent_comment": {
                "parent_content": " Còn bạn kia thì cố gắng giữ em lại nhưng em k kể cho bạn ý nữa vì em sợ bạn ấy sẽ cản em"
            },
            "replies": [
                {
                    "reply_content": "Em bị cả stress và lo nghĩ nhiều như c ấy..."
                }
            ]
        },
        {
            "parent_comment": {
                "parent_content": " Bạn ý có khuyên em đi khám nhưng em k muốn mình trở nên tốt hơn để rồi lại bị như này một lần nữa làm e thấy mệt lắm, em muốn bản thân như này và em đã lựa chọn chỉ có cái chết mới làm em thoải mái"
            },
            "replies": [
                {
                    "reply_content": "Em bị cả stress và lo nghĩ nhiều như c ấy..."
                }
            ]
        },
        {
            "parent_comment": {
                "parent_content": " Hiện tại, tâm lý của em đang ổn định, e có làm bài test thì chỉ có 22 điểm thôi ạ"
            },
            "replies": [
                {
                    "reply_content": "Em bị cả stress và lo nghĩ nhiều như c ấy..."
                }
            ]
        },
        {
            "parent_comment": {
                "parent_content": " Những lúc như này thì em k thể nhớ rõ được lúc tâm lý bất ổn của em, em suy nghĩ những gì, làm những gì, muốn gì"
            },
            "replies": [
                {
                    "reply_content": "Em bị cả stress và lo nghĩ nhiều như c ấy..."
                }
            ]
        },
        {
            "parent_comment": {
                "parent_content": " Có phải em chỉ bị stress nhẹ, hay là do em lo nghĩ quá nhiều ko ạ? "
            },
            "replies": [
                {
                    "reply_content": "Em bị cả stress và lo nghĩ nhiều như c ấy..."
                }
            ]
        }
    ]
}