{
    "post": "2824676557768399",
    "link": "https://facebook.com/groups/dongdangtramcam/permalink/2824676557768399",
    "post_comments": [
        {
            "parent_comment": {
                "parent_content": "Mọi người ơi e mệt mỏi quá , em có nên tiếp tục đi học nữa ko đây khi gđ luôn phản đối e theo đuổi học hành "
            },
            "replies": [
                {
                    "reply_content": "họ gây áp lực ra sao với bạn vậy. Có gì bạn nhắn tin tâm sự với mình cho khuây khỏa nha."
                }
            ]
        },
        {
            "parent_comment": {
                "parent_content": " Họ gây áp lực tạo sức ép khiến e muốn nổ tung , nhưng nếu từ bỏ tất cả e sẽ chết mất (mong ad duyệt giúp e) "
            },
            "replies": [
                {
                    "reply_content": "họ gây áp lực ra sao với bạn vậy. Có gì bạn nhắn tin tâm sự với mình cho khuây khỏa nha."
                }
            ]
        }
    ]
}