{
    "post": "2937517619817625",
    "link": "https://facebook.com/groups/dongdangtramcam/permalink/2937517619817625",
    "post_comments": [
        {
            "parent_comment": {
                "parent_content": "Có ai bị trầm cảm như em không ạ! "
            },
            "replies": [
                {
                    "reply_content": "Ai nói gì kệ họ bạn ơi, mình sống cho bản thân mình là đc."
                }
            ]
        },
        {
            "parent_comment": {
                "parent_content": "Em bị áp lực-căng thẳng không phải gia đình, công việc mà chính bản thân em!"
            },
            "replies": [
                {
                    "reply_content": "Ai nói gì kệ họ bạn ơi, mình sống cho bản thân mình là đc."
                }
            ]
        },
        {
            "parent_comment": {
                "parent_content": "Em tự nhận rằng: Em đang tồn tại chứ không phải đang sống"
            },
            "replies": [
                {
                    "reply_content": "Ai nói gì kệ họ bạn ơi, mình sống cho bản thân mình là đc."
                }
            ]
        },
        {
            "parent_comment": {
                "parent_content": " Với người ta 24 tuổi thông minh, khôn khéo! Còn với em như hs lớp 9, lớp 10 dù vấp ngã nhiều trong cuộc sống, dù trải nghiệm nhiều, hiểu nhiều nhưng em vẫn ngây thơ, hồn nhiên ( nói thẳng ra là ngơ ngơ)"
            },
            "replies": [
                {
                    "reply_content": "Ai nói gì kệ họ bạn ơi, mình sống cho bản thân mình là đc."
                }
            ]
        },
        {
            "parent_comment": {
                "parent_content": " Em rất thật thà lại chậm chạp cả hành động lẫn tư duy mà bản thân lại luôn muốn mọi thứ hoàn hảo!"
            },
            "replies": [
                {
                    "reply_content": "Ai nói gì kệ họ bạn ơi, mình sống cho bản thân mình là đc."
                }
            ]
        },
        {
            "parent_comment": {
                "parent_content": "Trong tập thể hay bất cứ nơi nào, em cảm thấy mình  lạc lõng, nhạt nhoà"
            },
            "replies": [
                {
                    "reply_content": "Ai nói gì kệ họ bạn ơi, mình sống cho bản thân mình là đc."
                }
            ]
        },
        {
            "parent_comment": {
                "parent_content": " Vì vậy mà em hay nhảy việc, hay đổi môi trường thực chất là đang chạy trốn! "
            },
            "replies": [
                {
                    "reply_content": "Ai nói gì kệ họ bạn ơi, mình sống cho bản thân mình là đc."
                }
            ]
        },
        {
            "parent_comment": {
                "parent_content": "Trước đây e chưa từng nghĩ đến tự tử nhưng thời gian gần đây em như muôn thời gian ngừng trôi, muốn mình chỉ đến đây k muốn bước tiếp!"
            },
            "replies": [
                {
                    "reply_content": "Ai nói gì kệ họ bạn ơi, mình sống cho bản thân mình là đc."
                }
            ]
        },
        {
            "parent_comment": {
                "parent_content": "Đây là lời chia sẻ khi em đang trong lúc căng thẳng với chính mình( Em đang chạy trốn thực tại - ra ngắm biển thư giãn)"
            },
            "replies": [
                {
                    "reply_content": "Ai nói gì kệ họ bạn ơi, mình sống cho bản thân mình là đc."
                }
            ]
        },
        {
            "parent_comment": {
                "parent_content": "Em rất cần lời chia sẻ giống em! Mọi người đã vượt qua như thế nào ! "
            },
            "replies": [
                {
                    "reply_content": "Ai nói gì kệ họ bạn ơi, mình sống cho bản thân mình là đc."
                }
            ]
        },
        {
            "parent_comment": {
                "parent_content": "Có ai bị trầm cảm như em không ạ! "
            },
            "replies": [
                {
                    "reply_content": "Mình nghĩ là vì một lí do sâu xa nào đó, bạn đang bị mất kết nối với bản thân, với con người bên trong của bạn"
                }
            ]
        },
        {
            "parent_comment": {
                "parent_content": "Em bị áp lực-căng thẳng không phải gia đình, công việc mà chính bản thân em!"
            },
            "replies": [
                {
                    "reply_content": "Mình nghĩ là vì một lí do sâu xa nào đó, bạn đang bị mất kết nối với bản thân, với con người bên trong của bạn"
                }
            ]
        },
        {
            "parent_comment": {
                "parent_content": "Em tự nhận rằng: Em đang tồn tại chứ không phải đang sống"
            },
            "replies": [
                {
                    "reply_content": "Mình nghĩ là vì một lí do sâu xa nào đó, bạn đang bị mất kết nối với bản thân, với con người bên trong của bạn"
                }
            ]
        },
        {
            "parent_comment": {
                "parent_content": " Với người ta 24 tuổi thông minh, khôn khéo! Còn với em như hs lớp 9, lớp 10 dù vấp ngã nhiều trong cuộc sống, dù trải nghiệm nhiều, hiểu nhiều nhưng em vẫn ngây thơ, hồn nhiên ( nói thẳng ra là ngơ ngơ)"
            },
            "replies": [
                {
                    "reply_content": "Mình nghĩ là vì một lí do sâu xa nào đó, bạn đang bị mất kết nối với bản thân, với con người bên trong của bạn"
                }
            ]
        },
        {
            "parent_comment": {
                "parent_content": " Em rất thật thà lại chậm chạp cả hành động lẫn tư duy mà bản thân lại luôn muốn mọi thứ hoàn hảo!"
            },
            "replies": [
                {
                    "reply_content": "Mình nghĩ là vì một lí do sâu xa nào đó, bạn đang bị mất kết nối với bản thân, với con người bên trong của bạn"
                }
            ]
        },
        {
            "parent_comment": {
                "parent_content": "Trong tập thể hay bất cứ nơi nào, em cảm thấy mình  lạc lõng, nhạt nhoà"
            },
            "replies": [
                {
                    "reply_content": "Mình nghĩ là vì một lí do sâu xa nào đó, bạn đang bị mất kết nối với bản thân, với con người bên trong của bạn"
                }
            ]
        },
        {
            "parent_comment": {
                "parent_content": " Vì vậy mà em hay nhảy việc, hay đổi môi trường thực chất là đang chạy trốn! "
            },
            "replies": [
                {
                    "reply_content": "Mình nghĩ là vì một lí do sâu xa nào đó, bạn đang bị mất kết nối với bản thân, với con người bên trong của bạn"
                }
            ]
        },
        {
            "parent_comment": {
                "parent_content": "Trước đây e chưa từng nghĩ đến tự tử nhưng thời gian gần đây em như muôn thời gian ngừng trôi, muốn mình chỉ đến đây k muốn bước tiếp!"
            },
            "replies": [
                {
                    "reply_content": "Mình nghĩ là vì một lí do sâu xa nào đó, bạn đang bị mất kết nối với bản thân, với con người bên trong của bạn"
                }
            ]
        },
        {
            "parent_comment": {
                "parent_content": "Đây là lời chia sẻ khi em đang trong lúc căng thẳng với chính mình( Em đang chạy trốn thực tại - ra ngắm biển thư giãn)"
            },
            "replies": [
                {
                    "reply_content": "Mình nghĩ là vì một lí do sâu xa nào đó, bạn đang bị mất kết nối với bản thân, với con người bên trong của bạn"
                }
            ]
        },
        {
            "parent_comment": {
                "parent_content": "Em rất cần lời chia sẻ giống em! Mọi người đã vượt qua như thế nào ! "
            },
            "replies": [
                {
                    "reply_content": "Mình nghĩ là vì một lí do sâu xa nào đó, bạn đang bị mất kết nối với bản thân, với con người bên trong của bạn"
                }
            ]
        },
        {
            "parent_comment": {
                "parent_content": "Có ai bị trầm cảm như em không ạ! "
            },
            "replies": [
                {
                    "reply_content": "Mình đang trong quá trình điều trị bệnh bằng cách học thiền và nghe các bài giảng thiền , nó giúp bạn tìm lại chính bản thân mình và giúp đầu óc mình nhẹ nhàng hơn, bạn thử xem sao nha, nhưng nhớ là học và phải có ng hướng dẫn chứ k phải tự thiền nha , mong b luôn bình an"
                }
            ]
        },
        {
            "parent_comment": {
                "parent_content": "Em bị áp lực-căng thẳng không phải gia đình, công việc mà chính bản thân em!"
            },
            "replies": [
                {
                    "reply_content": "Mình đang trong quá trình điều trị bệnh bằng cách học thiền và nghe các bài giảng thiền , nó giúp bạn tìm lại chính bản thân mình và giúp đầu óc mình nhẹ nhàng hơn, bạn thử xem sao nha, nhưng nhớ là học và phải có ng hướng dẫn chứ k phải tự thiền nha , mong b luôn bình an"
                }
            ]
        },
        {
            "parent_comment": {
                "parent_content": "Em tự nhận rằng: Em đang tồn tại chứ không phải đang sống"
            },
            "replies": [
                {
                    "reply_content": "Mình đang trong quá trình điều trị bệnh bằng cách học thiền và nghe các bài giảng thiền , nó giúp bạn tìm lại chính bản thân mình và giúp đầu óc mình nhẹ nhàng hơn, bạn thử xem sao nha, nhưng nhớ là học và phải có ng hướng dẫn chứ k phải tự thiền nha , mong b luôn bình an"
                }
            ]
        },
        {
            "parent_comment": {
                "parent_content": " Với người ta 24 tuổi thông minh, khôn khéo! Còn với em như hs lớp 9, lớp 10 dù vấp ngã nhiều trong cuộc sống, dù trải nghiệm nhiều, hiểu nhiều nhưng em vẫn ngây thơ, hồn nhiên ( nói thẳng ra là ngơ ngơ)"
            },
            "replies": [
                {
                    "reply_content": "Mình đang trong quá trình điều trị bệnh bằng cách học thiền và nghe các bài giảng thiền , nó giúp bạn tìm lại chính bản thân mình và giúp đầu óc mình nhẹ nhàng hơn, bạn thử xem sao nha, nhưng nhớ là học và phải có ng hướng dẫn chứ k phải tự thiền nha , mong b luôn bình an"
                }
            ]
        },
        {
            "parent_comment": {
                "parent_content": " Em rất thật thà lại chậm chạp cả hành động lẫn tư duy mà bản thân lại luôn muốn mọi thứ hoàn hảo!"
            },
            "replies": [
                {
                    "reply_content": "Mình đang trong quá trình điều trị bệnh bằng cách học thiền và nghe các bài giảng thiền , nó giúp bạn tìm lại chính bản thân mình và giúp đầu óc mình nhẹ nhàng hơn, bạn thử xem sao nha, nhưng nhớ là học và phải có ng hướng dẫn chứ k phải tự thiền nha , mong b luôn bình an"
                }
            ]
        },
        {
            "parent_comment": {
                "parent_content": "Trong tập thể hay bất cứ nơi nào, em cảm thấy mình  lạc lõng, nhạt nhoà"
            },
            "replies": [
                {
                    "reply_content": "Mình đang trong quá trình điều trị bệnh bằng cách học thiền và nghe các bài giảng thiền , nó giúp bạn tìm lại chính bản thân mình và giúp đầu óc mình nhẹ nhàng hơn, bạn thử xem sao nha, nhưng nhớ là học và phải có ng hướng dẫn chứ k phải tự thiền nha , mong b luôn bình an"
                }
            ]
        },
        {
            "parent_comment": {
                "parent_content": " Vì vậy mà em hay nhảy việc, hay đổi môi trường thực chất là đang chạy trốn! "
            },
            "replies": [
                {
                    "reply_content": "Mình đang trong quá trình điều trị bệnh bằng cách học thiền và nghe các bài giảng thiền , nó giúp bạn tìm lại chính bản thân mình và giúp đầu óc mình nhẹ nhàng hơn, bạn thử xem sao nha, nhưng nhớ là học và phải có ng hướng dẫn chứ k phải tự thiền nha , mong b luôn bình an"
                }
            ]
        },
        {
            "parent_comment": {
                "parent_content": "Trước đây e chưa từng nghĩ đến tự tử nhưng thời gian gần đây em như muôn thời gian ngừng trôi, muốn mình chỉ đến đây k muốn bước tiếp!"
            },
            "replies": [
                {
                    "reply_content": "Mình đang trong quá trình điều trị bệnh bằng cách học thiền và nghe các bài giảng thiền , nó giúp bạn tìm lại chính bản thân mình và giúp đầu óc mình nhẹ nhàng hơn, bạn thử xem sao nha, nhưng nhớ là học và phải có ng hướng dẫn chứ k phải tự thiền nha , mong b luôn bình an"
                }
            ]
        },
        {
            "parent_comment": {
                "parent_content": "Đây là lời chia sẻ khi em đang trong lúc căng thẳng với chính mình( Em đang chạy trốn thực tại - ra ngắm biển thư giãn)"
            },
            "replies": [
                {
                    "reply_content": "Mình đang trong quá trình điều trị bệnh bằng cách học thiền và nghe các bài giảng thiền , nó giúp bạn tìm lại chính bản thân mình và giúp đầu óc mình nhẹ nhàng hơn, bạn thử xem sao nha, nhưng nhớ là học và phải có ng hướng dẫn chứ k phải tự thiền nha , mong b luôn bình an"
                }
            ]
        },
        {
            "parent_comment": {
                "parent_content": "Em rất cần lời chia sẻ giống em! Mọi người đã vượt qua như thế nào ! "
            },
            "replies": [
                {
                    "reply_content": "Mình đang trong quá trình điều trị bệnh bằng cách học thiền và nghe các bài giảng thiền , nó giúp bạn tìm lại chính bản thân mình và giúp đầu óc mình nhẹ nhàng hơn, bạn thử xem sao nha, nhưng nhớ là học và phải có ng hướng dẫn chứ k phải tự thiền nha , mong b luôn bình an"
                }
            ]
        },
        {
            "parent_comment": {
                "parent_content": "Có ai bị trầm cảm như em không ạ! "
            },
            "replies": [
                {
                    "reply_content": "Trường hợp bạn giống y trang mình đó 35 tuổi mà ko thông minh nhanh nhẹn bằng đưa 20 tuổi thật thà ngơ ngơ luôn trách bản thân mình "
                }
            ]
        },
        {
            "parent_comment": {
                "parent_content": "Em bị áp lực-căng thẳng không phải gia đình, công việc mà chính bản thân em!"
            },
            "replies": [
                {
                    "reply_content": "Trường hợp bạn giống y trang mình đó 35 tuổi mà ko thông minh nhanh nhẹn bằng đưa 20 tuổi thật thà ngơ ngơ luôn trách bản thân mình "
                }
            ]
        },
        {
            "parent_comment": {
                "parent_content": "Em tự nhận rằng: Em đang tồn tại chứ không phải đang sống"
            },
            "replies": [
                {
                    "reply_content": "Trường hợp bạn giống y trang mình đó 35 tuổi mà ko thông minh nhanh nhẹn bằng đưa 20 tuổi thật thà ngơ ngơ luôn trách bản thân mình "
                }
            ]
        },
        {
            "parent_comment": {
                "parent_content": " Với người ta 24 tuổi thông minh, khôn khéo! Còn với em như hs lớp 9, lớp 10 dù vấp ngã nhiều trong cuộc sống, dù trải nghiệm nhiều, hiểu nhiều nhưng em vẫn ngây thơ, hồn nhiên ( nói thẳng ra là ngơ ngơ)"
            },
            "replies": [
                {
                    "reply_content": "Trường hợp bạn giống y trang mình đó 35 tuổi mà ko thông minh nhanh nhẹn bằng đưa 20 tuổi thật thà ngơ ngơ luôn trách bản thân mình "
                }
            ]
        },
        {
            "parent_comment": {
                "parent_content": " Em rất thật thà lại chậm chạp cả hành động lẫn tư duy mà bản thân lại luôn muốn mọi thứ hoàn hảo!"
            },
            "replies": [
                {
                    "reply_content": "Trường hợp bạn giống y trang mình đó 35 tuổi mà ko thông minh nhanh nhẹn bằng đưa 20 tuổi thật thà ngơ ngơ luôn trách bản thân mình "
                }
            ]
        },
        {
            "parent_comment": {
                "parent_content": "Trong tập thể hay bất cứ nơi nào, em cảm thấy mình  lạc lõng, nhạt nhoà"
            },
            "replies": [
                {
                    "reply_content": "Trường hợp bạn giống y trang mình đó 35 tuổi mà ko thông minh nhanh nhẹn bằng đưa 20 tuổi thật thà ngơ ngơ luôn trách bản thân mình "
                }
            ]
        },
        {
            "parent_comment": {
                "parent_content": " Vì vậy mà em hay nhảy việc, hay đổi môi trường thực chất là đang chạy trốn! "
            },
            "replies": [
                {
                    "reply_content": "Trường hợp bạn giống y trang mình đó 35 tuổi mà ko thông minh nhanh nhẹn bằng đưa 20 tuổi thật thà ngơ ngơ luôn trách bản thân mình "
                }
            ]
        },
        {
            "parent_comment": {
                "parent_content": "Trước đây e chưa từng nghĩ đến tự tử nhưng thời gian gần đây em như muôn thời gian ngừng trôi, muốn mình chỉ đến đây k muốn bước tiếp!"
            },
            "replies": [
                {
                    "reply_content": "Trường hợp bạn giống y trang mình đó 35 tuổi mà ko thông minh nhanh nhẹn bằng đưa 20 tuổi thật thà ngơ ngơ luôn trách bản thân mình "
                }
            ]
        },
        {
            "parent_comment": {
                "parent_content": "Đây là lời chia sẻ khi em đang trong lúc căng thẳng với chính mình( Em đang chạy trốn thực tại - ra ngắm biển thư giãn)"
            },
            "replies": [
                {
                    "reply_content": "Trường hợp bạn giống y trang mình đó 35 tuổi mà ko thông minh nhanh nhẹn bằng đưa 20 tuổi thật thà ngơ ngơ luôn trách bản thân mình "
                }
            ]
        },
        {
            "parent_comment": {
                "parent_content": "Em rất cần lời chia sẻ giống em! Mọi người đã vượt qua như thế nào ! "
            },
            "replies": [
                {
                    "reply_content": "Trường hợp bạn giống y trang mình đó 35 tuổi mà ko thông minh nhanh nhẹn bằng đưa 20 tuổi thật thà ngơ ngơ luôn trách bản thân mình "
                }
            ]
        },
        {
            "parent_comment": {
                "parent_content": "Có ai bị trầm cảm như em không ạ! "
            },
            "replies": [
                {
                    "reply_content": "Giống mình quá"
                }
            ]
        },
        {
            "parent_comment": {
                "parent_content": "Em bị áp lực-căng thẳng không phải gia đình, công việc mà chính bản thân em!"
            },
            "replies": [
                {
                    "reply_content": "Giống mình quá"
                }
            ]
        },
        {
            "parent_comment": {
                "parent_content": "Em tự nhận rằng: Em đang tồn tại chứ không phải đang sống"
            },
            "replies": [
                {
                    "reply_content": "Giống mình quá"
                }
            ]
        },
        {
            "parent_comment": {
                "parent_content": " Với người ta 24 tuổi thông minh, khôn khéo! Còn với em như hs lớp 9, lớp 10 dù vấp ngã nhiều trong cuộc sống, dù trải nghiệm nhiều, hiểu nhiều nhưng em vẫn ngây thơ, hồn nhiên ( nói thẳng ra là ngơ ngơ)"
            },
            "replies": [
                {
                    "reply_content": "Giống mình quá"
                }
            ]
        },
        {
            "parent_comment": {
                "parent_content": " Em rất thật thà lại chậm chạp cả hành động lẫn tư duy mà bản thân lại luôn muốn mọi thứ hoàn hảo!"
            },
            "replies": [
                {
                    "reply_content": "Giống mình quá"
                }
            ]
        },
        {
            "parent_comment": {
                "parent_content": "Trong tập thể hay bất cứ nơi nào, em cảm thấy mình  lạc lõng, nhạt nhoà"
            },
            "replies": [
                {
                    "reply_content": "Giống mình quá"
                }
            ]
        },
        {
            "parent_comment": {
                "parent_content": " Vì vậy mà em hay nhảy việc, hay đổi môi trường thực chất là đang chạy trốn! "
            },
            "replies": [
                {
                    "reply_content": "Giống mình quá"
                }
            ]
        },
        {
            "parent_comment": {
                "parent_content": "Trước đây e chưa từng nghĩ đến tự tử nhưng thời gian gần đây em như muôn thời gian ngừng trôi, muốn mình chỉ đến đây k muốn bước tiếp!"
            },
            "replies": [
                {
                    "reply_content": "Giống mình quá"
                }
            ]
        },
        {
            "parent_comment": {
                "parent_content": "Đây là lời chia sẻ khi em đang trong lúc căng thẳng với chính mình( Em đang chạy trốn thực tại - ra ngắm biển thư giãn)"
            },
            "replies": [
                {
                    "reply_content": "Giống mình quá"
                }
            ]
        },
        {
            "parent_comment": {
                "parent_content": "Em rất cần lời chia sẻ giống em! Mọi người đã vượt qua như thế nào ! "
            },
            "replies": [
                {
                    "reply_content": "Giống mình quá"
                }
            ]
        },
        {
            "parent_comment": {
                "parent_content": "Có ai bị trầm cảm như em không ạ! "
            },
            "replies": [
                {
                    "reply_content": "Giống y mình "
                }
            ]
        },
        {
            "parent_comment": {
                "parent_content": "Em bị áp lực-căng thẳng không phải gia đình, công việc mà chính bản thân em!"
            },
            "replies": [
                {
                    "reply_content": "Giống y mình "
                }
            ]
        },
        {
            "parent_comment": {
                "parent_content": "Em tự nhận rằng: Em đang tồn tại chứ không phải đang sống"
            },
            "replies": [
                {
                    "reply_content": "Giống y mình "
                }
            ]
        },
        {
            "parent_comment": {
                "parent_content": " Với người ta 24 tuổi thông minh, khôn khéo! Còn với em như hs lớp 9, lớp 10 dù vấp ngã nhiều trong cuộc sống, dù trải nghiệm nhiều, hiểu nhiều nhưng em vẫn ngây thơ, hồn nhiên ( nói thẳng ra là ngơ ngơ)"
            },
            "replies": [
                {
                    "reply_content": "Giống y mình "
                }
            ]
        },
        {
            "parent_comment": {
                "parent_content": " Em rất thật thà lại chậm chạp cả hành động lẫn tư duy mà bản thân lại luôn muốn mọi thứ hoàn hảo!"
            },
            "replies": [
                {
                    "reply_content": "Giống y mình "
                }
            ]
        },
        {
            "parent_comment": {
                "parent_content": "Trong tập thể hay bất cứ nơi nào, em cảm thấy mình  lạc lõng, nhạt nhoà"
            },
            "replies": [
                {
                    "reply_content": "Giống y mình "
                }
            ]
        },
        {
            "parent_comment": {
                "parent_content": " Vì vậy mà em hay nhảy việc, hay đổi môi trường thực chất là đang chạy trốn! "
            },
            "replies": [
                {
                    "reply_content": "Giống y mình "
                }
            ]
        },
        {
            "parent_comment": {
                "parent_content": "Trước đây e chưa từng nghĩ đến tự tử nhưng thời gian gần đây em như muôn thời gian ngừng trôi, muốn mình chỉ đến đây k muốn bước tiếp!"
            },
            "replies": [
                {
                    "reply_content": "Giống y mình "
                }
            ]
        },
        {
            "parent_comment": {
                "parent_content": "Đây là lời chia sẻ khi em đang trong lúc căng thẳng với chính mình( Em đang chạy trốn thực tại - ra ngắm biển thư giãn)"
            },
            "replies": [
                {
                    "reply_content": "Giống y mình "
                }
            ]
        },
        {
            "parent_comment": {
                "parent_content": "Em rất cần lời chia sẻ giống em! Mọi người đã vượt qua như thế nào ! "
            },
            "replies": [
                {
                    "reply_content": "Giống y mình "
                }
            ]
        }
    ]
}