{
    "post": "1278873892574792",
    "link": "https://facebook.com/groups/tamsuevagroup/permalink/1278873892574792",
    "post_comments": [
        {
            "parent_comment": {
                "parent_user": "Dang Huong",
                "parent_content": "Cho ông ck mượn cái váy mặc vào.bao ba con trai để tóc dài để xh nó chửi cho là peđê a xem ba ay bao sao?"
            },
            "replies": [
                {
                    "reply_user": "Minh Le",
                    "reply_content": " nói như người thần kinh vậy bạn"
                }
            ]
        },
        {
            "parent_comment": {
                "parent_user": "Thắng Trịnh",
                "parent_content": "Mẹ ck can thiệp vào chuyện chăm con of vkck bạn là đúng đó, ai cũng muốn con cháu đk mạnh khoẻ; giỏi dang; có tiếng; nhiều tiền và hạnh phúc đó bạn,,  Nhưng mẹ ck of bạn lại muốn con trai of bạn để tóc dài là nhầm mất rồi, con trai phải để tóc ngắn gọn gàng chứ sao mà cứ thích để tóc dài làm gì cho ngta vừa cười vừa ns cho ah (bạn thích để tóc con of bạn ngắn gọng gàng là đúng đó, mẹ ck of bạn lại bị nhầm là muốn để tóc con trai of bạn dài là nhầm lớn   có lẽ mẹ ck of bạn thích và ưa văn hóa thời trc mất rồi nên ms muốn để tóc con trai of bạn dài ra, còn ck of bạn mình thấy bạn viết trong bài đăng thì mình cảm thấy ck of bạn nghĩ khá là kém). Mình nghĩ bạn nên phân tích kỹ cho ck bạn + nhờ vài ng là bạn of vkck bạn phân tích vs ck bạn hộ bạn để bạn đk đúng, vui và đỡ chán. Thế đi bạn còn gì nữa bạn ns nốt nhé, mình chúc bạn vui vẻ nhiều trong cuộc sống  !"
            },
            "replies": [
                {
                    "reply_user": "Thắng Trịnh",
                    "reply_content": "Mình bđầu nằm ngủ cái ko buồn ngủ quá bởi đêm hqua mình ko ngủ thức đến tận bgiờ mất, có gì bạn ns  mình tham gia đk việc gì hay việc đó  !"
                }
            ]
        },
        {
            "parent_comment": {
                "parent_user": "Minh Le",
                "parent_content": "Có chừng mà e đã mệt mỏi rồi à, thôi về ngoại mà ở cho nó sướng"
            },
            "replies": [
                {
                    "reply_user": "Trần Thị Thanh Nguyệt",
                    "reply_content": " rồi lại than là cháu bà nội, tội bà ngoại."
                },
                {
                    "reply_user": "Minh Le",
                    "reply_content": " đúng vậy đó bạn"
                }
            ]
        }
    ]
}