{
    "post": "1162251814235272",
    "link": "https://facebook.com/groups/chuyencuato/permalink/1162251814235272",
    "post_comments": [
        {
            "parent_comment": {
                "parent_user": "Hoàng Quân",
                "parent_content": "Nhưng mà cái ảnh với cap nó cứ bị đối lập nhau "
            },
            "replies": [
                {
                    "reply_user": "Thảo Nguyên",
                    "reply_content": " ghi nhận điều này ạ"
                }
            ]
        },
        {
            "parent_comment": {
                "parent_user": "Mai Phương",
                "parent_content": "Thu Hà  "
            },
            "replies": [
                {
                    "reply_user": "Thu Hà",
                    "reply_content": "  tí hỏi"
                },
                {
                    "reply_user": "Mai Phương",
                    "reply_content": "  à thế ghê :))(("
                },
                {
                    "reply_user": "Thu Hà",
                    "reply_content": "  10h "
                }
            ]
        },
        {
            "parent_comment": {
                "parent_user": "Xích Hoạt Thương",
                "parent_content": "Huỳnh Ngọc Minh Khuê  :(("
            },
            "replies": [
                {
                    "reply_user": "Huỳnh Ngọc Minh Khuê",
                    "reply_content": "  j toi cá 100% em chả cần, nma toi coi việc nói chiện zới em, quan tâm em là niềm vui nên chịu z "
                },
                {
                    "reply_user": "Xích Hoạt Thương",
                    "reply_content": " Hmmmm"
                }
            ]
        }
    ]
}