{
    "post": "1154055578388229",
    "link": "https://facebook.com/groups/chuyencuato/permalink/1154055578388229",
    "post_comments": [
        {
            "parent_comment": {
                "parent_user": "Hoàng Lu",
                "parent_content": "Toi thuong cau, nhung cau lam toi buon qua"
            },
            "replies": [
                {
                    "reply_user": "Phan Thị Nguyệt Nhii",
                    "reply_content": " thôi nào, vui lên đi "
                },
                {
                    "reply_user": "Hoàng Lu",
                    "reply_content": " kaka dứt k dứt nổi, ở cũng k an lòng "
                },
                {
                    "reply_user": "Phan Thị Nguyệt Nhii",
                    "reply_content": " hiện tại mình cx v, biết rõ là sẽ kh có tương lai nmà lại kh bỏ đc, cứ kệ cho tới đâu thì tới."
                }
            ]
        },
        {
            "parent_comment": {
                "parent_user": "Do Thuy Trang",
                "parent_content": "ba điều này gộp thành một dc không nhỉ :)))"
            },
            "replies": [
                {
                    "reply_user": "Thiện Huỳnh",
                    "reply_content": "không nhé, chữ thương nó nặng lắm"
                }
            ]
        }
    ]
}