{
    "post": "1164847190642401",
    "link": "https://facebook.com/groups/chuyencuato/permalink/1164847190642401",
    "post_comments": [
        {
            "parent_comment": {
                "parent_user": "Phạm T. Ngà",
                "parent_content": "Okay "
            },
            "replies": [
                {
                    "reply_user": "Nguyễn Phan Ngọc Anh",
                    "reply_content": "  cố gắng lênnn ."
                }
            ]
        },
        {
            "parent_comment": {
                "parent_user": "Nguyễn Sun",
                "parent_content": "Có trách nhiệm với sự lựa chọn của bản thân, nhưng chọn đúng hay chưa thì bản thân tự nhận thấy"
            },
            "replies": [
                {
                    "reply_user": "Nguyễn Phan Ngọc Anh",
                    "reply_content": "   một đêm dài lắm mộng ."
                },
                {
                    "reply_user": "Nguyễn Sun",
                    "reply_content": " còn tui thì tối đắp mặt nạ mát ngủ ngon lắm bà"
                },
                {
                    "reply_user": "Nguyễn Phan Ngọc Anh",
                    "reply_content": "  còn tui tối nay học bài mai thuyết trình nè bà "
                },
                {
                    "reply_user": "Nguyễn Sun",
                    "reply_content": "Lên đi cho biết mùi đời con gái của ta"
                }
            ]
        },
        {
            "parent_comment": {
                "parent_user": "Lê Bích Ngọc",
                "parent_content": "Nó khó khăn khi mở miệng nhưng đưa ra rồi thì k thể rút lại."
            },
            "replies": [
                {
                    "reply_user": "Nguyễn Phan Ngọc Anh",
                    "reply_content": "  cố gắng lên cô gái ."
                }
            ]
        },
        {
            "parent_comment": {
                "parent_user": "Đoàn Thị Sơn Tuyền",
                "parent_content": ""
            },
            "replies": [
                {
                    "reply_user": "Nguyễn Phan Ngọc Anh",
                    "reply_content": " "
                }
            ]
        }
    ]
}