{
    "post": "1079114522549002",
    "link": "https://facebook.com/groups/chuyencuato/permalink/1079114522549002",
    "post_comments": [
        {
            "parent_comment": {
                "parent_user": "Đông Đông",
                "parent_content": "Iu"
            },
            "replies": [
                {
                    "reply_user": "Ngoc Diep",
                    "reply_content": " iu"
                },
                {
                    "reply_user": "Đông Đông",
                    "reply_content": "Như Vẫn Ngu pan iu mink hong ?"
                }
            ]
        },
        {
            "parent_comment": {
                "parent_user": "Vũ Lệ Huyền Chi",
                "parent_content": "Đừng viết bài buồn nữa mà, mình đọc mà thấy cô đơn vcl "
            },
            "replies": [
                {
                    "reply_user": "Nguyễn Thị Thư",
                    "reply_content": " ầu men"
                }
            ]
        },
        {
            "parent_comment": {
                "parent_user": "Pham Hoang Khanh Linh",
                "parent_content": "bùn"
            },
            "replies": [
                {
                    "reply_user": "Ngoc Diep",
                    "reply_content": "Phạm Hoàng Khánh Linh chuận sạdgur chưa =))"
                },
                {
                    "reply_user": "Pham Hoang Khanh Linh",
                    "reply_content": " gơ súp pơ sad lun rồi =)) "
                }
            ]
        }
    ]
}