{
    "post": "1159194664540987",
    "link": "https://facebook.com/groups/chuyencuato/permalink/1159194664540987",
    "post_comments": [
        {
            "parent_comment": {
                "parent_user": "Khắc Hy",
                "parent_content": "Vy Le Pham Khanh thay lời anh nói"
            },
            "replies": [
                {
                    "reply_user": "Vy Le Pham Khanh",
                    "reply_content": " vâng "
                }
            ]
        },
        {
            "parent_comment": {
                "parent_user": "Yến Nhi",
                "parent_content": "Nhu Anh"
            },
            "replies": [
                {
                    "reply_user": "Nhu Anh",
                    "reply_content": " nản "
                }
            ]
        }
    ]
}