{
    "post": "1153681448425642",
    "link": "https://facebook.com/groups/chuyencuato/permalink/1153681448425642",
    "post_comments": [
        {
            "parent_comment": {
                "parent_user": "Quân Nguyễn",
                "parent_content": "hay "
            },
            "replies": [
                {
                    "reply_user": "Đặng Nguyễn Kiều Vy",
                    "reply_content": " em cảm ơn ạ "
                }
            ]
        }
    ]
}