{
    "post": "1145946065865847",
    "link": "https://facebook.com/groups/chuyencuato/permalink/1145946065865847",
    "post_comments": [
        {
            "parent_comment": {
                "parent_user": "Thế Vũ",
                "parent_content": "Adu toii tim thay minh trong cau chuyen nay"
            },
            "replies": [
                {
                    "reply_user": "Ng Tram Anh",
                    "reply_content": " dậy sớm thế"
                }
            ]
        },
        {
            "parent_comment": {
                "parent_user": "La Vie En Rose",
                "parent_content": "tao vẫn ko thể ngờ 4 năm qua tao nhận lại là sự lừa dối của người mà tao tin tưởng nhất"
            },
            "replies": [
                {
                    "reply_user": "Thanh Trúc",
                    "reply_content": "Trần Dung tao cay dùm đm"
                },
                {
                    "reply_user": "La Vie En Rose",
                    "reply_content": "Thanhh Trúcc   "
                }
            ]
        }
    ]
}