{
    "post": "4807074072700289",
    "link": "https://facebook.com/groups/HCMUT.K18/permalink/4807074072700289",
    "post_comments": [
        {
            "parent_comment": {
                "parent_user": "Phạm Ngọc Phương Linh",
                "parent_content": "Mình hết slot ktsct rồi  trong khi đợt 1 có đk "
            },
            "replies": [
                {
                    "reply_user": "Nguyễn Khải",
                    "reply_content": " chào mừng bạn đến với hội ra trường trễ."
                }
            ]
        },
        {
            "parent_comment": {
                "parent_user": "Trần Thái Thịnh",
                "parent_content": "Thoai Phan Đào Quang Thái Đức Thắng kìa m "
            },
            "replies": [
                {
                    "reply_user": "Đức Thắng",
                    "reply_content": "lý do là gì cho hợp lý đây "
                }
            ]
        },
        {
            "parent_comment": {
                "parent_user": "Phạm Hoàng Khôi",
                "parent_content": "ý kiến ôn hoà nha mọi người, tránh sử dụng ngôn ngữ kích động vì sẽ trình qua GV ávà mọi người làm xong sớm trước chiều vì chiều GV họp"
            },
            "replies": [
                {
                    "reply_user": "Ngo Thanh Long",
                    "reply_content": " có kí tên nhớ cho địa chỉ lên kí nha ô"
                },
                {
                    "reply_user": "Phạm Hoàng Khôi",
                    "reply_content": " ừ ừ tới đó tui sẽ đăng"
                }
            ]
        },
        {
            "parent_comment": {
                "parent_user": "Triệu Vĩ",
                "parent_content": "Lương Toàn Thắng Toàn Bảo Long Vương"
            },
            "replies": [
                {
                    "reply_user": "Lương Toàn Thắng",
                    "reply_content": "nghỉ về nhà"
                }
            ]
        },
        {
            "parent_comment": {
                "parent_user": "Hào Nguyễn",
                "parent_content": "Phan Lê Bảo Hiếu Cao Minh Điền Mạnh Đạt Lâm Minh Tâm Long Dũng Minh Huấn Lý Đạt"
            },
            "replies": [
                {
                    "reply_user": "Lâm Minh Tâm",
                    "reply_content": " điền cho t luôn nha "
                }
            ]
        },
        {
            "parent_comment": {
                "parent_user": "Pham Thanh Phu",
                "parent_content": "Tân Phạm Sang Đào cho ý kiến đi mấy bro"
            },
            "replies": [
                {
                    "reply_user": "Sang Đào",
                    "reply_content": " mở thêm lớp thép 1. Xin hết"
                },
                {
                    "reply_user": "Pham Thanh Phu",
                    "reply_content": " cho ý kiến về vc chuyển địa điểm mở lớp  sang cs2 "
                }
            ]
        },
        {
            "parent_comment": {
                "parent_user": "Sang Đào",
                "parent_content": "Nguyễn Nhân "
            },
            "replies": [
                {
                    "reply_user": "Nhân Nguyễn",
                    "reply_content": "Nhân đã viết lý do dài 3 4 trang rồi"
                }
            ]
        },
        {
            "parent_comment": {
                "parent_user": "Trang Cao",
                "parent_content": "Xin Trường cho ai ở cs nào ở yên cs đó. Cả 1 năm đi học B1 hít bụi + tiếng ồn vì B1 sửa cho đã đời rồi xuống H3 học Liên Nguyễn"
            },
            "replies": [
                {
                    "reply_user": "Phạm Hoàng Khôi",
                    "reply_content": " sau khi sửa thì nhường lại OISPghi thêm vào, nên được đối xử công bằng như OISP"
                }
            ]
        },
        {
            "parent_comment": {
                "parent_user": "Quang Đạt",
                "parent_content": "Tuấn Nguyễn"
            },
            "replies": [
                {
                    "reply_user": "Tuấn Nguyễn",
                    "reply_content": "t làm ròi"
                }
            ]
        },
        {
            "parent_comment": {
                "parent_user": "Hải Trần",
                "parent_content": "Điệp Võ  Hải Nguyen "
            },
            "replies": [
                {
                    "reply_user": "Hải Nguyen",
                    "reply_content": " chạy tụt  để đi hc :c "
                },
                {
                    "reply_user": "Hải Trần",
                    "reply_content": " thì dọn dìa ktx dứ ở (nếu đx)"
                }
            ]
        },
        {
            "parent_comment": {
                "parent_user": "Nguyễn Duy Đạt",
                "parent_content": "MTuyen Bui "
            },
            "replies": [
                {
                    "reply_user": "MTuyen Bui",
                    "reply_content": "thấy mùi k hoãn được đâu"
                }
            ]
        },
        {
            "parent_comment": {
                "parent_user": "Ngọc Hân",
                "parent_content": "Mỹ Ngân Lê Khánh Uyên "
            },
            "replies": [
                {
                    "reply_user": "Lê Khánh Uyên",
                    "reply_content": " mới điền lun"
                }
            ]
        },
        {
            "parent_comment": {
                "parent_user": "Luân Tôn",
                "parent_content": "Ủa vụ gì hot v m Phạm Hoàng Khôi "
            },
            "replies": [
                {
                    "reply_user": "Phạm Hoàng Khôi",
                    "reply_content": " à mấy môn tự chọn khoa điện mở cs2 không mở cs1một số môn chuyên ngành cũng vậymà năm 3 năm 4 toàn học tự chọnB1 xây đẹp giờ tính để OISP"
                },
                {
                    "reply_user": "Luân Tôn",
                    "reply_content": " đen :))"
                },
                {
                    "reply_user": "Phạm Hoàng Khôi",
                    "reply_content": " đen gì, cảm giác thiên vị OISP"
                },
                {
                    "reply_user": "Luân Tôn",
                    "reply_content": " đúng kiểu v luôn chứ cảm giác gì nữa "
                },
                {
                    "reply_user": "Phạm Hoàng Khôi",
                    "reply_content": " B1 bao năm nay khoa điện đại trà họcsửa hết nửa kì lắp máy lạnh chuyển tụi tao xuống C5-C6rồi giờ im im điều thẳng về cs2 với lí do hết chỗ để OISPok cũng chấp nhận vì kinh tế đi, nhưng mail thông báo trước ít nhất 1 kì để thu xếp"
                },
                {
                    "reply_user": "Luân Tôn",
                    "reply_content": " không riêng gì điện đâu m, cơ khí cũng học H3 cmn luôn :))), chán"
                },
                {
                    "reply_user": "Phạm Hoàng Khôi",
                    "reply_content": " thôi thì ý kiến nhẹ nhàng nhà trường có ghi nhận thì tốt không thì cũng chịu"
                },
                {
                    "reply_user": "Luân Tôn",
                    "reply_content": " ok, điền cho vui th chớ t học ở cs1 hết r "
                },
                {
                    "reply_user": "Phạm Hoàng Khôi",
                    "reply_content": " t cũng còn 1-2 môn nhưng thấy khó chịu"
                }
            ]
        },
        {
            "parent_comment": {
                "parent_user": "Trần Đạt",
                "parent_content": "Tội chị Nguyễn Mai Hiền Trinh  có 6 môn cs2 chứ nhiêu :))"
            },
            "replies": [
                {
                    "reply_user": "Nguyễn Mai Hiền Trinh",
                    "reply_content": "T táng à :))))))"
                },
                {
                    "reply_user": "Trần Đạt",
                    "reply_content": "Mỹ Hân phải như ở yên dưới là dc goyyy :))"
                }
            ]
        },
        {
            "parent_comment": {
                "parent_user": "Minh Phúc",
                "parent_content": "Đại Phúc Trần Trọng Phúc Thiên Phúc Hồng Phú Phạm Nhung"
            },
            "replies": [
                {
                    "reply_user": "Thiên Phúc",
                    "reply_content": " thôi, để t chuyển về dưới kia luôn "
                }
            ]
        },
        {
            "parent_comment": {
                "parent_user": "Huỳnh Nhật Long",
                "parent_content": "Oanh Ngo Nguyễn Huỳnh Thảo Nhi Thảo Oanh Nguyễn Huỳnh Thảo Nhi Hậu Lê Lý Uyên Nhi "
            },
            "replies": [
                {
                    "reply_user": "Thảo Oanh",
                    "reply_content": " t điền 100 cái đc t điền liền ớ"
                }
            ]
        },
        {
            "parent_comment": {
                "parent_user": "Nguyễn Như Tài",
                "parent_content": "Hòa KaKaTrần Vĩnh ThuậnKhoa Lê biểu tình ko kìa"
            },
            "replies": [
                {
                    "reply_user": "Hòa KaKa",
                    "reply_content": " hc dưới đó để còn về thăm em út nữa chứ "
                }
            ]
        },
        {
            "parent_comment": {
                "parent_user": "Nguyễn Văn Trọng",
                "parent_content": "Phạm Thanh Xuân tôi ngồi gáy với cậu học 3 đa như thật nhưng tôi có dk dc éo đâu :((((((((((((((("
            },
            "replies": [
                {
                    "reply_user": "Trọng Nghĩa",
                    "reply_content": " im đi mấy đứa không bị dời cơ sở"
                },
                {
                    "reply_user": "Nguyễn Văn Trọng",
                    "reply_content": "trên đã quyết thì phản đối bằng giời cậu ạ"
                }
            ]
        },
        {
            "parent_comment": {
                "parent_user": "Vũ Hưng",
                "parent_content": "Hoàng Kha  dô biểu tình"
            },
            "replies": [
                {
                    "reply_user": "Hoàng Kha",
                    "reply_content": " rồi rồi"
                }
            ]
        },
        {
            "parent_comment": {
                "parent_user": "Ngo Thanh Long",
                "parent_content": "Cho địa chỉ để lên kí tên nha"
            },
            "replies": [
                {
                    "reply_user": "Quốc Đạt",
                    "reply_content": "tưởng tượng 2 năm đầu học cs1 2 năm sau học cs2 =))"
                },
                {
                    "reply_user": "Ngo Thanh Long",
                    "reply_content": "báo thầy Thông điii"
                },
                {
                    "reply_user": "Quốc Đạt",
                    "reply_content": "nhanh trí đăng ký hồ sơ sinh viên khác để được sài demo tiếp"
                },
                {
                    "reply_user": "Ngo Thanh Long",
                    "reply_content": " xài ko đc cũng lm cho ko ai xaid"
                },
                {
                    "reply_user": "Quốc Đạt",
                    "reply_content": " mean quá ông ơi, \"mean\" trong \"meaningful\" á"
                },
                {
                    "reply_user": "Ngo Thanh Long",
                    "reply_content": "Cuong Pham ae lên với tuiii"
                }
            ]
        },
        {
            "parent_comment": {
                "parent_user": "Hải Nguyen",
                "parent_content": "Đăng Khoa Leo  Lê Xuân Quỳnh "
            },
            "replies": [
                {
                    "reply_user": "Lê Xuân Quỳnh",
                    "reply_content": "đag rất mệt mõi rồi."
                }
            ]
        },
        {
            "parent_comment": {
                "parent_user": "Mai Thế Thiện",
                "parent_content": "Nguyễn Nhân "
            },
            "replies": [
                {
                    "reply_user": "Nhân Nguyễn",
                    "reply_content": " điền 3 trang ngay"
                },
                {
                    "reply_user": "Mai Thế Thiện",
                    "reply_content": " k thì về thăm a Cường "
                }
            ]
        },
        {
            "parent_comment": {
                "parent_user": "Nguyễn Thuỳ Linh",
                "parent_content": "Minh Tri Truong "
            },
            "replies": [
                {
                    "reply_user": "Trương Minh Trí",
                    "reply_content": " mong là có người đọc thiệt"
                }
            ]
        },
        {
            "parent_comment": {
                "parent_user": "Đạt Đào",
                "parent_content": "Phạm Hoàng Khôi mình đã điền form rồi, cho mình hỏi form này do bạn tự làm hay PĐT làm vậy "
            },
            "replies": [
                {
                    "reply_user": "Đạt Đào",
                    "reply_content": "Phạm Hoàng Khôi vậy kết quả form này sẽ được gửi lên cho thầy cô PĐT đúng hông bạn, để mình chia sẻ thêm cho nhiều bạn khác làm ^^"
                }
            ]
        },
        {
            "parent_comment": {
                "parent_user": "Minh Hai Tran Pham",
                "parent_content": "Trương Như Cao Anh  ý kiến đi"
            },
            "replies": [
                {
                    "reply_user": "Trương Như Cao Anh",
                    "reply_content": "Thôi đouma mắc công bị nói cocc nữa :)))"
                }
            ]
        },
        {
            "parent_comment": {
                "parent_user": "Nguyen Cong Toan",
                "parent_content": "Trần Huyền Trân"
            },
            "replies": [
                {
                    "reply_user": "Trần Huyền Trân",
                    "reply_content": " chờ 1 phép màu  "
                },
                {
                    "reply_user": "Nguyen Cong Toan",
                    "reply_content": "tag thêm mấy đứa bạn m đi"
                },
                {
                    "reply_user": "Trần Huyền Trân",
                    "reply_content": "Thịnh Trương Minh Thư "
                }
            ]
        },
        {
            "parent_comment": {
                "parent_user": "Tùng Minh Lê",
                "parent_content": "Nguyễn Mai Hiền Trinh s 6 môn dữ dị e gái iu :)))"
            },
            "replies": [
                {
                    "reply_user": "Nguyễn Mai Hiền Trinh",
                    "reply_content": " cũng \"thường\" thôi chị, còn gì nữa tới 1 lượt luôn đi, e cũng đâu đỡ nổi :)))"
                }
            ]
        },
        {
            "parent_comment": {
                "parent_user": "Minh Đăng",
                "parent_content": "Duy Lê dô nè Duy "
            },
            "replies": [
                {
                    "reply_user": "Minh Đăng",
                    "reply_content": " Nhật Thiên "
                }
            ]
        },
        {
            "parent_comment": {
                "parent_user": "Phạm Hoàng Khôi",
                "parent_content": "Mọi người ơi, hiện tại đã được 300 người ý kiến, nếu khoảng 500 người và thầy cô nói thêm thì có thể sẽ \"thay đổi cục diện\"Một số môn trước nay luôn mở cs1 mà nay đổi xuống cs2 thì nguy cơ hủy là có vì GV không đồng ý dạyChúng ta sẽ mất quyền lợi vì … Xem thêm"
            },
            "replies": [
                {
                    "reply_user": "Phạm Ngọc Phương Linh",
                    "reply_content": "500 + 500 là khoảng 1000 thì oke  "
                },
                {
                    "reply_user": "Phạm Hoàng Khôi",
                    "reply_content": "Ngo Thanh Long khi nào có yêu cầu xác thực từ PĐT"
                }
            ]
        }
    ]
}