{
    "post": "878180939674360",
    "link": "https://facebook.com/groups/470834853742306/permalink/878180939674360",
    "post_comments": [
        {
            "parent_comment": {
                "parent_user": "Quang Minh",
                "parent_content": "Toàn mấy thằng loz học thì đéo lo học nhưng mà đòi lương cao"
            },
            "replies": [
                {
                    "reply_user": "Chu Long",
                    "reply_content": "  em hỏi mặt bằng chung thôi ạ, tại cũng ko hiểu lý do ko ai chọn chuyên ngành đó"
                }
            ]
        },
        {
            "parent_comment": {
                "parent_user": "Quang Ngoc",
                "parent_content": "Theo năng lực nha"
            },
            "replies": [
                {
                    "reply_user": "Quang Ngoc",
                    "reply_content": "Mà bạn k19 hay 20 vậy"
                }
            ]
        },
        {
            "parent_comment": {
                "parent_user": "Rùa Con",
                "parent_content": "bên hóa thì có hóa dầu khí với hóa thực phẩm là ngon, hóa thiết bị theo quan điểm của mình thì hơi chán."
            },
            "replies": [
                {
                    "reply_user": "Đăng Nguyễn",
                    "reply_content": " mình thì thấy hữu cơ với thực phẩm nhiều việc làm ổn hơn, lương đồ cũng ok hơn, hóa dầu thì hơi chua, hông tự nhiên mà hữu cơ với thực phẩm hot nhất khoa hóa đâu :)), còn dầu với qt thiết bị lại là chuyên ngành hông hot của khoa đâu, có lý do hết á :))"
                },
                {
                    "reply_user": "Rùa Con",
                    "reply_content": "Dang Nguyen tại bây giờ vấn đề biển Đông với China đang căng thẳng, chứ nếu bình thường VN được khai thác các mỏ dầu ở đó thì hóa dầu khí bao ngon, lương cao lắm."
                },
                {
                    "reply_user": "Đăng Nguyễn",
                    "reply_content": " vậy mới nói á, tương lai chưa biết ra sao thì người học cũng thấy mơ hồ á, mà học gì thì học miễn giỏi là hông thiếu việc mà làm "
                },
                {
                    "reply_user": "Rùa Con",
                    "reply_content": "Dang Nguyen đâu có, giỏi là một chuyện, nhu cầu của xã hội là một chuyện nữa.Ví dụ như nguồn cung toàn hàng chất lượng nhưng cầu thấp thì cũng ế thôi."
                }
            ]
        },
        {
            "parent_comment": {
                "parent_user": "Nguyễn Lê Ngọc Sơn",
                "parent_content": "Hữu Hân Nguyễn Nghe quen nhỉ =)))) "
            },
            "replies": [
                {
                    "reply_user": "Hữu Hân Nguyễn",
                    "reply_content": "  ib a Phú sẽ có cái nhìn rõ hơn"
                }
            ]
        },
        {
            "parent_comment": {
                "parent_user": "Minh Dũng Hoàng",
                "parent_content": "Hưng Ca Ca nghe đồn ông..."
            },
            "replies": [
                {
                    "reply_user": "Hưng Ca Ca",
                    "reply_content": " thầy trưởng khoa nói ngành xương sống của khoa đó "
                },
                {
                    "reply_user": "Minh Dũng Hoàng",
                    "reply_content": " thì tui có nói gì đâu :))"
                },
                {
                    "reply_user": "Hưng Ca Ca",
                    "reply_content": " còn tui đ biết tui có thành xương sống được hong "
                },
                {
                    "reply_user": "Minh Dũng Hoàng",
                    "reply_content": " ông là xương chậu hoy "
                },
                {
                    "reply_user": "Hưng Ca Ca",
                    "reply_content": " còn ông là chỗ nào mà đ có xương nhưng vẫn cứng đó "
                },
                {
                    "reply_user": "Minh Dũng Hoàng",
                    "reply_content": " nghe nói chỗ đó ông ko có? "
                },
                {
                    "reply_user": "Hưng Ca Ca",
                    "reply_content": " t có 2 cái lun dmmmnn "
                }
            ]
        },
        {
            "parent_comment": {
                "parent_user": "The Nhu",
                "parent_content": "Quang Vũ "
            },
            "replies": [
                {
                    "reply_user": "Quang Vũ",
                    "reply_content": " hmmmm có ông nào đó nói dùm phía trên r nên k nói nữa"
                }
            ]
        }
    ]
}