{
    "post": "889982388494215",
    "link": "https://facebook.com/groups/470834853742306/permalink/889982388494215",
    "post_comments": [
        {
            "parent_comment": {
                "parent_user": "Đỗ Danh",
                "parent_content": "năng lực tốt thế, mà dùng sai chỗ, nghĩ cũng buồn"
            },
            "replies": [
                {
                    "reply_user": "Nguyễn Minh Tân",
                    "reply_content": " Bạn tui nói ông rồi. T canh đúng thời điểm là lụm ổng"
                },
                {
                    "reply_user": "Đỗ Danh",
                    "reply_content": " phải v thôi, nhiều lần cảnh cáo mà vẫn k quay đầu :(("
                }
            ]
        },
        {
            "parent_comment": {
                "parent_user": "Lâm Xuân",
                "parent_content": "1988?"
            },
            "replies": [
                {
                    "reply_user": "Trọng Tấn",
                    "reply_content": " 1998 a zai eiii, hóng hớt cc "
                },
                {
                    "reply_user": "Lâm Xuân",
                    "reply_content": " ủa anh Tấn chui dô gr tụi em chi"
                },
                {
                    "reply_user": "Trọng Tấn",
                    "reply_content": "  e ở khu vực này lâu r a ạ"
                }
            ]
        },
        {
            "parent_comment": {
                "parent_user": "Tuan Minh",
                "parent_content": "Hữu Mẫn  nè bạn"
            },
            "replies": [
                {
                    "reply_user": "Hải Khiêm",
                    "reply_content": " vãi lol Việt Pháp"
                },
                {
                    "reply_user": "Tuan Minh",
                    "reply_content": " m đồng phạm đúng k "
                },
                {
                    "reply_user": "Hải Khiêm",
                    "reply_content": " Oan quá "
                }
            ]
        },
        {
            "parent_comment": {
                "parent_user": "Minh Tân",
                "parent_content": "*Sinh 1998* "
            },
            "replies": [
                {
                    "reply_user": "Nguyễn Hữu Khang",
                    "reply_content": " 1988 nghe ảo =))"
                }
            ]
        },
        {
            "parent_comment": {
                "parent_user": "Nguyễn Trần Duy Lam",
                "parent_content": "Nguyen Viet Thong Vcl ông ơi = ))))"
            },
            "replies": [
                {
                    "reply_user": "Nguyen Viet Thong",
                    "reply_content": " chịu =))"
                }
            ]
        }
    ]
}