{
    "post": "924066898419097",
    "link": "https://facebook.com/groups/470834853742306/permalink/924066898419097",
    "post_comments": [
        {
            "parent_comment": {
                "parent_user": "Lý Tài",
                "parent_content": "có nha bạn, cứ bình tĩnh xin làm lại với gvhd ở học kỳ sau thôi"
            },
            "replies": [
                {
                    "reply_user": "Nguyễn Hùng",
                    "reply_content": " cho mình hỏi có phải Lý Thành Tài học KHMT ko?"
                },
                {
                    "reply_user": "Lý Tài",
                    "reply_content": " ủa s biết "
                },
                {
                    "reply_user": "Nguyễn Hùng",
                    "reply_content": " đúng hả, hồi đó học chung cnpm thầy thắng, làm btl chung"
                },
                {
                    "reply_user": "Lý Tài",
                    "reply_content": " cũng k, nếu chịu khó đi báo cáo đủ, k đủ cũng k s, nhưng nhớ giữ liên lạc với thầy, t là thầy Sách + Rạng hồi đó"
                },
                {
                    "reply_user": "Nguyễn Hùng",
                    "reply_content": " làm với thầy Sách chắc thầy khó lắm à, cỡ làm ko được thầy S la dữ lắm luôn."
                },
                {
                    "reply_user": "Lý Tài",
                    "reply_content": " kỳ 19 ấy, mà k nhớ 19 mấy"
                }
            ]
        },
        {
            "parent_comment": {
                "parent_user": "Trần Minh Tuấn",
                "parent_content": "K đc lên bảo vệ nghĩa là lvtn k đủ để lên r. Còn đã đc lên bảo vệ nghĩa là khả năng rất cao là qua môn. Gvhd k dám cho bài lvtn k đạt lên đâu, còn đâu mặt mũi."
            },
            "replies": [
                {
                    "reply_user": "Nguyễn Hùng",
                    "reply_content": " được lên bảo vệ là đã qua rồi"
                },
                {
                    "reply_user": "Trần Minh Tuấn",
                    "reply_content": " uh còn k đc lên tức lv có vấn đề r"
                }
            ]
        },
        {
            "parent_comment": {
                "parent_user": "Lâm Chấn Thương",
                "parent_content": "Lvtn là gi v mn"
            },
            "replies": [
                {
                    "reply_user": "Nguyễn Thi",
                    "reply_content": " luận văn tốt nghiệp"
                },
                {
                    "reply_user": "Lâm Chấn Thương",
                    "reply_content": " bk cũng có luận văn à ta,tưởng đâu đồ án tốt nghiệp "
                }
            ]
        },
        {
            "parent_comment": {
                "parent_user": "Lui Sui Wai",
                "parent_content": "Bạn \"bị\" rồi hay chuẩn bị \"bị\" ?"
            },
            "replies": [
                {
                    "reply_user": "Nguyễn Hùng",
                    "reply_content": "Terrance Lui sắp bị"
                }
            ]
        }
    ]
}