{
    "post": "920637872095333",
    "link": "https://facebook.com/groups/470834853742306/permalink/920637872095333",
    "post_comments": [
        {
            "parent_comment": {
                "parent_user": "Rùa Con",
                "parent_content": "coi danh sách cảnh cáo học vụ ở đâu vậy mấy bạn ?"
            },
            "replies": [
                {
                    "reply_user": "Trương Thành Gia Thịnh",
                    "reply_content": " http://www.aao.hcmut.edu.vn/.../data/Tra_cuu/xem_danhsach..."
                }
            ]
        },
        {
            "parent_comment": {
                "parent_user": "Minh Anh",
                "parent_content": "Mình đủ chỉ > hơn 10 nhân học kì. Điểm cũng trên 5 mà lại có tên trong cảnh cáo vậy ạ? Có ai bị giống mình khônn?"
            },
            "replies": [
                {
                    "reply_user": "Minh Khôi",
                    "reply_content": " lên xem thử quy chế lại bà"
                }
            ]
        },
        {
            "parent_comment": {
                "parent_user": "Phạm Nhật Nam",
                "parent_content": "3 kì dưới 27 bị cchv á, có Mail mà vào coi không có thì k sao"
            },
            "replies": [
                {
                    "reply_user": "Nhung Nguyễn",
                    "reply_content": "  bạn có mail nói 3 kì dưới 27 chỉ ko chụp cho mình xem với. Mình chả thấy mail gì cả "
                },
                {
                    "reply_user": "Phạm Nhật Nam",
                    "reply_content": " "
                }
            ]
        }
    ]
}