{
    "post": "880888836070237",
    "link": "https://facebook.com/groups/470834853742306/permalink/880888836070237",
    "post_comments": [
        {
            "parent_comment": {
                "parent_user": "Thien Nguyen",
                "parent_content": "Ủa chứ trước giờ vẫn tính tiền theo chỉ mà nhỉ?"
            },
            "replies": [
                {
                    "reply_user": "Phạm Gia Hưng",
                    "reply_content": " từ k19 tính theo gói 14-17 là 1 mức tiền ấy anh, hơn bao nhiêu tính bấy nhiêu"
                },
                {
                    "reply_user": "Thien Nguyen",
                    "reply_content": "oh nay tính tiền phức tạp quá nhỉ =="
                }
            ]
        },
        {
            "parent_comment": {
                "parent_user": "Ngô Vĩnh Lợi",
                "parent_content": "Dư 1 chỉ thì tính tiền của 1 chỉ"
            },
            "replies": [
                {
                    "reply_user": "Quoc Anh",
                    "reply_content": " là trả 5850 + tiền của những chỉ thêm phải không anh"
                }
            ]
        }
    ]
}