{
    "post": "872568576902263",
    "link": "https://facebook.com/groups/470834853742306/permalink/872568576902263",
    "post_comments": [
        {
            "parent_comment": {
                "parent_user": "Lê Văn Hoàn",
                "parent_content": "Có nên đăng kí luôn vào đợt này không..PĐT xóa cái là học dự thính chết mọe. mà dự thính éo mở thì ăn luôn con éo có tkb là ăn cám"
            },
            "replies": [
                {
                    "reply_user": "Nguyễn Khải",
                    "reply_content": " mình nghĩ là ko"
                },
                {
                    "reply_user": "Lê Văn Hoàn",
                    "reply_content": " Pđt chơi mập mờ quá.. hành nhau mấy năm rồi mà vẫn muốn hành nữa.. "
                }
            ]
        },
        {
            "parent_comment": {
                "parent_user": "Nguyễn Trung Đức",
                "parent_content": "Thế h sao, đăng thêm hay đk hết  "
            },
            "replies": [
                {
                    "reply_user": "Thùy Trang",
                    "reply_content": " đi thêm bạn à "
                }
            ]
        },
        {
            "parent_comment": {
                "parent_user": "Nguyễn Thành Danh",
                "parent_content": "làm sao đk toàn bộ được. mấy môn đã đk rồi muốn xóa cũng có được đâu. đợt sau mới xóa được"
            },
            "replies": [
                {
                    "reply_user": "Huy Nguyễn",
                    "reply_content": " đợt 3 không xóa, chỉ dky thêm nhé"
                },
                {
                    "reply_user": "Nguyễn Thành Danh",
                    "reply_content": "  chắc k fen. chứ môn đợt 1 chưa kịp xoá thì đã bị khoá lại rồi. "
                },
                {
                    "reply_user": "Huy Nguyễn",
                    "reply_content": " đợt 3 chính xác là có thể xóa và dky thêm môn khác. Nhưng số chỉ phải >= số chỉ dky đợt 2"
                },
                {
                    "reply_user": "Nguyễn Thành Danh",
                    "reply_content": " ủa kì vậy. xoá môn s = đươc ta. cảm ơn nha fen. "
                }
            ]
        }
    ]
}