{
    "post": "920631298762657",
    "link": "https://facebook.com/groups/470834853742306/permalink/920631298762657",
    "post_comments": [
        {
            "parent_comment": {
                "parent_user": "Le Duc Anh",
                "parent_content": "Đc hết e nha có chữ ký gvcn là đc rồi"
            },
            "replies": [
                {
                    "reply_user": "Minh Đức",
                    "reply_content": " dạ a,mà có khả năng được thu nhận lại không a."
                },
                {
                    "reply_user": "Le Duc Anh",
                    "reply_content": " a thấy có bạn tích đc 13/30 chỉ sau 3hk vẫn sống bth"
                },
                {
                    "reply_user": "Minh Đức",
                    "reply_content": " dạ vâng cảm ơn a"
                },
                {
                    "reply_user": "Le Duc Anh",
                    "reply_content": "Phạm Nhật Nam giả cũng đc  nhờ đứa khác ký cho chắc"
                }
            ]
        },
        {
            "parent_comment": {
                "parent_user": "Lê Đức Trọng",
                "parent_content": "Thoải mái nha e. Viết đơn đi"
            },
            "replies": [
                {
                    "reply_user": "Phan Bá Hiếu",
                    "reply_content": "  có kn có khác "
                },
                {
                    "reply_user": "Lê Đức Trọng",
                    "reply_content": " chuyện nữa"
                }
            ]
        }
    ]
}