{
    "post": "880414512784336",
    "link": "https://facebook.com/groups/470834853742306/permalink/880414512784336",
    "post_comments": [
        {
            "parent_comment": {
                "parent_user": "Nguyễn Khải",
                "parent_content": "Thì cứ đi thực tập, có báo cáo kỳ hè nộp vô sau."
            },
            "replies": [
                {
                    "reply_user": "Nhân Vũ",
                    "reply_content": "quan trọng là thực tập hè thì đề cương kỳ 1 năm sau mới làm dc, khi đó thì hết tg đào tạo để làm lvtn"
                }
            ]
        },
        {
            "parent_comment": {
                "parent_user": "Quang Vinhh",
                "parent_content": "TT hè đi bạn, chứ tình hình v ra trường cũng k kịp đâu, khuyên thật vì mình từng bị"
            },
            "replies": [
                {
                    "reply_user": "Nguyễn Khải",
                    "reply_content": " ừ đúng rồi, với lại nếu đk thực tập trong kỳ chính bị giới hạn tín chỉ mà, kỳ sau 12 chỉ, kỳ 211 vừa đk luận văn vừa đk môn được 12 chỉ nữa mới được có 134 chỉ, đó là nếu đăng ký được môn và không còn rớt môn nào nữa. "
                }
            ]
        }
    ]
}