{
    "post": "783595842575592",
    "link": "https://facebook.com/groups/608021373466374/permalink/783595842575592",
    "post_comments": [
        {
            "parent_comment": {
                "parent_user": "Nguyễn Viết Hà",
                "parent_content": "Tiếng tôi vang rừng núiiiiiiiii "
            },
            "replies": [
                {
                    "reply_user": "Huỳnh Thanh",
                    "reply_content": "  sao hong ai trả lờii"
                },
                {
                    "reply_user": "Nguyễn Viết Hà",
                    "reply_content": "  có người vừa trả lời rồiiiiii "
                },
                {
                    "reply_user": "Huỳnh Thanh",
                    "reply_content": "  dạ chú "
                },
                {
                    "reply_user": "Nguyễn Viết Hà",
                    "reply_content": "  Anhhhhhhhhh chứ "
                },
                {
                    "reply_user": "Huỳnh Thanh",
                    "reply_content": "  chú với bé "
                },
                {
                    "reply_user": "Nguyễn Viết Hà",
                    "reply_content": "  nhỡ ít tuổi hơn Bé thì saooooo "
                }
            ]
        }
    ]
}