{
    "post": "781854219416421",
    "link": "https://facebook.com/groups/608021373466374/permalink/781854219416421",
    "post_comments": [
        {
            "parent_comment": {
                "parent_user": "Khánhh Bình",
                "parent_content": "Lấy idea của phúc du à ?"
            },
            "replies": [
                {
                    "reply_user": "Bùi Tấn Phát",
                    "reply_content": " đúng rồi ạ, nhưng mình ko stolen là đc :))"
                },
                {
                    "reply_user": "Khánhh Bình",
                    "reply_content": "Đúng r ghi cái cre vào ng anh em"
                },
                {
                    "reply_user": "Bùi Tấn Phát",
                    "reply_content": "oki đã edit hihi"
                }
            ]
        },
        {
            "parent_comment": {
                "parent_user": "Trần Lan Hương",
                "parent_content": "Ăn một ký ức nghe cứ thế nào ấy :)) để nguyên là \"mất một ký ức\" như Phúc Du nghe vẫn oke hơn"
            },
            "replies": [
                {
                    "reply_user": "Trần Minh Phúc",
                    "reply_content": "Ức gà ức đồ ấy "
                },
                {
                    "reply_user": "Trần Lan Hương",
                    "reply_content": " tôi hiểu ký ức là ký ức gà. ông không cần phải giảng :)) ý tôi là post này dùng từ không hay bằng nguyên bản"
                },
                {
                    "reply_user": "Trần Minh Phúc",
                    "reply_content": "À ừ nghĩ kĩ lại thì đúng thật "
                },
                {
                    "reply_user": "Trần Lan Hương",
                    "reply_content": "Nguyễn Chánh Huy chị cũng thích ăn ức "
                }
            ]
        },
        {
            "parent_comment": {
                "parent_user": "Nguyen Anh",
                "parent_content": "Phạm Bảo Minh vjp "
            },
            "replies": [
                {
                    "reply_user": "Phạm Bảo Minh",
                    "reply_content": " 1 ký ức là 1 cứt ý hả "
                },
                {
                    "reply_user": "Nguyen Anh",
                    "reply_content": "  1 kg ức gà mỗi ngày "
                },
                {
                    "reply_user": "Phạm Bảo Minh",
                    "reply_content": " àaaaaa ăn gì cả ký "
                },
                {
                    "reply_user": "Nguyen Anh",
                    "reply_content": " dân gymmm"
                }
            ]
        }
    ]
}