{
    "post": "781228169479026",
    "link": "https://facebook.com/groups/608021373466374/permalink/781228169479026",
    "post_comments": [
        {
            "parent_comment": {
                "parent_user": "Phan Long Hải",
                "parent_content": "Trương Hữu Quyết "
            },
            "replies": [
                {
                    "reply_user": "Trương Hữu Quyết",
                    "reply_content": " đừng có tag t vào mấy cái như này nữa, t thích lắm!"
                },
                {
                    "reply_user": "Phan Long Hải",
                    "reply_content": " chode"
                },
                {
                    "reply_user": "Trương Hữu Quyết",
                    "reply_content": " "
                },
                {
                    "reply_user": "Phan Long Hải",
                    "reply_content": " "
                },
                {
                    "reply_user": "Trương Hữu Quyết",
                    "reply_content": " như lào"
                }
            ]
        }
    ]
}