{
    "post": "783735919228251",
    "link": "https://facebook.com/groups/608021373466374/permalink/783735919228251",
    "post_comments": [
        {
            "parent_comment": {
                "parent_user": "Bình Trọng",
                "parent_content": "Câu đảo mà để trong ngoặc nhìn cứ ngu ngu sao á, mà vần đảo này cũ lâu rồi "
            },
            "replies": [
                {
                    "reply_user": "Bảo Phúc",
                    "reply_content": " ụ uôi nay hiền vậy ông, mất chất hết r "
                },
                {
                    "reply_user": "Bình Trọng",
                    "reply_content": " học địa đi ông..."
                },
                {
                    "reply_user": "Bảo Phúc",
                    "reply_content": " địa bài bạn mà ko bị bắt"
                }
            ]
        }
    ]
}