{
    "post": "782331919368651",
    "link": "https://facebook.com/groups/608021373466374/permalink/782331919368651",
    "post_comments": [
        {
            "parent_comment": {
                "parent_user": "Nhi Lê",
                "parent_content": "Nửa"
            },
            "replies": [
                {
                    "reply_user": "Chiến Nổi Tiếng",
                    "reply_content": " bik r má"
                },
                {
                    "reply_user": "Nhi Lê",
                    "reply_content": " tại nó bị khó chịu ý =(((("
                },
                {
                    "reply_user": "Chiến Nổi Tiếng",
                    "reply_content": "Hahaha "
                },
                {
                    "reply_user": "Nhi Lê",
                    "reply_content": "Phạm Ngọc Huyền j dm"
                }
            ]
        }
    ]
}