{
    "post": "782404366028073",
    "link": "https://facebook.com/groups/608021373466374/permalink/782404366028073",
    "post_comments": [
        {
            "parent_comment": {
                "parent_user": "Lạp Lạp",
                "parent_content": "Tiên Nguyễn"
            },
            "replies": [
                {
                    "reply_user": "Tiên Nguyễn",
                    "reply_content": "  đỉnk , mạnh dạn chọn đi nàooo :))) "
                },
                {
                    "reply_user": "Lạp Lạp",
                    "reply_content": "  chọn nào hợp lý nhỉ"
                },
                {
                    "reply_user": "Tiên Nguyễn",
                    "reply_content": "  Chọn cái Cap nha :)))"
                },
                {
                    "reply_user": "Lạp Lạp",
                    "reply_content": " đỉnk"
                }
            ]
        }
    ]
}