{
    "post": "796719854523280",
    "link": "https://facebook.com/groups/492916974903571/permalink/796719854523280",
    "post_comments": [
        {
            "parent_comment": {
                "parent_user": "Nguyễn Văn Thông Thông",
                "parent_content": "Không có khả năng nào hết vì con đường đó là con đường tử"
            },
            "replies": [
                {
                    "reply_user": "Tân Hoàng",
                    "reply_content": " con đường nào cũng là con đường tử, ai r cũng phải chết và mình mong bạn chết sớm để bớt cmt tào lao bí đao chứ mình thấy bạn hết thuốc chữa r "
                },
                {
                    "reply_user": "Nguyễn Văn Thông Thông",
                    "reply_content": " tôi thật lòng chia sẻ mà sao bạn nói vậy"
                }
            ]
        }
    ]
}