{
    "post": "1096739650845713",
    "link": "https://facebook.com/groups/330196354166717/permalink/1096739650845713",
    "post_comments": [
        {
            "parent_comment": {
                "parent_user": "Đỗ Kim Anh",
                "parent_content": "Cố lên nha bạn :(("
            },
            "replies": [
                {
                    "reply_user": "Phạm Phương",
                    "reply_content": " iuu iu"
                }
            ]
        },
        {
            "parent_comment": {
                "parent_user": "Phùng Nhã Trúc",
                "parent_content": "B muốn được ban khỏi nhóm thì gửi bài thêm 1l  nữa đi b"
            },
            "replies": [
                {
                    "reply_user": "Phạm Phương",
                    "reply_content": " vang"
                }
            ]
        },
        {
            "parent_comment": {
                "parent_user": "Lê Kim Ngân",
                "parent_content": "thoi khong sao"
            },
            "replies": [
                {
                    "reply_user": "Phạm Phương",
                    "reply_content": " quen ruii"
                },
                {
                    "reply_user": "Lê Kim Ngân",
                    "reply_content": " là 1 ngưòi nhạy cảm mệt lắm "
                }
            ]
        }
    ]
}