{
    "post": "1096817557504589",
    "link": "https://facebook.com/groups/330196354166717/permalink/1096817557504589",
    "post_comments": [
        {
            "parent_comment": {
                "parent_user": "Canh Chua Ngọt",
                "parent_content": "Thế thì sao cậu lại không chuyển hướng tiêu cực thành tích cực ? Hồi trước tui cũng vậy đó nên tui hiểu mà !! Ai cũng có một khoảng thời gian khó khăn trong cuộc đời này hết ,vì tụi nghĩ là cuộc sống sẽ cho bạn bị dập một đống rắc rối đó và nó dạy cho mình cách thoát ra ,nếu có ai đó nói gì cậu thì cứ mặc kệ bỏ qua ,nếu nó đúng thì hãy suy nghĩ tại sao họ lại nói mình như vậy ? Còn nếu nó sai thì mặc cả nó đi ,bởi vì nếu mà người ta đã ghét cậu thì cái gì người ta cũng có thể thốt ra !! Lúc áp lực nhất thì cứ nghe nhạc vui vẻ để giải toả căng thẳng ,tui không chắc là nhạc có thể vơi hết nỗi buồn nhma nó là thức ăn tinh thần tốt nhất !! Be strong lên nhé "
            },
            "replies": [
                {
                    "reply_user": "Trương Thị Mỹ Kim",
                    "reply_content": " cam on cậu ^^ nghe được những lời này vào lúc này, cảm thấy tâm trạng ổn định rồi ạ "
                }
            ]
        },
        {
            "parent_comment": {
                "parent_user": "Trương Thị Mỹ Kim",
                "parent_content": "Cảm thấy bản thân dần tách biệt với thế giới..."
            },
            "replies": [
                {
                    "reply_user": "Linh Uyen",
                    "reply_content": " bản thân mình là tấm gương phản chiếu của thế giới bên ngoài, nó giống thỏi nam châm vậy, khi bạn cảm thấy tiêu cực thì bạn sẽ hút những điều tiêu cực khác vào cuộc sống của mình, và ngược lại. Tụi mình ở đây để trải nghiệm, để lớn lên, có người chê bạn thì cũng sẽ có người trân trọng bạn, mọi thứ trên đời này đều là công bằng. Bạn phải học cách chấp nhận với chính bạn, những lời ko hay bạn cứ nghe, cứ mạnh mẽ mà đương đầu với nó, giá trị của bản thân nằm trong suy nghĩ của mình, chỉ cần bạn biết yêu thương chính mình là quá đủ, họ ko là j cả, đừng cho phép họ ảnh hưởng đến cá nhân bạn. Cứ vui vẻ và enjoys mọi thứ, tận hưởng thời gian hôm nay của bạn, trôi qua rồi là ko quay lại đc đâu. CƯỜI LÊNNNN"
                }
            ]
        }
    ]
}