{
    "post": "1099627740556904",
    "link": "https://facebook.com/groups/330196354166717/permalink/1099627740556904",
    "post_comments": [
        {
            "parent_comment": {
                "parent_user": "Huy Sơn",
                "parent_content": "Lại còn bông hoa nữa. Nói khùng nói điên "
            },
            "replies": [
                {
                    "reply_user": "Yến Nhi",
                    "reply_content": "  thêm cho sinh động một xíu "
                }
            ]
        }
    ]
}