{
    "post": "1085651261954552",
    "link": "https://facebook.com/groups/330196354166717/permalink/1085651261954552",
    "post_comments": [
        {
            "parent_comment": {
                "parent_user": "Lê Thiên Kim",
                "parent_content": "cảm ơn nhé, em sẽ thật cố gắng.."
            },
            "replies": [
                {
                    "reply_user": "Nguyễn Nhật Sang",
                    "reply_content": " vậy phải tốt không"
                }
            ]
        },
        {
            "parent_comment": {
                "parent_user": "Nguyễn Hà My",
                "parent_content": "Xinloi, toichuanbiketthuccuocsongnay."
            },
            "replies": [
                {
                    "reply_user": "Hoa",
                    "reply_content": " sao thế, cố gắng lênn "
                },
                {
                    "reply_user": "Nguyễn Hà My",
                    "reply_content": " Hơi mệt, nên mình chỉ là ngủ thoii."
                }
            ]
        },
        {
            "parent_comment": {
                "parent_user": "Hai Giang Ngo",
                "parent_content": "Mình không rơi nước mắt khi cuộc sống này đối xử tàn nhẫn với mình. Tưởng chừng mình kiêng cường, mạnh mẽ lắm. Nhưng chỉ 1 câu nói, một sự việc nhỏ như làm hư món ăn mình vừa mới nấu, trong khi đang rất đói, cũng làm mình rơi nước mắt, như muốn gục ngã."
            },
            "replies": [
                {
                    "reply_user": "Hoa",
                    "reply_content": " buồn rầu là khi chợt nhận ra mọi việc từ thứ nhỏ nhặt nhất lại vẫn đủ sức chống đối mình"
                }
            ]
        },
        {
            "parent_comment": {
                "parent_user": "Hạ Quỳnh Phương",
                "parent_content": "Hic mấy nay mình có chút chuyện ấy, mọi thứ cứ rối tung lên mà không biết kể với ai, cũng không khóc nổi luôn, ngày nào cũng stress. Nma tự dưng nay đọc được post này cái khóc ngon ơ :(("
            },
            "replies": [
                {
                    "reply_user": "Hoa",
                    "reply_content": " hok biết chia sẻ với ai thì lên đây này, hoặc ib em, luôn sẵn sàng chia sẻ nè, cố lênn "
                }
            ]
        },
        {
            "parent_comment": {
                "parent_user": "Khánh Linh",
                "parent_content": "Giây phút tôi định gần như từ bỏ tất cả thì thấy bài viết này"
            },
            "replies": [
                {
                    "reply_user": "Hoa",
                    "reply_content": " cố lên nè, tui và mng vẫn mãi bên bà, love u. 8/3 zui zẻ nhaa"
                },
                {
                    "reply_user": "Khánh Linh",
                    "reply_content": " bà 8-3 vui vẻ nha"
                }
            ]
        },
        {
            "parent_comment": {
                "parent_user": "Yến Vy",
                "parent_content": "\"bình minh sẽ đẹp nhất nếu ngày mai em còn thức dậy\". nah đây là một người anh đã từng nói với mình, nma giờ ảnh hong còn ở đây nữa. "
            },
            "replies": [
                {
                    "reply_user": "Hoa",
                    "reply_content": " cố lên ạ, tuy v nhưng anh vẫn luôn âm thầm ở bên dõi theo bạn mà"
                }
            ]
        },
        {
            "parent_comment": {
                "parent_user": "Thy Tr",
                "parent_content": "8/3 vui vẻ nha các ng phụ nữ của tôi "
            },
            "replies": [
                {
                    "reply_user": "Hoa",
                    "reply_content": " bà cũng thế nè, love u "
                },
                {
                    "reply_user": "Thy Tr",
                    "reply_content": " iu vo"
                }
            ]
        }
    ]
}