{
    "post": "1097373244115687",
    "link": "https://facebook.com/groups/330196354166717/permalink/1097373244115687",
    "post_comments": [
        {
            "parent_comment": {
                "parent_user": "Phúc Vũ",
                "parent_content": "Đung vay"
            },
            "replies": [
                {
                    "reply_user": "Nguyễn Thanh Bắc",
                    "reply_content": " "
                },
                {
                    "reply_user": "Phúc Vũ",
                    "reply_content": " ủa"
                }
            ]
        },
        {
            "parent_comment": {
                "parent_user": "Tường Vy",
                "parent_content": "Nhưng biết làm sao được "
            },
            "replies": [
                {
                    "reply_user": "Giao Su Zed",
                    "reply_content": " oh come=(("
                }
            ]
        },
        {
            "parent_comment": {
                "parent_user": "Vũ Trang",
                "parent_content": "Ng Giao Nói thiệt thòi là thế nhưng chỉ cần bạn tự tin thì mọi thứ chắc chắn sẽ tốt thôi, con người đâu có ai hoàn hảo hết đc đâu "
            },
            "replies": [
                {
                    "reply_user": "Ng Giao",
                    "reply_content": " daa"
                }
            ]
        }
    ]
}