{
    "post": "1095739954279016",
    "link": "https://facebook.com/groups/330196354166717/permalink/1095739954279016",
    "post_comments": [
        {
            "parent_comment": {
                "parent_user": "Linh Linh Lê",
                "parent_content": "Và rồi sau tất cả, dù như thế nào thì mình cũng chẳng thể ghét bỏ em ấy  "
            },
            "replies": [
                {
                    "reply_user": "Le Minh Phuong",
                    "reply_content": " em nào "
                },
                {
                    "reply_user": "Linh Linh Lê",
                    "reply_content": "  em Pưng =)))"
                }
            ]
        },
        {
            "parent_comment": {
                "parent_user": "Lê Trangg",
                "parent_content": "Tô Khả Quyên nào t bị gì nhớ tán t cho t tỉnh lại "
            },
            "replies": [
                {
                    "reply_user": "Tô Khả Quyên",
                    "reply_content": " thôi iuuu cậu"
                }
            ]
        }
    ]
}