{
    "post": "1087397841779894",
    "link": "https://facebook.com/groups/330196354166717/permalink/1087397841779894",
    "post_comments": [
        {
            "parent_comment": {
                "parent_user": "Trà Boo",
                "parent_content": "thay đổi đến chóng mặt 0 phải vì muốn người kia thấy \" oh cô ấy đã khác \" mà là muốn bản thân sống tốt hơn khi sống là chính mình"
            },
            "replies": [
                {
                    "reply_user": "Nhã Yến",
                    "reply_content": " yubbbbbbb♡"
                }
            ]
        },
        {
            "parent_comment": {
                "parent_user": "Thảo Trâm",
                "parent_content": "Co ay thay doi nhieu qua"
            },
            "replies": [
                {
                    "reply_user": "Linh Lùi",
                    "reply_content": " co ay la em"
                },
                {
                    "reply_user": "Thảo Trâm",
                    "reply_content": "Linh em nho em cua truoc day"
                },
                {
                    "reply_user": "Linh Lùi",
                    "reply_content": "Trâm thoi thương"
                },
                {
                    "reply_user": "Thảo Trâm",
                    "reply_content": "My lúc còn ham học dicho"
                }
            ]
        },
        {
            "parent_comment": {
                "parent_user": "Lê Ngọc Thúy Vy",
                "parent_content": "nhìn vui nma k vui"
            },
            "replies": [
                {
                    "reply_user": "Hân",
                    "reply_content": " nhìn có vẻ học k giỏi nma học ngu thiệt"
                },
                {
                    "reply_user": "Lê Ngọc Thúy Vy",
                    "reply_content": " cmm"
                }
            ]
        },
        {
            "parent_comment": {
                "parent_user": "Thúyy Hằngg",
                "parent_content": ":)))"
            },
            "replies": [
                {
                    "reply_user": "Châuu Đoann",
                    "reply_content": " chắc nói t "
                },
                {
                    "reply_user": "Thúyy Hằngg",
                    "reply_content": " nói m chứ ai nữa "
                }
            ]
        },
        {
            "parent_comment": {
                "parent_user": "Tiên Nguyễn",
                "parent_content": "."
            },
            "replies": [
                {
                    "reply_user": "Nguyễn Mỹ Kỳ",
                    "reply_content": " ngủ đi"
                },
                {
                    "reply_user": "Tiên Nguyễn",
                    "reply_content": " khong muon"
                }
            ]
        }
    ]
}