{
    "post": "1096877077498637",
    "link": "https://facebook.com/groups/330196354166717/permalink/1096877077498637",
    "post_comments": [
        {
            "parent_comment": {
                "parent_user": "Giang Hương",
                "parent_content": "ráng lên cậu oi, chuyện gì roi cũng qua thôi"
            },
            "replies": [
                {
                    "reply_user": "Dlinh Linh",
                    "reply_content": " Cam on cau nhieu a"
                }
            ]
        },
        {
            "parent_comment": {
                "parent_user": "Thùy Dương",
                "parent_content": "Cố lên cậu ơi!"
            },
            "replies": [
                {
                    "reply_user": "Dlinh Linh",
                    "reply_content": " da cam on ban a"
                }
            ]
        },
        {
            "parent_comment": {
                "parent_user": "Ngọc Hânn",
                "parent_content": "Co len ^^"
            },
            "replies": [
                {
                    "reply_user": "Dlinh Linh",
                    "reply_content": " cam on cau vi da khich le minh"
                }
            ]
        },
        {
            "parent_comment": {
                "parent_user": "Trần Quang Thuận",
                "parent_content": "Chả hiểu sao một số người kì thị lgbt nựa ://"
            },
            "replies": [
                {
                    "reply_user": "Dlinh Linh",
                    "reply_content": " Chi la gioi tinh nay chua duoc chap nhan rong rai trong xa hoi ngay nay thoi :((("
                },
                {
                    "reply_user": "Trần Quang Thuận",
                    "reply_content": " thôi hong sao, chắc phải phấn đấu thoi , tui tin bà sẽ vượt qua đượcccc"
                },
                {
                    "reply_user": "Dlinh Linh",
                    "reply_content": " da tuii cam on ong nhieu nha"
                }
            ]
        },
        {
            "parent_comment": {
                "parent_user": "Ph Ng",
                "parent_content": "Suy nghĩ tích cực lên mọi chuyện rồi sẽ ổn nhé"
            },
            "replies": [
                {
                    "reply_user": "Dlinh Linh",
                    "reply_content": " Cam on ban rat nhieu a"
                }
            ]
        },
        {
            "parent_comment": {
                "parent_user": "Nguyen Huyen Tram",
                "parent_content": "sao v "
            },
            "replies": [
                {
                    "reply_user": "Dlinh Linh",
                    "reply_content": " khom co"
                }
            ]
        },
        {
            "parent_comment": {
                "parent_user": "Gia Phú Tăng",
                "parent_content": "Cố lên cố lên cùng mình vượt qua nào mình cũng giống bạn trong câu chuyện này nên mình hiểu"
            },
            "replies": [
                {
                    "reply_user": "Dlinh Linh",
                    "reply_content": " da vang a"
                }
            ]
        },
        {
            "parent_comment": {
                "parent_user": "Quynh Anh",
                "parent_content": "Thật? "
            },
            "replies": [
                {
                    "reply_user": "Dlinh Linh",
                    "reply_content": " yettt"
                }
            ]
        },
        {
            "parent_comment": {
                "parent_user": "Nguyen Kim Yen",
                "parent_content": "bạn nữ kia có nói là có tình cảm với bạn không? Vì sao bạn chắc rằng 2 bên đều có tình cảm với nhau? Theo mình nghĩ thì khả năng cao là do bạn nghĩ vậy thôi"
            },
            "replies": [
                {
                    "reply_user": "Dlinh Linh",
                    "reply_content": " da la van nu di tan tinh minh truoc a"
                },
                {
                    "reply_user": "Nguyen Kim Yen",
                    "reply_content": "  nếu mà có tình cảm thật thì chả dễ dàng gì tù bỏ bạn đâu..."
                }
            ]
        },
        {
            "parent_comment": {
                "parent_user": "Đặng Thị Mỹ Huyền",
                "parent_content": "Chia sẻ nói ra được thì tốt rồi, bây giờ điều bạn cần làm là suy nghĩ tích cực lên. Nếu bạn suy nghĩ tích cực thì mọi thứ sẽ đi theo và đi lên theo 1 hướng tích cực nè. Đừng áp đặt nặng nề quá. "
            },
            "replies": [
                {
                    "reply_user": "Dlinh Linh",
                    "reply_content": " da vang a minh cam on ban nhieu a"
                }
            ]
        },
        {
            "parent_comment": {
                "parent_user": "Kim Ngânn",
                "parent_content": "Kệ đi nè, không còn người này còn người khác. Đừng vì một người mà đánh mất hy vọng nhá"
            },
            "replies": [
                {
                    "reply_user": "Dlinh Linh",
                    "reply_content": " da minh cam on ban rat nhieu a"
                }
            ]
        }
    ]
}