{
    "post": "1087504341769244",
    "link": "https://facebook.com/groups/330196354166717/permalink/1087504341769244",
    "post_comments": [
        {
            "parent_comment": {
                "parent_user": "Nguyễn Thanh Thành Nguyện",
                "parent_content": "Dạo gần đây. Em bị áp lực đủ thứ.nhưng chỉ cầm ôm ngoại.cảm nhận cái hơi ấm đó là em đỡ biết bao nhiêu"
            },
            "replies": [
                {
                    "reply_user": "Giang Thu Huyền",
                    "reply_content": " cố lên "
                },
                {
                    "reply_user": "Nguyễn Thanh Thành Nguyện",
                    "reply_content": " tớ cảm ơn "
                }
            ]
        },
        {
            "parent_comment": {
                "parent_user": "Nguyễn Thanh Thành Nguyện",
                "parent_content": "Em ở với ngoại từ lúc mới lọt lòng"
            },
            "replies": [
                {
                    "reply_user": "Tú Võ",
                    "reply_content": " giống nhau v nè"
                },
                {
                    "reply_user": "Nguyễn Thanh Thành Nguyện",
                    "reply_content": "Vậy chắc chắc mình và cậu cùng 1 nỗi sợ"
                },
                {
                    "reply_user": "Tú Võ",
                    "reply_content": " một căn bệnh quái ác đã cướp nội em đi rồi ^^"
                },
                {
                    "reply_user": "Nguyễn Thanh Thành Nguyện",
                    "reply_content": " cố gắng lên em.nỗi đau này chắc chắn sẽ kh gì sánh bằng ."
                }
            ]
        },
        {
            "parent_comment": {
                "parent_user": "Kiều Nhi",
                "parent_content": "Cố lên!!"
            },
            "replies": [
                {
                    "reply_user": "Nguyễn Thanh Thành Nguyện",
                    "reply_content": " cam on nha"
                }
            ]
        },
        {
            "parent_comment": {
                "parent_user": "Hà",
                "parent_content": "Cố lên nào bae người đó cũng không muốn cậu nghĩ nhiều đâu, cố gắng nghĩ thoáng lên"
            },
            "replies": [
                {
                    "reply_user": "Nguyễn Thanh Thành Nguyện",
                    "reply_content": " tớ cũng muốn bản thân nghĩ thoáng.nh mà cứ mỗi lần ôm ngoại .tớ lại suy nghĩ lệch đi"
                },
                {
                    "reply_user": "Hà",
                    "reply_content": " hmm tớ từng mất đi 1 người bạn rất thân. Điều đó đến khá là bất ngờ khiến tớ chả biết làm gì ngoài chấp nhận. Nên đừng nghĩ gì nhiều quá về vấn đề này, chúng ta chỉ có thể chấp nhận mà thôi. Thời gian sẽ làm nhiệm vụ của nó mà… See More"
                }
            ]
        }
    ]
}