{
    "post": "1087355095117502",
    "link": "https://facebook.com/groups/330196354166717/permalink/1087355095117502",
    "post_comments": [
        {
            "parent_comment": {
                "parent_user": "Truong Thi Ngoc Han",
                "parent_content": "Nói chuyện kiểu z ,chắc gặp m tao đánh bài tao ăn sạch tiền m quá "
            },
            "replies": [
                {
                    "reply_user": "Tiên Nga",
                    "reply_content": "  tuc a"
                }
            ]
        },
        {
            "parent_comment": {
                "parent_user": "Truong Thi Ngoc Han",
                "parent_content": "Cho nói chuyện lại  "
            },
            "replies": [
                {
                    "reply_user": "Tiên Nga",
                    "reply_content": " roi xin chao ban"
                }
            ]
        },
        {
            "parent_comment": {
                "parent_user": "Truong Thi Ngoc Han",
                "parent_content": "Em yeu cua toi sao zay "
            },
            "replies": [
                {
                    "reply_user": "Tiên Nga",
                    "reply_content": " kh quen kh quen"
                }
            ]
        },
        {
            "parent_comment": {
                "parent_user": "Truong Thi Ngoc Han",
                "parent_content": "Omg "
            },
            "replies": [
                {
                    "reply_user": "Tiên Nga",
                    "reply_content": " ai v"
                }
            ]
        },
        {
            "parent_comment": {
                "parent_user": "Huỳnh Như Quỳnh",
                "parent_content": "Thôi nào, những tổn thương đó có đáng gì đâu. Cứ bình tĩnh và tự tinh lên hãy là chính mình. Chúc bạn may mắn."
            },
            "replies": [
                {
                    "reply_user": "Tiên Nga",
                    "reply_content": " cảm ơn ạ"
                }
            ]
        },
        {
            "parent_comment": {
                "parent_user": "Huỳnh Như Lệ Quỳnh",
                "parent_content": ":((( Maybe thui cậu ơi nhiều khi hong như mình thấy  mà có cũng có khi là như vậy luôn hiazz. Gì chứ chuyện gia đình là nỗi buồn nặng nề nhất"
            },
            "replies": [
                {
                    "reply_user": "Tiên Nga",
                    "reply_content": " buồn gia đình là nỗi buồn thúi ruột"
                }
            ]
        },
        {
            "parent_comment": {
                "parent_user": "Hoang Ngan",
                "parent_content": "đa số sự tổn thương của mình đều bắt đầu từ người thân."
            },
            "replies": [
                {
                    "reply_user": "Tiên Nga",
                    "reply_content": " tâm lý kh ổn định cũng nhờ v mà ra "
                },
                {
                    "reply_user": "Hoang Ngan",
                    "reply_content": " ơ lại chuẩn =))))))))"
                },
                {
                    "reply_user": "Tiên Nga",
                    "reply_content": " trong hoàn cảnh ấy mà :(("
                },
                {
                    "reply_user": "Hoang Ngan",
                    "reply_content": "hồi đó 3 năm liên tiếp ngày nào cũng khóc, lí do gói gọn trong 2 từ : gia đình."
                },
                {
                    "reply_user": "Tiên Nga",
                    "reply_content": " liệu rằng 2 chữ \"Gia đình\" Nó còn tồn tại trong cuộc sống của chúng ta không nhỉ? Hay mọi thứ chỉ là tạm bợ để sống? "
                },
                {
                    "reply_user": "Hoang Ngan",
                    "reply_content": " biết là bố mẹ yêu thương mình lắm, nhma đôi khi hai chữ yêu thương nó quá nặng, mình không đủ trưởng thành để hiểu, để tiếp nhận điều đó."
                },
                {
                    "reply_user": "Tiên Nga",
                    "reply_content": " tình thương của họ dành cho tui, biết hết chứ. Nhưng cách họ đối xử với tui mỗi khi họ tức giận? Phải cho tui suy nghĩ lại liệu rằng họ có phải là người thân của mình không? Tại sao lại buông lời ác ý như v"
                },
                {
                    "reply_user": "Hoang Ngan",
                    "reply_content": " y chang tui luôn á.. kiểu tui bị chạnh lòng khi nghe thấy những lời đó á.."
                },
                {
                    "reply_user": "Tiên Nga",
                    "reply_content": " kiểu đang áp lực đủ điều rồi mà nghe những lời đó thì thôi r :< sụp đổ hoàn toàn.. . "
                },
                {
                    "reply_user": "Hoang Ngan",
                    "reply_content": " tui hay bị nói \"dạy đời người lớn\" \"nói xấu bố mẹ\" \"trai không ra trai gái k ra gái\" lắm á, buồn dễ sợ luôn"
                },
                {
                    "reply_user": "Tiên Nga",
                    "reply_content": " còn nhiêu câu chửi còn đỉnh hơn v nữa á  nghe mà thốn"
                },
                {
                    "reply_user": "Hoang Ngan",
                    "reply_content": "đến giờ vẫn có người kêu tui bị tự kỉ nè bà =))) dù tui biết là bệnh tâm lí của tui hết rồi, nhma nghe buồn thúi luôn á"
                },
                {
                    "reply_user": "Tiên Nga",
                    "reply_content": " kệ ngta đi bà :< có nhiều chuyện bỏ qua được chuyện nào thì hay chuyện đó cho nhẹ nhỏm xíu"
                }
            ]
        },
        {
            "parent_comment": {
                "parent_user": "Lê Thanh Trúc",
                "parent_content": "Người thân còn làm tổn thương mình nhiều hơn cả người ngoài "
            },
            "replies": [
                {
                    "reply_user": "Tiên Nga",
                    "reply_content": " là máu mủ ruột thịt tại s lại đối với nhau như vậy?? Tui thiệt sự kh hiểu.. "
                },
                {
                    "reply_user": "Lê Thanh Trúc",
                    "reply_content": " mỗi cây mỗi hoa mỗi nhà mỗi cảnh....nên là Nga ráng lên nhaa, thương bản thân mình trước đi rồi từ từ mỗi thứ sẽ ổn "
                },
                {
                    "reply_user": "Tiên Nga",
                    "reply_content": " hehe cảm ơn nhiều ne:< mong là mọi thứ sẽ ổn cả"
                }
            ]
        },
        {
            "parent_comment": {
                "parent_user": "Huỳnh Hân",
                "parent_content": "tầm thường"
            },
            "replies": [
                {
                    "reply_user": "Tiên Nga",
                    "reply_content": " yes"
                },
                {
                    "reply_user": "Huỳnh Hân",
                    "reply_content": "  may no dễ gì làm mình buon được"
                },
                {
                    "reply_user": "Tiên Nga",
                    "reply_content": " dù có buồn cũng kh đủ lực sát thương chí mạng haha "
                },
                {
                    "reply_user": "Huỳnh Hân",
                    "reply_content": "  dung roi nó ở dạng tam thuong vì mình ngày nào cũng buồn nên thay bình thường"
                }
            ]
        },
        {
            "parent_comment": {
                "parent_user": "Vyy Trần Kaka",
                "parent_content": "khong ai hieu minh"
            },
            "replies": [
                {
                    "reply_user": "Tiên Nga",
                    "reply_content": " họ không hiểu được tất cả những gì mình đã và đang trải qua huhu"
                }
            ]
        },
        {
            "parent_comment": {
                "parent_user": "Duc Anh",
                "parent_content": "..."
            },
            "replies": [
                {
                    "reply_user": "Đan Trường",
                    "reply_content": "  "
                }
            ]
        },
        {
            "parent_comment": {
                "parent_user": "Đào Hường",
                "parent_content": "chịu"
            },
            "replies": [
                {
                    "reply_user": "Tiên Nga",
                    "reply_content": " nản qua"
                }
            ]
        },
        {
            "parent_comment": {
                "parent_user": "Nguyễn Thị Thu Huệ",
                "parent_content": "Um"
            },
            "replies": [
                {
                    "reply_user": "Tiên Nga",
                    "reply_content": ""
                }
            ]
        }
    ]
}