{
    "post": "1090060114847000",
    "link": "https://facebook.com/groups/330196354166717/permalink/1090060114847000",
    "post_comments": [
        {
            "parent_comment": {
                "parent_user": "Nga Đang Bận Học",
                "parent_content": "Đang buồn lại gặp bài như này thật không ổn tí nào...mạnh mẽ lên nào =)))"
            },
            "replies": [
                {
                    "reply_user": "Lê Thắm",
                    "reply_content": " cậu cũng mạnh mẽ lên nàoo"
                }
            ]
        },
        {
            "parent_comment": {
                "parent_user": "Phùng Thị Lan Anh",
                "parent_content": "Thật sự gục ngã ấy"
            },
            "replies": [
                {
                    "reply_user": "Lê Thắm",
                    "reply_content": " co lennn, iu cậuu"
                }
            ]
        },
        {
            "parent_comment": {
                "parent_user": "Phuong Anh",
                "parent_content": "Em muốn ngủ như anh , lâu một chút "
            },
            "replies": [
                {
                    "reply_user": "Lê Thắm",
                    "reply_content": "Linh Anh dung nhưthee"
                },
                {
                    "reply_user": "Phuong Anh",
                    "reply_content": "  toi k nghĩ sẽ có ng phải trải qua cảm giác giống như tôi "
                },
                {
                    "reply_user": "Lê Thắm",
                    "reply_content": "Linh Anh nhiều khi em còn tự ib cho mình:(("
                },
                {
                    "reply_user": "Phuong Anh",
                    "reply_content": "  co len "
                },
                {
                    "reply_user": "Lê Thắm",
                    "reply_content": "Linh Anh chi cung co lennn"
                }
            ]
        },
        {
            "parent_comment": {
                "parent_user": "Mỹ Linh",
                "parent_content": "Chỉ là thiên đường có việc gấp nên a ấy phải lên sớm chút. Đừng buồn quá b nhé. Hi vọng b sẽ sống thay a ấy 1 cuộc đời an yên"
            },
            "replies": [
                {
                    "reply_user": "Lê Thắm",
                    "reply_content": " mình không sao nữa, chỉ là hnay hơi mệt thooii"
                }
            ]
        },
        {
            "parent_comment": {
                "parent_user": "Van Gogh",
                "parent_content": "mọi chuyện rồi sẽ ổn thôianh ấy sẽ luôn nhớ về chị"
            },
            "replies": [
                {
                    "reply_user": "Lê Thắm",
                    "reply_content": " mình đã chấp nhận được sự ra đi của anh hai, chỉ là hôm nay mình hơi mệt một chút.."
                }
            ]
        },
        {
            "parent_comment": {
                "parent_user": "Lương Diễm Quỳnh",
                "parent_content": "Cố lên cậu ...   mạnh mẽ lên nha"
            },
            "replies": [
                {
                    "reply_user": "Lê Thắm",
                    "reply_content": " chuyện qua lâu rồi, nhưng hnay mệt quá nên em nhớ tới anh thôi:( là anh hai"
                }
            ]
        },
        {
            "parent_comment": {
                "parent_user": "Quynhanh Dao",
                "parent_content": "Co len nao chi oii, anh ay khong muon chi nhu vay dau.."
            },
            "replies": [
                {
                    "reply_user": "Lê Thắm",
                    "reply_content": " anh ấy là anh hai của chị, không phải ngiu, hnay vì hơi mệt nên lại nhớ về anhh"
                },
                {
                    "reply_user": "Quynhanh Dao",
                    "reply_content": " dù sao thì.. anh hai chị cũng đâu muốn chị buồn đâu, phải không?^^"
                },
                {
                    "reply_user": "Lê Thắm",
                    "reply_content": " có lẽ vậy, nhưng chị phải yếu đuối rồi"
                },
                {
                    "reply_user": "Quynhanh Dao",
                    "reply_content": " haizz thoi thi mot lan nay thoi nha chi^^"
                }
            ]
        },
        {
            "parent_comment": {
                "parent_user": "Caridwen Evans",
                "parent_content": "Cảm giác đó nó không có gì diễn tả nổi"
            },
            "replies": [
                {
                    "reply_user": "Lê Thắm",
                    "reply_content": " không gì diễn tả được..vừa mệt mỏi vừa mất mát"
                }
            ]
        },
        {
            "parent_comment": {
                "parent_user": "Duong Ngoc Tuan",
                "parent_content": "cố lên nha b ơi °°°"
            },
            "replies": [
                {
                    "reply_user": "Lê Thắm",
                    "reply_content": " iu cau"
                }
            ]
        },
        {
            "parent_comment": {
                "parent_user": "Hào",
                "parent_content": "co gang len ne bae"
            },
            "replies": [
                {
                    "reply_user": "Lê Thắm",
                    "reply_content": " em se co gang"
                },
                {
                    "reply_user": "Hào",
                    "reply_content": "neu buon co the tam su voi to nhe bae cuoc doi ma ai met thi cung di ngu thoi bae dung buon nua nheeee"
                },
                {
                    "reply_user": "Lê Thắm",
                    "reply_content": " em khong buon, em chi thay met"
                },
                {
                    "reply_user": "Hào",
                    "reply_content": "thoi nao co gang len nhung dieu tot dep dang cho em do"
                },
                {
                    "reply_user": "Lê Thắm",
                    "reply_content": " nghe ma muon khoccc"
                },
                {
                    "reply_user": "Hào",
                    "reply_content": "thoi co gang len nao dung khoc nhin xau lam nhaaa!"
                },
                {
                    "reply_user": "Lê Thắm",
                    "reply_content": " add em di naoo"
                },
                {
                    "reply_user": "Hào",
                    "reply_content": "u ke em"
                }
            ]
        },
        {
            "parent_comment": {
                "parent_user": "Kim Phụng",
                "parent_content": "yeu cau"
            },
            "replies": [
                {
                    "reply_user": "Lê Thắm",
                    "reply_content": " iu cau"
                }
            ]
        },
        {
            "parent_comment": {
                "parent_user": "Bảo Nhi",
                "parent_content": "Níu kéo 1 người muốn buông là vô nghĩa "
            },
            "replies": [
                {
                    "reply_user": "Lê Thắm",
                    "reply_content": " mình không níu cậu ạ, vì đó là anh hai mình.."
                },
                {
                    "reply_user": "Bảo Nhi",
                    "reply_content": "Uk. Mk chỉ để 1 người thấy "
                }
            ]
        },
        {
            "parent_comment": {
                "parent_user": "Phong Nguyễn",
                "parent_content": "Cố lên nào chị "
            },
            "replies": [
                {
                    "reply_user": "Lê Thắm",
                    "reply_content": " cam on nhoo"
                }
            ]
        },
        {
            "parent_comment": {
                "parent_user": "Quỳnh Changg",
                "parent_content": "cố lên chị. anh ấy sẽ ngủ không ngon đâu, nếu chị không vui vẻ..."
            },
            "replies": [
                {
                    "reply_user": "Lê Thắm",
                    "reply_content": " không sao nữa, mệt 1 chút rồi thôi mà.."
                }
            ]
        },
        {
            "parent_comment": {
                "parent_user": "Hong Ngoc Tr",
                "parent_content": "thoi ma"
            },
            "replies": [
                {
                    "reply_user": "Lê Thắm",
                    "reply_content": " :(("
                }
            ]
        },
        {
            "parent_comment": {
                "parent_user": "Trà Boo",
                "parent_content": "cố lên sis ơi"
            },
            "replies": [
                {
                    "reply_user": "Lê Thắm",
                    "reply_content": "  mình sẽ cố mà"
                }
            ]
        },
        {
            "parent_comment": {
                "parent_user": "Khả Hân",
                "parent_content": "buồn thật "
            },
            "replies": [
                {
                    "reply_user": "Lê Thắm",
                    "reply_content": " buồn nhưng không được buồn quá:("
                }
            ]
        },
        {
            "parent_comment": {
                "parent_user": "Diệu Ng",
                "parent_content": "Cố lên bae "
            },
            "replies": [
                {
                    "reply_user": "Lê Thắm",
                    "reply_content": " biet ma, iuu cauu "
                }
            ]
        },
        {
            "parent_comment": {
                "parent_user": "Nguyễn Hoàng My",
                "parent_content": "cố lên nào sis"
            },
            "replies": [
                {
                    "reply_user": "Lê Thắm",
                    "reply_content": " iu cau"
                }
            ]
        },
        {
            "parent_comment": {
                "parent_user": "Nguyễn Thảo Vy",
                "parent_content": "cố lên chị "
            },
            "replies": [
                {
                    "reply_user": "Lê Thắm",
                    "reply_content": " iuuu"
                }
            ]
        },
        {
            "parent_comment": {
                "parent_user": "Hoa Phượng",
                "parent_content": "Cố gắng vượt qua nha cậu "
            },
            "replies": [
                {
                    "reply_user": "Lê Thắm",
                    "reply_content": " mình đã vượt qua được, chỉ là hnay mệt nên lại nhớ về..."
                }
            ]
        },
        {
            "parent_comment": {
                "parent_user": "Tú Uyên",
                "parent_content": "Cố lên chị ơi "
            },
            "replies": [
                {
                    "reply_user": "Lê Thắm",
                    "reply_content": " khong sao, hoi met ti thoi"
                }
            ]
        },
        {
            "parent_comment": {
                "parent_user": "Thu Huyenn",
                "parent_content": ""
            },
            "replies": [
                {
                    "reply_user": "Bảo Bảo",
                    "reply_content": " ?"
                }
            ]
        }
    ]
}