{
    "post": "1097407267445618",
    "link": "https://facebook.com/groups/330196354166717/permalink/1097407267445618",
    "post_comments": [
        {
            "parent_comment": {
                "parent_user": "Minh Thư",
                "parent_content": "Các cậu có biết vụ 2 nữ sinh nhảy lầu gần đây không? Dù chưa biết thực hư ra sao nhưng Cmt đều ngập tiếng chửi rủa. Ngay cả lúc chết đi họ vẫn không thể ngủ yên thì thử hỏi khi còn sống họ đã chịu đựng những thứ gì?Nhiều khi mình nghĩ, cùng là con người với nhau. Tại sao ngta lại ác với nhau như thế? Khi bắt đầu đặt tay nhấn bàn phím, họ có thật sự bức xúc như những gì họ viết ra không? Hay họ giấu mặt sau màn hình và cái tài khoản ảo kia rồi đay điếng người khác để che giấu sự bất tài vô dụng của bản thân?Rồi những kẻ bắt nạt người khác. Các cậu có từng nghĩ đến cảm xúc của nạn nhân không? Các cậu có thể vui khi nhìn người khác đau đớn á? Sao người ta không thử đặt mình vào cảm xúc của nạn nhân nhỉ?"
            },
            "replies": [
                {
                    "reply_user": "Minh Thư",
                    "reply_content": ":((( mình đã từng là nạn nhân của việc cô lập, tẩy chay chỉ vì mình nghèo không chịu đi chơi, đi ăn nhậu cùng lớp:) mình không  dám xin tiền ăn huống chi là tiền đu đưa theo những cuộc chơi. Chỉ còn lại vài bạn nam cũng giống mình và bọn mình chơi cùng… See More"
                }
            ]
        },
        {
            "parent_comment": {
                "parent_user": "Nguyễn Hồng Nhật",
                "parent_content": "\"Đứa trẻ ấy không sống, nó chỉ tồn tại thôi\""
            },
            "replies": [
                {
                    "reply_user": "Hoàng Phương Mai",
                    "reply_content": " ?là sao cơ \"không sống\" xong lại \"chỉ tồn tại\" "
                },
                {
                    "reply_user": "Nguyễn Hồng Nhật",
                    "reply_content": " câu đó mình trích trên bài viết của bạn này á bạn Mình nghĩ là không sống có nghĩa là tâm hồn của đứa trẻ ấy đã chết dần điCòn cái thứ tồn tại của đứa trẻ ấy chỉ là 1 cái xác không hồn. Thứ thật sự tồn tại chỉ là cái tên, cơ thể chứ … See More"
                },
                {
                    "reply_user": "Hoàng Phương Mai",
                    "reply_content": " à tại nó dài quá mình lười đọc á . Xong nhìn thấy câu bồ viết mà kiểu load không được luôn "
                }
            ]
        },
        {
            "parent_comment": {
                "parent_user": "Trang Thanh",
                "parent_content": "."
            },
            "replies": [
                {
                    "reply_user": "Nguyễn Minh",
                    "reply_content": " đm nghĩ tiêu cực vl"
                },
                {
                    "reply_user": "Trang Thanh",
                    "reply_content": " oops"
                }
            ]
        },
        {
            "parent_comment": {
                "parent_user": "Anhh Thưư",
                "parent_content": "Không biết có phải do mình thoáng không ta. Gia đình mình, ba mẹ đi làm từ sớm đến khuya về than, 2 chị em mình đi học xong chạy đi học thêm tối đến ngồi làm bài rồi than :))) cả gia đình lấy niềm than làm niềm vui mà chia sẻ với nhau. Ba mẹ cố gắng làm việc, con cái cố gắng học hành. Mỗi người đều có 1 gánh nặng riêng. Nhưng miễn là có nhau là đủ rồi. "
            },
            "replies": [
                {
                    "reply_user": "Vĩnh Võ",
                    "reply_content": " giống y chang tui "
                }
            ]
        },
        {
            "parent_comment": {
                "parent_user": "Lê Mai Hương",
                "parent_content": "BODY SHAMING VUI THẬT À? Từ ngày học lớp 6 lớp 7 đến giờ biết bao nhiêu đứa tự nhận là bạn, bạn chung lớp hay một cái loại bạn gì đấy rất thích body shaming với tôi. Chúng nó đúng hơn là \"các bạn\" ấy body shaming tất cả trên người tôi nào là con môi khuyết tật con sống ảo con chân cong con chân vòng kiềng rồi béo rồi ngực to..rất nhiều.khi đó tôi bất lực bất lực đến bật khóc thậm chí đã có lần tôi phải quỳ xuống và gào lên \"tao xin mày đấy câm mồm đi đừng nói nữa\". nhưng thôi đấy là quá khứ. Bây giờ lên cấp ba cứ tưởng môi trường mới có thêm bạn mới rời xa những người \"bạn\" từ cấp hai đấy những lời body shaming, những lời sỉ nhục thân thể sẽ không còn. Nhưng KHÔNG :))Đỉnh điểm là ngày hôm nay duyệt văn nghệ k10 26/3. Tôi chưa từng tham gia nhảy bao giờ và tôi đã cố gắng hết mình rồi dù xấu dù quên động tác hay như nào tôi cũng không xứng đáng đến độ nhận được những \"phần thưởng\" những lời chê những lời body shaming kinh khủng từ phía dưới bên cạnh mà còn nói rất to đủ cho tôi nghe thấy. Nào là \"nhìn chân con kia kìa cong cong nhìn tởm vãi\"  \"xuống đi em ơi chân khuyết tật vậy nhảy gì nữa\" \"nhìn chân nó kìa\"..rồi có người còn rút điện thoại ra chụp ảnh cười lên với nhau body shaming một cách khoái chí... Xin hỏi cùng đi học với nhau đóng tiền như nhau có chân tay đàng hoàng không khuyết tật chỗ nào tại sao vẫn cứ bị lôi ra body shaming? Chân cong chân vòng kiềng là có tội là không phải người bình thường hay như nào ạ? Tôi cứ tưởng có chân có tay có đầu đi học là bình đẳng như nhau rồi thế nhưng với các người chân cong chân vòng kiềng không coi là người có chân ạ? Hôm nay các người miệt thị khinh bỉ khi nhìn vào chân tôi nhưng tôi thì thấy khác. Với các người tôi là một đứa \"chân khuyết tật \" như các người nói đi, còn thật sự với tôi những người đã  mở miệng ra chỉ trỏ chân tôi cười khoái chí hay gào lên những câu thiển cận thiếu suy nghĩ,các người thấy các người là những con người hoàn hảo này nọ nhưng với tôi các người cũng là những con người khuyết tật tâm hồn không hơn không kém mà thôi.*các người nói tôi không biết giữ hình ảnh cho trường hơi một tí là đăng lên facebook rồi thử hỏi ai sẽ là người giữ hình ảnh cho tôi*"
            },
            "replies": [
                {
                    "reply_user": "Kay Shi",
                    "reply_content": "thôi thương"
                }
            ]
        },
        {
            "parent_comment": {
                "parent_user": "Dieu Ngoc Anh",
                "parent_content": "Có ai cảm thấy bố mẹ không hiểu mình giống như em không..  Thật sự chán lắm luôn ấy"
            },
            "replies": [
                {
                    "reply_user": "Bánh Tráng Trộn",
                    "reply_content": " me too "
                }
            ]
        }
    ]
}