{
    "post": "1099471487239196",
    "link": "https://facebook.com/groups/330196354166717/permalink/1099471487239196",
    "post_comments": [
        {
            "parent_comment": {
                "parent_user": "Nam Đế",
                "parent_content": "Gian khổ khiến con người trưởng thành hơn tuổi tác. Tôi chỉ biết chúc bé luôn cố gắng hết mình, mong sớm gặp đc may mắn trong cuộc sống . Chúc ngủ ngon"
            },
            "replies": [
                {
                    "reply_user": "Trương Thị Mỹ Kim",
                    "reply_content": " tks bae so much "
                }
            ]
        },
        {
            "parent_comment": {
                "parent_user": "Quoc Duy",
                "parent_content": "Cố lên bạn ơi, cuộc sống là vậy mà phải cố vượt qua thôi. Mong bạn sẽ gặp nhiều may mắn."
            },
            "replies": [
                {
                    "reply_user": "Trương Thị Mỹ Kim",
                    "reply_content": " tks bae so much "
                }
            ]
        }
    ]
}