{
    "post": "1089656734887338",
    "link": "https://facebook.com/groups/330196354166717/permalink/1089656734887338",
    "post_comments": [
        {
            "parent_comment": {
                "parent_user": "Lâm Nhi",
                "parent_content": "!"
            },
            "replies": [
                {
                    "reply_user": "Yen Vi",
                    "reply_content": " ngủ ạ"
                }
            ]
        },
        {
            "parent_comment": {
                "parent_user": "Linh",
                "parent_content": "ờ"
            },
            "replies": [
                {
                    "reply_user": "Tú Phạm UwU",
                    "reply_content": " ?"
                }
            ]
        }
    ]
}