{
    "post": "1098727757313569",
    "link": "https://facebook.com/groups/330196354166717/permalink/1098727757313569",
    "post_comments": [
        {
            "parent_comment": {
                "parent_user": "Trần Minh Đức",
                "parent_content": "Rất nhiều, tôi khóc mà chẳng quan tâm mình khóc mấy lần nữa"
            },
            "replies": [
                {
                    "reply_user": "Jinno Dino",
                    "reply_content": "  thoi ko sao, het hom nay thoi..."
                }
            ]
        },
        {
            "parent_comment": {
                "parent_user": "Minh Thư",
                "parent_content": "\"Sao t chẳng thấy mày học hành gì ấy nhỉ\"\"không học sư phạm Anh thì học sư phạm Toán. 1 trong 2 cái đó thôi\"*Search google* \"Trường xyz (gần nhà) có sư phạm Anh không\"-Con muốn học trường abc ghê (trường chuyên của tỉnh tôi) -Mày ra đó học rồi ai quản mày? Xa tao mày chỉ có hư đốn thôi"
            },
            "replies": [
                {
                    "reply_user": "Nguyễn Phan Đức Anh",
                    "reply_content": "  kiểu ba mẹ k tin tưởng bạn khi xa họ ấy , bạn phải chứng minh cho họ thấy xa họ bạn vẫn tốt hơn họ nghĩ"
                },
                {
                    "reply_user": "Minh Thư",
                    "reply_content": " Điều đó có lẽ sẽ đc chứng minh lúc mình lên đại học. Cấp 3 này chưa độc lập kinh tế nên mình cũng k làm j được.Cảm ơn lời khuyên của bạn"
                },
                {
                    "reply_user": "Nguyễn Phan Đức Anh",
                    "reply_content": " không sao , cấp 3 bạn có thể đi làm để quen với công vc cũng dc nè"
                },
                {
                    "reply_user": "Minh Thư",
                    "reply_content": "  Mình có đi làm á. Điện thoại, quần áo của mình tự sắm thôi. Có năm nay cuối cấp không có thời gian làm thêm nên nghỉ rồi "
                },
                {
                    "reply_user": "Nguyễn Phan Đức Anh",
                    "reply_content": "  thế sao bm bạn lại k cho bạn sống xa họ ta ?"
                },
                {
                    "reply_user": "Minh Thư",
                    "reply_content": "  Nếu mình biết được thì tốt rồi  họ quản lý mình chặt lắm cơ. Còn không cho đi chơi với bạn bè mà. Chắc xem tin tức nhiều nên sợ "
                },
                {
                    "reply_user": "Nguyễn Phan Đức Anh",
                    "reply_content": "  nhưng đường nào cũng phải tự lập thoii "
                }
            ]
        }
    ]
}