{
    "post": "885800065321268",
    "link": "https://facebook.com/groups/821166098451332/permalink/885800065321268",
    "post_comments": [
        {
            "parent_comment": {
                "parent_user": "Tuấn Khanh",
                "parent_content": "Gia doi vc"
            },
            "replies": [
                {
                    "reply_user": "Nhi",
                    "reply_content": " hổng có"
                }
            ]
        },
        {
            "parent_comment": {
                "parent_user": "Nguyen Tuan Kiet",
                "parent_content": "dả giối"
            },
            "replies": [
                {
                    "reply_user": "Nhi",
                    "reply_content": " ơ,thật đó không gia doi ti no luon :>"
                },
                {
                    "reply_user": "Nguyen Tuan Kiet",
                    "reply_content": " dã tạo vch =))"
                }
            ]
        }
    ]
}