{
    "post": "888381025063172",
    "link": "https://facebook.com/groups/821166098451332/permalink/888381025063172",
    "post_comments": [
        {
            "parent_comment": {
                "parent_user": "Bình Vũ",
                "parent_content": "im lang..."
            },
            "replies": [
                {
                    "reply_user": "Nguyên",
                    "reply_content": " thế mà bảo chuyện j cx ns vs a"
                }
            ]
        },
        {
            "parent_comment": {
                "parent_user": "Giang Vo",
                "parent_content": "Ừm"
            },
            "replies": [
                {
                    "reply_user": "Đỗ Thuý Loan",
                    "reply_content": " má ai cũng buồn dậyyy"
                }
            ]
        },
        {
            "parent_comment": {
                "parent_user": "Luoi Vyvy",
                "parent_content": "umm"
            },
            "replies": [
                {
                    "reply_user": "Ann",
                    "reply_content": " ôk"
                }
            ]
        }
    ]
}