{
    "post": "814210162549651",
    "link": "https://facebook.com/groups/443921992911805/permalink/814210162549651",
    "post_comments": [
        {
            "parent_comment": {
                "parent_user": "Hoàng Trịnh",
                "parent_content": "giới trẻ bh đt không cài pass hơi hiếm "
            },
            "replies": [
                {
                    "reply_user": "Anh Thu",
                    "reply_content": " vì 1 số lí do mang tính chất gđ nên không cài ạ"
                }
            ]
        },
        {
            "parent_comment": {
                "parent_user": "Nhật Hạ",
                "parent_content": "Nói với chị 2 là em có yêu nhưng k quá bị ảnh hươngr đến việc học và k hề qua giới hạn, bọn em chỉ đang trải qua một mối tình hết sực nhẹ nhàng và thuần khiết. "
            },
            "replies": [
                {
                    "reply_user": "Anh Thu",
                    "reply_content": " không hiểu tại sao là chị em không hề la hay nói gì luônMà chị chỉ âm thầm xóa dị thôi ạ"
                }
            ]
        },
        {
            "parent_comment": {
                "parent_user": "Tuyết Cương",
                "parent_content": "Chị em? Chắc là chị họ nhỉ? Bạn này thì cũng lạ, tuỳ tiện xâm phạm riêng tư. Nhưng coi như có ý tốt đi.Còn bạn nam kia, nếu 2 bạn học cùng trường thì dễ. Còn ko thì bỏ đi, vì lập trường ko vững, chưa đủ yêu mới chặn bạn.Nói chung, qua rồi thì thôi, chăm học vào."
            },
            "replies": [
                {
                    "reply_user": "Anh Thu",
                    "reply_content": " chị ruột ạBạn nam kia đâu có chặn em đâu, ý là acc của em chặn bạn ấy ớ"
                }
            ]
        },
        {
            "parent_comment": {
                "parent_user": "Chu Thuận",
                "parent_content": ":)) em cũng thế bị chặn luôn vài phút trước Có lẽ hỏi có người khác rồi"
            },
            "replies": [
                {
                    "reply_user": "Anh Thu",
                    "reply_content": " bạn đọc nhầm rồi ớ"
                }
            ]
        },
        {
            "parent_comment": {
                "parent_user": "Hiền Minh Hoàng",
                "parent_content": "Kệ chị gái đã trc tiên phải đi giải thích vs thằng kia trc ko ló hiểu lầm "
            },
            "replies": [
                {
                    "reply_user": "Anh Thu",
                    "reply_content": " đang đợi tới chìu thôi ạ tại bạn ấy chỉ online đc lúc chìu thôi"
                }
            ]
        },
        {
            "parent_comment": {
                "parent_user": "Nguyễn Diễm",
                "parent_content": "Dù có là người nhà thân thiết đi chăng nữa thì cũng không có quyền xâm phạm quyền riêng tư của người khác. Hơn hết là tự quyết định chuyện của em nữa. Còn nữa bạn nam kia cũng còn trẻ nên chưa hiểu hết ntn là lập trường vững, không thể trách em ấy được. Đôi khi con trai thật thà quá thì chỉ vì một lời nói dù nói dối cũng tin là thật. Nếu em muốn cứu vãn tình yêu này thì hẹn 3 người gặp nhau nc còn không thì thôi, im luôn cho xong :)))"
            },
            "replies": [
                {
                    "reply_user": "Anh Thu",
                    "reply_content": " trong chuyện này bạn bam kia đâu có lỗi đâu ạ bạn đâu có làm gì hay nói gì đâu ạ"
                }
            ]
        }
    ]
}