{
    "post": "796177054352962",
    "link": "https://facebook.com/groups/443921992911805/permalink/796177054352962",
    "post_comments": [
        {
            "parent_comment": {
                "parent_user": "Thắm Nguyễn",
                "parent_content": "Mình thấy có lần đầu rồi cũng se có n lần. Niềm tin không còn thì mối quan hệ cũng khó vững bền vì lúc nào cũng nghĩ đến vết xước đó."
            },
            "replies": [
                {
                    "reply_user": "Nguyễn Minh",
                    "reply_content": "  mình cũng vẫn sốc bạn ạ ."
                }
            ]
        },
        {
            "parent_comment": {
                "parent_user": "Vân Ăn'ss",
                "parent_content": "2 năm k dài cũng chẳng ngắn nhưng bạn đã chờ và tin người mk thương đừng để 2 năm trờ đợi giờ chỉ còn tổn thương và nc mắt"
            },
            "replies": [
                {
                    "reply_user": "Nguyễn Minh",
                    "reply_content": "  mình cảm nhận được là ny mình ko cố tình mà có khi do lý trí lúc đó ko tỉnh táo :((Tuy bây giờ bên nhau hạnh phúc nhưng nhiều khi mình vẫn sốc vì vụ đó"
                }
            ]
        },
        {
            "parent_comment": {
                "parent_user": "Peace",
                "parent_content": "Nếu hiện tại đã và đang hp và ny e ko liên lạc vs ng kia nữa thì cố gắng xây đắp cùng nhau đi em à. "
            },
            "replies": [
                {
                    "reply_user": "Nguyễn Minh",
                    "reply_content": "dạ , em cũng nghĩ như vậy là tốt.Chỉ là em vẫn còn suy nghĩ nhiều về sự việc đó"
                },
                {
                    "reply_user": "Peace",
                    "reply_content": " bảo em ko suy nghĩ nữa, e cũg ko làm ngay đc, ai yêu cũng ích kỷ và muốn ny hoàn toàn thuộc về mình, nhưng trong tình yêu, cần bao dung e ạ. "
                }
            ]
        }
    ]
}