{
    "post": "963619627433555",
    "link": "https://facebook.com/groups/tamsuevagroup/permalink/963619627433555",
    "post_comments": [
        {
            "parent_comment": {
                "parent_user": "Hoang Kieu Loan",
                "parent_content": "bật cái share lên "
            },
            "replies": [
                {
                    "reply_user": "Thiên Hương",
                    "reply_content": "Hoàng Kiều Loan bạn ơi hình như nhóm kín nên kh share đc, bạn vào trang cá nhân share hộ mình với. Cảm ơn b ạ"
                }
            ]
        },
        {
            "parent_comment": {
                "parent_user": "Nguyễn Văn Hiếu",
                "parent_content": "Thường thì cố mà tới tận nơi mua cho chính xác. Chứ mua online thì nhiều tác dụng phụ"
            },
            "replies": [
                {
                    "reply_user": "Thiên Hương",
                    "reply_content": " tại thấy shop nhiều ng mua và có vẻ uy tín nên m mới đặt mua. Mà kh ngờ shop nhận tiền xong bom mình luôn vậy ạ"
                },
                {
                    "reply_user": "Nguyễn Văn Hiếu",
                    "reply_content": " kiểu nó tăng tương tác, chạy comment ấy. Nên tìm hiểu kĩ nha"
                },
                {
                    "reply_user": "Thiên Hương",
                    "reply_content": " mình ít mua đồ trên mạng, chỉ thấy shop có nh ng mua nên nghĩ uy tín ấy bạn ơi. Hic hic"
                },
                {
                    "reply_user": "Nguyễn Văn Hiếu",
                    "reply_content": " nhớ đấy. Cần gì cứ tới hẳn shop mà mua. Trước t cũng tin ở shop online. Nhìn view hàng đẹp lắm. Tới nơi thì vỡ mộng. "
                },
                {
                    "reply_user": "Thiên Hương",
                    "reply_content": " đúng là nhớ đời luôn b ạ. Giờ có cái kiểu tăng like, tăng view, chạy live giả nữa nên càng tạo điều kiện dễ dàng cho bọn này lừa đảo "
                }
            ]
        },
        {
            "parent_comment": {
                "parent_user": "Vũ Thanh Hường",
                "parent_content": "Bọn này nó thuê trang để chạy live mà b ơi. Con này hình như tên trang"
            },
            "replies": [
                {
                    "reply_user": "Thiên Hương",
                    "reply_content": " mình có biết đâu b, thấy shop có nh người mua và có vẻ uy tín nên mới đặt mua mà bị shop bom luôn như này ạ"
                },
                {
                    "reply_user": "Vũ Thanh Hường",
                    "reply_content": " nếu ko rành mua onl thì nên mua ở fb cá nhân. Check fb cá nhân đầy đủ thông tin, có tương tác thật hãng mua. Chứ page thì ko check đc gì đâu. "
                },
                {
                    "reply_user": "Thiên Hương",
                    "reply_content": " chắc từ giờ chừa luôn ý b ạ... Cứ đến cửa hàng mua cho an toàn thôi"
                }
            ]
        },
        {
            "parent_comment": {
                "parent_user": "Thu Hằng",
                "parent_content": "Giờ nhìu vụ nv lắm í,họ lập trang fb này xong bán tùm lum.Sau đó lừa đc kha khá ng rồi họ lại lập fb khác í mà.ảo lắm.nên mất rồi là ko thể lấy lại đc í"
            },
            "replies": [
                {
                    "reply_user": "Thiên Hương",
                    "reply_content": " uk bạn chắc từ giờ mình kh mua trên mạng nữa mà ra cửa hàng mua cho lành thôi ạ. Xác định là mất tiền ngu nhưng  để mọi ng tránh ra ạ"
                },
                {
                    "reply_user": "Thu Hằng",
                    "reply_content": "Thui coi như bài học,cũng coi như nó gánh bớt cái nghiệp cho mk .đời có vay có trả mà b."
                },
                {
                    "reply_user": "Thiên Hương",
                    "reply_content": " uk bạn. Chẳng sớm thì muộn với cái kiểu làm ăn đó thì cũng sẽ gánh hết nghiệp cho mọi ng thôi nhỉ"
                }
            ]
        },
        {
            "parent_comment": {
                "parent_user": "Hương Thu Nguyễn",
                "parent_content": "Gio chỉ vì lợi nhuận lừa Kinh lắm, Sai là k giám nghe hay nhắn tin cho lại dấu một lời Xin lỗi k có, lúc cầm tiền Thi chị  em lúc kiếm hàng k dùng như mình dat Thi chặn ních luon"
            },
            "replies": [
                {
                    "reply_user": "Thiên Hương",
                    "reply_content": " gọi điện trực tiếp cũng kh nghe máy luôn b ạ, nhắn tin đọc xong kh thèm trả lời mà chặn luôn mới ghê chứ "
                },
                {
                    "reply_user": "Hương Thu Nguyễn",
                    "reply_content": " mình bị lừa mua túi trên mạng oy, gio k thèm mua nữa, lúc chưa nhận được hàng nhắn tin xuất dền lúc k thấy hàng dâu mất tích luôn, bạn hàng có tâm, chả biết tâm họ dể ở dâu "
                },
                {
                    "reply_user": "Thiên Hương",
                    "reply_content": " đúng rồi đấy b ơi, lúc chưa trả tiền thì nhắn cái trả lời ngay, đến lúc gửi nhầm cho khách mà nhận tiền rồi thì kh có chuyện đổi lại mà còn chặn luôn ý"
                },
                {
                    "reply_user": "Hương Thu Nguyễn",
                    "reply_content": " xong tấm nửa tháng lại nhắn tin  nói có hàng mới về, chị nói cho xong xl"
                }
            ]
        },
        {
            "parent_comment": {
                "parent_user": "Ailen Phạm",
                "parent_content": "Em bán túi đẹp này c ơi. Shop này thuê trang chạy quảng cáo mà c ơi. "
            },
            "replies": [
                {
                    "reply_user": "Thiên Hương",
                    "reply_content": " khổ c có biết đâu thấy nó live có nh ng mua, tưởng uy tín ai dè dính luôn quả bom to vật "
                }
            ]
        },
        {
            "parent_comment": {
                "parent_user": "Quynh Nhu",
                "parent_content": "Bị 3 lần sợ đến già k bao giờ mua hàng trên mạng"
            },
            "replies": [
                {
                    "reply_user": "Thiên Hương",
                    "reply_content": " mình từ giờ cũng cạch luôn b ạ"
                }
            ]
        }
    ]
}