{
    "post": "643006269494894",
    "link": "https://facebook.com/groups/tamsuevagroup/permalink/643006269494894",
    "post_comments": [
        {
            "parent_comment": {
                "parent_user": "Nguyễn Phương Thoa",
                "parent_content": "Tớ đi đẻ 1 mình mà chẳng thấy lsao kk chẳng cần ck hay bất cứ ai"
            },
            "replies": [
                {
                    "reply_user": "Bùi Diệu Huyền",
                    "reply_content": "  dã man vãi cả đi 1m "
                },
                {
                    "reply_user": "Nguyễn Phương Thoa",
                    "reply_content": "Diệu Huyền thế đi 1m thật mà kk chẳng tủi thân hay j cả. Đẻ 4 tiếng gần 5 tiếng ck mới có mặt "
                }
            ]
        },
        {
            "parent_comment": {
                "parent_user": "Nguyễn Thu Hiền",
                "parent_content": "Ck theo từ lúc chưa đau đẻ, mổ xong  đón con đưa bà ngoại bế ,túc trực đến khi ra khỏi phòng mổ! Lau lọt, vệ sinh cho vk chả ngại ngần, bế con thay tã còn khéo hơn phụ nữ! Sáng đi làm tối về bế con rồi dìu vk tập đi! Nói chung là đẻ 2 lần đều thấy ck m thật tuyệt! "
            },
            "replies": [
                {
                    "reply_user": "Đinh Thị Ngọc Lan",
                    "reply_content": "Chồng mình thấy vợ đau thì khóc tu tu thương vợ. Kkk. Túc trực cả ngày đêm. Nói chung là thấy vậy cũng ấm lòng hơn"
                },
                {
                    "reply_user": "Nguyễn Thu Hiền",
                    "reply_content": "hihi, a ấy dễ xúc động nhỉ? cứ có ck bên cạnh là vui r!"
                }
            ]
        },
        {
            "parent_comment": {
                "parent_user": "Bảo Quyên",
                "parent_content": "mình may mà được chồng chiều với cũng tâm lý, Vợ chồng có vs nhau 2 đứa con rồi. vợ đẻ xong được hộ lý đẩy xe về phòng, 11h chồng mình mới đc vào, thấy vợ là xun xoe hết cả lên, hỏi ăn cái này cái nọ không để mua, xong lão cứ cười suốt, sau hỏi bảo sao cười nhiều thế, lão bảo không biết, chỉ biết là thích quá."
            },
            "replies": [
                {
                    "reply_user": "Nghiêm Thị Thủy",
                    "reply_content": "  giông e .ck e  còn nói cảm ơn vk.e giỏi lắm.nghe sướng cạ tai"
                },
                {
                    "reply_user": "Bảo Quyên",
                    "reply_content": "Thủy thủy chỉ cần vậy e nhỉ"
                }
            ]
        },
        {
            "parent_comment": {
                "parent_user": "Hương Ruby",
                "parent_content": "Hi e đẻ xong ra phòng hồi sức ck gọi điện hỏi con có đáng iu ko .e tắt máy lun . Từ hôm nằm viện đến hôm về nhà ai vào thăm mẹ ck cũng bảo nó có đau đâu .Vì e chưa có sữa nên mẹ ck bế cháu . E đag nằm trong phòng bà bắt ra phòng khách rót nuok ngồi chơi nc vs mọi người . E vẫn ra ngồi kê tay xuống đít để ngồi nuok mắt muốn trào ra mà cố chịu . Hihi cảm thấy dk an ủi vđ chắc cả thế giới này có e đẻ ko biết đau các mom ạ . Mà con 3,7kg rạch tan đít"
            },
            "replies": [
                {
                    "reply_user": "Hương Ruby",
                    "reply_content": "Cố lên mom ak. 2 tháng truok không hôm nào là e ko khóc . Buồn lắm mom ạ mà ko ai hiểu cho mjh đã đi lấy ck xa thì chớ . Nhưng vì con gái nên e vẫn cố vui vẻ"
                }
            ]
        },
        {
            "parent_comment": {
                "parent_user": "Phạm Loan",
                "parent_content": "E đẻ ck ở cạnh từ lúc vào chờ đau đẻ r vào phòng đẻ r ra ngoài ck cũng đón con lúc e ra ck lại bế con cho"
            },
            "replies": [
                {
                    "reply_user": "Cát Tiên",
                    "reply_content": " thế là mừng rồi."
                },
                {
                    "reply_user": "Phạm Loan",
                    "reply_content": " vâg mom e đau đẻ mà ck còn khóc ý"
                },
                {
                    "reply_user": "Cát Tiên",
                    "reply_content": " đây ck mk chỉ biết nắm tay tranh thủ vào thăm vk chứ lúc đó đang khó khăn kinh tế ông làm tối mà mãi 11h đêm mk mới đk về phòng lên k chờ đk mà sợ nghỉ thì k có tiền chứ có là ông cũng bỏ việc ở lại với vk đấy kkk"
                },
                {
                    "reply_user": "Phạm Loan",
                    "reply_content": "Ck e cĩng thế ý nhà luac ý đi đẻ mà chưa có đồng nào cơ hic"
                }
            ]
        },
        {
            "parent_comment": {
                "parent_user": "Cát Tiên",
                "parent_content": "b sinh con trai hay con gái. bảo nó là a hỏi thử mẹ a khi cố làm có đau k có thấy mk khổ k hay mẹ a khổ cũng muồn ng khác khổ theo. tớ là tớ ôm con bỏ mẹ đi đấy. thằng ck tớ hm sinh tớ sinh mổ mà lúc chờ hết thuốc tê ông k chờ mk mà ông về đi làm mk điên mk chửi cho trận kêu mày đéo cần vào đâu con mk tao tao cũng đéo phải vk mày thế là sáng hm sau vào viện sớm bầy nhầy để mk bỏ qua."
            },
            "replies": [
                {
                    "reply_user": "Giang Phạm Phạm",
                    "reply_content": "Lần sau mom nhẹ nhàng hơn bảo. Thôi đi làm mà nuôi thân. Con tao tao tự nuôi "
                },
                {
                    "reply_user": "Cát Tiên",
                    "reply_content": "Giang Phạm ôi ông nuôi cả nhà ý mk có đi lz đâu. ăn bám ông ý nhưng chửi vẫn chửi chớ kkk"
                }
            ]
        },
        {
            "parent_comment": {
                "parent_user": "Dương Thị Mậu",
                "parent_content": "Chj ma co loaj ck vay troj bo tay"
            },
            "replies": [
                {
                    "reply_user": "Dương Thị Mậu",
                    "reply_content": "Gom . Rang rua he ."
                }
            ]
        },
        {
            "parent_comment": {
                "parent_user": "My Hoàng",
                "parent_content": "C m thì đi ra thấy mặt rõ còn lo lắng , hôn trán vk cái r kêu con giống y chang mẹ , sau này mới biết hoá ra con giống mẹ là con gái thôi , còn khuôn mặt y chang ba "
            },
            "replies": [
                {
                    "reply_user": "Hương Ruby",
                    "reply_content": "Ghen tị vs các mom quá"
                }
            ]
        },
        {
            "parent_comment": {
                "parent_user": "Đỗ Thu Hồng",
                "parent_content": "Tớ mà là top tớ bế con về ngoại luôn . Đéo cần nữa .  Lúc cần nhất , lúc sinh tử ko thấy mặt mũi đâu thì h được sống laii đéo cần đến ai nữa ngoài mẹ mình và con mình  ."
            },
            "replies": [
                {
                    "reply_user": "Ngo Huong Quỳnh",
                    "reply_content": " chính xác"
                }
            ]
        },
        {
            "parent_comment": {
                "parent_user": "Thu Luyến",
                "parent_content": "Các mom ai biết tư vấn giúp m. Bầu uống sữa nào ok ạ."
            },
            "replies": [
                {
                    "reply_user": "Ngo Huong Quỳnh",
                    "reply_content": " đạm protein NUTRILIE"
                }
            ]
        },
        {
            "parent_comment": {
                "parent_user": "Trần Đào",
                "parent_content": "bế vào phòng đẻ là ck . bế ra khỏi phòng đẻ cũng là ck. chỉ rời vk 3-5p đi lấy tã ,quần áo để chuẩn bị đón con còn không cứ ở cạnh giữ tay động viên vk ."
            },
            "replies": [
                {
                    "reply_user": "Nguyễn Phương Thoa",
                    "reply_content": " gớm mát mặt quá kk"
                },
                {
                    "reply_user": "Trần Đào",
                    "reply_content": "  haha lúc đấy mát thật chị ạ. nên em không thấy đau đẻ như mọi người hay kêu than đâu . "
                }
            ]
        },
        {
            "parent_comment": {
                "parent_user": "Đặng Thanh Duyên",
                "parent_content": "Ck m bế con ra xong đưa bà bế và nói \" nhà con còn trong đấy \" rồi quay lại bế m ra, m bị khâu nhiều vs ho xong nó bục ra lâu liền nên cả tháng đầu toàn ck chăm con vs bế con m ko làm đc gì hết cả "
            },
            "replies": [
                {
                    "reply_user": "Trang Solar",
                    "reply_content": " chúc mừng nhà bạn có ng chồng phúc đức và hiểu biết. Cho mik ngả mũ kính ck bạn vì biết yêu thg vk đúng mực."
                },
                {
                    "reply_user": "Đặng Thanh Duyên",
                    "reply_content": "Trang Sahara cảm ơn b"
                }
            ]
        },
        {
            "parent_comment": {
                "parent_user": "Hà Hoàng",
                "parent_content": "Lợn đẻ một lúc mấy con nó có kêu đâu,đẻ mỗi đứa mà kêu lắm thế :))"
            },
            "replies": [
                {
                    "reply_user": "Teresa Tran",
                    "reply_content": " sao bạn ko bảo \" chắc tại anh ko hiểu tiếng lợn , ko thấy nó gào éc éc với đau quá cào chuồng à \" \" , hay thực sự ổng chưa bao giờ nhìn thấy heo đẻ ?"
                },
                {
                    "reply_user": "Hà Hoàng",
                    "reply_content": "Ông ý đùa thôi chứ m đẻ ông ý chăm hết chứ mẹ đẻ m cũng chẳng phải chăm,con cái ông ý cho ăn,rồi tắm cho con chẳng phải thuê ng ý.Thiếu mỗi lắp 2 cái ti vào ngực là thay dc vk . Nhưng chẳng khi nào nói dc câu tử tế "
                },
                {
                    "reply_user": "Teresa Tran",
                    "reply_content": "   Dù chồng mình rất yêu thương mình , chính tay dắt mình vào phòng mổ rồi ở ngoài chờ . Nhưng khi mình ra phòng hẫu phẫu , mình nói y tá cho chồng vào , ổng vào nói chuyện đc đúng 2 câu là bảo \" Thôi anh ra ngoài nhé , con N ( em chồng mình ) nó ghé thăm em mà nó bảo chưa ăn gì . Anh mới dắt nó lên căn tin gọi 2 tô phở 2 anh em ăn , chưa kịp ăn thì thấy y tá gọi , giờ anh ra với nó đã có nó chờ \" . Thật, mình nhớ đến muôn đời . Mình tưởng chồng mình phải vồn vã hỏi vợ có đau ko , có mệt ko , có khó chịu chỗ nào ko , con mình nó hay lắm , nó đẹp lắm ....chứ mình ko ngờ ổng vội ra lo cho em gái . Mình chẳng hiểu lúc đấy chồng mình nghĩ cái giống gì nữa . Mình tủi thân dễ sợ ."
                },
                {
                    "reply_user": "Hà Hoàng",
                    "reply_content": "Mai Nguyễn công nhận"
                }
            ]
        },
        {
            "parent_comment": {
                "parent_user": "Duyên Phùng",
                "parent_content": "E nói thế này các m đừng ném đá e nhé  .ck e cũng méo ra gì  .cho  nên  các m đừng khoe ck  nữa  .để chủ top   và  những  người  kém  may mắn  khỏi tủi thân   .xin  chúc mừng  các m  vì lấy được ck yêu thương cm!"
            },
            "replies": [
                {
                    "reply_user": "Duyên Phùng",
                    "reply_content": "Mymy Le chẳng biết những người kém may mắn khi mà tâm sự  chuyện buồn  với người khác  .song  rồi  lại  được  nghe người ta kể rằng mình hp  .mình được ck chiều thì  có cảm giác ntn  .riêng mình thì  thấy tủi thêm  thôi  .Nếu người nghe tế nhị một chút  thì có thể để khi khác  kể cũng được  mà  .chứ lúc người ta  cần lời an ủi thì  lại kể về cs hp  của mình  thì  người kia lại buồn thêm"
                }
            ]
        },
        {
            "parent_comment": {
                "parent_user": "Hà Trần",
                "parent_content": "M đẻ thường vào buổi tối cả đêm đau k ngủ đc tí nào 3h sáng mới đẻ rồi xong khâu rồi chờ 3h mới đc ra.ra sao mà đau mông qúa thế là ch cho tay kê ở dưới mông cho đỡ đau rồi thiếp đi lúc nào k biết"
            },
            "replies": [
                {
                    "reply_user": "Tâm Nguyễn",
                    "reply_content": " ck bạn đáng iu thế"
                }
            ]
        }
    ]
}