{
    "post": "391231428005714",
    "link": "https://facebook.com/groups/tamsuevagroup/permalink/391231428005714",
    "post_comments": [
        {
            "parent_comment": {
                "parent_user": "Kỳ Duyên",
                "parent_content": "Thử thách 1 thời gian dài đã . nếu cảm thấy ck cj thật lòng hối lỗi thật lòng biết trân trọng cố gắng làm lụng lo cho gia đình và biết tôn trọng cj thì cj vì con quay lại . còn thử thách xong mà thấy ck cj vẫn k biết cố gắng vì gia đình k biết  tôn trọng cj thì bỏ đi đừng quay lại lm j cả . 1 mjh cj hiện tại nuôi con vẫn ổn thì tương lai cj vẫn có thể lo cho 2 dua nho hp thui . chúc chị đưa ra đc quyết định sag suốt và mau vượt qua đc khó khăn hiện tại nhé"
            },
            "replies": [
                {
                    "reply_user": "Nguyễn Thảo",
                    "reply_content": "OK bạn mình sẽ chờ thời gian để trả lời."
                }
            ]
        },
        {
            "parent_comment": {
                "parent_user": "Nguyễn Hương",
                "parent_content": "Bạn tự lập tự lo cho con đc thì đừng quay lại bạn nhé. Thà con không có bố còn hơn sống vs ng bố không ra gì."
            },
            "replies": [
                {
                    "reply_user": "Đỗ Miên",
                    "reply_content": "Bạn nói đúng"
                }
            ]
        },
        {
            "parent_comment": {
                "parent_user": "Su Duong van Su",
                "parent_content": "Cút  mẹ no đi đừng  để  no lua một  lần  nua ba me con sông  HP ben nhau la du dối  loại day không  dang lam bo cua hai dua chau dung co mem long doi lai khổ  một lan nua"
            },
            "replies": [
                {
                    "reply_user": "Bao Gia",
                    "reply_content": "Chứ noi đung suy ngi cua tôi thât đo"
                }
            ]
        },
        {
            "parent_comment": {
                "parent_user": "Ngọc Minh",
                "parent_content": "Đến con mình nó còn bỏ thì cơ hội hối cải chỉ là con số 0 , đừng bao giờ nghĩ ai cũng có alsai lầm nhueng biết hối cải là đc . Xl chứ sai lầm với con mẹ chứ sai thế đéo nào với mấy đứa con . Con mình còn đéo ngó ngàng thì cút cho rảnh mắt . Cái loại cha đó bọn trẻ con nó lớn lên nó nhổ nc bọt vào mặt cho ấy"
            },
            "replies": [
                {
                    "reply_user": "Bao Gia",
                    "reply_content": "Đúng đó e"
                }
            ]
        },
        {
            "parent_comment": {
                "parent_user": "Thảo Lập",
                "parent_content": "Cố gắng Đi chị. Con sẽ k trách chị đâu. Cấy loại vô tâm nớ chi làm khổ minh kho con minh thôi"
            },
            "replies": [
                {
                    "reply_user": "Bao Gia",
                    "reply_content": "E ơi e la HT hay ngê an mà nge noi tiêg giog ci vây, ha tinh đây ni"
                }
            ]
        },
        {
            "parent_comment": {
                "parent_user": "Le Huyền",
                "parent_content": "Cho nhau một co hội, biết đâu anh ấy đã hôi hận vì những việc mình đã làm"
            },
            "replies": [
                {
                    "reply_user": "Le Huyền",
                    "reply_content": "Bố thắng điên thừa ca lo để nói chuyện với may,"
                }
            ]
        },
        {
            "parent_comment": {
                "parent_user": "Trần Hiền",
                "parent_content": "cho nó quay về nhưng phải dè chừng cho nó đi làm và mang tiền về nuôi con nếu nó có ý thật lòng thì nó sẽ hối hận và chăm no cho gd còn k thì cho nó nếch ......con nó cũng muốn có gd hp .....hãy thử xem và lếch nếu nó vẫn khốn nạn  ...chúc gd e hp"
            },
            "replies": [
                {
                    "reply_user": "Nguyễn Thảo",
                    "reply_content": "Da chị ."
                }
            ]
        },
        {
            "parent_comment": {
                "parent_user": "Lục Vương",
                "parent_content": "hết tình thì còn nghĩa .người đàn ông đang quay về đấy mới chính là chồng e .hãy cho a ấy một cơ hội .cho đi thì sẽ nhận được .đừng vì lòng thù hận mà mất đi tất cả"
            },
            "replies": [
                {
                    "reply_user": "Lục Vương",
                    "reply_content": ""
                }
            ]
        },
        {
            "parent_comment": {
                "parent_user": "Hạ Trần",
                "parent_content": "K có cha bộ chết hả e??. Thời buổi nào rồi mà lo con k cha, c nói thẳng từ nhỏ c đã k có cha r nhé nhưng đến giờ c vẫn sống rất tốt méo đứa nào dám xem thường c. Xã hội giờ mạnh ai nấy sống mà e lo chuyện vớ vẫn. Bỏ đx thằng chồng e mừng k hết giờ còn tính đg qay lại à."
            },
            "replies": [
                {
                    "reply_user": "Nguyễn Thảo",
                    "reply_content": "Da chị"
                }
            ]
        },
        {
            "parent_comment": {
                "parent_user": "Hồ Thị Đào",
                "parent_content": "Nếu bỏ qua được thì bỏ qua đi cháu, đánh kẻ chạy đi không ai đánh người chạy lại, vì còn hai đứa con nữa, tha lỗi được thì tha"
            },
            "replies": [
                {
                    "reply_user": "Đỗ Nguyễn Anh Thi",
                    "reply_content": "R bửa mai a ta bỏ mặc 3 mẹ con nữa thì ai là ng chịu trách nhiệm ạ?"
                },
                {
                    "reply_user": "Hồ Thị Đào",
                    "reply_content": "Tùy thôi cảm thấy không thể thì thôi chứ một lần rồi sẽ có lần sau, nhưng đổi lại con có bố thế thôi"
                }
            ]
        }
    ]
}