{
    "post": "667889077006613",
    "link": "https://facebook.com/groups/tamsuevagroup/permalink/667889077006613",
    "post_comments": [
        {
            "parent_comment": {
                "parent_user": "Quynh Hoa Phan",
                "parent_content": "Kinh nguyệt  ạ chị"
            },
            "replies": [
                {
                    "reply_user": "Nguyễn Thị Thanh Tuyền",
                    "reply_content": " dạ chị ."
                },
                {
                    "reply_user": "Quynh Hoa Phan",
                    "reply_content": " nó ra nhiều  quá xem có bị viêm  ko ạ"
                }
            ]
        },
        {
            "parent_comment": {
                "parent_user": "Tuyền Hùng",
                "parent_content": "Diana mama. Loại dành cho phụ nữ sau sinh í"
            },
            "replies": [
                {
                    "reply_user": "Nguyễn Thị Thanh Tuyền",
                    "reply_content": " v hả c , em cám ơn c , nhưng nó có gây mùi k c , em thấy dùng loại diana bịch hồng mùi khó chịu lắm -.-"
                }
            ]
        },
        {
            "parent_comment": {
                "parent_user": "Truong Tu Anh",
                "parent_content": "Dùng cốc nguyệt san aya"
            },
            "replies": [
                {
                    "reply_user": "Nguyễn Thị Thanh Tuyền",
                    "reply_content": "Vicky Truong vậy bao lâu mình thay 1 lần ạ"
                }
            ]
        },
        {
            "parent_comment": {
                "parent_user": "Vô Thường",
                "parent_content": "hãy dùng cốc nguyệt san e nhé"
            },
            "replies": [
                {
                    "reply_user": "Nguyễn Thị Thanh Tuyền",
                    "reply_content": " dạ cỡ bao nhiu phút hay mấy tiếng thì mình thay mới v c"
                },
                {
                    "reply_user": "Vô Thường",
                    "reply_content": "nếu dâu nhìu thì 4 đến 8 tiếng. dâu bt thig 8 đến 12h nhé ng đẹp"
                },
                {
                    "reply_user": "Nguyễn Thị Thanh Tuyền",
                    "reply_content": "Cám ơn c . Em thử xem . Nhiều thì k hẳn nhiều dữ nhưng 1 lần nó rớt tràn lan khi em ngồi cái nó tè bè ra 2 bên "
                }
            ]
        },
        {
            "parent_comment": {
                "parent_user": "Đỗ Hiền",
                "parent_content": "c dùng cốc nguyệt san thử xem ạ"
            },
            "replies": [
                {
                    "reply_user": "Nguyễn Thị Thanh Tuyền",
                    "reply_content": " vâng em cảm ơn ah "
                }
            ]
        },
        {
            "parent_comment": {
                "parent_user": "Nguyễn Hoàng Hà My",
                "parent_content": "Cốc nguyệt san,  đến mùa ko biết luôn"
            },
            "replies": [
                {
                    "reply_user": "Nguyễn Thị Thanh Tuyền",
                    "reply_content": "Siro Nguyễn để sang kì mới em dùng thử , mấy nay cứ điêu đứng , mỗi lần bị em chạy xe cứ f nhóm đít :)))"
                },
                {
                    "reply_user": "Nguyễn Hoàng Hà My",
                    "reply_content": " c cũng cơ địa ra nhiều,  bvs ướt đẫm. Chuyển qua cns thấy như trên mây,  như đc giải thoát"
                },
                {
                    "reply_user": "Nguyễn Thị Thanh Tuyền",
                    "reply_content": "Siro Nguyễn mừng thế , em thì 1 lần nó rớt ra nhiều rồi khi em ngồi nó bí cách nó tọt ra 2 bên làm bẩn hết nên em chán lắm"
                },
                {
                    "reply_user": "Nguyễn Hoàng Hà My",
                    "reply_content": " cơ địa rụng nhiều trứng.  Nên giờ mang thai đôi luôn nè"
                },
                {
                    "reply_user": "Nguyễn Thị Thanh Tuyền",
                    "reply_content": "Nguyễn Ánh sao vậy ạ"
                },
                {
                    "reply_user": "Nguyễn Hoàng Hà My",
                    "reply_content": " cái đó nó phải đưa vào trong mà"
                },
                {
                    "reply_user": "Nguyễn Thị Thanh Tuyền",
                    "reply_content": "Siro Nguyễn nam mô  em tưởng cái gì chứ . Cảm ơn các chị nhắc nhở , để em tham khảo thêm các loại khác thử xem"
                }
            ]
        },
        {
            "parent_comment": {
                "parent_user": "Nguyễn Hoàng Hà My",
                "parent_content": "Trứng rụng nhiều giống m,  nên giờ m mang bầu thai Đôi nè."
            },
            "replies": [
                {
                    "reply_user": "Quynh LaLa",
                    "reply_content": "Siro Nguyễn  rung trứng nhiều thì khả năng bầu thai đôi cao hả c"
                },
                {
                    "reply_user": "Nguyễn Hoàng Hà My",
                    "reply_content": " 30/4"
                }
            ]
        },
        {
            "parent_comment": {
                "parent_user": "Bông Trăng",
                "parent_content": "bị nhiều đừng mua cốc nguyệt san tốn tiền. Mình mua về dùng thì k bị khó chịu như bvs nhưng nói thật ào đúng 1 phát đầy bố cái cốc nguyệt san rồi"
            },
            "replies": [
                {
                    "reply_user": "Nguyễn Thị Thanh Tuyền",
                    "reply_content": "Dương Yến thế bây giờ bồ dùng cái gì"
                },
                {
                    "reply_user": "Bông Trăng",
                    "reply_content": "  Cứ bvs lọai dày thôi, thay thường xuyên nên tốn lắm. ngta cả chu kì hết hơn gói tý mình phải 3 4 gói, cứ thấy ẩm ướt cái là thay."
                },
                {
                    "reply_user": "Nguyễn Thị Thanh Tuyền",
                    "reply_content": "Dương Yến ừa thì thay thường là phần nhưng phần là 1 lần ào ra nhiều rồi nó chưa thấm kịp mà mình đang ngồi xe là auto lọt ra 2 bên nên củng khổ"
                },
                {
                    "reply_user": "Bông Trăng",
                    "reply_content": "Yến Yến  cứ 1 2 tiếng thay 1 cái có lúc vừa thay xong nó ào ra là lại thay luôn. mình còn bị ít chán, chị bạn mình còn toàn dùng bvs ban đêm vì quá nhiều"
                }
            ]
        },
        {
            "parent_comment": {
                "parent_user": "Yến Yến",
                "parent_content": "Dùng cốc ra n mà cảm thấy it, trc m dùng bvs cũng phải thay liên tục, chuyển sang cốc thoải mái hẳn, ko cong cảm giác ục 1 phát nữa"
            },
            "replies": [
                {
                    "reply_user": "Nguyễn Thị Thanh Tuyền",
                    "reply_content": " bvs tầm 2 tiếng thay 1 lần  hao quá hao"
                },
                {
                    "reply_user": "Yến Yến",
                    "reply_content": "Buổi sáng t thay 3 C , mà dùng cốc nó có đầy đâu, chỉ nửa cốc tjooi."
                }
            ]
        },
        {
            "parent_comment": {
                "parent_user": "Hồng Nhung",
                "parent_content": "Mình cũng nhiều. Nên dùng bvs ban đêm mới thấm hết đó."
            },
            "replies": [
                {
                    "reply_user": "Nguyễn Thị Thanh Tuyền",
                    "reply_content": " mình dùng bđêm nhưg vẫn tràn 2 bên md chưa thấm tới dưới nữa :((("
                },
                {
                    "reply_user": "Hồng Nhung",
                    "reply_content": " b hạn chế vận động. Mình ra nhiều tới cảm nhận được luôn."
                },
                {
                    "reply_user": "Nguyễn Thị Thanh Tuyền",
                    "reply_content": " đúng r mình thì k có chạy nhảy gì chủ yếu là ngồi nhiều , có khi đang chạy xe nghe cái tọt , r cái hiểu he :))) auto dính"
                },
                {
                    "reply_user": "Hồng Nhung",
                    "reply_content": " mình bị thiếu máu dù ăn nhiều. hk biết phải do ra nhiều hay hk?"
                },
                {
                    "reply_user": "Nguyễn Thị Thanh Tuyền",
                    "reply_content": " rồi bà con zs tui lun nè , khám bệnh là cứ thiếu máu lắm nha bổ sung chất sắt đồ vô mà tui ăn như máy hạm , ăn nhiều lần lắm , củng nửa tạ đó mà cứ thiếu máu , chắc tại cái vụ nayy thiệt r"
                },
                {
                    "reply_user": "Hồng Nhung",
                    "reply_content": "Ừ mình hk dùng bvs ban ngày   luôn. Đi tiểu 1 cái thì thôi rồi luôn, huyết cục cục như máu bầm. Ớn luôn đó"
                },
                {
                    "reply_user": "Nguyễn Thị Thanh Tuyền",
                    "reply_content": " :))) đừng vô nước biển nhìu quad :))) thoii kệ nó đi chứ sao h"
                },
                {
                    "reply_user": "Hồng Nhung",
                    "reply_content": " tại tuột huyết áp phải vô á."
                },
                {
                    "reply_user": "Nguyễn Thị Thanh Tuyền",
                    "reply_content": " à ăn sò huyết đi bà , tui hay ăn sò huyết rồi thịt bò đồ lứm"
                }
            ]
        },
        {
            "parent_comment": {
                "parent_user": "Thanh Hoa",
                "parent_content": "Dùng cái này nè. T cũng thuộc loại máu trâu. Mà từ ngày chuyển qua cái này yên tâm hẳn, vừa đỡ tràn vừa đỡ tốn xèng"
            },
            "replies": [
                {
                    "reply_user": "Thanh Hằng",
                    "reply_content": " mk cũng phải dùng loại này"
                },
                {
                    "reply_user": "Thanh Hoa",
                    "reply_content": "Ôi mang cái này đêm nằm ngủ với ngồi văn phòng cả ngày sướng lắm nha. Ko lo bị tràn đâu :)))"
                }
            ]
        },
        {
            "parent_comment": {
                "parent_user": "Trần Nhi Vi",
                "parent_content": "dùng tả lót trẻ e vừa rẻ vừa thấm thoải mái ko tràn cho ai nhiều dâu"
            },
            "replies": [
                {
                    "reply_user": "Nguyễn Thị Thanh Tuyền",
                    "reply_content": "Vi Vợ Đông >< bobby đúng k v c"
                },
                {
                    "reply_user": "Trần Nhi Vi",
                    "reply_content": "um"
                },
                {
                    "reply_user": "Nguyễn Thị Thanh Tuyền",
                    "reply_content": "Dạ em cảm ơn c"
                }
            ]
        },
        {
            "parent_comment": {
                "parent_user": "Vy Lê",
                "parent_content": "Cho em hỏi ké với,  em thấy mấy chị khuyên dùng cốc kinh nguyệt nhưng em nghe nói dùng cốc nhiều sẽ bị giãn âm đạo có đúng không ạ?"
            },
            "replies": [
                {
                    "reply_user": "Linh Nguyễn",
                    "reply_content": " mình dùng rồi, thích lắm ý"
                }
            ]
        },
        {
            "parent_comment": {
                "parent_user": "Bé Na",
                "parent_content": " Cho e hõi cốc nguyệt san dùng ntn vậy"
            },
            "replies": [
                {
                    "reply_user": "Yến Yến",
                    "reply_content": "Na Bé b vào gg tìm có cả hướng dẫn"
                },
                {
                    "reply_user": "Bé Na",
                    "reply_content": "Trà Giang  e vẫn ko hiểu dùng thê snafo lun"
                }
            ]
        },
        {
            "parent_comment": {
                "parent_user": "Trang Anh",
                "parent_content": "Dùng miếng lót sơ sinh huggies rẻ hơn bvs mà lại còn mềm nữa. Thích lắm. Thấm hút hơn đó"
            },
            "replies": [
                {
                    "reply_user": "Nguyễn Thị Thanh Tuyền",
                    "reply_content": " trời mừng v nhưng miếng no to thì chắc quần lót củng f to nhit"
                },
                {
                    "reply_user": "Trang Anh",
                    "reply_content": "  ko đâu. M vẫn dùng bthg mà."
                }
            ]
        },
        {
            "parent_comment": {
                "parent_user": "Ngô Thị Hương",
                "parent_content": "Dùng bỉm người già luôn đi "
            },
            "replies": [
                {
                    "reply_user": "Nguyễn Thị Thanh Tuyền",
                    "reply_content": " :))) chắc lúc đó nghỉ bận quần jean chuyển sang quần bà ba chống cộm quá"
                }
            ]
        },
        {
            "parent_comment": {
                "parent_user": "Ngoc Ngoc",
                "parent_content": "Mình thì dùng cốc nguyệt sang sài ok lắm"
            },
            "replies": [
                {
                    "reply_user": "Liên Liên",
                    "reply_content": "E hỏi chút, đi đứng nằm ngồi thoải mái nó có bị rớt ra ngoài không ạ"
                },
                {
                    "reply_user": "Ngoc Ngoc",
                    "reply_content": " ko sao cả hoạt động bình thường  đi vệ sinh bình thường luôn ok lắm"
                },
                {
                    "reply_user": "Liên Liên",
                    "reply_content": " Thank you chị"
                },
                {
                    "reply_user": "Ngoc Ngoc",
                    "reply_content": " mới sử dụng nên hơi khó đưa vào mình mua xong lên mạng xem cách sự dụng giờ quen rồi ,sử dụng cốc mình ko nhớ là mình đang mùa luôn á"
                },
                {
                    "reply_user": "Liên Liên",
                    "reply_content": " c dùng loại nào v ạ"
                },
                {
                    "reply_user": "Ngoc Ngoc",
                    "reply_content": "  lunacup á"
                },
                {
                    "reply_user": "Liên Liên",
                    "reply_content": "Tran Thuy vl k pit"
                }
            ]
        },
        {
            "parent_comment": {
                "parent_user": "Nguyen Phuong Minh",
                "parent_content": "Em mua tả new born của trẻ em rồi xài em, miếng nó to đỡ tràn nữa"
            },
            "replies": [
                {
                    "reply_user": "Nguyen Phuong Minh",
                    "reply_content": "My Tỷ Tỷ ko bạn ơi, nó dài nhưng mỏng vì tả newborn là cho bé sơ sinh tè 1 lần là phải thay rồi á chứ ko phải dày như tả quần hay tả dán :))"
                }
            ]
        },
        {
            "parent_comment": {
                "parent_user": "Việt Nga",
                "parent_content": "Câu like bán cns chứ đâu"
            },
            "replies": [
                {
                    "reply_user": "Nguyễn Thị Thanh Tuyền",
                    "reply_content": "Anh Trang Thu Dao chị  em không buôn bán gì hết nên chị đừng gieo nghiệp nơi em . Cảm ơn chị"
                }
            ]
        },
        {
            "parent_comment": {
                "parent_user": "La Ngọc Bảo Trân",
                "parent_content": "Dùng tả dán Bobby newborn í em. Nói thật luôn. Hồi c sinh bé xong ra nhiều ơi nhiều dùng bvs mama mà thấy cứng quá nên xài ké bé con. Xài tới giờ luôn í. Vừa thấm tốt, k tràn ngược mà còn mềm. Xài đi rồi thích"
            },
            "replies": [
                {
                    "reply_user": "Thảo Na",
                    "reply_content": "C dùg loại nào ạ"
                },
                {
                    "reply_user": "La Ngọc Bảo Trân",
                    "reply_content": "C dùng Bobby newborn 2 í em. Ra mấy cửa hàng sữa bỉm là có à. Vô siêu thị cũng có nữa đó em"
                }
            ]
        },
        {
            "parent_comment": {
                "parent_user": "Nguyễn Thị Thanh Tuyền",
                "parent_content": "Đọc cmt mng thấy đa số là sau sinh mới nhiều hả mấy c , em còn chưa chồng nữa  mà đã nhiều r , cả tuần mới dứt hẵn "
            },
            "replies": [
                {
                    "reply_user": "Huyen Trang Tran",
                    "reply_content": "xài tã bobby đi bạn mình xài tã luôn đó.. nói ra hiểu liền cùng cảnh ngộ.. ko bik sanh xong ntn đây.. nhưng xài êm, hút nhanh ko bị hăm như xài băng ban đêm.. ngủ thoải mái.. chịu khó dán tã kỹ xíu là dc.."
                },
                {
                    "reply_user": "Nguyễn Thị Thanh Tuyền",
                    "reply_content": "Ngọc Lê v hả c , em thấy có mấy c bảo em đi ktra nên củng giật mình ."
                },
                {
                    "reply_user": "Huyen Trang Tran",
                    "reply_content": " chị đi kiểm tra nek..híc do cơ địa mỗi ng thui e.. nếu k bị hôi hay màu quá tươi, quá sẫm thì bt nek do có thể thải độc tố thui em.. có ng còn muốn ra nhìu phải uống nước dùa các kiểu.. cho nên da chị … See More"
                },
                {
                    "reply_user": "Nguyễn Thị Thanh Tuyền",
                    "reply_content": " trời ơi , thích v , em nó ta hằng hà mà da vẫn mụn  hàng tá hàng tấn mụn lun"
                },
                {
                    "reply_user": "Huyen Trang Tran",
                    "reply_content": " nếu bài trừ thải độc tốt mà da vẫn bị vậy là do tế bào da nha e, nên giữ gìn vệ sinh da.. chứ mỹ phẩm chỉ giải quyết bên ngpài thui.. tầm 25t e sẽ hết nek.. e gái chị cung bị vậy ak đến nay 24t thì… See More"
                },
                {
                    "reply_user": "Nguyễn Thị Thanh Tuyền",
                    "reply_content": " dạ c , tks c nhiều"
                }
            ]
        },
        {
            "parent_comment": {
                "parent_user": "Đặng Thị Hải Yến",
                "parent_content": "Mh cũng thế. Toàn dùng bỉm mama"
            },
            "replies": [
                {
                    "reply_user": "Nguyễn Thiên Hương",
                    "reply_content": " dùng cns đi bạn, đỡ khổ"
                }
            ]
        },
        {
            "parent_comment": {
                "parent_user": "An Ngốk",
                "parent_content": "Chung cảnh ngộ. Đây toàn xài miếng lót sơ sinh hoặc ban đêm thôi"
            },
            "replies": [
                {
                    "reply_user": "Bình Ngọc",
                    "reply_content": "Hân Ngốk mom dâu nhiều nên dùng cốc nhé. Tớ bị 1 tuần cơ, tháng nào cũng khổ phải giặt giũ chăn ga, đi đâu cũng phải dòm trước ngó sau. Dùng cốc rồi sướng bao nhiêu"
                },
                {
                    "reply_user": "An Ngốk",
                    "reply_content": "Mình có dùng mà k sao wen đk. Toàn thấy bị són ra wần í mà đau lắm nhét vào khó rút ra là cả vấn đề"
                },
                {
                    "reply_user": "Bình Ngọc",
                    "reply_content": "Hân Ngốk bạn dùng cốc hãng nào? Tớ thấy bình thường mà, có đau j đâu."
                },
                {
                    "reply_user": "An Ngốk",
                    "reply_content": "Mình dùng lincup. Chắc do mọi người sinh nở nó giãn ra rồi còn mình sinh mổ lên tử cung k giãn ra lên cho vào vs rút ra mình thấy đau ."
                },
                {
                    "reply_user": "Bình Ngọc",
                    "reply_content": "Hân Ngốk mình cũng sinh mổ 2 bé dùng size L Sibell rất ổn"
                },
                {
                    "reply_user": "An Ngốk",
                    "reply_content": "Vậy ạk. Sao có mình mình là khó xài thế nhỉ. Lúc lấy ra e cũng phải lắc2 nó chán cho xg gần cửa mình sau đó bóp nó vào rồi mới lôi nó ra mà cái cảm giác nó thốn k chịu nổi"
                },
                {
                    "reply_user": "Bình Ngọc",
                    "reply_content": "Hân Ngốk mình ko dùng Lin nên ko biết cốc mềm ko?"
                },
                {
                    "reply_user": "An Ngốk",
                    "reply_content": "Ukm có khi do cốc của mình cứng. Chứ thấy trên mạng hg dẫn đơn giản lắm nhẹ nhàng mà mình thỳ vật vã xài lâu2 vẫn k wen k dám xài nữa. Mua mất 760k cái cốc đó giờ vất xó k dùng"
                }
            ]
        }
    ]
}