{
    "post": "666063533855834",
    "link": "https://facebook.com/groups/tamsuevagroup/permalink/666063533855834",
    "post_comments": [
        {
            "parent_comment": {
                "parent_user": "Xin Loi Tinh Yeu",
                "parent_content": "Dau thuong se la hanh trang cho con duong minh se di"
            },
            "replies": [
                {
                    "reply_user": "Dinh Nhi",
                    "reply_content": "Là nghị lực để không gục ngã và trai lỳ trước những nỗi đau như vậy"
                }
            ]
        },
        {
            "parent_comment": {
                "parent_user": "Nguyễn Bạch Yến",
                "parent_content": "Đau đến như thế mà chị vẫn chưa thể buông bỏ? Em phải công nhận trái tim chị có sức chịu đựng ghê gớm thật! Cuộc sống là của mình, hạnh phúc hay không cũng do mình quyết định, cả quãng đời đã qua chị phí hoài cho một người không đáng rồi, vậy sao quãng đời còn lại không giành cho người xứng đáng nhất? Đó là cho chính bản thân mình đó chị! Chúc chị đủ sáng suốt và nghị lực buông bỏ :))"
            },
            "replies": [
                {
                    "reply_user": "Dinh Nhi",
                    "reply_content": "Cảm ơn em"
                }
            ]
        },
        {
            "parent_comment": {
                "parent_user": "Mai Pham",
                "parent_content": "Tôi bạn wa"
            },
            "replies": [
                {
                    "reply_user": "Dinh Nhi",
                    "reply_content": ""
                },
                {
                    "reply_user": "Mai Pham",
                    "reply_content": " . Bạn ở đâu"
                }
            ]
        },
        {
            "parent_comment": {
                "parent_user": "Zelda Trần",
                "parent_content": "Cố lên chị tổn thương nhiều rồi hãy vì bản thân mà vui vẻ và yêu bản thân nhiều vào chị nhé"
            },
            "replies": [
                {
                    "reply_user": "Dinh Nhi",
                    "reply_content": "Cảm ơn em"
                }
            ]
        },
        {
            "parent_comment": {
                "parent_user": "Thanh Nguyễn",
                "parent_content": "Người đó có gì đâu mà ko buông bỏ dc, cố gắng sẽ thành công. Mình hiểu cảm giác của bạn"
            },
            "replies": [
                {
                    "reply_user": "Dinh Nhi",
                    "reply_content": "Cảm ơn bạn"
                }
            ]
        }
    ]
}