{
    "post": "723933851402135",
    "link": "https://facebook.com/groups/tamsuevagroup/permalink/723933851402135",
    "post_comments": [
        {
            "parent_comment": {
                "parent_user": "Thảo Ngọc",
                "parent_content": "làm tình"
            },
            "replies": [
                {
                    "reply_user": "Trần Phúc",
                    "reply_content": " giờ này thì làm vài chai xong 20-30 phút thì..... Hen kaka"
                },
                {
                    "reply_user": "Thảo Ngọc",
                    "reply_content": "  khiếp quá... a uống gì z? cho e bí kíp"
                }
            ]
        },
        {
            "parent_comment": {
                "parent_user": "Hạt Cát Bụi",
                "parent_content": "Mịa nó,  tại cóng bò húc"
            },
            "replies": [
                {
                    "reply_user": "Diệp Bảo Trang",
                    "reply_content": "Tui lại phải uống bò húc cho tỉnh này chế"
                },
                {
                    "reply_user": "Hạt Cát Bụi",
                    "reply_content": " hì"
                }
            ]
        },
        {
            "parent_comment": {
                "parent_user": "Hương Te",
                "parent_content": "Suy nghĩ làm thêm gì để có thêm thu nhập"
            },
            "replies": [
                {
                    "reply_user": "Diệp Bảo Trang",
                    "reply_content": "Ib m nhé"
                }
            ]
        },
        {
            "parent_comment": {
                "parent_user": "Na Na",
                "parent_content": "Tấc cả"
            },
            "replies": [
                {
                    "reply_user": "Hoa Tú Cầu",
                    "reply_content": " sạo sạo xem phim mà lo gì chứ"
                },
                {
                    "reply_user": "Na Na",
                    "reply_content": "Tuyetlong Tran ai nói xem phim .. cứ lướt qua thôi chứ chẳng bít xem j"
                }
            ]
        },
        {
            "parent_comment": {
                "parent_user": "Tố Nga",
                "parent_content": "Cảm giác bị phản bội thật đau"
            },
            "replies": [
                {
                    "reply_user": "Luong Nguyen",
                    "reply_content": "  thật vậy đấy?"
                },
                {
                    "reply_user": "Tố Nga",
                    "reply_content": "  gần như vậy m ạ, nhưng trai lì rồi hâhha"
                }
            ]
        },
        {
            "parent_comment": {
                "parent_user": "Hien Thi Huynh",
                "parent_content": "Ko tiền,suy nghĩ,k bít cs sẽ ntn? Con bệnh.k bit khi nào hết,khóc cùng con,chỉ biết xin trời phù hộ, cảm thấy rất chán"
            },
            "replies": [
                {
                    "reply_user": "Minh Huyền",
                    "reply_content": " cố lên c"
                },
                {
                    "reply_user": "Hien Thi Huynh",
                    "reply_content": " cám ơn e"
                }
            ]
        }
    ]
}