{
    "post": "449633818832141",
    "link": "https://facebook.com/groups/tamsuevagroup/permalink/449633818832141",
    "post_comments": [
        {
            "parent_comment": {
                "parent_user": "Phương Phương Hồng",
                "parent_content": "Tin mới nhất rưa hôm nay của trường mầm non chỗ e các mẹ ạ, k phải con mình nhưng e muốn ăn tươi con này luôn"
            },
            "replies": [
                {
                    "reply_user": "Lâm Vy",
                    "reply_content": "Nghề gv lương lậu ko bao nhiu sao ai cũng đâm đầu vào nhỉ???( mình ko nói đến những gv tâm huyết nhé)."
                }
            ]
        }
    ]
}