{
    "post": "778137155981804",
    "link": "https://facebook.com/groups/tamsuevagroup/permalink/778137155981804",
    "post_comments": [
        {
            "parent_comment": {
                "parent_user": "Bùi Thu Hà",
                "parent_content": "Mẹ em bảo cái nghề bán rau là dễ giàu nhất. Cô em bán ngày cũng được 200k. Đến giờ vẫn k hiểu tại sao lại dễ giàu??"
            },
            "replies": [
                {
                    "reply_user": "Bình Bài Nguyễn",
                    "reply_content": "  mua hạt giống chắc mấy nghìn, có đất về trồng tưới tắn xong đem bán , chả lãi"
                },
                {
                    "reply_user": "Bùi Thu Hà",
                    "reply_content": " cũng đúng. Mỗi tội hơi nhọc công"
                }
            ]
        },
        {
            "parent_comment": {
                "parent_user": "My Oanh",
                "parent_content": "Ngày xưa mình cũng hay nhắc Ck mình đi chợ không trả giá vì họ cân ăn gian này kia.. Ck mình nói lại không bao nhiêu, sau này đi chùa và xem những hình ảnh dậy sớm 3h sáng để bán những bó rau thì từ đó đi mua họ nói bao nhiu mua bấy nhiêu, không kỳ kèo làm gì. Sau đó nghe vụ o ngoài chợ ngâm thuốc cho rau khỏi héo.. nên mình vào satra mua, giá cao gấp đôi o ngoài nhưng cảm thấy an tâm hơn. Con thịt Bò giá Siêu thị mắc hơn 70k-100k/ cân nhưng cân không ăn gian. Mua về thấy như nhau các bạn ah.  Nói chung cái gì cũng có 2 mặt của nó, nên thoi đi mua đừng trả giá 2-3k mua dc mua k dc thì thoi ne , trả cái nào mấy chục ý :))"
            },
            "replies": [
                {
                    "reply_user": "Ngọc Mai",
                    "reply_content": " đúng rồi mon xung quanh đâu đó k phải ai ngta cũng thực tâm... h o quê ngta cũng dùng kích thích... bởi vậy... ăn cứ ăn sống đến lúc naod thì sống mon a"
                }
            ]
        },
        {
            "parent_comment": {
                "parent_user": "Nguyễn Huyền",
                "parent_content": "Bố ‍‍‍‍‍‍‍‍‍‍‍‍‍‍‍‍‍‍‍‍‍‍‍‍‍‍‍‍‍‍‍‍‍‍‍‍‍‍‍‍‍‍‍‍‍‍‍‍‍‍‍‍‍‍‍‍‍‍‍‍‍‍‍‍‍‍‍‍‍‍‍‍‍‍‍‍‍‍‍‍‍‍‍‍‍‍‍‍‍‍‍‍‍‍‍‍‍‍‍‍‍‍‍‍‍‍‍‍‍‍‍‍‍‍‍‍‍‍‍‍‍‍‍‍‍‍‍‍‍‍‍‍‍‍‍‍‍‍‍‍‍‍‍‍‍‍‍‍‍‍‍‍‍‍‍‍‍‍‍‍‍‍‍‍‍‍‍‍‍‍ hoc tap "
            },
            "replies": [
                {
                    "reply_user": "‍‍‍‍‍‍‍‍‍‍‍‍‍‍‍‍‍‍‍‍‍‍‍‍‍‍‍‍‍‍‍‍‍‍‍‍‍‍‍‍‍‍‍‍‍‍‍‍‍‍‍‍‍‍‍‍‍‍‍‍‍‍‍‍‍‍‍‍‍‍‍‍‍‍‍‍‍‍‍‍‍‍‍‍‍‍‍‍‍‍‍‍‍‍‍‍‍‍‍‍‍‍‍‍‍‍‍‍‍‍‍‍‍‍‍‍‍‍‍‍‍‍‍‍‍‍‍‍‍‍‍‍‍‍‍‍‍‍‍‍‍‍‍‍‍‍‍‍‍‍‍‍‍‍‍‍‍‍‍‍‍‍‍‍‍‍‍‍‍‍",
                    "reply_content": " hi"
                }
            ]
        },
        {
            "parent_comment": {
                "parent_user": "Vương Sơn",
                "parent_content": "kkkkk chị ơi ít nữa em lấy vợ liệu có giống như lạn nhân trong câu chuyện này không chị nhỉ haha"
            },
            "replies": [
                {
                    "reply_user": "Ngọc Mai",
                    "reply_content": " kakak nchung là tiết kiệm được là tốt nhưng tuỳ vaod hoàn cảnh zai a... h thật giả lẫn lộn k biewts ntn mờ lần"
                },
                {
                    "reply_user": "Vương Sơn",
                    "reply_content": " dạ vâng"
                }
            ]
        },
        {
            "parent_comment": {
                "parent_user": "Phương Thảo",
                "parent_content": "Cái loại đàn ông mà đong lọ nước mắm, đếm củ dưa hành thì đéo thể ngửi được "
            },
            "replies": [
                {
                    "reply_user": "Cơn Gióđộc",
                    "reply_content": " con nhúg dua con gai ma dua Ck tien di ma ky bo qua cug deo co them cug tai ai ma dan og nhu vay suy nghi bai viet bag cai nao chu dung suy nghi bag cai mom"
                },
                {
                    "reply_user": "Phương Thảo",
                    "reply_content": "Máu Lạnh Bạn cầm tiền của vk bạn để đi chợ à?"
                }
            ]
        },
        {
            "parent_comment": {
                "parent_user": "Linh Bé",
                "parent_content": "Ck mk mà vậy nó đéo đi"
            },
            "replies": [
                {
                    "reply_user": "Cơn Gióđộc",
                    "reply_content": " kg di la phai roi di cho cho ca nhan chu dau phai an mot minh dau ma ky bo qua lo chet co dem duoc Kg ha ban"
                },
                {
                    "reply_user": "Linh Bé",
                    "reply_content": "Hì.. nhìu lúc gd ngta khó khăn b"
                }
            ]
        },
        {
            "parent_comment": {
                "parent_user": "이지혜",
                "parent_content": "Mẫn Đặng July nếu ko muốn bị ăn mắng thì phải học giống a kia.ck nhỉ "
            },
            "replies": [
                {
                    "reply_user": "Mẫn Đặng July",
                    "reply_content": "Gà Bông chiều trả giá vậy mà vẫn bị mắng. Hic hic"
                }
            ]
        },
        {
            "parent_comment": {
                "parent_user": "Đặng Đức",
                "parent_content": "Ki bo kiệt sỉ hà tiện"
            },
            "replies": [
                {
                    "reply_user": "Nguyễn Kỳ",
                    "reply_content": " b ơi.b đọc hết stt chưa"
                },
                {
                    "reply_user": "Đặng Đức",
                    "reply_content": " t đọc ht rồi Bà vk nó ki bo kiệt sỉ Hà tiệnKo đủ tiền t có thể nợ bà bán rau lần sau mua t trả chứ del bjo kỳ kèu 1-2000d"
                }
            ]
        },
        {
            "parent_comment": {
                "parent_user": "Đỗ Tuấn",
                "parent_content": "t làm cho nhà hàng. chuyên đi chợ mua rau củ quả. Cứ ng nào già nhất t mua. có bnhiu mua sạch. 4k.2mớ thi t đưa hẳn 5k..vì tiền là cuả nhà hàng.Cuối cùng bà ở xom thấy đồn ầm xóm đã nghèo còn sĩ diện k bh lấy tiền thừa:))"
            },
            "replies": [
                {
                    "reply_user": "Carrot Bảo Phúc",
                    "reply_content": "Tuan Do hừm"
                }
            ]
        },
        {
            "parent_comment": {
                "parent_user": "Thu Vân",
                "parent_content": "Thế các ôg mới hiểu dc cảnh phụ nữ ở nhà nội trợ như the nao.  Các ôg đừg tưởg đưa vài triệu  để lo cho cả thág là to..  Tiêu k đủ kêu hết  tien thj các ôg kêu tiêu hoag phí.  . Cứ phải như the các ôg mới  hiểu dc."
            },
            "replies": [
                {
                    "reply_user": "Thủy Tiên",
                    "reply_content": "Nguyễn Vũ"
                }
            ]
        },
        {
            "parent_comment": {
                "parent_user": "Dương Trang",
                "parent_content": "Sao ko bớt mẹ lại mua 15k thịt thôi là ok."
            },
            "replies": [
                {
                    "reply_user": "Vi Tuấn",
                    "reply_content": " Thử hỏi 1,5lạng thái ra thì sẽ được bao nhiêu miếng . Trên mình 1kg 100k thậm chí còn hơn đấy."
                },
                {
                    "reply_user": "Dương Trang",
                    "reply_content": "Thế các bố mới biết đi chợ đau đầu nó như thế nào?"
                }
            ]
        },
        {
            "parent_comment": {
                "parent_user": "Ngọc Hân",
                "parent_content": "Chồng mình mà như vậy chắc chắn là giàu to rồi"
            },
            "replies": [
                {
                    "reply_user": "Thanhs Mưu",
                    "reply_content": " mớ rau ngoài chợ , nếu rau nhập k nói gì . Nhưng rau các bà cụ tự tay vun chồng 3_5 nghìn đâu đáng là bao ? Hơn các a chị đi hàng sang ,... say no đủ bo thối cả thàng giàu vài 100nghin"
                }
            ]
        },
        {
            "parent_comment": {
                "parent_user": "Huong Nguyen",
                "parent_content": "Đúng là con mụ hết việc rảnh háng."
            },
            "replies": [
                {
                    "reply_user": "Regina Nguyen",
                    "reply_content": " sao bằng ck đưa 1 triệu bắt đi chợ cho cả tháng 3 người đc . Làm thế này cho đáng đời lũ đàn ông"
                }
            ]
        },
        {
            "parent_comment": {
                "parent_user": "Nguyễn Ngọc Vũ",
                "parent_content": "Lên bar pay lak nhậu nhẹt thì tips cho nhân viên 1,200k đéo nói tiếng nào. Bực mình vl"
            },
            "replies": [
                {
                    "reply_user": "Bùi Thu Hà",
                    "reply_content": " vợ cho lên bar chơi đã vui "
                },
                {
                    "reply_user": "Nguyễn Ngọc Vũ",
                    "reply_content": " ai ko có ước mơ "
                }
            ]
        },
        {
            "parent_comment": {
                "parent_user": "Trần Hương",
                "parent_content": "Ở miền quê thì có giá đấy chứ trên thành phố như trong a thì xin mời lên đường, tàu lượn chim cút cho nó nhanh khỏi cần trả giá"
            },
            "replies": [
                {
                    "reply_user": "Trần Hương",
                    "reply_content": "Hà Phúc chuẩn mà, có khi lớ ngớ còn bị mắng nữa đớ, hí hí"
                }
            ]
        },
        {
            "parent_comment": {
                "parent_user": "Nhật Trần",
                "parent_content": "Con trai thì k nên mặc cả quá nhiều ! Sau này lấy vk nó quản lí tiền đéo sót đồng nào đâu ."
            },
            "replies": [
                {
                    "reply_user": "Nguyễn Thị Tình",
                    "reply_content": "Nhật Nhím Trần ở gần nhà mình,có ông kia , lưong trên 10 củ .mà ông đi mua thuốc wuan gần nhà đắt hơn ngoài chợ 1 k . ông phi xe ra chợ mua cho rẻ,quan trọng là xe ông chạy bằng nước lã chứ đếch phải chạy bằng xăng  vãi chưởng tình đời thật"
                },
                {
                    "reply_user": "Nhật Trần",
                    "reply_content": "  đó là sự thiếu học đó :))"
                },
                {
                    "reply_user": "Nguyễn Thị Tình",
                    "reply_content": "Nhật Nhím Trần chú nói thế .cán bộ cấp cao đấy "
                },
                {
                    "reply_user": "Nhật Trần",
                    "reply_content": "haha cao thấp gì e ko biết nhưng k biết tính toán thì là ngu thật"
                }
            ]
        },
        {
            "parent_comment": {
                "parent_user": "Hoàng Phúc",
                "parent_content": "chụp cái ảnh rồi thêu dệt nên câu chuyện !"
            },
            "replies": [
                {
                    "reply_user": "Đặng Hiền",
                    "reply_content": " có thể lắm bạn nhỉ."
                }
            ]
        },
        {
            "parent_comment": {
                "parent_user": "Mis Ngọc Hân",
                "parent_content": "Rau muống 10k một bó chứ đâu ra 3k.. 25k ko đủ tiền một tô bún bò nữa.."
            },
            "replies": [
                {
                    "reply_user": "Trần Thuý",
                    "reply_content": " dưới quê vẫn có chế ơi má mi đi mua 5k 3 mớ kia kìa"
                }
            ]
        },
        {
            "parent_comment": {
                "parent_user": "Kim Tuấn",
                "parent_content": "Mấy thằng này lấy zk đến cái bvs của zk nó cũng mặc cả."
            },
            "replies": [
                {
                    "reply_user": "Nguyễn Angels",
                    "reply_content": "Tuấn Domino the a thì sao a..kak"
                },
                {
                    "reply_user": "Kim Tuấn",
                    "reply_content": " a cũng mặc cả như thế nhung mặc cả để mua cả conternơ dán ngập mặt con zk "
                },
                {
                    "reply_user": "Nguyễn Angels",
                    "reply_content": "Tuấn Domino the ak..v khi nào cuoi vk bao hộ đe biết nhe a..k"
                },
                {
                    "reply_user": "Kim Tuấn",
                    "reply_content": " ok a sẽ mời e lam cô dâu."
                },
                {
                    "reply_user": "Nguyễn Angels",
                    "reply_content": "Tuấn Domino thế ha...cam ơn a truoc nhé..cảm động quá đi"
                },
                {
                    "reply_user": "Kim Tuấn",
                    "reply_content": " e ráng đợi a nha.A sẽ cố gắng từ 2 bàn tay trắng tạo nên nợ nần rồi cưới e"
                },
                {
                    "reply_user": "Nguyễn Angels",
                    "reply_content": "Tuấn Domino vãi..ok nhé...e cau sao con nợ nó chém a luôn đi"
                },
                {
                    "reply_user": "Kim Tuấn",
                    "reply_content": " a sẽ snghi đến ngày cưới of chúng ta"
                }
            ]
        },
        {
            "parent_comment": {
                "parent_user": "Nhung Anh",
                "parent_content": "Mong chị ý đọc được và lần sau cho a ý thêm 1k để đủ tiền "
            },
            "replies": [
                {
                    "reply_user": "Đào Phương",
                    "reply_content": "2k đi cho dư giả"
                },
                {
                    "reply_user": "Nhung Anh",
                    "reply_content": "  1k để mua kẹo ăn à "
                },
                {
                    "reply_user": "Đào Phương",
                    "reply_content": " đi chơi với gái...hh"
                },
                {
                    "reply_user": "Nhung Anh",
                    "reply_content": " thế thì k đủ cốc trà đá  Cho hẳn 4k để thừa 3k còn đủ 1 cốc"
                },
                {
                    "reply_user": "Đào Phương",
                    "reply_content": " đi chơi vs gái...cần 2k thôi...còn đâu nó bao hh"
                },
                {
                    "reply_user": "Nhung Anh",
                    "reply_content": "  Thế thì lại truất quá "
                },
                {
                    "reply_user": "Đào Phương",
                    "reply_content": " tiết kiệm cho vợ con cậu ơi hh"
                },
                {
                    "reply_user": "Nhung Anh",
                    "reply_content": "  Thế thì 2k để dành gửi tiết kiệm "
                },
                {
                    "reply_user": "Đào Phương",
                    "reply_content": " trả thế...từ h đến lúc lấy vợ có mà lên tiền tỉ"
                },
                {
                    "reply_user": "Nhung Anh",
                    "reply_content": "   Lạy "
                },
                {
                    "reply_user": "Đào Phương",
                    "reply_content": "Biết tiệm kiệm tiền cho vợ con đấy mới là ng chồng tốt hahah"
                },
                {
                    "reply_user": "Nhung Anh",
                    "reply_content": "  Oce để xem "
                },
                {
                    "reply_user": "Đào Phương",
                    "reply_content": "Ok đợi đấy"
                },
                {
                    "reply_user": "Nhung Anh",
                    "reply_content": "Việt PiO   A cười gì thế "
                }
            ]
        },
        {
            "parent_comment": {
                "parent_user": "Nguyễn Ngọc Thanh",
                "parent_content": "Cherry HX"
            },
            "replies": [
                {
                    "reply_user": "Cherry HX",
                    "reply_content": "  Vợ đâu có như vậy"
                }
            ]
        }
    ]
}