{
    "post": "377561262706064",
    "link": "https://facebook.com/groups/tamsuevagroup/permalink/377561262706064",
    "post_comments": [
        {
            "parent_comment": {
                "parent_user": "Trần Văn Trung",
                "parent_content": "Ơ hay đấy"
            },
            "replies": [
                {
                    "reply_user": "Trương Trung",
                    "reply_content": "1 chút góc nhìn từ thằng đàn ông, và cũng đang làm người  ck."
                },
                {
                    "reply_user": "Trần Văn Trung",
                    "reply_content": "Ngta nói đàn ông say nhà đàn bà là tổ ấm trả sai tý nào. Nhưng Bz hiếm lắm"
                },
                {
                    "reply_user": "Trương Trung",
                    "reply_content": "Đúng vậy,  đàn ông  xây nhà. Nhưng ko phải  xây   vật chất,  mà xây dựng các mối qh  gd,  tháo Đi những khúc mắc do tính cách của các thành viên trong gd tao nên,  đàn bà giữ ấm là giữ lấy các mối qh  đó,  còn nghĩa thực xây   với đàn bà  ngồi  bếp là xưa rồi."
                },
                {
                    "reply_user": "Trần Văn Trung",
                    "reply_content": "Hihi mình Bz ko tin lắm"
                },
                {
                    "reply_user": "Trương Trung",
                    "reply_content": "Vậy à,  là người  ck  cũng khổ lắm bạn,  mẹ 1 tính,  vk  1tinh,  dung hoà 2 con người để có điểm chung cũng đau đâu lắm bạn ạ"
                },
                {
                    "reply_user": "Trần Văn Trung",
                    "reply_content": ""
                },
                {
                    "reply_user": "Trương Trung",
                    "reply_content": "Vi dụ chuyện nhỏ nhé,  nấu cơm chẳng hạn. Mẹ: cả buổi ko xong bữa cơm, suốt ngày phím ảnhVk : việc gì cũng đến tay,  mẹ ngôi ko giúp tôi đc ạLàm ck  giải  quyết SaoNói  với vk : việc thì cả ngày thôi,  bữa cơm quan trọng, mẹ già rồi tính nóng lại đến giờ ăn chưa thấy cơm nên vậy.  Tranh thủ nấu tí cho đỡ đau đầuNói  với mẹ: có gì đâu,  con bảo vk  rui,  vk cũng biết sai chỉ  tội nhiều việc linh tinh nên vk  quên,  mẹ giúp con cắm cơm còn thức ăn vk  nấu sau ăn cho nóng. 1viec nhỏ nhưng ng ck  phải sử lý ở 2 bên. Ng ck  khổ ko bạn ơi.  Mỗi gd  1 # nhưng việc sử lý tốt sẽ OK hết"
                }
            ]
        },
        {
            "parent_comment": {
                "parent_user": "Kiều Thoan",
                "parent_content": "He... ông bạn của tôi sắp trở thành chuyên gia tâm lý rồi đó"
            },
            "replies": [
                {
                    "reply_user": "Trương Trung",
                    "reply_content": "buồn buồn, thấy chị e than nhiều quá,"
                }
            ]
        }
    ]
}