{
    "post": "340359879759536",
    "link": "https://facebook.com/groups/tamsuevagroup/permalink/340359879759536",
    "post_comments": [
        {
            "parent_comment": {
                "parent_user": "Quế Nguyễn Xuân",
                "parent_content": "Em trẻ đẹp lắm... Già đâu.. Chắc cùng lắm sinh năm 7 mấy thôi à."
            },
            "replies": [
                {
                    "reply_user": "Minh Thy",
                    "reply_content": "7may la 7 may a"
                },
                {
                    "reply_user": "Quế Nguyễn Xuân",
                    "reply_content": "Tầm 72 là cùng thôi"
                }
            ]
        },
        {
            "parent_comment": {
                "parent_user": "Ánh Tuyết",
                "parent_content": "1993 như thế này già k ạ?"
            },
            "replies": [
                {
                    "reply_user": "Đức Của Nước",
                    "reply_content": "Già"
                }
            ]
        },
        {
            "parent_comment": {
                "parent_user": "Vy Vy",
                "parent_content": "M.n đoán e bnh tuổi."
            },
            "replies": [
                {
                    "reply_user": "Phuc Keep Ever",
                    "reply_content": "22 tuoi"
                },
                {
                    "reply_user": "Vy Vy",
                    "reply_content": "mặt già vậy cũng đoán đc năm sinh "
                }
            ]
        },
        {
            "parent_comment": {
                "parent_user": "Đêm Giông Bão",
                "parent_content": "nhìn mặt này phải tầm  sinh năm 94"
            },
            "replies": [
                {
                    "reply_user": "Bắc Văn Nguyễn",
                    "reply_content": "86"
                },
                {
                    "reply_user": "Đêm Giông Bão",
                    "reply_content": "Bac Van Nguyen thế làm gì biết người ta sinh năm 86"
                },
                {
                    "reply_user": "Bắc Văn Nguyễn",
                    "reply_content": "   Nhìn.  Là. Biết. Ak"
                }
            ]
        },
        {
            "parent_comment": {
                "parent_user": "Cà Mau",
                "parent_content": "60"
            },
            "replies": [
                {
                    "reply_user": "Nguyễn Tiến Lộc",
                    "reply_content": "bao 60 chang le lai gia vay sao"
                },
                {
                    "reply_user": "Cà Mau",
                    "reply_content": ""
                }
            ]
        },
        {
            "parent_comment": {
                "parent_user": "Dong Thanh",
                "parent_content": "Địt nhiều mới nhanh già vậy e ah"
            },
            "replies": [
                {
                    "reply_user": "Minh Thy",
                    "reply_content": "Co ck mak k dit de ck dj gai khac ak a"
                }
            ]
        },
        {
            "parent_comment": {
                "parent_user": "Minh Thy",
                "parent_content": "That ra e dag bai la de tam su va de ca nha co ai pt mak giup gjum e.nhug e dag thi k dk duyet.e thay nhju ng dag hoi tuoi thi dk duyet nen e dag thu"
            },
            "replies": [
                {
                    "reply_user": "Ngô Cảnh",
                    "reply_content": "Pan nen nghe loi bác si đi tuoi còn tre mà tu tu sin con tip dc ma pan"
                },
                {
                    "reply_user": "Minh Thy",
                    "reply_content": "Mjk 24t pan ak"
                }
            ]
        }
    ]
}