{
    "post": "902722346856617",
    "link": "https://facebook.com/groups/tamsuevagroup/permalink/902722346856617",
    "post_comments": [
        {
            "parent_comment": {
                "parent_user": "Thuận Vũ",
                "parent_content": "Con nít tuổi ăn tuổi chơi. Lựa mà khuyên. Có chị dâu nó ỉ lại ý mà. Sao bạn k sai nó làm cái này cho chị làm cái kia hộ chị xem e đó s"
            },
            "replies": [
                {
                    "reply_user": "Ánh Ánh",
                    "reply_content": "Mẹ ck e kêu nó xún nấu cơm mà nó nói ko. Sai nó có xíu mà mặt nó nhăn nhó giữ lắm mom à"
                }
            ]
        },
        {
            "parent_comment": {
                "parent_user": "Nguyen Đồng",
                "parent_content": "E ck trai hay gai z b"
            },
            "replies": [
                {
                    "reply_user": "Ánh Ánh",
                    "reply_content": "Gái mom ạ"
                },
                {
                    "reply_user": "Nguyen Đồng",
                    "reply_content": " Gai thi k the nao chap nhandc.. M dau pai ng hau cua no au.. Ma m phai chiu no"
                }
            ]
        },
        {
            "parent_comment": {
                "parent_user": "Vũ Thị Hằng",
                "parent_content": "bảo no muốn ăn ngon mà k xuống nấu thì ăn cứt ,còn no ăn song k don c để yên đấy cho mẹ ck hầu no,"
            },
            "replies": [
                {
                    "reply_user": "Ánh Ánh",
                    "reply_content": "Thấy mẹ ck e đi làm về cực quá mà để mẹ ck dọn cũng tội nên e dọn á c. Ăn bánh kẹo có cái vỏ nó cũng để y sì luôn."
                }
            ]
        },
        {
            "parent_comment": {
                "parent_user": "Bích Ngọc",
                "parent_content": "E ck mk cũng đâu có bao giờ lm việc nhà đâu, chỉ ăn rồi học thôi nhưng nếu mk nhờ là cô vẫn lm cho nè.....chị e có gì nói chuyện vs nhau chứ bực có giải quyết được gì đâu  biết đâu b nhờ e ck b lm giúp thì sao"
            },
            "replies": [
                {
                    "reply_user": "Ánh Ánh",
                    "reply_content": "Có đợt mẹ ck e bắt vịt về nuôi. Nuôi trong chuồng mà ở ngoài trời, hôm đó trời mưa to lắm, vịt con nữa nên e mới kêu nó bắt vịt vô giùm, tại e đang bầu nên ko có bắt đc. E nói nó xong nó vẫn ngồi im chơi đt mặc kệ luôn mom ạ"
                },
                {
                    "reply_user": "Bích Ngọc",
                    "reply_content": " kêu ra bắt phụ rồi 2 chị e cùng bắt chứ mom kêu 1 mk n bắt là n k chịu đâu  trẻ con chưa suy nghĩ đk nên thế, e nhờ e ck cg thì toàn rủ 2 chị e mk cùng lm thôi"
                },
                {
                    "reply_user": "Ánh Ánh",
                    "reply_content": " tại lúc đó là e bầu là 7th mom à. Vs trời bắt đầu chuyển mưa là e nói nó r. Cuối cùng nó vẫn để e bắt bầy vịt và nó vẫn ngồi chơi đt. Dù nó thấy nó cũng làm ngơ luôn"
                },
                {
                    "reply_user": "Bích Ngọc",
                    "reply_content": " thế thì đừng cho mượn đt nữa, đã ghét cho ghét hẳn....nói mà vẫn nhơn nhởn thì là do ý thức k có rồi"
                },
                {
                    "reply_user": "Ánh Ánh",
                    "reply_content": " k cho nó vẫn tự lấy á mom. Nhìu hôm e đang sạt nó đem đt vs cục sạt ra vừa sạt vừa chơi. Buổi sáng như thường lệ nó tự động vào phòng e lấy đt e chơi"
                },
                {
                    "reply_user": "Bích Ngọc",
                    "reply_content": " khoá mã vào thì sao mở đk, hễ n bảo mở thì bảo đt c đang sac e để đấy cho c.....cất vào tủ khoá lại cho biết"
                }
            ]
        },
        {
            "parent_comment": {
                "parent_user": "Nguyễn Linh",
                "parent_content": "E ck là nv á thôi ráng 18t cho nó đi lấy ck đi chứ kiểu ng ntn có nói cũng như nước đổ đầu vịt à bạn"
            },
            "replies": [
                {
                    "reply_user": "Ánh Ánh",
                    "reply_content": "E ko nói mom ạ. Ck e vs mẹ ck e nói nó còn giận còn hơn bỏ ăn này kia mom ạ."
                }
            ]
        },
        {
            "parent_comment": {
                "parent_user": "lục khánhlinh",
                "parent_content": "Nói n. Sai n bảo n làm hộ c đi. Cứ cả nể r lại ôm cục tức. Nhà mình e trai ck mình còn bắt lm đó. Mà bme ck mình ghê lm. Đi học về mà k phụ việc nhà thì bị chửi là cái chắc. Lằng nhằng còn ăn chưởng luôn. Lm j có chuyện bảo k lm lại còn bố láo thái độ đâu. Nhà 2ae trai mà nề nếp. Cả nhà giúo đỡ nhau lm việc hết. Nhìn xem có việc là tự giác lm"
            },
            "replies": [
                {
                    "reply_user": "Ánh Ánh",
                    "reply_content": "Mẹ ck vs ck e cũng bảo nó là c đang bầu bì, có gì phụ c nấu ăn, dọn dẹp này kia. Mẹ ck vs ck e la hoài mà vẫn thế mom ạ. Mà nếu có sai nó làm là mom phải chờ, mỗi khi chờ nó là e đã làm xong r mom ạ. Làm cái gì cũng kè kè cái đt bên mình. Ngta nhặt nhau 5-10p chứ nó vừa nhặt rau vừa bấm đt"
                },
                {
                    "reply_user": "lục khánhlinh",
                    "reply_content": " k cho n mượn đt. Tích cực sai n lm. Còn bh xong thì kệ bố n"
                },
                {
                    "reply_user": "Ánh Ánh",
                    "reply_content": " e ko cho nó cũng lấy á mom. Lúc đang bận bịu thì e để đt đó nó tự lấy. Buổi sáng e còn nằm nướng trong phòng e là nó tự động vô phòng e lấy đt e chơi r"
                },
                {
                    "reply_user": "lục khánhlinh",
                    "reply_content": "Tại mck vs ck b k nói n triệt để thôi. Gặp nhà mình thì chắc no đòn vs bố ck mình r. Chưa cần biết sai đúng tnao. Dám cãi vs thái độ là bố láo r. Đập trc đã . Còn lm việc nhà n là đương nhiên nhé. Đấy là ctrai đó. C dâu ở cữ n còn giặt qa cho cháu. N còn biết tắm cho cháu. Nếu k phải đi học thì ăn xong chờ đó mà rửa bát dọn dẹp"
                },
                {
                    "reply_user": "Ánh Ánh",
                    "reply_content": "Hồi nhỏ tới giờ mẹ ck e chưa từng đánh nó roi nào luôn. Có đợt ck e chửi nó vì tội nó hỗn vs bà c ck. Nó phán câu ko ai dạy dỗ nó cả. Ck e đơ ng luôn"
                }
            ]
        },
        {
            "parent_comment": {
                "parent_user": "Hồng Hoa",
                "parent_content": "dậy n làm đi b,  b cứ kham hết xong n thành thói quen..nhẹ k đc thì n lười b cũng lười xem lấy gì đổ vào mồm"
            },
            "replies": [
                {
                    "reply_user": "Ánh Ánh",
                    "reply_content": "E là ng nấu ăn hết mom ạ. Thấy mẹ ck đi làm mướn về mà k có cơm nc thì tội mẹ. Những lúc mẹ ck e về sớm thì cũng bảo nó phụ e nhưng nó cũng nhăn nhó này kia, k có mẹ ck nó thấy e làm nhưng nó ngơ luôn e làm gì kệ e"
                }
            ]
        },
        {
            "parent_comment": {
                "parent_user": "Nguyễn San Thái",
                "parent_content": "Tuổi đấy hầu như là vậy, sao bạn ko nói em nó làm giúp , khi nấu ăn thì kêu em nó xuống nhặt rau cho chẳng hạn, hoặc ăn xong bạn đi tắm thì nói lát em ăn xong rửa bát giúp chị nha, mình tin vài lần là em nó ý thức đc thôi ma"
            },
            "replies": [
                {
                    "reply_user": "Ánh Ánh",
                    "reply_content": "Thường thì chén bát ăn xong sáng mới rửa mom ạ. Vì đêm xuống nhà ck e nhìu muỗi lắm mom ạ. Nhiều lần mẹ ck e sai nó rửa giùm e mà nó ko rửa. Có đợt nó chỉ chùi qua xà phòng r kêu e rửa lại vs nc sạch, ck e mới bảo sao ko rửa luôn đi mà kêu c. Nó bắt đầu lầm lì, khó chịu này kia. R rửa vs nc sạch mà nó làm kiểu bực bội lắm mom ơi"
                },
                {
                    "reply_user": "Nguyễn San Thái",
                    "reply_content": "  cái này là do gd nhà Ck bạn chiều nó qúa sinh hư, lẽ ra phải dậy nó làm từ khi mới lớn , sau này lấy Ck thì khổ bản thân nó thôi"
                },
                {
                    "reply_user": "Ánh Ánh",
                    "reply_content": "Bày nó, dạy nó phải thế này thế kia mà nó cáu lắm mom."
                }
            ]
        },
        {
            "parent_comment": {
                "parent_user": "Nguyễn Hiếu",
                "parent_content": "Chiều quá đâm hư ! Chị cứ vả cko vài và là lần sau chừa "
            },
            "replies": [
                {
                    "reply_user": "Ánh Ánh",
                    "reply_content": "Thôi mom ơi. Vả nó hả đc giận chứ sau này còn nhìu thứ nữa"
                }
            ]
        },
        {
            "parent_comment": {
                "parent_user": "Nguyễn Thị Thu Cúc",
                "parent_content": "Chửi vào sợ j"
            },
            "replies": [
                {
                    "reply_user": "Ánh Ánh",
                    "reply_content": "Mẹ ck vs ck e chửi có thấm vào nó đâu c."
                },
                {
                    "reply_user": "Nguyễn Thị Thu Cúc",
                    "reply_content": "  thế mà mh chửi nó đc ms hay"
                }
            ]
        },
        {
            "parent_comment": {
                "parent_user": "Hùng Đen",
                "parent_content": "Chưa 18t đã cưới rồi.bọn con nít"
            },
            "replies": [
                {
                    "reply_user": "Nguyễn Mai",
                    "reply_content": "Nghĩ lại thì thấy 18 tuổi đúng là con nít thật, nhưng mà lúc mình tầm tuổi đấy thì cũng tự cho mình là lớn lắm rồi :))) tuổi đấy không ai bảo được đâu à"
                }
            ]
        },
        {
            "parent_comment": {
                "parent_user": "Hồ Thị Đào",
                "parent_content": "Bảo nó làm bây giờ phải sai nó làm chứ chờ nó tự giác làm còn lâu"
            },
            "replies": [
                {
                    "reply_user": "Ánh Ánh",
                    "reply_content": "Mẹ ck e sai nó nấu cơm, nó quay lại bảo ko"
                },
                {
                    "reply_user": "Hồ Thị Đào",
                    "reply_content": " hết thuốc chữa"
                }
            ]
        }
    ]
}