{
    "post": "689597404835780",
    "link": "https://facebook.com/groups/tamsuevagroup/permalink/689597404835780",
    "post_comments": [
        {
            "parent_comment": {
                "parent_user": "Lê Nhung",
                "parent_content": "Nếu b có tc với họ hãy mở lòng với họ đừng để cơ hội đi qua lại hối hận ko kịp"
            },
            "replies": [
                {
                    "reply_user": "Manchi Venise",
                    "reply_content": "Le Nhung e ko hối hận đâu ạ. Giờ e chỉ muốn tập trung học hành vs cv thui"
                }
            ]
        },
        {
            "parent_comment": {
                "parent_user": "Thu Thuỷ",
                "parent_content": "cứ bơ đi n nt k nhắn lại thì vài ngày n khác chán"
            },
            "replies": [
                {
                    "reply_user": "Manchi Venise",
                    "reply_content": "Nguyễn Ly cả tháng r e có rep đâu mà vẫn nhắn"
                },
                {
                    "reply_user": "Thu Thuỷ",
                    "reply_content": "  thì kệ n,b k yêu thì bận tâm lm j,vài thằng trc theo đuổi mịnd cũng thế,có thằng cả hơn năm,nhưng ck mình bảo bn rảnh nên cứ nhắn thế thôi,có khi nhắn vài e liền e nào đc thì đc"
                },
                {
                    "reply_user": "Manchi Venise",
                    "reply_content": "Nguyễn Ly dạ vâng ah"
                }
            ]
        },
        {
            "parent_comment": {
                "parent_user": "Minh Tú",
                "parent_content": "Nếu e cảm thấy nó yêu e thật lòng thi cứ thử đi.nhưng giử tc ấy cho riêng m bớt.đừng thể hiện nhiều nha e.biết đâu cơ hội tốt cho mình.đừng để mất đi rồi tiếc nuối."
            },
            "replies": [
                {
                    "reply_user": "Manchi Venise",
                    "reply_content": " e chẳng cảm thấy có sự thật lòng c ạ"
                },
                {
                    "reply_user": "Minh Tú",
                    "reply_content": " nếu e thích thi cứ tìm hiểu.đừng ngại gi hết.Đàn ô họ thích n phụ nữ họ có thể che chở đc nên a cứ yên tâm.nếu đê phòng thi cứ giử mình.có những n phụ nử họ y họ tấn công thi sao  ."
                },
                {
                    "reply_user": "Manchi Venise",
                    "reply_content": " hoặc e nghĩ a ấy thấy e đáng thương nên vậy :)) chứ chẳng phải thích e c ạ"
                },
                {
                    "reply_user": "Minh Tú",
                    "reply_content": " a cứ tự tin.chán gi tc như vậy ."
                },
                {
                    "reply_user": "Manchi Venise",
                    "reply_content": " dạ vâng ạ"
                }
            ]
        },
        {
            "parent_comment": {
                "parent_user": "Hoắc Trường Vũ",
                "parent_content": "20 tuổi qua 3..22 tuổi sắp qua 23 0..đời bất công. Hãy có dù chỉ là giả dối đi. "
            },
            "replies": [
                {
                    "reply_user": "Manchi Venise",
                    "reply_content": " là sao ạ"
                }
            ]
        }
    ]
}