{
    "post": "941388702989981",
    "link": "https://facebook.com/groups/tamsuevagroup/permalink/941388702989981",
    "post_comments": [
        {
            "parent_comment": {
                "parent_user": "Út Duyên",
                "parent_content": "Ủa 23t nói sắp k còn trẻ trung gì nữaỦa rồi ăn gì tao cúng Lằng nhằng đọc mệt vl"
            },
            "replies": [
                {
                    "reply_user": "DinhQuoc Ecpro",
                    "reply_content": " đọc được cmt này mình mới quay lại đọc bài hài vãi ra, 23t đợi a bđ sợ già nên đi lấy a khác"
                },
                {
                    "reply_user": "Út Duyên",
                    "reply_content": "  nói k cũng nghe thúi rồi "
                }
            ]
        },
        {
            "parent_comment": {
                "parent_user": "Ngọc Thắm",
                "parent_content": "Chị 26 tuổi mà tương lai còn mù mịt nè.thấy e 23t vẫn còn trẻ chán"
            },
            "replies": [
                {
                    "reply_user": "Nguyễn Thị Mỹ Nữ",
                    "reply_content": "Thị Nở bằng tuổi nè "
                },
                {
                    "reply_user": "Ngọc Thắm",
                    "reply_content": " vẫn còn yêu đời và chưa muốn lấy ck"
                }
            ]
        },
        {
            "parent_comment": {
                "parent_user": "Nguyễn Thành Trúc",
                "parent_content": "Có lẽ em bị nứng lol sảng rồi. "
            },
            "replies": [
                {
                    "reply_user": "Bồ Ông Anh",
                    "reply_content": " đis thằng 10da"
                }
            ]
        },
        {
            "parent_comment": {
                "parent_user": "Hoa Đào",
                "parent_content": "Mới 23 tuổi. Mà các bạn tin tôi k? Sau khi anh lính kia về thể nào cũng chịch choạc nhau vài phát cho thoả nỗi nhớ mong. Mặc dù đã lấy ông cùng công ty rồi"
            },
            "replies": [
                {
                    "reply_user": "Xe Dịch Vụ",
                    "reply_content": " kg iu đừng cưới sẽ khổ cả đời."
                }
            ]
        },
        {
            "parent_comment": {
                "parent_user": "Nguyễn Lê Thu Giang",
                "parent_content": "23t k còn trẻ trung gì nữa. Omg  vậy 33t như tui lẽ nào đã già chát rồi sao?"
            },
            "replies": [
                {
                    "reply_user": "Thuỷ Nguyễn",
                    "reply_content": " tui đây 33t mà còn bình chân như vại ko ngại ế luôn "
                },
                {
                    "reply_user": "Nguyễn Lê Thu Giang",
                    "reply_content": " hiii mình thì sắp có nhóc thứ 2. Lấy chồng đúng 3 năm lòi ra 2 đứa Nhưng mà lâu lâu vẫn thích độc thân như bạn ấy."
                },
                {
                    "reply_user": "Thuỷ Nguyễn",
                    "reply_content": "  đẻ liên tục chịu cực 5 năm đầu bạn ạ . Rồi khoẻ sau nè ."
                },
                {
                    "reply_user": "Nguyễn Lê Thu Giang",
                    "reply_content": "  cũng mong mau khỏe tút tát lại. Trc lấy chồng nhìn cũng ngon nghẻ lắm giờ chán chẳng muốn nhìn kiếng luôn ấy"
                },
                {
                    "reply_user": "Thuỷ Nguyễn",
                    "reply_content": " e gái mình cũng vậyb. Có đứa con vào là xơ xác haiz . Ráng sinh xong hai đứa là hết nhiệm vụ r á bạn  rồi tút tát một thể ."
                },
                {
                    "reply_user": "Nguyễn Lê Thu Giang",
                    "reply_content": " hihi cám ơn b động viên. Năm mới chúc bạn mọi việc suôn sẽ, cv thuận buồm xuôi gió ha"
                },
                {
                    "reply_user": "Thuỷ Nguyễn",
                    "reply_content": "  vâng cảm ơn bạn , chúc bạn và gd năm mới dồi dào sức khoẻ , bình an , hp và mọi điều thuận lợi nhé ."
                }
            ]
        },
        {
            "parent_comment": {
                "parent_user": "Tiên Bao",
                "parent_content": "Cưới xong lại nên than là em hối hận vì đã lấy ck sớm kaka."
            },
            "replies": [
                {
                    "reply_user": "Jigme Konchok",
                    "reply_content": " lại mơi có bài mới đăng đang muốn bỏ chồng thật rồi"
                },
                {
                    "reply_user": "Tiên Bao",
                    "reply_content": "Xanh Tận Chân Trời thiệt luôn hả .loại này cưới ai cũng chỉ làm người khác khổ thôi.trẻ trâu ,suy nghĩ không chín chắn ,ta đây,"
                }
            ]
        },
        {
            "parent_comment": {
                "parent_user": "Mi Nhon",
                "parent_content": "Chị 25 tuổi n.y đi bộ đội 2 năm, mặc dù cả 2 đang đi làm vp cv ổn định, do anh ấy chót đi khám tuyển rồi nghĩ chạy đc ( mà HN thì thiếu ng đi trầm trọng) 2 đứa khóc hết cả nc mắt. 2 năm ròng cứ 1,2 tuần chị lại lên thăm anh, gia đình ngăn cản và giới thiệu rất nhiều ng # nhưng c k nỡ rời bỏ anh, sợ a nhận tin giữ lúc đang cần m nhất sẽ rất đau lòng. 27 tuổi anh về đợi a ổn định hơn năm giờ chúng mình đã cưới nhau, hiện tại rất hp, bố mẹ ck thì rất thương mình. Tất cả là do mình lựa chọn. Bây h bỏ đám cưới vì t.y vẫn kịp đó e "
            },
            "replies": [
                {
                    "reply_user": "Thùy Thơm",
                    "reply_content": " b nói chuẩn"
                }
            ]
        }
    ]
}