{
    "post": "998304350631749",
    "link": "https://facebook.com/groups/tamsuevagroup/permalink/998304350631749",
    "post_comments": [
        {
            "parent_comment": {
                "parent_user": "Vương Hùng",
                "parent_content": "Thế giới này hết lol rồi à"
            },
            "replies": [
                {
                    "reply_user": "Mắt Một Mí",
                    "reply_content": "Bất Hối "
                },
                {
                    "reply_user": "Vương Hùng",
                    "reply_content": "  phương c   Hó"
                },
                {
                    "reply_user": "Mắt Một Mí",
                    "reply_content": "Bất Hối a lấy vk đi thôi kakaa"
                },
                {
                    "reply_user": "Vương Hùng",
                    "reply_content": "  xem có đứa b nào gt cho a với"
                },
                {
                    "reply_user": "Mắt Một Mí",
                    "reply_content": "Bất Hối a đầy gái lại còn phải gt"
                },
                {
                    "reply_user": "Vương Hùng",
                    "reply_content": "  lấy đâu ra đầy. Đầy đã k bảo e gt"
                }
            ]
        },
        {
            "parent_comment": {
                "parent_user": "Hồng Phượng",
                "parent_content": "1. Sai chính tả.2. Teen code.3. Văn phong quá kém.=> Không muốn đọc."
            },
            "replies": [
                {
                    "reply_user": "Hồng Phượng",
                    "reply_content": "Mỹ Kim haizzz, không biết bao nhiêu tuổi nữa. Thấy mệt thật! "
                }
            ]
        },
        {
            "parent_comment": {
                "parent_user": "Chinh Jos van Pham",
                "parent_content": "Xin lôi đi bạn sai rồi vì bạn yêu mà chẳng chịu chích cô ấy,xin lôi đi, chích hết số luôn, có bao nhiêu tinh trùng cho ra hết cho nhẹ người, rồi đi luôn cho nhẹ người"
            },
            "replies": [
                {
                    "reply_user": "Hoa Sương Rồng",
                    "reply_content": " luc quen nhau cũng có quan hệ bạn à"
                },
                {
                    "reply_user": "Chinh Jos van Pham",
                    "reply_content": " bây giờ thì thoáng rồi yêu nhau là có quan hệ nhưng vì qh sớm nên mất đi cái hay cái đẹp mà chỉ còn sự thỏa mãn nhu cầu bản thân nên cũng khó gọi là tình yêu"
                }
            ]
        },
        {
            "parent_comment": {
                "parent_user": "Đỗ Thanh Huyền",
                "parent_content": "tre chou "
            },
            "replies": [
                {
                    "reply_user": "Hoa Sương Rồng",
                    "reply_content": "Đỗ Thanh Huyền mk vạch tay đúng là trẻ trâu... Nhưng lm v bt mk iu cô đo thế nào.. Và mk bt ng đo có đáng nuẽa k"
                }
            ]
        },
        {
            "parent_comment": {
                "parent_user": "Xuan Le Thi",
                "parent_content": "Quá trẻ trâu.  Gì mà phải rạch tay,  trời.  Thế yêu 10 đứa rạch 10 lần à.  Máu thịt là bố mẹ ban cho.  Nên trân trọng cơ thể mình 1 chút."
            },
            "replies": [
                {
                    "reply_user": "Hoa Sương Rồng",
                    "reply_content": "Xuan Le Thi luc bùn bực cô don tuyet vọng... Nhĩ đúng tre trâu.. Nhung mk va cô gái đó... Đã ra mắt gđ hết r.. Theo b có bùn k"
                },
                {
                    "reply_user": "Xuan Le Thi",
                    "reply_content": "  ko sao hết.  Ko hợp thì chia tay,  đã cưới đâu mà lo chứ"
                },
                {
                    "reply_user": "Hoa Sương Rồng",
                    "reply_content": " một ng từng tất cả... H bổng chóc ng dưng.. Khi đó ba me ac 2 bên đêu bt"
                },
                {
                    "reply_user": "Xuan Le Thi",
                    "reply_content": "  bạn nên nghĩ thoáng 1 chút.  Khi hết yêu rồi níu kéo người khổ là mình thôi. Bạn có xảy ra chuyện gì người đau là người thân của bạn,  những người yêu và thương bạn chứ ko phải người đã bỏ bạn"
                },
                {
                    "reply_user": "Hoa Sương Rồng",
                    "reply_content": "Xuan Le Thi nhưng mk tin ng đó vẫn còn iu mk... Vây theo bạn nghĩ.. Ct r liệu còn cơ hội k"
                },
                {
                    "reply_user": "Xuan Le Thi",
                    "reply_content": ".  Hiện tại bạn còn yêu họ ko.       1. Người đó đã ngủ với người # trong khi đang yêu bạn.Nếu là quá khứ thì ko nên nhắc lại nhưng hiện tại thì #. Đây gọi là cắm sừng. Ai cũng có lúc sai lầm nên lần 1 nhắc nhở,  lần 2 cảnh cáo,  lần 3 b… See More"
                },
                {
                    "reply_user": "Hoa Sương Rồng",
                    "reply_content": " ơn bạn"
                },
                {
                    "reply_user": "Xuan Le Thi",
                    "reply_content": "  cố lên.  Chúc bạn hp. Đời còn dài.  Còn rất rất nhiều người quan tâm đến bạn.  Ko đến đc với nhau thì thôi,  sẽ có người thương yêu mình thật lòng"
                },
                {
                    "reply_user": "Hoa Sương Rồng",
                    "reply_content": "Cảm ơn chị"
                }
            ]
        },
        {
            "parent_comment": {
                "parent_user": "Phương Liên",
                "parent_content": "chúc Hoa Sương Rồng buổi chiều vui vẻ"
            },
            "replies": [
                {
                    "reply_user": "Hoa Sương Rồng",
                    "reply_content": "Phương Liên vui k nổi chị oi"
                }
            ]
        },
        {
            "parent_comment": {
                "parent_user": "Hằng Nguyễn",
                "parent_content": "Haz tình yêu rảnh hom???? "
            },
            "replies": [
                {
                    "reply_user": "Hoa Sương Rồng",
                    "reply_content": " mất niêm tin vao con gái r"
                }
            ]
        },
        {
            "parent_comment": {
                "parent_user": "Candy Tuyền",
                "parent_content": "Bệnh hoạn vcl . Yêu mà cứ rạch tay rồi tự tử . Trẩu"
            },
            "replies": [
                {
                    "reply_user": "Hoa Sương Rồng",
                    "reply_content": " mk k tử tử.. Chỉ vach tên cô ấy... Khi vs mk cô ây nhubg tất cả... Đúng la nghĩ lại trẻ trâu thật"
                }
            ]
        },
        {
            "parent_comment": {
                "parent_user": "Minh Nguyet",
                "parent_content": "Buổi tối vui vẻ nhé Hoa Sương Rồng"
            },
            "replies": [
                {
                    "reply_user": "Hoa Sương Rồng",
                    "reply_content": " buồn lm chị oi"
                }
            ]
        },
        {
            "parent_comment": {
                "parent_user": "Khải Lưu",
                "parent_content": "Sao k nói. Tin tưởng M để M cắm sừng lên đầu bố m à "
            },
            "replies": [
                {
                    "reply_user": "Hoa Sương Rồng",
                    "reply_content": "Khải Lưu còn thương sao đay b"
                },
                {
                    "reply_user": "Khải Lưu",
                    "reply_content": ". nó qay lưng với mình mình sẵn sàng quay mông vào mặt nó ngay. học cách xa thải những thứ k cần thiết đi bạn"
                }
            ]
        },
        {
            "parent_comment": {
                "parent_user": "Thiên Hy",
                "parent_content": "Hải, quay xe.Túm lại là k có gì sai hết, ng đó k có tc với bạn nhiều, với đừng có điên mà rạch tay kiểu đấy, dù bạn có chết ngta cũng chẳng thương tiếc bạn đâu. Nên là phải sống thật tốt vào, làm kiếm nhiều tiền vào để mạnh mẽ với đời. "
            },
            "replies": [
                {
                    "reply_user": "Hoa Sương Rồng",
                    "reply_content": " cảm ơn b rất nhiều"
                }
            ]
        }
    ]
}