{
    "post": "804668686661984",
    "link": "https://facebook.com/groups/tamsuevagroup/permalink/804668686661984",
    "post_comments": [
        {
            "parent_comment": {
                "parent_user": "Ngọc Hà",
                "parent_content": "E đừng nói e nói với ng yêu e để ng y e góp ý với bà ý mà ng e cũng nên nói cho bà ý biết là con bà bị con kia cắm sừng ( bà này vô duyên quá )"
            },
            "replies": [
                {
                    "reply_user": "Ly Hoang",
                    "reply_content": " đàn ông ít ng lại đi kể lể chn xấu hổ như thế với mẹ mìh lắm b ơi, nên là tức thì mìh tự nói cho nhanh  ko thì ấm ức mà chết trc khi bị ngta nghĩ m này nọ nhỉ kkk"
                }
            ]
        },
        {
            "parent_comment": {
                "parent_user": "Thanh Đỗ",
                "parent_content": "Sẽ kể là “ vậy hả bác, chắc do anh chị hết duyên nhau nên chia tay. Chứ có lần con thấy a .... kể bắt được 3 lần chị ... đi nhà nghỉ với ng khác. A ... bắt tận tay. K kể những lần chị yêu người khác sau lưng anh....  Chắc a ... đau lắm, buồn lắm nên hai ng chia tay. Chứ k thì chắc anh chị cũng cưới nhau rồi ấy bác nhỉ? “"
            },
            "replies": [
                {
                    "reply_user": "Tố Tố",
                    "reply_content": "Thảo Đỗ  bạn thâm thuý quá"
                }
            ]
        },
        {
            "parent_comment": {
                "parent_user": "Cherry Nguyễn",
                "parent_content": "Rảnh quá cơ ahihi.....Phải c ơn cô nyc đó bỏ a ấy để b có cơ hội lm vk tlai ấy chứ. Sao lại ns ra lm gì. Vs lại mỗi lần mẹ any có nhắc thì bơ hoặc ns là cái j củ r thì chỉ bỏ sọt rác thôi bác "
            },
            "replies": [
                {
                    "reply_user": "Cherry Nguyễn",
                    "reply_content": "Vũ Ngọc Linh   b k hỉu ý tui. Mời bạn đi ra chỗ"
                }
            ]
        },
        {
            "parent_comment": {
                "parent_user": "Đào Thu Hằng",
                "parent_content": "180k 10c"
            },
            "replies": [
                {
                    "reply_user": "Thông Hoàng Tấn",
                    "reply_content": " quần nam đâu?"
                },
                {
                    "reply_user": "Đào Thu Hằng",
                    "reply_content": " check ib nha b"
                }
            ]
        },
        {
            "parent_comment": {
                "parent_user": "Xuân Xuân",
                "parent_content": "Mẹ ck chị lúc nào cũng ns. Ngày xưa ck c có con này con kia theo....có con này xinh lam con kia đẹp lắm....nghe riết quen.quan trọng là h ông là ck mình kkk"
            },
            "replies": [
                {
                    "reply_user": "Trần Minh",
                    "reply_content": "Mảnh GhépGhép đúng. Qtrong là đứa cuối cùng là mình ms là đứa thắng "
                }
            ]
        },
        {
            "parent_comment": {
                "parent_user": "Thúy Hằng",
                "parent_content": "Kể luôn ngại j vết bẩn."
            },
            "replies": [
                {
                    "reply_user": "Thảo Hoàng",
                    "reply_content": "   mỗi lần bác khen thì kể cho bác nghe"
                },
                {
                    "reply_user": "Thúy Hằng",
                    "reply_content": " thảo đã gặp phải trường hợp thế chưa nhỷ "
                }
            ]
        },
        {
            "parent_comment": {
                "parent_user": "Nguyễn Hạ",
                "parent_content": "mk ns thật bạn nha.mk ko thjk kiểu ngy của bn vì không còn yêu nữa thì thui mắc gì phải đi kể xấu ngy cũ cơ chứ"
            },
            "replies": [
                {
                    "reply_user": "Phương Nhi",
                    "reply_content": "Thì nói sự thật thôi chứ kể xấu gì. Đâu phải dựng chuyện mà nói đâu. Giống ck mình thôi . trước khi quen mình có hỏi lí do sao chia tay nyc thì ck mình cũng bảo do nyc bắt cá 2 tay, quen thêm 1 người khác. Ck mình bắt gặp đi với thằng khác ôm ấp đi trên đường. Vậy nói thế là kể xấu ạ?"
                },
                {
                    "reply_user": "Nguyễn Hạ",
                    "reply_content": " tùy người thui bạn chỉ nghe chứ bạn có thấy đâu.nếu đã yêu thì tốt nhất đừng hỏi về quá khứ làm gì vì có khi quá khứ đó sẽ làm tổn thương bạn"
                },
                {
                    "reply_user": "Phương Nhi",
                    "reply_content": " đôi khi nên biết 1 chút ít bạn à. Yêu là yêu luôn cả quá khứ, hiện tại và tương lai. Giấu đi quá khứ thì giống như không tin tưởng nhau, không chia sẻ cho nhau cái tổn thương đó v đấy."
                },
                {
                    "reply_user": "Nguyễn Hạ",
                    "reply_content": "nhưng qk 2 ng bjk mot ng ns thì mk sẽ nghe chứ không tin."
                }
            ]
        },
        {
            "parent_comment": {
                "parent_user": "Lê Lan",
                "parent_content": "Bạn lên nói chuyện với ng yêu bạn, nói mỗi lần về nhà là mẹ a cứ nhắc đến nyc của a, e ko thích điều đó, vậy thôi."
            },
            "replies": [
                {
                    "reply_user": "Dung Ktt",
                    "reply_content": "chuẩn, nên nói vs ny trước. Nếu mọi chuyện ko thay đổi thì họ ko tôn trọng bạn chút nào. Lúc ấy muốn đốp chát hay j cug đc hết, hihi"
                },
                {
                    "reply_user": "Lê Lan",
                    "reply_content": "  quá chuẩn."
                }
            ]
        },
        {
            "parent_comment": {
                "parent_user": "Mai Kim Ngân",
                "parent_content": "Giống mik thế.nhưng mik  đã nch vs ny.lần sau mik về thì k nghe nhắc nữa vs lại bác ấy có xl vì k để ý đến suy nghĩ của mik.Bởi ta nói k làm cho mẹ ck thương thì phải lm cho mẹ ck sợ."
            },
            "replies": [
                {
                    "reply_user": "Thúy Vinh",
                    "reply_content": " cái này cần học hỏi"
                },
                {
                    "reply_user": "Mai Kim Ngân",
                    "reply_content": " hihi 1 phần cũng nhờ  ny chị ạ."
                }
            ]
        },
        {
            "parent_comment": {
                "parent_user": "Na Na",
                "parent_content": "Kể chớ, rõ ràng cố ý nhắc tên nyc mà. Phải kể, mà kể rất tự nhiên kiểu vô tình nhắc tới, vd như \"à , chị A B C á hả bác, trời, nghe con trai bác nói bắt đc chị đó đi ks vs trai nên mới ct đó...\""
            },
            "replies": [
                {
                    "reply_user": "Tuệ Anh Nguyentran",
                    "reply_content": "  kieu mượn gió bẻ măng đó.mình cũng nghĩ nên kể. Chứ bà nói nt chứng tỏ ý bà là còn có ng tốt nv mà thằng con bà còn bỏ ý. Kể nt cho bà biết là trc đây con bà yêu 1 ng ko ra j."
                }
            ]
        },
        {
            "parent_comment": {
                "parent_user": "Trần Lê Hải",
                "parent_content": "Ko nên nhé, việc của bạn lúc này là hãy cố thể hiện bạn là người xứng đáng. Sau này khi bạn là con dâu nhà người ta rồi thì muốn kể cũng được"
            },
            "replies": [
                {
                    "reply_user": "Bùi Thị Phương Loan",
                    "reply_content": "Nhan Ma chuẩn quá b ơi"
                }
            ]
        },
        {
            "parent_comment": {
                "parent_user": "Nguyễn Đoàn Thanh",
                "parent_content": "Nghi chồng đi gái muốn check zalo của ck ib em chỉ nhé "
            },
            "replies": [
                {
                    "reply_user": "Hải YẾn",
                    "reply_content": " chung sđt chứ c"
                }
            ]
        }
    ]
}