{
    "post": "1047609432367907",
    "link": "https://facebook.com/groups/tamsuevagroup/permalink/1047609432367907",
    "post_comments": [
        {
            "parent_comment": {
                "parent_user": "Bé Pự",
                "parent_content": "Bây giờ e nghĩ ba mẹ cấm đoán. Nhưng sau này mới là thấy nhưng điều ba mẹ làm đều muốn tốt cho e"
            },
            "replies": [
                {
                    "reply_user": "Nhã Ái",
                    "reply_content": "Nhưng 19 tuổi rồi e vẫn chưa được đi đâu... Nhiều khi bạn rủ cf mà không được luôn... E thấy mình thật mệt mỏi "
                },
                {
                    "reply_user": "Bé Pự",
                    "reply_content": " kể cũng buồn e à. Nhưng e rủ bạn gái đi cho bố mẹ yên tâm"
                },
                {
                    "reply_user": "Nhã Ái",
                    "reply_content": "Vẫn không cho  tủi thân bật khóc c ạ "
                }
            ]
        },
        {
            "parent_comment": {
                "parent_user": "Phạm Quỳnh Như",
                "parent_content": "Bme lo cho bạn thôi, vì xh bgio nhiều thứ phức tạp. Nhưng dù sao cũng k nên cấm đoán giao lưu với bạn bè . Bỏ ra ngoài sống không phải ai cũng dễ dàng thành công đâu bạn. Tất cả mọi thứ phải tự lo. Nếu đủ bản lĩnh thì bạn nên ra ngoài học hỏi, nếu k thì hãy ở nhà k lại khổ bme"
            },
            "replies": [
                {
                    "reply_user": "Nhã Ái",
                    "reply_content": "Dạ "
                }
            ]
        },
        {
            "parent_comment": {
                "parent_user": "Bảo Tuệ",
                "parent_content": "Chị hiểu cảm giác đó. Thực sự k thoải mái chút nào trước đây c cũng vậy. Em nên nói rõ trình bày mong muốn của mìh với cha mẹ , rồi tâm sự thủ thỉ với mẹ nhiều vào . R khác họ sẽ hiểu thôi"
            },
            "replies": [
                {
                    "reply_user": "Nhã Ái",
                    "reply_content": "Em sẽ cố gắng chị ạ "
                }
            ]
        },
        {
            "parent_comment": {
                "parent_user": "Nguyễn Tâm An",
                "parent_content": "Bố mẹ lo cho bạn thôi , 19 - 20 tuổi đầu ngoài kia bao nhiêu cạm bẫy , ra đời giờ có đơn giản đâu bạn Sau này nghĩ lại sẽ có lúc bạn thấy biết ơn những trận đòn quắn đít , thấy nhớ những lời mắng chửi của bố mẹ đấy"
            },
            "replies": [
                {
                    "reply_user": "Nhã Ái",
                    "reply_content": "Dạ  nhưng ai cũng có ước mơ hoài bão cả... 19 tuổi cứ mỗi sáng phát 15k ăn sáng rồi phải làm và ở nhà... Tối nào cũng f nhìn 4 bức tường chẳng biết ngoài kia đang vui hay có gì mới mẻ ko"
                },
                {
                    "reply_user": "Nguyễn Tâm An",
                    "reply_content": "  Mình ngày xưa mẹ giữ ở nhà thì chẳng phải lấy chồng sớm rồi bươn trải , bây giờ lại về với mẹ đây bạn ạ , giờ mình nghĩ lại những hôm đi chơi tối về muộn để cả nhà lo làm mình thấy ân hận lắm , giờ thì hiểu ra được rồi nhưng có những thứ tồn tại được mãi đâu bạn , nhà mình giờ chẳng còn đủ mọi ng như xưa nữa"
                }
            ]
        },
        {
            "parent_comment": {
                "parent_user": "Phan Huỳnh Diệu",
                "parent_content": " 19 tuổi cái tuổi ăn chưa no- lo chưa kỹ . nhậy cảm và mỏng manh. có thể ở với bm bg bạn thấy tù túng nhưng ngoài kia lắm cạm bẫy và chông gai  . ko ai muốn đẩy con mình vào hang hùm miệng sói đâu e, ở nhà với bm nhưng nói nên y kiến của mình để bm hiểu mình hơn và tôn trọng e hơn. sau này e trưởng thành e sẽ thấy những năm tháng ấy thạt đáng giá e ạ"
            },
            "replies": [
                {
                    "reply_user": "Kenny ViệT",
                    "reply_content": " chuẩn "
                }
            ]
        },
        {
            "parent_comment": {
                "parent_user": "Thảo Nguyễn",
                "parent_content": "hãy tâm sự với bố mẹ em những suy nghĩ trong lòng mình. Bố mẹ nào sinh và nuôi con cũng đều lo cho con hết. Có thể bây giờ em thấy bố mẹ kìm hãm em trong căn nhà đó, nhưng sau này khi đủ trưởng thành ngồi ngẫm lại e sẽ thấy những điều bố mẹ làm cho em đều là muốn tốt cho em.  Có thể cách quan tâm của bố mẹ em hơi cổ hủ và lạc hậu 1 chút, vậy em hãy dành thời gian tâm sự với bố mẹ. vì em tuổi còn trẻ cũng nên đc khám phá. Em hãy tạo được lòng tin với bố mẹ thì chị nghĩ bố mẹ em dần dần cũng hiểu cho em"
            },
            "replies": [
                {
                    "reply_user": "Nhã Ái",
                    "reply_content": "Dạ  e cảm ơn ạEm sẽ cố gắng ạ "
                }
            ]
        },
        {
            "parent_comment": {
                "parent_user": "Phượng Toán",
                "parent_content": "Em ơi, em đuổc như thế là hp ruồi đó , hãy tin tưởng bm và trân trọng những gì mình đang có"
            },
            "replies": [
                {
                    "reply_user": "Nhã Ái",
                    "reply_content": "Dạ "
                }
            ]
        },
        {
            "parent_comment": {
                "parent_user": "Bao Anh Bui",
                "parent_content": "Nhiều bố mẹ ích kỷ, độc tài và áp đặt vậy đấy. Không cho con tự sống và tự trải nghiệm, nên con lớn rồi mà thiếu vốn sống, đi ra ngoài càng dễ vấp ngã và sa ngã. Chủ top nếu kiếm được việc ở xa thì nên đi ra ngoài."
            },
            "replies": [
                {
                    "reply_user": "Bảo Tuệ",
                    "reply_content": "Mình cũng suy nghĩ vậy. Biết là yêu thương lo lắng, nhưng như vậy khiến con cái k đc ra ngoài k hiểu biết xh, k vấp ngã thì sao có thể trưởng thành lên đc. Hay cha mẹ chỉ muốn mình mãi là cô gái bé bỏng cần đc cha mẹ bảo vệ"
                },
                {
                    "reply_user": "Bao Anh Bui",
                    "reply_content": "Nhã Ái  khổ thân em gái. Nếu cứ sống thế này chắc em khổ cả đời. Số phận mình nằm trong lòng bàn tay mình em à, cố lên em nhé. "
                }
            ]
        },
        {
            "parent_comment": {
                "parent_user": "Nhã Ái",
                "parent_content": "19 tuổi rồi nhiều khi gặp đám đông em sợ lắm... E cứ nhìn xuống đất... E cứ thấy mọi thứ nó lạ lẫm lắm... E chỉ muốn được tiếp xúc xh nhiều hơn e ko thể suốt ngày là một kẻ cứ đeo bám gd được... Bame không theo mình mãi được... Ai cũng muốn được bame yêu thương rồi cho tiền nhưng em thì không muốn e đã hg học cao rồi nên sự cố gắng em phải hơn rất nhiều lần em muốn em là đứa phải tự đi làm lo cho bame chứ không để bame lo mình suốt được "
            },
            "replies": [
                {
                    "reply_user": "Collagen Cos Metic",
                    "reply_content": " Cuộc đời bên ngoài đầy cám dỗ, xấu tốt lẫn lộn. Vì em là thân gái nên ba mẹ lo lắng cho em, đó là điều tốt. Sau này khi có con em sẽ hiểu. Tuy nhiên do ba mẹ em còn cổ hủ hoặc quá bận rộn không có thời gian quan tâm đến các mối quan hệ của em nên không dám cho em giao du với bên ngoài. Với lại em cũng mới 19t thì còn quá trẻ, tuổi này nếu không còn học thì rất dễ sa ngã, hành động bộc trực nên ba mẹ lo lắng là điều bình thường. Chị nghĩ em nên kết bạn với 1 số bạn nữ gần đó, nếu bạn nào hợp thì em chơi thân với họ, rủ họ về nhà chơi nhiều lần cho cha mẹ biết mặt, rồi sau này mình có xin đi chơi bên ngoài với nhóm bạn nữ cha mẹ sẽ yên tâm, từ nhóm bạn nữ đi chơi bên ngoài sẽ có các bạn nam đi cùng. Người lớn nhìn người thường chuẩn hơn, nên những ai cha mẹ đánh giá xấu thì em phải tìm hiểu thêm người đó thật nhiều. Nhà chị cũng có 2 công chúa, sau này chị sẽ dạy con những kỹ năng để phòng tránh chứ không cấm đoán như vậy nè."
                },
                {
                    "reply_user": "Nhã Ái",
                    "reply_content": "Nhiều bạn em lại bame cứ bảo là xấu... Hg bằng cách này cũng bằng cách khác mẹ hg cho e chơi với người ta... Em xin đi học nghề đi làm lại không cho... E ở nhà e cũng phải làm việc có tg e đi dọn dẹp nhà cho ngta cực khổ em chịu được... E ko bao giờ than thở mình f vất vả như nào chỉ mong gd hiểu và cho e chút thoải mái "
                }
            ]
        },
        {
            "parent_comment": {
                "parent_user": "Nhã Ái",
                "parent_content": "Có lần em quen người yêu nhưng gia đình em như vậy nên e đâu đi chơi được... Bame biết bắt e đi khám () nói tao mà biết mày mất thì không xong với tao... "
            },
            "replies": [
                {
                    "reply_user": "Ngọc Ánh",
                    "reply_content": " haiz, hơi khắt khe nhưng tốt e ạ, các bạn nữ ngày nay thoáng trong chuyện đó sau này tính nết + mọi thứ thay đổi hết cả. Tuy nhiên như bme e thì cũng ko nên, làm cho e nhút nhát và chạm lớn."
                },
                {
                    "reply_user": "Nhã Ái",
                    "reply_content": "BS cứ bảo... Con cái mình mà mình không tin tưởng... "
                }
            ]
        },
        {
            "parent_comment": {
                "parent_user": "Pc Phạm",
                "parent_content": "Ba mẹ lo cho bạn thôi bạn ơi . Ba mẹ thừa biết bây h bạn bước chân ra đường , dân lừa đào sẽ dùng thủ đoạn gì để lừa bạn . Nhẹ thì ngậm bùa ngải trong miệng lừa hết tiền bạn . Nặng thì giới thiệu việc làm cho bạn r đẩy bạn vào cf ôm , động mại dâm trá … See More"
            },
            "replies": [
                {
                    "reply_user": "Lê Trung Hiếu",
                    "reply_content": "Phương Trâm chuẩn c ơi. Vẫn câu nói đó chưa làm bome thì chưa hiểu lòng cha mẹ như nào đâu. Tuổi trẻ chưa trải sự đời nên ham hố thôi. Vài năm nữa mới thấy cách suy nghĩ ngày ấy non nớt như tnao"
                }
            ]
        },
        {
            "parent_comment": {
                "parent_user": "Thu Thủy",
                "parent_content": "Sau này e sẽ hiểu ba mẹ lo cho e mới như vậy. Ra ngoài xã hội nhiều cái phức tạp lắm. C đây cũng không được đi chơi với bạn bè chỉ ăn với học không cho đi đâu. Sau này đi học xa nhà mới biết nhiều vấn đề lắm"
            },
            "replies": [
                {
                    "reply_user": "Thảo Hoàn",
                    "reply_content": " b nói chuẩn. Mình cũng vậy, đi học chuyên nghiệp rồi mới thấy xã hội đág sợ, bm sợ con đi sai đường nên mới vậy. 23 tuổi mới học xong ra nghề, đi làm, yêu đương bm k cấm nữa nhưng ai bm k ưng bm cũng nhắc nhở, k đi chơi bên ngoài cùng luôn gặ… See More"
                }
            ]
        },
        {
            "parent_comment": {
                "parent_user": "Dung Hỷ",
                "parent_content": "Có sinh con mới hiểu lòng cha mẹ,  thời giờ giới tre sống thoáng quá, yêu bữa trước đã đòi qh bữa sau. Bố mẹ quan tâm cháu nên mới thế, tuy nhiên hơi quá mà kg nghĩ rằng con mình cần ra ngoài đời để va chạm cuộc sống, đúc rút kinh nghiệm , để bước vào … See More"
            },
            "replies": [
                {
                    "reply_user": "Nhã Ái",
                    "reply_content": "Dạ con cám ơn cô "
                }
            ]
        },
        {
            "parent_comment": {
                "parent_user": "Đặng Thị Tuyết Vân",
                "parent_content": "Năm 19t mình cũng co suy nghĩ giống ban vay. Minh cũng gây gổ lam đủ moi cách chống doi gia đinh để đc ra xã hội , để truong thành ... bây giờ 29t nhìn lai thi lai chỉ muốn lúc đó nghe lời gia đình thi có lẽ cung không khổ nhu bây giờ  "
            },
            "replies": [
                {
                    "reply_user": "Nhã Ái",
                    "reply_content": "E chỉ muốn là thoải mái hơn chút xíu thôi ạ... E đi lm rồi về... Ăn cơm gia đình... Vẫn là đứa con ngoan... Thỉnh thoảng hãy cho e đi chơi một lát là e vui rồi... Khi e cứ bị ở nhà chẳng bao giờ được đi đâu cả... Cũng không làm ra được tiền... Nhiều lú… See More"
                },
                {
                    "reply_user": "Đặng Thị Tuyết Vân",
                    "reply_content": "  từng cai quyet đinh của minh bây giờ sẽ la tiền đề cái kết quả của đời minh sau này. 19t hầu như ai cung co suy nghi giống e ak. Chắc la e chưa tạo đủ niềm tin cho ba me e bik là e tự quyet đinh đc chuyen của e, 19t đầy vấp ngã mà e  e cứ lựa … See More"
                }
            ]
        },
        {
            "parent_comment": {
                "parent_user": "Hoàng Hòang",
                "parent_content": "Cũng là bme lo con gái xa bme k ai bảo vệ bi ngta lừa gạt bắt nạt ... cũng là qt e  muốn tốt cho e thôi suy nghĩ tích cực chút noi chuyện với bme"
            },
            "replies": [
                {
                    "reply_user": "Nhã Ái",
                    "reply_content": "Em không phải là bắt bố mẹ cho đi làm xa... E chỉ muốn đi làm phụ giúp phần nào thôi e vẫn ở nhà mà... Nhưng chẳng bao giờ cho cả... "
                }
            ]
        },
        {
            "parent_comment": {
                "parent_user": "Dang Huong",
                "parent_content": "Ba mẹ cứ quan tâm thái quá cứ bảo sao con cai ko lam được gi ko tự tin khi ra xh ,ba mẹ lạc hậu người khổ nhất vẫn la con cái nên bạn phải có chứng kiến lập trường ,phải nói với ba mẹ la con lớn rồi để con ra xh lam những gi con muốn chứ bo me đừng co… See More"
            },
            "replies": [
                {
                    "reply_user": "Nhã Ái",
                    "reply_content": "Dạ cảm ơn ạ "
                }
            ]
        }
    ]
}